	index	compartment	charge	id	formula	name
1	765	c	+0	C_charge_balance	X	charge balance
2	766	c	+0	C_cytosol_crowding	X	cytosol molecular crowding
3	767	c	+0	C_membrane_crowding	X	membrane molecular crowding
4	0	c	-6	M_10fthf5glu__91__c__93__	C40H45N11O19	10-formyltetrahydrofolate-[Glu](5)
5	1	c	-2	M_10fthf__91__c__93__	C20H21N7O7	10-Formyltetrahydrofolate
6	2	c	-1	M_10m3hddcaACP__91__c__93__	C24H45N2O9PRS	10-methyl-3-hydroxy-dodecanoyl-ACP
7	3	c	-1	M_10m3hundecACP__91__c__93__	C23H43N2O9PRS	10-methyl-3-hydroxy-undecanoyl-ACP
8	4	c	-1	M_10m3oddcaACP__91__c__93__	C24H43N2O9PRS	10-methyl-3-oxo-dodecanoyl-ACP
9	5	c	-1	M_10m3oundecACP__91__c__93__	C23H41N2O9PRS	10-methyl-3-oxo-undecanoyl-ACP
10	6	c	-1	M_10mddcaACP__91__c__93__	C24H45N2O8PRS	10-methyl-dodecanoyl-ACP
11	7	c	-1	M_10mtddec2eACP__91__c__93__	C24H43N2O8PRS	10-methyl-trans-dodec-2-enoyl-ACP
12	8	c	-1	M_10mtundec2eACP__91__c__93__	C23H41N2O8PRS	10-methyl-trans-undec-2-enoyl-ACP
13	9	c	-1	M_10mundecACP__91__c__93__	C23H43N2O8PRS	10-methyl-undecanoyl-ACP
14	10	c	-1	M_11m3hddcaACP__91__c__93__	C24H45N2O9PRS	11-methyl-3-hydroxy-dodecanoyl-ACP
15	11	c	-1	M_11m3oddcaACP__91__c__93__	C24H43N2O9PRS	11-methyl-3-oxo-dodecanoyl-ACP
16	12	c	-1	M_11mddcaACP__91__c__93__	C24H45N2O8PRS	11-methyl-dodecanoyl-ACP
17	13	c	-1	M_11mtddec2eACP__91__c__93__	C24H43N2O8PRS	11-methyl-trans-dodec-2-enoyl-ACP
18	14	c	-1	M_12m3hmyrsACP__91__c__93__	C26H49N2O9PRS	12-methyl-3-hydroxy-tetra-decanoyl-ACP
19	15	c	-1	M_12m3htridecACP__91__c__93__	C25H47N2O9PRS	12-methyl-3-hydroxy-tridecanoyl-ACP
20	16	c	-1	M_12m3omyrsACP__91__c__93__	C26H47N2O9PRS	12-methyl-3-oxo-tetra-decanoyl-ACP
21	17	c	-1	M_12m3otridecACP__91__c__93__	C25H45N2O9PRS	12-methyl-3-oxo-tridecanoyl-ACP
22	18	c	-1	M_12mmyrsACP__91__c__93__	C26H49N2O8PRS	12-methyl-tetra-decanoyl-ACP
23	19	c	-1	M_12mtmrs2eACP__91__c__93__	C26H47N2O8PRS	12-methyl-trans-tetra-dec-2-enoyl-ACP
24	20	c	-1	M_12mtridecACP__91__c__93__	C25H47N2O8PRS	12-methyl-tridecanoyl-ACP
25	21	c	-1	M_12mttritec2eACP__91__c__93__	C25H45N2O8PRS	12-methyl-trans-tridec-2-enoyl-ACP
26	22	c	-4	M_13dpg__91__c__93__	C3H4O10P2	3-Phospho-D-glyceroyl phosphate
27	23	c	-1	M_13m3hmyrsACP__91__c__93__	C26H49N2O9PRS	13-methyl-3-hydroxy-tetra-decanoyl-ACP
28	24	c	-1	M_13m3omyrsACP__91__c__93__	C26H47N2O9PRS	13-methyl-3-oxo-tetra-decanoyl-ACP
29	25	c	-1	M_13mmyrsACP__91__c__93__	C26H49N2O8PRS	13-methyl-tetra-decanoyl-ACP
30	26	c	-1	M_13mtmrs2eACP__91__c__93__	C26H47N2O8PRS	13-methyl-trans-tetra-dec-2-enoyl-ACP
31	27	c	-1	M_14m3hpalmACP__91__c__93__	C28H53N2O9PRS	14-methyl-3-hydroxy-hexa-decanoyl-ACP
32	28	c	-1	M_14m3hpentdecACP__91__c__93__	C27H51N2O9PRS	14-methyl-3-hydroxy-pentadecanoyl-ACP
33	29	c	-1	M_14m3opalmACP__91__c__93__	C28H51N2O9PRS	14-methyl-3-oxo-hexa-decanoyl-ACP
34	30	c	-1	M_14m3opentdecACP__91__c__93__	C27H49N2O9PRS	14-methyl-3-oxo-pentadecanoyl-ACP
35	31	c	-1	M_14mpalmACP__91__c__93__	C28H53N2O8PRS	14-methyl-hexa-decanoyl-ACP
36	32	c	-1	M_14mpentdecACP__91__c__93__	C27H51N2O8PRS	14-methyl-pentadecanoyl-ACP
37	33	c	-1	M_14mtpalm2eACP__91__c__93__	C28H51N2O8PRS	14-methyl-trans-hexa-dec-2-enoyl-ACP
38	34	c	-1	M_14mtpentdec2eACP__91__c__93__	C27H49N2O8PRS	14-methyl-trans-pentadec-2-enoyl-ACP
39	35	c	+2	M_15dap__91__c__93__	C5H16N2	1,5-Diaminopentane
40	36	c	-1	M_15m3hpalmACP__91__c__93__	C28H53N2O9PRS	15-methyl-3-hydroxy-hexa-decanoyl-ACP
41	37	c	-1	M_15m3opalmACP__91__c__93__	C28H51N2O9PRS	15-methyl-3-oxo-hexa-decanoyl-ACP
42	38	c	-1	M_15mpalmACP__91__c__93__	C28H53N2O8PRS	15-methyl-hexa-decanoyl-ACP
43	39	c	-1	M_15mtpalm2eACP__91__c__93__	C28H51N2O8PRS	15-methyl-trans-hexa-dec-2-enoyl-ACP
44	40	c	-2	M_1aihpdecg3p__91__c__93__	C20H39O7P	1-anteisoheptadecanoyl-sn-glycerol 3-phosphate (14-methyl-hexadecanoyl, anteiso-C17)
45	41	c	-1	M_1aipdecg3p__91__c__93__	C18H36O7P	1-anteisopentadecanoyl-sn-glycerol 3-phosphate (12-methyl-tetradecanoyl, anteiso-C15)
46	42	c	-2	M_1ddecg3p__91__c__93__	C15H29O7P1	1-acyl-sn-glycerol 3-phosphate(2-)
47	43	c	-2	M_1hdec9eg3p__91__c__93__	C19H35O7P1	1-hexadec-9-enoyl-sn-glycerol 3-phosphate
48	44	c	-2	M_1hdecg3p__91__c__93__	C19H37O7P1	1-hexadecanoyl-sn-glycerol 3-phosphate
49	45	c	-1	M_1ihdecg3p__91__c__93__	C19H38O7P	1-isohexadecanoyl-sn-glycerol 3-phosphate (14-methyl-pentadecanoyl, iso-C16)
50	46	c	-2	M_1ihpdecg3p__91__c__93__	C20H39O7P	1-isoheptadecanoyl-sn-glycerol 3-phosphate (15-methyl-hexadecanoyl, iso-C17)
51	47	c	-1	M_1ipdecg3p__91__c__93__	C18H36O7P	1-isopentadecanoyl-sn-glycerol 3-phosphate (13-methyl-tetradecanoyl, iso-C15)
52	48	c	-1	M_1itdecg3p__91__c__93__	C17H34O7P	1-isotetradecanoyl-sn-glycerol 3-phosphate (12-methyl-tridecanoyl, iso-C14)
53	49	c	-2	M_1odec11eg3p__91__c__93__	C21H39O7P1	1-octadec-11-enoyl-sn-glycerol 3-phosphate
54	50	c	-2	M_1odecg3p__91__c__93__	C21H41O7P1	1-octadecanoyl-sn-glycerol 3-phosphate
55	51	c	+0	M_1pipdn2c__91__c__93__	C6H9NO2	1-piperideine-2-carboxylate
56	52	c	-1	M_1pyr5c__91__c__93__	C5H6NO2	1-Pyrroline-5-carboxylate
57	53	c	-2	M_1tdec7eg3p__91__c__93__	C17H31O7P1	1-tetradec-7-enoyl-sn-glycerol 3-phosphate
58	54	c	-2	M_1tdecg3p__91__c__93__	C17H33O7P1	1-tetradecanoyl-sn-glycerol 3-phosphate
59	55	c	-2	M_23dhdp__91__c__93__	C7H5NO4	2,3-Dihydrodipicolinate
60	56	c	-1	M_23dhmb__91__c__93__	C5H9O4	(R)-2,3-Dihydroxy-3-methylbutanoate
61	57	c	-1	M_23dhmp__91__c__93__	C6H11O4	(R)-2,3-Dihydroxy-3-methylpentanoate
62	58	c	-4	M_25aics__91__c__93__	C13H15N4O12P	(S)-2-[5-Amino-1-(5-phospho-D-ribosyl)imidazole-4-carboxamido]succinate
63	59	c	-2	M_25dhpp__91__c__93__	C9H14N5O8P	2,5-Diamino-6-hydroxy-4-(5-phosphoribosylamino)-pyrimidine
64	60	c	+0	M_26dap_LL__91__c__93__	C7H14N2O4	LL-2,6-Diaminoheptanedioate
65	61	c	+0	M_26dap_M__91__c__93__	C7H14N2O4	meso-2,6-Diaminoheptanedioate
66	62	c	-1	M_2ahbut__91__c__93__	C6H9O4	(S)-2-Aceto-2-hydroxybutanoate
67	63	c	-3	M_2ahhmd__91__c__93__	C7H8N5O8P2	2-Amino-4-hydroxy-6-hydroxymethyl-7,8-dihydropteridine diphosphate
68	64	c	+0	M_2ahhmp__91__c__93__	C7H9N5O2	2-Amino-4-hydroxy-6-hydroxymethyl-7,8-dihydropteridine
69	65	c	+0	M_2aobut__91__c__93__	C4H7NO3	L-2-amino-3-oxobutanoic acid
70	66	c	-2	M_2c25dho__91__c__93__	C7H4O6	2-Carboxy-2,5-dihydro-5-oxofuran-2-acetate
71	67	c	-3	M_2cpr5p__91__c__93__	C12H13NO9P	1-(2-Carboxyphenylamino)-1-deoxy-D-ribulose 5-phosphate
72	68	c	-3	M_2dda7p__91__c__93__	C7H10O10P	2-Dehydro-3-deoxy-D-arabino-heptonate 7-phosphate
73	69	c	-2	M_2dh3dglc__91__c__93__	C6H6O7	2-Dehydro-3-deoxy-D-glucarate
74	70	c	-1	M_2dhp__91__c__93__	C6H9O4	2-Dehydropantoate
75	71	c	+0	M_2dmmq8__91__c__93__	C50H70O2	2-Demethylmenaquinone 8
76	72	c	+0	M_2dmmql8__91__c__93__	C50H72O2	2-Demethylmenaquinol 8
77	73	c	-2	M_2dr1p__91__c__93__	C5H9O7P	2-Deoxy-D-ribose 1-phosphate
78	74	c	-2	M_2dr5p__91__c__93__	C5H9O7P	2-deoxy-D-ribose 5-phosphate(2-)
79	75	c	-1	M_2h3oppan__91__c__93__	C3H3O4	2-Hydroxy-3-oxopropanoate
80	76	c	-2	M_2hydog__91__c__93__	C5H6O5	2-hydroxyglutarate
81	77	c	-4	M_2hydogcoa__91__c__93__	C26H38N7O20P3S	2-hydroxyglutaryl-CoA
82	78	c	-2	M_2ippm__91__c__93__	C7H8O4	2-Isopropylmaleate
83	79	c	-4	M_2maacoa__91__c__93__	C26H38N7O18P3S	2-methylacetoacetyl-CoA(4-)
84	80	c	-3	M_2mahmp__91__c__93__	C6H8N3O7P2	2-Methyl-4-amino-5-hydroxymethylpyrimidine diphosphate
85	81	c	-4	M_2mb2coa__91__c__93__	C26H38N7O17P3S	2-methylcrotonoyl-CoA(4-)
86	82	c	-4	M_2mbcoa__91__c__93__	C26H40N7O17P3S	2-methylbutanoyl-CoA(4-)
87	83	c	-1	M_2mbutACP__91__c__93__	C16H29N2O8PRS	2-methylbutanoyl-ACP,2-methylbutyryl-ACP
88	84	c	-2	M_2me4p__91__c__93__	C5H11O7P	2-C-methyl-D-erythritol 4-phosphate
89	85	c	-2	M_2mecdp__91__c__93__	C5H10O9P2	2-C-methyl-D-erythritol 2,4-cyclodiphosphate
90	86	c	-4	M_2mp2coa__91__c__93__	C25H36N7O17P3S	2-Methylprop-2-enoyl-CoA
91	87	c	-1	M_2mpropACP__91__c__93__	C15H27N2O8PRS	2-methylpropionyl-ACP,isobutyryl-ACP
92	88	c	-1	M_2obut__91__c__93__	C4H5O3	2-Oxobutanoate
93	89	c	-4	M_2p4c2me__91__c__93__	C14H22N3O17P3	2-phospho-4-(cytidine 5-diphospho)-2-C-methyl-D-erythritol
94	90	c	-3	M_2pg__91__c__93__	C3H4O7P	D-Glycerate 2-phosphate
95	91	c	-3	M_2pglyc__91__c__93__	C2H2O6P	2-phosphonatoglycolate(3-)
96	92	c	-1	M_33hmeoxobut__91__c__93__	C5H7O4	2-Oxo-3-hydroxyisovalerate
97	93	c	-1	M_34hpp__91__c__93__	C9H7O4	3-(4-hydroxyphenyl)pyruvate
98	94	c	-1	M_3a2opp__91__c__93__	C3H7NO5P	3-Amino-2-oxopropyl phosphate
99	95	c	+0	M_3aib_D__91__c__93__	C4H9NO2	D-3-Amino-isobutanoate
100	96	c	-4	M_3btcoa__91__c__93__	C25H36N7O17P3S	3-Butenoyl-CoA
101	97	c	-2	M_3c2hmp__91__c__93__	C7H10O5	3-Carboxy-2-hydroxy-4-methylpentanoate
102	98	c	-2	M_3c3hmp__91__c__93__	C7H10O5	3-Carboxy-3-hydroxy-4-methylpentanoate
103	99	c	-2	M_3c4mop__91__c__93__	C7H8O5	3-Carboxy-4-methyl-2-oxopentanoate
104	100	c	-1	M_3dhq__91__c__93__	C7H9O6	3-Dehydroquinate
105	101	c	-1	M_3dhsk__91__c__93__	C7H7O5	3-Dehydroshikimate
106	102	c	-1	M_3h3mop__91__c__93__	C6H9O4	(R)-3-Hydroxy-3-methyl-2-oxopentanoate
107	103	c	-1	M_3haACP__91__c__93__	C15H27N2O9PRS	(3R)-3-Hydroxyacyl-[acyl-carrier protein]
108	105	c	-4	M_3hbcoa_R__91__c__93__	C25H38N7O18P3S	(R)-3-hydroxybutanoyl-CoA(4-)
109	104	c	-4	M_3hbcoa__91__c__93__	C25H38N7O18P3S	(S)-3-hydroxybutanoyl-CoA(4-)
110	106	c	-1	M_3hddecACP__91__c__93__	C23H43N2O9PRS	(R)-3-Hydroxydodecanoyl-[acyl-carrier protein]
111	107	c	-1	M_3hdecACP__91__c__93__	C21H39N2O9PRS	(R)-3-Hydroxydecanoyl-[acyl-carrier protein]
112	108	c	-1	M_3hhexACP__91__c__93__	C17H31N2O9PRS	(R)-3-Hydroxyhexanoyl-[acyl-carrier protein]
113	109	c	-1	M_3hmrsACP__91__c__93__	C25H47N2O9PRS	(R)-3-Hydroxytetradecanoyl-[acyl-carrier protein]
114	110	c	-1	M_3hoctACP__91__c__93__	C19H35N2O9PRS	(R)-3-Hydroxyoctanoyl-[acyl-carrier protein]
115	111	c	-1	M_3hoctaACP__91__c__93__	C29H55N2O9PRS	(R)-3-Hydroxyoctadecanoyl-[acyl-carrier protein]
116	112	c	-1	M_3hpalmACP__91__c__93__	C27H51N2O9PRS	R-3-hydroxypalmitoyl-[acyl-carrier protein]
117	113	c	-2	M_3ig3p__91__c__93__	C11H12NO6P	C-(3-Indolyl)-glycerol 3-phosphate
118	114	c	-1	M_3mbutACP__91__c__93__	C16H29N2O8PRS	3-methylbutanoyl-ACP,isovaleryl-ACP
119	115	c	-1	M_3mob__91__c__93__	C5H7O3	3-methyl-2-oxobutanoate
120	116	c	-1	M_3mop__91__c__93__	C6H9O3	3-methyl-2-oxopentanoate
121	117	c	-4	M_3odcoa__91__c__93__	C31H48N7O18P3S	3-Oxodecanoyl-CoA
122	118	c	-4	M_3oddcoa__91__c__93__	C33H52N7O18P3S	3-Oxododecanoyl-CoA
123	119	c	-1	M_3oddecACP__91__c__93__	C23H41N2O9PRS	3-Oxododecanoyl-[acyl-carrier protein]
124	120	c	-1	M_3odecACP__91__c__93__	C21H37N2O9PRS	3-Oxodecanoyl-[acyl-carrier protein]
125	121	c	-4	M_3ohcoa__91__c__93__	C27H40N7O18P3S	3-Oxohexanoyl-CoA
126	122	c	-4	M_3ohdcoa__91__c__93__	C37H60N7O18P3S	3-oxopalmitoyl-CoA(4-)
127	123	c	-1	M_3ohexACP__91__c__93__	C17H29N2O9PRS	3-Oxohexanoyl-[acyl-carrier protein]
128	124	c	-1	M_3omrsACP__91__c__93__	C25H45N2O9PRS	3-Oxotetradecanoyl-[acyl-carrier protein]
129	125	c	-4	M_3oocoa__91__c__93__	C29H44N7O18P3S	3-Oxooctanoyl-CoA
130	126	c	-1	M_3ooctACP__91__c__93__	C19H33N2O9PRS	3-Oxooctanoyl-[acyl-carrier protein]
131	127	c	-1	M_3ooctdACP__91__c__93__	C29H53N2O9PRS	3-Oxooctadecanoyl-[acyl-carrier protein]
132	128	c	-1	M_3opalmACP__91__c__93__	C27H49N2O9PRS	3-Oxohexadecanoyl-[acyl-carrier protein]
133	129	c	-4	M_3otdcoa__91__c__93__	C35H56N7O18P3S	3-Oxotetradecanoyl-CoA
134	130	c	-3	M_3pg__91__c__93__	C3H4O7P	3-Phospho-D-glycerate
135	131	c	-3	M_3php__91__c__93__	C3H2O7P	3-phosphonatooxypyruvate(3-)
136	132	c	-4	M_3psme__91__c__93__	C10H9O10P	5-O-(1-Carboxyvinyl)-3-phosphoshikimate
137	133	c	-1	M_3uib__91__c__93__	C5H9N2O3	3-Ureidoisobutyrate
138	134	c	+0	M_4abut__91__c__93__	C4H9NO2	4-Aminobutanoate
139	135	c	+1	M_4abutn__91__c__93__	C4H10NO	4-Aminobutanal
140	136	c	-1	M_4abz__91__c__93__	C7H6NO2	4-Aminobenzoate
141	137	c	-1	M_4adcho__91__c__93__	C10H10NO5	4-amino-4-deoxychorismate
142	138	c	+0	M_4ahmmp__91__c__93__	C6H9N3O	4-Amino-5-hydroxymethyl-2-methylpyrimidine
143	139	c	-2	M_4ampm__91__c__93__	C6H8N3O4P	4-Amino-2-methyl-5-phosphomethylpyrimidine
144	140	c	-2	M_4c2me__91__c__93__	C14H23N3O14P2	4-(cytidine 5-diphospho)-2-C-methyl-D-erythritol
145	141	c	-2	M_4h2oglt__91__c__93__	C5H4O6	4-hydroxy-2-oxoglutarate(2-)
146	142	c	+0	M_4hba__91__c__93__	C7H8O2	4-Hydroxy-benzyl alcohol
147	143	c	-4	M_4hbutcoa__91__c__93__	C25H38N7O18P3S	4-Hydroxybutyryl-CoA
148	144	c	+0	M_4hthr__91__c__93__	C4H9NO4	4-Hydroxy-L-threonine
149	145	c	-1	M_4izp__91__c__93__	C6H7N2O3	4-Imidazolone-5-propanoate
150	146	c	-1	M_4m3hhexACP__91__c__93__	C18H33N2O9PRS	4-methyl-3-hydroxy-hexanoyl-ACP
151	147	c	-1	M_4m3hpentACP__91__c__93__	C17H31N2O9PRS	4-methyl-3-hydroxy-pentanoyl-ACP
152	148	c	-1	M_4m3ohexACP__91__c__93__	C18H31N2O9PRS	4-methyl-3-oxo-hexanoyl-ACP
153	149	c	-1	M_4m3opentACP__91__c__93__	C17H29N2O9PRS	4-methyl-3-oxo-pentanoyl-ACP
154	150	c	+0	M_4mhetz__91__c__93__	C6H9NOS	4-Methyl-5-(2-hydroxyethyl)-thiazole
155	151	c	-1	M_4mhexACP__91__c__93__	C18H33N2O8PRS	4-methyl-hexanoyl-ACP
156	152	c	-1	M_4mop__91__c__93__	C6H9O3	4-methyl-2-oxopentanoate
157	153	c	-1	M_4mpentACP__91__c__93__	C17H31N2O8PRS	4-methyl-pentanoyl-ACP
158	154	c	-2	M_4mpetz__91__c__93__	C6H8NO4PS	4-Methyl-5-(2-phosphoethyl)-thiazole
159	155	c	-1	M_4mthex2eACP__91__c__93__	C18H31N2O8PRS	4-methyl-trans-hex-2-enoyl-ACP
160	156	c	-1	M_4mtpent2eACP__91__c__93__	C17H29N2O8PRS	4-methyl-trans-pent-2-enoyl-ACP
161	157	c	-2	M_4pasp__91__c__93__	C4H6NO7P	4-Phospho-L-aspartate
162	158	c	-3	M_4per__91__c__93__	C4H6O8P	4-Phospho-D-erythronate
163	159	c	-3	M_4ppan__91__c__93__	C9H15NO8P	D-4-Phosphopantothenate
164	160	c	-3	M_4ppcys__91__c__93__	C12H20N2O9PS	N-((R)-4-Phosphopantothenoyl)-L-cysteine
165	161	c	+0	M_4r5au__91__c__93__	C9H16N4O6	4-(1-D-Ribitylamino)-5-aminouracil
166	162	c	-3	M_5aizc__91__c__93__	C9H11N3O9P	5-amino-1-(5-phospho-D-ribosyl)imidazole-4-carboxylate
167	163	c	-2	M_5aprbu__91__c__93__	C9H15N4O9P	5-Amino-6-(5-phosphoribitylamino)uracil
168	164	c	-2	M_5apru__91__c__93__	C9H13N4O9P	5-Amino-6-(5-phosphoribosylamino)uracil
169	165	c	-2	M_5dh4dglc__91__c__93__	C6H6O7	5-Dehydro-4-deoxy-D-glucarate
170	166	c	-2	M_5forthf__91__c__93__	C20H22N8O6	5-Formiminotetrahydrofolate
171	167	c	-2	M_5fthf__91__c__93__	C20H21N7O7	5-formyltetrahydrofolate(2-)
172	168	c	-1	M_5hxudidzcba__91__c__93__	C5H5N4O5	5-Hydroxy-2-oxo-4-ureido-2,5-dihydro-1H-imidazole-5-carboxylate
173	169	c	-1	M_5m3hhexACP__91__c__93__	C18H33N2O9PRS	5-methyl-3-hydroxy-hexanoyl-ACP
174	170	c	-1	M_5m3ohexACP__91__c__93__	C18H31N2O9PRS	5-methyl-3-oxo-hexanoyl-ACP
175	171	c	-2	M_5mdr1p__91__c__93__	C6H11O7PS	5-Methylthio-5-deoxy-D-ribose 1-phosphate
176	172	c	-1	M_5mhexACP__91__c__93__	C18H33N2O8PRS	5-methyl-hexanoyl-ACP
177	173	c	+0	M_5mta__91__c__93__	C11H15N5O3S	5-Methylthioadenosine
178	174	c	-1	M_5mthex2eACP__91__c__93__	C18H31N2O8PRS	5-methyl-trans-hex-2-enoyl-ACP
179	175	c	-1	M_5mthf__91__c__93__	C20H24N7O6	5-Methyltetrahydrofolate
180	176	c	+0	M_5mthglu__91__c__93__	C25H34N8O12	5_Methyltetrahydropteroyltri_L_glutamate
181	177	c	-1	M_5odhf2a__91__c__93__	C6H5O4	5-Oxo-4,5-dihydrofuran-2-acetate
182	178	c	+0	M_6a2ohxnt__91__c__93__	C6H11NO3	6-amino-2-oxohexanoic acid
183	179	c	-1	M_6m3hheptACP__91__c__93__	C19H35N2O9PRS	6-methyl-3-hydroxy-heptanoyl-ACP
184	180	c	-1	M_6m3hocACP__91__c__93__	C20H37N2O9PRS	6-methyl-3-hydroxy-octanoyl-ACP
185	181	c	-1	M_6m3oheptACP__91__c__93__	C19H33N2O9PRS	6-methyl-3-oxo-heptanoyl-ACP
186	182	c	-1	M_6m3oocACP__91__c__93__	C20H35N2O9PRS	6-methyl-3-oxo-octanoyl-ACP
187	183	c	-1	M_6mheptACP__91__c__93__	C19H35N2O8PRS	6-methyl-heptanoyl-ACP
188	184	c	-1	M_6mocACP__91__c__93__	C20H37N2O8PRS	6-methyl-octanoyl-ACP
189	185	c	-1	M_6mthept2eACP__91__c__93__	C19H33N2O8PRS	6-methyl-trans-hept-2-enoyl-ACP
190	186	c	-1	M_6mtoct2eACP__91__c__93__	C20H35N2O8PRS	6-methyl-trans-oct-2-enoyl-ACP
191	187	c	-1	M_7m3hocACP__91__c__93__	C20H37N2O9PRS	7-methyl-3-hydroxy-octanoyl-ACP
192	188	c	-1	M_7m3oocACP__91__c__93__	C20H35N2O9PRS	7-methyl-3-oxo-octanoyl-ACP
193	189	c	-1	M_7mocACP__91__c__93__	C20H37N2O8PRS	7-methyl-octanoyl-ACP
194	190	c	-1	M_7mtoct2eACP__91__c__93__	C20H35N2O8PRS	7-methyl-trans-oct-2-enoyl-ACP
195	191	c	+0	M_8aonn__91__c__93__	C9H17NO3	8-Amino-7-oxononanoate
196	192	c	-1	M_8m3hdcaACP__91__c__93__	C22H41N2O9PRS	8-methyl-3-hydroxy-decanoyl-ACP
197	193	c	-1	M_8m3hnonACP__91__c__93__	C21H39N2O9PRS	8-methyl-3-hydroxy-nonanoyl-ACP
198	194	c	-1	M_8m3odcaACP__91__c__93__	C22H39N2O9PRS	8-methyl-3-oxo-decanoyl-ACP
199	195	c	-1	M_8m3ononACP__91__c__93__	C21H37N2O9PRS	8-methyl-3-oxo-nonanoyl-ACP
200	196	c	-1	M_8mdcaACP__91__c__93__	C22H41N2O8PRS	8-methyl-decanoyl-ACP
201	197	c	-1	M_8mnonACP__91__c__93__	C21H39N2O8PRS	8-methyl-nonanoyl-ACP
202	198	c	-1	M_8mtdec2eACP__91__c__93__	C22H39N2O8PRS	8-methyl-trans-dec-2-enoyl-ACP
203	199	c	-1	M_8mtnon2eACP__91__c__93__	C21H37N2O8PRS	8-methyl-trans-non-2-enoyl-ACP
204	200	c	-1	M_9m3hdcaACP__91__c__93__	C22H41N2O9PRS	9-methyl-3-hydroxy-decanoyl-ACP
205	201	c	-1	M_9m3odcaACP__91__c__93__	C22H39N2O9PRS	9-methyl-3-oxo-decanoyl-ACP
206	202	c	-1	M_9mdcaACP__91__c__93__	C22H41N2O8PRS	9-methyl-decanoyl-ACP
207	203	c	-1	M_9mtdec2eACP__91__c__93__	C22H39N2O8PRS	9-methyl-trans-dec-2-enoyl-ACP
208	204	c	-1	M_ACP__91__c__93__	C11H21N2O7PRS	acyl carrier protein
209	205	c	+0	M_C11821__91__c__93__	C5H4N4O4	5-Hydroxyisourate
210	206	c	-1	M_HC00955__91__c__93__	C4H5N2O2	L-3-Cyanoalanine
211	207	c	-2	M_HC01104__91__c__93__	C6H4NO6P	4-nitrophenyl phosphate(2-)
212	208	c	-3	M_HC01434__91__c__93__	C6H3O7	oxalatosuccinate(3-)
213	209	c	-1	M_HC01577__91__c__93__	C9H12N3O5	gamma-Glutamyl-beta-cyanoalanine
214	210	c	-4	M_HC01651__91__c__93__	C10H14N5O15P3	Formamidopyrimidine nucleoside triphosphate
215	211	c	-4	M_HC01652__91__c__93__	C9H14N5O14P3	2,5-Diaminopyrimidine nucleoside triphosphate
216	212	c	+0	M_HC01700__91__c__93__	C8H13N3O3	gamma-Glutamyl-3-aminopropiononitrile
217	213	c	-4	M_HC01710__91__c__93__	C9H14N5O14P3	2,5-Diamino-6-(5-triphosphoryl-3,4-trihydroxy-2-oxopentyl)- amino-4-oxopyrimidine
218	214	c	+0	M_L2aadp6sa__91__c__93__	C6H11NO3	L-allysine
219	215	c	-1	M_Largn__91__c__93__	C10H12NO5	L-Arogenate
220	216	c	-1	M_Lcyst__91__c__93__	C3H6NO5S	L-cysteate(1-)
221	217	c	+0	M_Naccitr_L__91__c__93__	C8H15N3O4	N-Acetyl-L-citrulline
222	218	c	+0	M_PGP__91__c__93__	C39H64N8O19X	Peptidoglycan polymer (n subunits)
223	219	c	+0	M_PGPm1__91__c__93__	X	Peptidoglycan polymer (n-1 subunits)
224	220	c	+1	M_aacald__91__c__93__	C2H6NO	Aminoacetaldehyde
225	221	c	-4	M_aacoa__91__c__93__	C25H36N7O18P3S	Acetoacetyl-CoA
226	222	c	+1	M_aact__91__c__93__	C3H8NO	ammonioacetone
227	223	c	-1	M_acACP__91__c__93__	C13H23N2O8PRS	Acetyl-ACP
228	224	c	-1	M_ac__91__c__93__	C2H3O2	acetate
229	225	c	-1	M_acac__91__c__93__	C4H5O3	acetoacetate
230	226	c	+0	M_acald__91__c__93__	C2H4O	acetaldehyde
231	227	c	-2	M_acbdma14gapuc__91__c__93__	C71H116N2O17P2	N-Acetyl-beta-D-mannosaminyl-1,4-N-acetyl-D- glucosaminyldiphosphoundecaprenol
232	228	c	-4	M_accoa__91__c__93__	C23H34N7O17P3S	Acetyl-CoA
233	229	c	-3	M_acg5p__91__c__93__	C7H9NO8P	N-acetyl-L-gamma-glutamyl phosphate(3-)
234	230	c	-1	M_acg5sa__91__c__93__	C7H10NO4	2-acetamido-5-oxopentanoate
235	231	c	-2	M_acgam1p__91__c__93__	C8H14NO9P	N-Acetyl-D-glucosamine 1-phosphate
236	232	c	-2	M_acgam6p__91__c__93__	C8H14NO9P	N-acetyl-D-glucosamine 6-phosphate(2-)
237	233	c	-2	M_acglu__91__c__93__	C7H9NO5	N-acetyl-L-glutamate(2-)
238	234	c	+0	M_achms__91__c__93__	C6H11NO4	O-Acetyl-L-homoserine
239	235	c	-1	M_acmam__91__c__93__	C11H18NO8	N-Acetyl-D-muramoate
240	236	c	-1	M_acmama__91__c__93__	C14H23N2O9	N-Acetyl-D-muramoyl-L-alanine
241	237	c	+0	M_acmana__91__c__93__	C8H15NO6	N-acetyl-D-mannosamine
242	238	c	-2	M_acmanap__91__c__93__	C8H14NO9P	N-acetyl-D-mannosamine 6-phosphate(2-)
243	239	c	-3	M_acon_C__91__c__93__	C6H3O6	cis-Aconitate
244	240	c	+0	M_acorn__91__c__93__	C7H14N2O3	N(2)-acetyl-L-ornithine
245	241	c	-1	M_actACP__91__c__93__	C15H25N2O9PRS	Acetoacetyl-ACP
246	242	c	-2	M_actp__91__c__93__	C2H3O5P	Acetyl phosphate
247	243	c	+0	M_ade__91__c__93__	C5H5N5	Adenine
248	244	c	+0	M_adhlam__91__c__93__	C10H19NO2S2	S-Acetyldihydrolipoamide
249	245	c	+0	M_adocbl__91__c__93__	C72H100CoN18O17P	Adenosylcobalamin
250	246	c	-3	M_adp__91__c__93__	C10H12N5O10P2	ADP
251	247	c	-2	M_adphep_DD__91__c__93__	C17H25N5O16P2	ADP-D-glycero-D-manno-heptose
252	248	c	-2	M_adphep_LD__91__c__93__	C17H25N5O16P2	ADP-L-glycero-D-manno-heptose
253	249	c	-2	M_adprib__91__c__93__	C15H21N5O14P2	ADPribose
254	250	c	+2	M_agm__91__c__93__	C5H16N4	agmatinium(2+)
255	251	c	+0	M_ahcys__91__c__93__	C14H20N6O5S	S-Adenosyl-L-homocysteine
256	252	c	-4	M_ahdt__91__c__93__	C9H12N5O13P3	7,8-dihydroneopterin 3-triphosphate(4-)
257	253	c	-24	M_ai15tca1__91__c__93__	C117H228O135P24	Anteisopentadecanoyllipoteichoic acid (n=24), linked, unsubstituted
258	254	c	-24	M_ai15tcaacgam__91__c__93__	C309H540N24O255P24	Anteisopentadecanoyllipoteichoic acid (n=24), linked, N-acetyl-D-glucosamine
259	255	c	-24	M_ai17tca1__91__c__93__	C121H236O135P24	Anteisoheptadecanoyllipoteichoic acid (n=24), linked, unsubstituted
260	256	c	-24	M_ai17tcaacgam__91__c__93__	C313H548N24O255P24	Anteisoheptadecanoyllipoteichoic acid (n=24), linked, N-acetyl-D-glucosamine
261	257	c	-2	M_aicar__91__c__93__	C9H13N4O8P	5-Amino-1-(5-Phospho-D-ribosyl)imidazole-4-carboxamide
262	258	c	-4	M_aihpdcoa__91__c__93__	C38H64N7O17P3S	fa12coa,Anteiso-C17:0 CoA   Anteisoheptadecanoyl-CoA
263	259	c	-4	M_aipdcoa__91__c__93__	C36H60N7O17P3S	fa4coa,Anteiso-C15:0 CoA   Anteisopentadecanoyl-CoA
264	260	c	-2	M_air__91__c__93__	C8H12N3O7P	5-amino-1-(5-phospho-D-ribosyl)imidazole
265	261	c	-2	M_akg__91__c__93__	C5H4O5	2-Oxoglutarate
266	262	c	+0	M_ala_B__91__c__93__	C3H7NO2	beta-alanine
267	263	c	+0	M_ala_D__91__c__93__	C3H7NO2	D-alanine
268	264	c	+0	M_ala_L__91__c__93__	C3H7NO2	L-alanine
269	265	c	+0	M_alaala__91__c__93__	C6H12N2O3	D-Alanyl-D-alanine
270	266	c	-1	M_alaasp__91__c__93__	C7H11N2O5	L-alanyl-L-aspartate
271	267	c	-1	M_alac_S__91__c__93__	C5H7O4	(S)-2-Acetolactate
272	268	c	+0	M_alagln__91__c__93__	C8H15N3O4	L-alanyl-L-glutamine
273	269	c	-1	M_alaglu__91__c__93__	C8H13N2O5	L-alanyl-L-glutamate
274	270	c	+0	M_alagly__91__c__93__	C5H10N2O3	L-alanylglycine
275	271	c	+0	M_alahis__91__c__93__	C9H14N4O3	L-alanyl-L-histidine
276	272	c	+0	M_alaleu__91__c__93__	C9H18N2O3	L-alanyl-L-leucine
277	273	c	+0	M_alathr__91__c__93__	C7H14N2O4	L-alanyl-L-threonine
278	274	c	-1	M_allphn__91__c__93__	C2H3N2O3	Allophanate
279	276	c	+0	M_alltn_R__91__c__93__	C4H6N4O3	(R)-Allantoin
280	275	c	+0	M_alltn__91__c__93__	C4H6N4O3	Allantoin
281	277	c	+1	M_amet__91__c__93__	C15H23N6O5S	S-Adenosyl-L-methionine
282	278	c	+0	M_amob__91__c__93__	C15H19N5O6S	S-Adenosyl-4-methylthio-2-oxobutanoate
283	279	c	-2	M_amopbut_L__91__c__93__	C4H6NO7P	2-Amino-3-oxo-4-phosphonooxybutyrate
284	280	c	-2	M_amp__91__c__93__	C10H12N5O7P	AMP
285	281	c	-1	M_anth__91__c__93__	C7H6NO2	anthranilate
286	282	c	+0	M_apoACP__91__c__93__	RHO	apoprotein [acyl carrier protein]
287	283	c	+0	M_apoC_Lys_btn__91__c__93__	C16H27N4O3SX	Holocarboxylase (biotin covalent bound to Lys residue of apoC)
288	284	c	-2	M_aps__91__c__93__	C10H12N5O10PS	5-adenylyl sulfate(2-)
289	285	c	-2	M_ara5p__91__c__93__	C5H9O8P	D-Arabinose 5-phosphate
290	286	c	-2	M_arbt6p__91__c__93__	C12H15O10P	Arbutin 6-phosphate
291	287	c	+1	M_arg_L__91__c__93__	C6H15N4O2	L-argininium(1+)
292	288	c	-1	M_argsuc__91__c__93__	C10H17N4O6	N(omega)-(L-Arginino)succinate
293	289	c	+0	M_arsenb__91__c__93__	C5H12AsO2	Arsenobetaine
294	290	c	+0	M_asn_L__91__c__93__	C4H8N2O3	L-asparagine
295	291	c	-1	M_asp_L__91__c__93__	C4H6NO4	L-aspartate(1-)
296	292	c	+0	M_aspsa__91__c__93__	C4H7NO3	L-Aspartate 4-semialdehyde
297	293	c	-4	M_atp__91__c__93__	C10H12N5O13P3	ATP
298	294	c	-4	M_b2coa__91__c__93__	C25H36N7O17P3S	crotonoyl-CoA(4-)
299	295	c	+0	M_biomass__91__c__93__	X	Produced biomass
300	296	c	+0	M_btal__91__c__93__	C4H8O	Butanal
301	297	c	-1	M_btamp__91__c__93__	C20H27N7O9PS	Biotinyl-5-AMP
302	298	c	-4	M_btcoa__91__c__93__	C25H38N7O17P3S	Butanoyl-CoA
303	299	c	-1	M_btn__91__c__93__	C10H15N2O3S	Biotin
304	300	c	-1	M_btn_co2__91__c__93__	C17H26N4O5SX	Carboxybiotin-carboxyl-carrier protein
305	301	c	+0	M_btoh__91__c__93__	C4H10O	butanol
306	302	c	-1	M_but2eACP__91__c__93__	C15H25N2O8PRS	But-2-enoyl-[acyl-carrier protein]
307	303	c	-1	M_butACP__91__c__93__	C15H27N2O8PRS	Butyryl-ACP (n-C4:0ACP)
308	304	c	-1	M_but__91__c__93__	C4H7O2	butyrate
309	305	c	-2	M_butpi__91__c__93__	C4H7O5P	Butanoyl phosphate
310	306	c	-1	M_butso3__91__c__93__	C4H9O3S	butanesulfonate
311	307	c	+2	M_ca2__91__c__93__	Ca	calcium(2+)
312	308	c	-1	M_cala__91__c__93__	C4H7N2O3	N-carbamoyl-beta-alaninate
313	309	c	-1	M_camp__91__c__93__	C10H11N5O6P	3,5-cyclic AMP(1-)
314	310	c	-2	M_cbasp__91__c__93__	C5H6N2O5	N-Carbamoyl-L-aspartate
315	311	c	-1	M_cbl1__91__c__93__	C62H88CoN13O14P	Cob(I)alamin
316	312	c	+0	M_cbl2__91__c__93__	C62H92CoN13O14P	Cob(II)alamin
317	313	c	-1	M_cbmt__91__c__93__	CH2NO2	Carbamate
318	314	c	-2	M_cbp__91__c__93__	CH2NO5P	Carbamoyl phosphate
319	315	c	+2	M_cd2__91__c__93__	Cd	Cadmium
320	316	c	-3	M_cdp__91__c__93__	C9H12N3O11P2	CDP
321	317	c	-2	M_cdpdaihpdecg__91__c__93__	C46H83N3O15P2	CDP-1,2-dianteisoheptadecanoylglycerol (14-methyl-hexadecanoyl, anteiso-C17)
322	318	c	-2	M_cdpdaipdecg__91__c__93__	C42H75N3O15P2	CDP-1,2-dianteisopentadecanoylglycerol (12-methyl-tetradecanoyl, anteiso-C15)
323	319	c	-2	M_cdpdddecg__91__c__93__	C36H63N3O15P2	CDP-1,2-didodecanoylglycerol
324	320	c	-2	M_cdpdhdec9eg__91__c__93__	C44H75N3O15P2	CDP-1,2-dihexadec-9-enoylglycerol
325	321	c	-2	M_cdpdhdecg__91__c__93__	C44H79N3O15P2	CDP-1,2-dihexadecanoylglycerol
326	322	c	-2	M_cdpdihdecg__91__c__93__	C44H79N3O15P2	CDP-1,2-diisohexadecanoylglycerol (14-methyl-pentadecanoyl, iso-C16)
327	323	c	-2	M_cdpdihpdecg__91__c__93__	C46H83N3O15P2	CDP-1,2-diisoheptadecanoylglycerol (15-methyl-hexadecanoyl, iso-C17)
328	324	c	-2	M_cdpdipdecg__91__c__93__	C42H75N3O15P2	CDP-1,2-diisopentadecanoylglycerol (13-methyl-tetradecanoyl, iso-C15)
329	325	c	-2	M_cdpditdecg__91__c__93__	C40H71N3O15P2	CDP-1,2-diisotetradecanoylglycerol (12-methyl-tridecanoyl, iso-C14)
330	326	c	-2	M_cdpdodec11eg__91__c__93__	C48H83N3O15P2	CDP-1,2-dioctadec-11-enoylglycerol
331	327	c	-2	M_cdpdodecg__91__c__93__	C48H87N3O15P2	CDP-1,2-dioctadecanoylglycerol
332	328	c	-2	M_cdpdtdec7eg__91__c__93__	C40H67N3O15P2	CDP-1,2-ditetradec-7-enoylglycerol
333	329	c	-2	M_cdpdtdecg__91__c__93__	C40H71N3O15P2	CDP-1,2-ditetradecanoylglycerol
334	330	c	-2	M_cdpglyc__91__c__93__	C12H19N3O13P2	CDPglycerol
335	331	c	+0	M_cgly__91__c__93__	C5H10N2O3S	L-cysteinylglycine
336	332	c	-2	M_chor__91__c__93__	C10H8O6	chorismate
337	333	c	-3	M_cit__91__c__93__	C6H5O7	Citrate
338	334	c	+0	M_citr_L__91__c__93__	C6H13N3O3	L-citrulline
339	335	c	-2	M_ckdo__91__c__93__	C17H24N3O15P	CMP-3-deoxy-D-manno-octulosonate
340	336	c	-1	M_cl__91__c__93__	Cl	Chloride
341	337	c	-2	M_cmp__91__c__93__	C9H12N3O8P	CMP
342	338	c	+0	M_co2__91__c__93__	CO2	carbon dioxide
343	339	c	-4	M_coa__91__c__93__	C21H32N7O16P3S	Coenzyme A
344	340	c	+2	M_cobalt2__91__c__93__	Co	Co2+
345	341	c	-4	M_cpppg3__91__c__93__	C36H40N4O8	Coproporphyrinogen III
346	342	c	-2	M_cro4__91__c__93__	CrO4	chromate
347	343	c	+0	M_ctbt__91__c__93__	C7H13NO2	crotonobetaine
348	344	c	-4	M_ctp__91__c__93__	C9H12N3O14P3	CTP
349	345	c	+2	M_cu2__91__c__93__	Cu	Cu2+
350	346	c	+0	M_cys_L__91__c__93__	C3H7NO2S	L-cysteine
351	347	c	+0	M_cyst_L__91__c__93__	C7H14N2O4S	L-cystathionine
352	348	c	+0	M_cytd__91__c__93__	C9H13N3O5	Cytidine
353	349	c	+0	M_dad_5__91__c__93__	C10H13N5O3	5-Deoxyadenosine
354	350	c	-3	M_dadp__91__c__93__	C10H12N5O9P2	dADP
355	351	c	-2	M_damp__91__c__93__	C10H12N5O6P	dAMP(2-)
356	352	c	+1	M_dann__91__c__93__	C9H21N2O2	7,8-Diaminononanoate
357	353	c	-4	M_datp__91__c__93__	C10H12N5O12P3	dATP
358	354	c	-2	M_db4p__91__c__93__	C4H7O6P	3,4-dihydroxy-2-butanone 4-phosphate
359	355	c	-1	M_dcaACP__91__c__93__	C21H39N2O8PRS	Decanoyl-ACP (n-C10:0ACP)
360	356	c	-4	M_dcacoa__91__c__93__	C31H50N7O17P3S	Decanoyl-CoA (n-C10:0CoA)
361	357	c	-4	M_dcamp__91__c__93__	C14H14N5O11P	N6-(1,2-Dicarboxyethyl)-AMP
362	358	c	-3	M_dcdp__91__c__93__	C9H12N3O10P2	dCDP
363	359	c	-2	M_dcmp__91__c__93__	C9H12N3O7P	dCMP
364	360	c	-4	M_dctp__91__c__93__	C9H12N3O13P3	dCTP
365	361	c	+0	M_dcyt__91__c__93__	C9H13N3O4	Deoxycytidine
366	362	c	-1	M_ddcaACP__91__c__93__	C23H43N2O8PRS	Dodecanoyl-ACP (n-C12:0ACP)
367	363	c	-4	M_ddcacoa__91__c__93__	C33H54N7O17P3S	Dodecanoyl-CoA (n-C12:0CoA)
368	364	c	-3	M_dgdp__91__c__93__	C10H12N5O10P2	dGDP
369	365	c	-2	M_dgmp__91__c__93__	C10H12N5O7P	dGMP
370	366	c	-4	M_dgtp__91__c__93__	C10H12N5O13P3	dGTP
371	367	c	+0	M_dha__91__c__93__	C3H6O3	glycerone
372	368	c	-2	M_dhap__91__c__93__	C3H5O6P	Dihydroxyacetone phosphate
373	369	c	-2	M_dhf__91__c__93__	C19H19N7O6	7,8-Dihydrofolate
374	370	c	+0	M_dhlam__91__c__93__	C8H17NOS2	dihydrolipoamide
375	371	c	+0	M_dhlpro__91__c__93__	H2S2X	Dihydrolipolprotein
376	372	c	+0	M_dhnpt__91__c__93__	C9H13N5O4	Dihydroneopterin
377	373	c	-1	M_dhor_S__91__c__93__	C5H5N2O4	(S)-dihydroorotate
378	374	c	-1	M_dhpt__91__c__93__	C14H13N6O3	Dihydropteroate
379	375	c	+0	M_dhptd__91__c__93__	C5H8O4	4,5-dihydroxy-2,3-pentanedione
380	376	c	+0	M_dmlz__91__c__93__	C13H18N4O6	6,7-Dimethyl-8-(1-D-ribityl)lumazine
381	377	c	-3	M_dmpp__91__c__93__	C5H9O7P2	Dimethylallyl diphosphate
382	378	c	-2	M_dnad__91__c__93__	C21H24N6O15P2	Deamino-NAD+
383	379	c	+0	M_dnarep__91__c__93__	X	DNA replication
384	380	c	-2	M_dpcoa__91__c__93__	C21H33N7O13P2S	Dephospho-CoA
385	381	c	-1	M_dtbt__91__c__93__	C10H17N2O3	Dethiobiotin
386	382	c	-2	M_dtdp4d6dg__91__c__93__	C16H22N2O15P2	dTDP-4-dehydro-6-deoxy-alpha-D-glucose(2-)
387	383	c	-2	M_dtdp4d6dm__91__c__93__	C16H22N2O15P2	dTDP-4-dehydro-6-deoxy-L-mannose(2-)
388	384	c	-3	M_dtdp__91__c__93__	C10H13N2O11P2	dTDP
389	385	c	-2	M_dtdpglu__91__c__93__	C16H24N2O16P2	dTDP-glucose(2-)
390	386	c	-2	M_dtdprmn__91__c__93__	C16H24N2O15P2	dTDP-L-rhamnose
391	387	c	-2	M_dtmp__91__c__93__	C10H13N2O8P	dTMP
392	388	c	-4	M_dttp__91__c__93__	C10H13N2O14P3	dTTP
393	389	c	-3	M_dudp__91__c__93__	C9H11N2O11P2	dUDP
394	390	c	-2	M_dump__91__c__93__	C9H11N2O8P	dUMP
395	391	c	+0	M_duri__91__c__93__	C9H12N2O5	Deoxyuridine
396	392	c	-4	M_dutp__91__c__93__	C9H11N2O14P3	dUTP
397	393	c	-2	M_dxyl5p__91__c__93__	C5H9O7P	1-deoxy-D-xylulose 5-phosphate
398	394	c	-1	M_e4hglu__91__c__93__	C5H8NO5	erythro-4-hydroxy-L-glutamate(1-)
399	395	c	-2	M_e4p__91__c__93__	C4H7O7P	D-Erythrose 4-phosphate
400	396	c	-2	M_eig3p__91__c__93__	C6H9N2O6P	D-erythro-1-(Imidazol-4-yl)glycerol 3-phosphate
401	397	c	-1	M_ethso3__91__c__93__	C2H5O3S	ethanesulfonate
402	398	c	+0	M_etoh__91__c__93__	C2H6O	ethanol
403	399	c	-2	M_f1p__91__c__93__	C6H11O9P	D-Fructose 1-phosphate
404	400	c	-2	M_f6p__91__c__93__	C6H11O9P	D-Fructose 6-phosphate
405	401	c	-1	M_fa11__91__c__93__	C17H33O2	Fatty acid (Iso-C17:0)
406	402	c	-1	M_fa12__91__c__93__	C17H33O2	Fatty acid (Anteiso-C17:0)
407	403	c	-1	M_fa1__91__c__93__	C14H27O2	Fatty acid (Iso-C14:0)
408	404	c	-1	M_fa3__91__c__93__	C15H29O2	Fatty acid (Iso-C15:0)
409	405	c	-1	M_fa4__91__c__93__	C15H29O2	Fatty acid (Anteiso-C15:0)
410	406	c	-1	M_fa6__91__c__93__	C16H31O2	Fatty acid (iso-C16:0)
411	407	c	-2	M_fad__91__c__93__	C27H31N9O15P2	Flavin adenine dinucleotide oxidized
412	408	c	-2	M_fadh2__91__c__93__	C27H33N9O15P2	Flavin adenine dinucleotide reduced
413	409	c	-4	M_fdp__91__c__93__	C6H10O12P2	D-Fructose 1,6-bisphosphate
414	410	c	+0	M_fdxox__91__c__93__	X	Oxidized ferredoxin
415	411	c	+0	M_fdxrd__91__c__93__	XH2	Reduced ferredoxin
416	412	c	+2	M_fe2__91__c__93__	Fe	Fe2+
417	413	c	+3	M_fe3__91__c__93__	Fe	Fe3+
418	414	c	-2	M_fgam__91__c__93__	C8H13N2O9P	N2-Formyl-N1-(5-phospho-D-ribosyl)glycinamide
419	415	c	+3	M_ficytC__91__c__93__	C42H54FeN8O6S2	Ferricytochrome c
420	416	c	-2	M_fmn__91__c__93__	C17H19N4O9P	FMN
421	417	c	+2	M_focytC__91__c__93__	C42H54FeN8O6S2	Ferrocytochrome C
422	418	c	-1	M_for__91__c__93__	CH1O2	Formate
423	419	c	-2	M_forglu__91__c__93__	C6H8N2O4	N-Formimidoyl-L-glutamate
424	420	c	-1	M_fpram__91__c__93__	C8H15N3O8P	2-(Formamido)-N1-(5-phospho-D-ribosyl)acetamidine
425	421	c	-2	M_fprica__91__c__93__	C10H13N4O9P	5-Formamido-1-(5-phospho-D-ribosyl)imidazole-4-carboxamide
426	422	c	-3	M_frdp__91__c__93__	C15H25O7P2	Farnesyl diphosphate
427	423	c	-2	M_fum__91__c__93__	C4H2O4	Fumarate
428	424	c	-2	M_g1p__91__c__93__	C6H11O9P	D-Glucose 1-phosphate
429	425	c	-2	M_g3p__91__c__93__	C3H5O6P	Glyceraldehyde 3-phosphate
430	427	c	-2	M_g6p_B__91__c__93__	C6H11O9P	beta-D-glucose 6-phosphate
431	426	c	-2	M_g6p__91__c__93__	C6H11O9P	D-Glucose 6-phosphate
432	428	c	-2	M_galct_D__91__c__93__	C6H8O8	D-Galactarate
433	429	c	-1	M_gam1p__91__c__93__	C6H13NO8P	D-Glucosamine 1-phosphate
434	430	c	-1	M_gam6p__91__c__93__	C6H13NO8P	D-Glucosamine 6-phosphate
435	431	c	-1	M_gar__91__c__93__	C7H14N2O8P	N1-(5-Phospho-D-ribosyl)glycinamide
436	432	c	+0	M_gbbtn__91__c__93__	C7H15NO2	gamma-butyrobetaine
437	433	c	+0	M_gcald__91__c__93__	C2H4O2	glycolaldehyde
438	434	c	-3	M_gdp__91__c__93__	C10H12N5O11P2	GDP
439	435	c	-7	M_gdptp__91__c__93__	C10H11N5O20P5	Guanosine 3-diphosphate 5-triphosphate
440	436	c	-11	M_ggagicolipa__91__c__93__	C163H281N2O89P4	glucosyl-galactosyl-glucosyl-inner core oligosaccharide lipid A
441	437	c	-11	M_gggagicolipa__91__c__93__	C169H291N2O94P4	glucosyl-glucosyl-galactosyl-glucosyl-inner core oligosaccharide lipid A
442	438	c	-2	M_glcr__91__c__93__	C6H8O8	D-glucarate(2-)
443	439	c	+0	M_gln_L__91__c__93__	C5H10N2O3	L-glutamine
444	440	c	-2	M_glu5p__91__c__93__	C5H8NO7P	L-Glutamate 5-phosphate
445	441	c	+0	M_glu5sa__91__c__93__	C5H9NO3	L-Glutamate 5-semialdehyde
446	442	c	-1	M_glu_D__91__c__93__	C5H8NO4	D-Glutamate
447	443	c	-1	M_glu_L__91__c__93__	C5H8NO4	L-glutamate(1-)
448	444	c	-4	M_glutaccoa__91__c__93__	C26H36N7O19P3S	Glutaconoyl-CoA
449	445	c	-2	M_glutar__91__c__93__	C5H6O4	Glutarate
450	446	c	-5	M_glutcoa__91__c__93__	C26H37N7O19P3S	glutaryl-CoA(5-)
451	447	c	+0	M_glutrna__91__c__93__	C5H7NO3R	L-Glutamyl-tRNA(Glu)
452	448	c	-1	M_glx__91__c__93__	C2H1O3	glyoxylate
453	449	c	+0	M_gly__91__c__93__	C2H5NO2	Glycine
454	450	c	+0	M_glyald__91__c__93__	C3H6O3	D-Glyceraldehyde
455	451	c	+0	M_glyasn__91__c__93__	C6H11N3O4	Glycyl-L-asparagine
456	452	c	-1	M_glyasp__91__c__93__	C6H9N2O5	Glycyl-L-aspartate
457	453	c	+0	M_glyb__91__c__93__	C5H11NO2	glycine betaine
458	454	c	-2	M_glyc3p__91__c__93__	C3H7O6P	Glycerol 3-phosphate
459	456	c	-1	M_glyc_R__91__c__93__	C3H5O4	D-glycerate
460	455	c	+0	M_glyc__91__c__93__	C3H8O3	Glycerol
461	457	c	-1	M_glyclt__91__c__93__	C2H3O3	glycolate
462	458	c	+0	M_glycys__91__c__93__	C5H10N2O3S	Gly-Cys
463	459	c	+0	M_glygln__91__c__93__	C7H13N3O4	Glycyl-L-glutamine
464	460	c	-1	M_glyglu__91__c__93__	C7H11N2O5	Glycyl-L-glutamate
465	461	c	+0	M_glyleu__91__c__93__	C8H16N2O3	Glycylleucine
466	462	c	+0	M_glymet__91__c__93__	C7H14N2O3S	Glycyl-L-methionine
467	463	c	+0	M_glyphe__91__c__93__	C11H14N2O3	Glycylphenylalanine
468	464	c	+0	M_glypro__91__c__93__	C7H12N2O3	Glycylproline
469	465	c	+0	M_glytyr__91__c__93__	C11H14N2O4	Glycyl-L-tyrosine
470	466	c	-4	M_gmhep17bp__91__c__93__	C7H12O13P2	D-Glycero-D-manno-heptose 1,7-bisphosphate
471	467	c	-2	M_gmhep1p__91__c__93__	C7H13O10P	D-Glycero-D-manno-heptose 1-phosphate
472	468	c	-2	M_gmhep7p__91__c__93__	C7H13O10P	D-Glycero-D-manno-heptose 7-phosphate
473	469	c	-2	M_gmp__91__c__93__	C10H12N5O8P	GMP
474	470	c	-3	M_grdp__91__c__93__	C10H17O7P2	Geranyl diphosphate
475	471	c	-1	M_gthrd__91__c__93__	C10H16N3O6S	Reduced glutathione
476	472	c	-4	M_gtp__91__c__93__	C10H12N5O14P3	GTP
477	473	c	+0	M_gua__91__c__93__	C5H5N5O	Guanine
478	474	c	+0	M_h2__91__c__93__	H2	Hydrogen
479	475	c	-3	M_h2mb4p__91__c__93__	C5H9O8P2	1-hydroxy-2-methyl-2-(E)-butenyl 4-diphosphate
480	476	c	+0	M_h2o2__91__c__93__	H2O2	Hydrogen peroxide
481	477	c	+0	M_h2s__91__c__93__	H2S	Hydrogen sulfide
482	478	c	+1	M_h__91__c__93__	H	proton
483	479	c	-1	M_hco3__91__c__93__	CHO3	Bicarbonate
484	480	c	+0	M_hcys_L__91__c__93__	C4H9NO2S	L-homocysteine
485	481	c	-1	M_hdca__91__c__93__	C16H31O2	Hexadecanoate (n-C16:0)
486	482	c	-1	M_hdcea__91__c__93__	C16H29O2	Hexadecenoate (n-C16:1)
487	483	c	-4	M_hdcoa__91__c__93__	C37H60N7O17P3S	Hexadecenoyl-CoA (n-C16:1CoA)
488	484	c	-1	M_hdeACP__91__c__93__	C27H49N2O8PRS	cis-hexadec-9-enoyl-[acyl-carrier protein] (n-C16:1)
489	485	c	-2	M_hethmpp__91__c__93__	C14H20N4O8P2S	Hydroxy ethyl Thiamin diphosphate
490	486	c	-1	M_hexACP__91__c__93__	C17H31N2O8PRS	Hexanoyl-ACP (n-C6:0ACP)
491	487	c	-1	M_hexs__91__c__93__	C6H13O3S	hexanesulfonate
492	488	c	+2	M_hg2__91__c__93__	Hg	Hg2+
493	489	c	-6	M_hhlipa__91__c__93__	C124H220N2O51P2	heptosyl-heptosyl-kdo2-lipidA
494	490	c	+0	M_his_L__91__c__93__	C6H9N3O2	L-histidine
495	491	c	-1	M_hisp__91__c__93__	C6H11N3O4P	L-Histidinol phosphate
496	492	c	+1	M_histd__91__c__93__	C6H12N3O	L-Histidinol
497	493	c	+1	M_histl_L__91__c__93__	C6H10N3O	L-Histidinal
498	494	c	-6	M_hlipa__91__c__93__	C117H208N2O45P2	heptosyl-kdo2-lipidA
499	495	c	-5	M_hmgcoa__91__c__93__	C27H39N7O20P3S	Hydroxymethylglutaryl-CoA
500	496	c	+0	M_hom_L__91__c__93__	C4H9NO3	L-homoserine
501	497	c	+0	M_hxan__91__c__93__	C5H4N4O	Hypoxanthine
502	498	c	-4	M_hxcoa__91__c__93__	C27H42N7O17P3S	Hexanoyl-CoA (n-C6:0CoA)
503	499	c	-24	M_i14tca1__91__c__93__	C115H224O135P24	Isotetradecanoyllipoteichoic acid (n=24), linked, unsubstituted
504	500	c	-24	M_i14tcaacgam__91__c__93__	C307H536N24O255P24	Isotetradecanoyllipoteichoic acid (n=24), linked, N-acetyl-D-glucosamine
505	501	c	-24	M_i15tca1__91__c__93__	C117H228O135P24	Isopentadecanoyllipoteichoic acid (n=24), linked, unsubstituted
506	502	c	-24	M_i15tcaacgam__91__c__93__	C309H540N24O255P24	Isopentadecanoyllipoteichoic acid (n=24), linked, N-acetyl-D-glucosamine
507	503	c	-24	M_i16tca1__91__c__93__	C119H232O135P24	Isohexadecanoyllipoteichoic acid (n=24), linked, unsubstituted
508	504	c	-24	M_i16tcaacgam__91__c__93__	C311H544N24O255P24	Isohexadecanoyllipoteichoic acid (n=24), linked, N-acetyl-D-glucosamine
509	505	c	-24	M_i17tca1__91__c__93__	C121H236O135P24	Isoheptadecanoyllipoteichoic acid (n=24), linked, unsubstituted
510	506	c	-24	M_i17tcaacgam__91__c__93__	C313H548N24O255P24	Isoheptadecanoyllipoteichoic acid (n=24), linked, N-acetyl-D-glucosamine
511	507	c	-4	M_ibcoa__91__c__93__	C25H38N7O17P3S	isobutyryl-CoA(4-)
512	508	c	-3	M_icit__91__c__93__	C6H5O7	Isocitrate
513	509	c	-3	M_idp__91__c__93__	C10H11N4O11P2	IDP(3-)
514	510	c	-4	M_ihdcoa__91__c__93__	C37H62N7O17P3S	fa6coa,Iso-C16:0 CoA   Isohexadecanoyl-CoA
515	511	c	-4	M_ihpdcoa__91__c__93__	C38H64N7O17P3S	fa11coa, Iso-C17:0 CoA   Isoheptadecanoyl-CoA
516	512	c	+0	M_ile_L__91__c__93__	C6H13NO2	L-isoleucine
517	513	c	-1	M_im4ac__91__c__93__	C5H5N2O2	imidazol-4-ylacetate
518	514	c	+0	M_im4act__91__c__93__	C5H6N2O	imidazole-4-acetaldehyde
519	515	c	-2	M_imacp__91__c__93__	C6H7N2O5P	3-(Imidazol-4-yl)-2-oxopropyl phosphate
520	516	c	-2	M_imp__91__c__93__	C10H11N4O8P	IMP
521	517	c	+0	M_indole__91__c__93__	C8H7N	Indole
522	518	c	-1	M_indpyr__91__c__93__	C11H8NO3	Indolepyruvate
523	519	c	-4	M_ipdcoa__91__c__93__	C36H60N7O17P3S	fa3coa,Iso-C15:0 CoA   Isopentadecanoyl-CoA
524	520	c	-3	M_ipdp__91__c__93__	C5H9O7P2	Isopentenyl diphosphate
525	521	c	-1	M_isetac__91__c__93__	C2H5O4S	Isethionic acid
526	522	c	-4	M_itdcoa__91__c__93__	C35H58N7O17P3S	fa1coa,Iso-C14:0 CoA   Isotetradecanoyl-CoA
527	523	c	-4	M_itp__91__c__93__	C10H11N4O14P3	ITP(3-)
528	524	c	-4	M_ivcoa__91__c__93__	C26H40N7O17P3S	Isovaleryl-CoA
529	525	c	+1	M_k__91__c__93__	K	potassium
530	526	c	-6	M_kdo2lipid4L__91__c__93__	C96H170N2O38P2	KDO(2)-lipid IV(A) with laurate
531	527	c	-6	M_kdo2lipid4__91__c__93__	C84H148N2O37P2	KDO(2)-lipid IV(A)
532	528	c	-3	M_kdo8p__91__c__93__	C8H12O11P	3-Deoxy-D-manno-octulosonate 8-phosphate
533	529	c	-1	M_kdo__91__c__93__	C8H13O8	3-Deoxy-D-manno-2-octulosonate
534	530	c	-1	M_l2a6o__91__c__93__	C7H10NO5	L-2-Amino-6-oxopimelate
535	531	c	-1	M_lac_D__91__c__93__	C3H5O3	(R)-lactate
536	532	c	-1	M_lac_L__91__c__93__	C3H5O3	(S)-lactate
537	533	c	+0	M_lald_L__91__c__93__	C3H6O2	(S)-lactaldehyde
538	534	c	+0	M_leu_L__91__c__93__	C6H13NO2	L-leucine
539	535	c	-1	M_lgt_S__91__c__93__	C13H20N3O8S	(R)-S-lactoylglutathionate(1-)
540	536	c	-6	M_lipa__91__c__93__	C110H196N2O39P2	KDO(2)-lipid (A)
541	537	c	-4	M_lipidA__91__c__93__	C68H126N2O23P2	2,3,23-Tetrakis(beta-hydroxymyristoyl)-D-glucosaminyl-1,6-beta-D-glucosamine 1,4-bisphosphate
542	538	c	-2	M_lipidAds__91__c__93__	C68H127N2O20P	Lipid A Disaccharide
543	539	c	-2	M_lipidX__91__c__93__	C34H64NO12P	2,3-Bis(3-hydroxytetradecanoyl)-beta-D-glucosaminyl 1-phosphate
544	540	c	+0	M_lpam__91__c__93__	C8H15NOS2	lipoamide
545	541	c	+0	M_lpro__91__c__93__	S2X	Lipoylprotein
546	542	c	+1	M_lys_L__91__c__93__	C6H15N2O2	L-lysinium(1+)
547	543	c	-2	M_malACP__91__c__93__	C14H22N2O10PRS	Malonyl-[acyl-carrier protein]
548	544	c	-2	M_mal_D__91__c__93__	C4H4O5	D-Malate
549	545	c	-2	M_mal_L__91__c__93__	C4H4O5	(S)-malate(2-)
550	546	c	-5	M_malcoa__91__c__93__	C24H33N7O19P3S	Malonyl-CoA
551	547	c	-2	M_man1p__91__c__93__	C6H11O9P	D-Mannose 1-phosphate
552	548	c	-2	M_man6p__91__c__93__	C6H11O9P	D-Mannose 6-phosphate
553	549	c	+0	M_met_D__91__c__93__	C5H10NO2S	D-Methionine
554	550	c	+0	M_met_L__91__c__93__	C5H11NO2S	L-methionine
555	551	c	+0	M_metala__91__c__93__	C8H16N2O3S	L-methionyl-L-alanine
556	552	c	-1	M_methf__91__c__93__	C20H20N7O6	5,10-Methenyltetrahydrofolate
557	553	c	+0	M_metsox_R_L__91__c__93__	C5H11NO3S	L-methionine-R-sulfoxide
558	554	c	+0	M_metsox_S_L__91__c__93__	C5H11NO3S	L-Methionine Sulfoxide
559	555	c	+2	M_mg2__91__c__93__	Mg	magnesium
560	556	c	-2	M_mlthf__91__c__93__	C20H21N7O6	5,10-Methylenetetrahydrofolate
561	557	c	+2	M_mn2__91__c__93__	Mn	Mn2+
562	558	c	-1	M_mops__91__c__93__	C7H14NO4S	3-(n-Morpholino)Propanesulfonic Acid
563	559	c	+0	M_mql8__91__c__93__	C51H74O2	Menaquinol 8
564	560	c	+0	M_mqn8__91__c__93__	C51H72O2	Menaquinone 8
565	561	c	-1	M_mso3__91__c__93__	CH3O3S	methanesulfonate
566	562	c	+0	M_mthgxl__91__c__93__	C3H4O2	methylglyoxal
567	563	c	-1	M_myrsACP__91__c__93__	C25H47N2O8PRS	Myristoyl-ACP (n-C14:0ACP)
568	564	c	-24	M_myrstca1__91__c__93__	C115H224O135P24	Myristoyllipoteichoic acid (n=24), linked, unsubstituted
569	565	c	-24	M_myrstcaacgam__91__c__93__	C307H536N24O255P24	Myristoyllipoteichoic acid (n=24), linked, N-acetyl-D-glucosamine
570	566	c	-1	M_n6all26d__91__c__93__	C9H15N2O5	N6-Acetyl-LL-2,6-diaminoheptanedioate
571	567	c	+1	M_na1__91__c__93__	Na	Sodium
572	568	c	-1	M_nac__91__c__93__	C6H4NO2	Nicotinate
573	569	c	-1	M_nad__91__c__93__	C21H26N7O14P2	Nicotinamide adenine dinucleotide
574	570	c	-2	M_nadh__91__c__93__	C21H27N7O14P2	Nicotinamide adenine dinucleotide - reduced
575	571	c	-3	M_nadp__91__c__93__	C21H25N7O17P3	Nicotinamide adenine dinucleotide phosphate
576	572	c	-4	M_nadph__91__c__93__	C21H26N7O17P3	Nicotinamide adenine dinucleotide phosphate - reduced
577	573	c	+0	M_ncam__91__c__93__	C6H6N2O	Nicotinamide
578	574	c	+1	M_nh4__91__c__93__	H4N	Ammonium
579	575	c	-2	M_nicrnt__91__c__93__	C11H12NO9P	Nicotinate D-ribonucleotide
580	576	c	+0	M_o2__91__c__93__	O2	O2
581	577	c	-2	M_oaa__91__c__93__	C4H2O5	Oxaloacetate
582	578	c	-1	M_ocACP__91__c__93__	C19H35N2O8PRS	Octanoyl-ACP (n-C8:0ACP)
583	579	c	-4	M_occoa__91__c__93__	C29H46N7O17P3S	Octanoyl-CoA (n-C8:0CoA)
584	580	c	-1	M_ocdcaACP__91__c__93__	C29H55N2O8PRS	Octadecanoyl-ACP (n-C18:0ACP)
585	581	c	-1	M_ocdca__91__c__93__	C18H35O2	octadecanoate (n-C18:0)
586	582	c	-1	M_ocdcea__91__c__93__	C18H33O2	octadecenoate (n-C18:1)
587	583	c	-1	M_octeACP__91__c__93__	C29H53N2O8PRS	cis-octadec-11-enoyl-[acyl-carrier protein] (n-C18:1)
588	584	c	-4	M_odecoa__91__c__93__	C39H64N7O17P3S	Octadecenoyl-CoA (n-C18:1CoA)
589	585	c	-3	M_ohpb__91__c__93__	C4H4O8P	2-Oxo-3-hydroxy-4-phosphobutanoate
590	586	c	+1	M_orn__91__c__93__	C5H13N2O2	Ornithine
591	587	c	-3	M_orot5p__91__c__93__	C10H10N2O11P	Orotidine 5-phosphate
592	588	c	-1	M_orot__91__c__93__	C5H3N2O4	Orotate
593	589	c	-2	M_oxa__91__c__93__	C2O4	oxalate(2-)
594	590	c	-2	M_oxglyc__91__c__93__	C4H2O6	Oxaloglycolate
595	591	c	-2	M_pa120__91__c__93__	C27H51O8P1	1,2-didodecanoyl-sn-glycerol 3-phosphate
596	592	c	-2	M_pa140__91__c__93__	C31H59O8P1	1,2-ditetradecanoyl-sn-glycerol 3-phosphate
597	593	c	-2	M_pa141__91__c__93__	C31H55O8P1	1,2-ditetradec-7-enoyl-sn-glycerol 3-phosphate
598	594	c	-2	M_pa160__91__c__93__	C35H67O8P1	1,2-dihexadecanoyl-sn-glycerol 3-phosphate
599	595	c	-2	M_pa161__91__c__93__	C35H63O8P1	1,2-dihexadec-9-enoyl-sn-glycerol 3-phosphate
600	596	c	-2	M_pa180__91__c__93__	C39H75O8P1	1,2-dioctadecanoyl-sn-glycerol 3-phosphate
601	597	c	-2	M_pa181__91__c__93__	C39H71O8P1	1,2-dioctadec-11-enoyl-sn-glycerol 3-phosphate
602	598	c	-2	M_paai15__91__c__93__	C33H63O8P	1,2-dianteisopentadecanoyl-sn-glycerol 3-phosphate (12-methyl-tetradecanoyl, anteiso-C15)
603	599	c	-2	M_paai17__91__c__93__	C37H71O8P	1,2-dianteisoheptadecanoyl-sn-glycerol 3-phosphate (14-methyl-hexadecanoyl, anteiso-C17)
604	600	c	-2	M_pai14__91__c__93__	C31H59O8P	1,2-diisotetradecanoyl-sn-glycerol 3-phosphate (12-methyl-tridecanoyl, iso-C14)
605	601	c	-2	M_pai15__91__c__93__	C33H63O8P	1,2-diisopentadecanoyl-sn-glycerol 3-phosphate (13-methyl-tetradecanoyl, iso-C15)
606	602	c	-2	M_pai16__91__c__93__	C35H67O8P	1,2-diisohexadecanoyl-sn-glycerol 3-phosphate (14-methyl-pentadecanoyl, iso-C16)
607	603	c	-2	M_pai17__91__c__93__	C37H71O8P	1,2-diisoheptadecanoyl-sn-glycerol 3-phosphate (15-methyl-hexadecanoyl, iso-C17)
608	604	c	-1	M_palmACP__91__c__93__	C27H51N2O8PRS	Palmitoyl-ACP (n-C16:0ACP)
609	605	c	-24	M_palmtca1__91__c__93__	C119H232O135P24	Palmitoyllipoteichoic acid (n=24), linked, unsubstituted
610	606	c	-24	M_palmtcaacgam__91__c__93__	C311H544N24O255P24	Palmitoyllipoteichoic acid (n=24), linked, N-acetyl-D-glucosamine
611	607	c	-2	M_pan4p__91__c__93__	C11H21N2O7PS	Pantetheine 4-phosphate
612	608	c	-1	M_pant_R__91__c__93__	C6H11O4	(R)-Pantoate
613	609	c	-4	M_pap__91__c__93__	C10H11N5O10P2	adenosine 3,5-bismonophosphate(4-)
614	610	c	+2	M_pb__91__c__93__	Pb	Lead
615	611	c	-2	M_pdx5p__91__c__93__	C8H10NO6P	Pyridoxine 5-phosphate
616	612	c	+0	M_pe120__91__c__93__	C29H58N1O8P1	phosphatidylethanolamine (didodecanoyl, n-C12:0)
617	613	c	+0	M_pe140__91__c__93__	C33H66N1O8P1	phosphatidylethanolamine (ditetradecanoyl, n-C14:0)
618	614	c	+0	M_pe141__91__c__93__	C33H62N1O8P1	phosphatidylethanolamine (ditetradec-7-enoyl, n-C14:1)
619	615	c	+0	M_pe160__91__c__93__	C37H74N1O8P1	phosphatidylethanolamine (dihexadecanoyl, n-C16:0)
620	616	c	+0	M_pe161__91__c__93__	C37H70N1O8P1	phosphatidylethanolamine (dihexadec-9enoyl, n-C16:1)
621	617	c	+0	M_pe180__91__c__93__	C41H82N1O8P1	phosphatidylethanolamine (dioctadecanoyl, n-C18:0)
622	618	c	+0	M_pe181__91__c__93__	C41H78N1O8P1	phosphatidylethanolamine (dioctadec-11-enoyl, n-C18:1)
623	619	c	+0	M_peai15__91__c__93__	C35H70NO8P	Phosphatidylethanolamine (12-methyl-tetradecanoyl, anteiso-C15)
624	620	c	+0	M_peai17__91__c__93__	C39H78NO8P	Phosphatidylethanolamine (14-methyl-hexadecanoyl, anteiso-C17)
625	621	c	+0	M_pei14__91__c__93__	C33H66NO8P	Phosphatidylethanolamine (12-methyl-tridecanoyl, iso-C14)
626	622	c	+0	M_pei15__91__c__93__	C35H70NO8P	Phosphatidylethanolamine (13-methyl-tetradecanoyl, iso-C15)
627	623	c	+0	M_pei16__91__c__93__	C37H74NO8P	Phosphatidylethanolamine (14-methyl-pentadecanoyl, iso-C16)
628	624	c	+0	M_pei17__91__c__93__	C39H78NO8P	Phosphatidylethanolamine (15-methyl-hexadecanoyl, iso-C17)
629	625	c	-3	M_pep__91__c__93__	C3H2O6P	Phosphoenolpyruvate
630	626	c	+0	M_phe_L__91__c__93__	C9H11NO2	L-phenylalanine
631	627	c	-2	M_phom__91__c__93__	C4H8NO6P	O-phosphonato-L-homoserine(2-)
632	628	c	-1	M_phpyr__91__c__93__	C9H7O3	keto-phenylpyruvate
633	629	c	-2	M_phthr__91__c__93__	C4H8NO7P	O-Phospho-4-hydroxy-L-threonine
634	630	c	-2	M_pi__91__c__93__	HO4P	hydrogenphosphate
635	631	c	-5	M_pmcoa__91__c__93__	C28H41N7O19P3S	Pimeloyl-CoA
636	632	c	-4	M_pmtcoa__91__c__93__	C37H62N7O17P3S	Palmitoyl-CoA (n-C16:0CoA)
637	633	c	-1	M_pnp__91__c__93__	C6H4NO3	4-Hydroxynitrobenzene, p-Nitrophenol
638	634	c	-1	M_pnto_R__91__c__93__	C9H16NO5	(R)-Pantothenate
639	635	c	-1	M_ppa__91__c__93__	C3H5O2	propionate
640	636	c	-2	M_ppap__91__c__93__	C3H5O5P	Propanoyl phosphate
641	637	c	-4	M_ppcoa__91__c__93__	C24H36N7O17P3S	Propanoyl-CoA
642	638	c	-2	M_pphn__91__c__93__	C10H8O6	Prephenate
643	639	c	-3	M_ppi__91__c__93__	HO7P2	Diphosphate
644	640	c	-2	M_pppg9__91__c__93__	C34H38N4O4	Protoporphyrinogen IX
645	641	c	-4	M_pppi__91__c__93__	HO10P3	triphosphate(5-)
646	642	c	-1	M_pram__91__c__93__	C5H11NO7P	5-Phospho-beta-D-ribosylamine
647	643	c	-3	M_pran__91__c__93__	C12H13NO9P	N-(5-Phospho-D-ribosyl)anthranilate
648	644	c	-6	M_prbatp__91__c__93__	C15H19N5O20P4	1-(5-Phosphoribosyl)-ATP
649	645	c	-4	M_prfp__91__c__93__	C15H21N5O15P2	1-(5-Phosphoribosyl)-5-[(5-phosphoribosylamino)methylideneamino]imidazole-4-carboxamide
650	646	c	-4	M_prlp__91__c__93__	C15H21N5O15P2	5-[(5-phospho-1-deoxyribulos-1-ylamino)methylideneamino]-1-(5-phosphoribosyl)imidazole-4-carboxamide
651	647	c	+0	M_pro_L__91__c__93__	C5H9NO2	L-proline
652	648	c	+0	M_proteinsynth__91__c__93__	X	Protein biosynthesis
653	649	c	-5	M_prpp__91__c__93__	C5H8O14P3	5-Phospho-alpha-D-ribose 1-diphosphate
654	650	c	-1	M_ps120__91__c__93__	C30H57N1O10P1	phosphatidylserine (didodecanoyl, n-C12:0)
655	651	c	-1	M_ps140__91__c__93__	C34H65N1O10P1	phosphatidylserine (ditetradecanoyl, n-C14:0)
656	652	c	-1	M_ps141__91__c__93__	C34H61N1O10P1	phosphatidylserine (ditetradec-7-enoyl, n-C14:1)
657	653	c	-1	M_ps160__91__c__93__	C38H73N1O10P1	phosphatidylserine (dihexadecanoyl, n-C16:0)
658	654	c	-1	M_ps161__91__c__93__	C38H69N1O10P1	phosphatidylserine (dihexadec-9-enoyl, n-C16:1)
659	655	c	-1	M_ps180__91__c__93__	C42H81N1O10P1	phosphatidylserine (dioctadecanoyl, n-C18:0)
660	656	c	-1	M_ps181__91__c__93__	C42H77N1O10P1	phosphatidylserine (dioctadec-11-enoyl, n-C18:1)
661	657	c	-1	M_psai15__91__c__93__	C36H69NO10P	Phosphatidylserine (12-methyl-tetradecanoyl, anteiso-C15)
662	658	c	-1	M_psai17__91__c__93__	C40H77NO10P	Phosphatidylserine (14-methyl-hexadecanoyl, anteiso-C17)
663	659	c	-2	M_psd5p__91__c__93__	C9H11N2O9P	Pseudouridine 5-phosphate
664	660	c	-2	M_pser_L__91__c__93__	C3H6NO6P	O-Phospho-L-serine
665	661	c	-1	M_psi14__91__c__93__	C34H65NO10P	Phosphatidylserine (12-methyl-tridecanoyl, iso-C14)
666	662	c	-1	M_psi15__91__c__93__	C36H69NO10P	Phosphatidylserine (13-methyl-tetradecanoyl, iso-C15)
667	663	c	-1	M_psi16__91__c__93__	C38H73NO10P	Phosphatidylserine (14-methyl-pentadecanoyl, iso-C16)
668	664	c	-1	M_psi17__91__c__93__	C40H77NO10P	Phosphatidylserine (15-methyl-hexadecanoyl, iso-C17)
669	665	c	+2	M_ptrc__91__c__93__	C4H14N2	Putrescine
670	666	c	-1	M_pyam5p__91__c__93__	C8H12N2O5P	Pyridoxamine 5-phosphate
671	667	c	+1	M_pydam__91__c__93__	C8H13N2O2	Pyridoxamine
672	668	c	-2	M_pydx5p__91__c__93__	C8H8NO6P	Pyridoxal 5-phosphate
673	669	c	+0	M_pydx__91__c__93__	C8H9NO3	Pyridoxal
674	670	c	+0	M_pydxn__91__c__93__	C8H11NO3	Pyridoxine
675	671	c	-1	M_pyr__91__c__93__	C3H3O3	pyruvate
676	672	c	+0	M_q8__91__c__93__	C49H74O4	Ubiquinone-8
677	673	c	+0	M_q8h2__91__c__93__	C49H76O4	Ubiquinol-8
678	674	c	-2	M_r1p__91__c__93__	C5H9O8P	alpha-D-Ribose 1-phosphate
679	675	c	-2	M_r5p__91__c__93__	C5H9O8P	alpha-D-Ribose 5-phosphate
680	676	c	+0	M_rhcys__91__c__93__	C9H17NO6S	S-Ribosyl-L-homocysteine
681	677	c	+0	M_ribflv__91__c__93__	C17H20N4O6	Riboflavin
682	678	c	+0	M_rnatrans__91__c__93__	X	RNA transcription
683	679	c	-2	M_ru5p_D__91__c__93__	C5H9O8P	D-ribulose 5-phosphate(2-)
684	680	c	-2	M_ru5p_L__91__c__93__	C5H9O8P	L-Ribulose 5-phosphate
685	681	c	-4	M_s17bp__91__c__93__	C7H12O13P2	Sedoheptulose 1,7-bisphosphate
686	682	c	-2	M_s7p__91__c__93__	C7H13O10P	Sedoheptulose 7-phosphate
687	683	c	+0	M_s__91__c__93__	S	Sulfur
688	684	c	-2	M_salc6p__91__c__93__	C13H17O10P	Salicin 6-phosphate
689	685	c	+0	M_ser_L__91__c__93__	C3H7NO3	L-serine
690	686	c	-3	M_skm5p__91__c__93__	C7H8O8P	Shikimate 5-phosphate
691	687	c	-1	M_skm__91__c__93__	C7H9O5	Shikimate
692	688	c	-2	M_so3__91__c__93__	O3S	Sulfite
693	689	c	-2	M_so4__91__c__93__	O4S	sulfate
694	690	c	+3	M_spmd__91__c__93__	C7H22N3	Spermidine
695	691	c	-4	M_stcoa__91__c__93__	C39H66N7O17P3S	Stearoyl-CoA (n-C18:0CoA)
696	692	c	-24	M_sttca1__91__c__93__	C123H240O135P24	Stearoyllipoteichoic acid (n=24), linked, unsubstituted
697	693	c	-24	M_sttcaacgam__91__c__93__	C315H552N24O255P24	Stearoyllipoteichoic acid (n=24), linked, N-acetyl-D-glucosamine
698	694	c	-2	M_succ__91__c__93__	C4H4O4	Succinate
699	695	c	-5	M_succoa__91__c__93__	C25H35N7O19P3S	Succinyl-CoA
700	696	c	-1	M_suchms__91__c__93__	C8H12NO6	O-Succinyl-L-homoserine
701	697	c	-2	M_sulfac__91__c__93__	C2H2O5S	sulfoacetate
702	698	c	-2	M_tag6p_D__91__c__93__	C6H11O9P	D-Tagatose 6-phosphate
703	699	c	-4	M_tagdp_D__91__c__93__	C6H10O12P2	D-Tagatose 1,6-biphosphate
704	700	c	-2	M_tartr_L__91__c__93__	C4H4O6	L-tartrate
705	701	c	-2	M_tartr_M__91__c__93__	C4H4O6	meso-Tartrate
706	702	c	+0	M_taur__91__c__93__	C2H7NO3S	Taurine
707	703	c	-4	M_tdcoa__91__c__93__	C35H58N7O17P3S	Tetradecanoyl-CoA (n-C14:0CoA)
708	704	c	-1	M_tddec2eACP__91__c__93__	C23H41N2O8PRS	trans-Dodec-2-enoyl-[acyl-carrier protein]
709	705	c	-1	M_tdeACP__91__c__93__	C25H45N2O8PRS	cis-tetradec-7-enoyl-[acyl-carrier protein] (n-C14:1)
710	706	c	-1	M_tdec2eACP__91__c__93__	C21H37N2O8PRS	trans-Dec-2-enoyl-[acyl-carrier protein]
711	707	c	-2	M_thdp__91__c__93__	C7H7NO4	2,3,4,5-Tetrahydrodipicolinate
712	708	c	-1	M_thex2eACP__91__c__93__	C17H29N2O8PRS	trans-Hex-2-enoyl-[acyl-carrier protein]
713	709	c	-2	M_thf__91__c__93__	C19H21N7O6	5,6,7,8-Tetrahydrofolate
714	710	c	-3	M_thfglu__91__c__93__	C24H27N8O9	Tetrahydrofolyl-[Glu](2)
715	711	c	+0	M_thglu__91__c__93__	C24H32N8O12	Tetrahydropteroyltri_L_glutamate
716	712	c	-1	M_thmmp__91__c__93__	C12H16N4O4PS	Thiamin monophosphate
717	713	c	-2	M_thmpp__91__c__93__	C12H16N4O7P2S	Thiamine diphosphate
718	714	c	-1	M_thp2c__91__c__93__	C6H8NO2	1-piperideine-6-carboxylate
719	715	c	+0	M_thr_L__91__c__93__	C4H9NO3	L-threonine
720	716	c	+0	M_thymd__91__c__93__	C10H14N2O5	Thymidine
721	717	c	-1	M_tmrs2eACP__91__c__93__	C25H45N2O8PRS	trans-Tetradec-2-enoyl-[acyl-carrier protein]
722	718	c	-1	M_toct2eACP__91__c__93__	C19H33N2O8PRS	trans-Oct-2-enoyl-[acyl-carrier protein]
723	719	c	-1	M_toctd2eACP__91__c__93__	C29H53N2O8PRS	trans-octadec-2-enoyl-[acyl-carrier protein]
724	720	c	-1	M_tpalm2eACP__91__c__93__	C27H49N2O8PRS	trans-Hexadec-2-enoyl-[acyl-carrier protein]
725	721	c	+0	M_trdox__91__c__93__	X	Oxidized thioredoxin
726	722	c	+0	M_trdrd__91__c__93__	XH2	Reduced thioredoxin
727	723	c	+0	M_trnaglu__91__c__93__	R	tRNA (Glu)
728	724	c	+0	M_trp_L__91__c__93__	C11H12N2O2	L-tryptophan
729	725	c	-2	M_tsul__91__c__93__	O3S2	thiosulfate(2-)
730	726	c	-1	M_ttdca__91__c__93__	C14H27O2	tetradecanoate (n-C14:0)
731	727	c	+0	M_tyr_L__91__c__93__	C9H11NO3	L-tyrosine
732	728	c	-2	M_u23ga__91__c__93__	C43H75N3O20P2	UDP-2,3-bis(3-hydroxytetradecanoyl)glucosamine
733	729	c	-2	M_u3aga__91__c__93__	C31H51N3O19P2	UDP-3-O-(3-hydroxytetradecanoyl)-N-acetylglucosamine
734	730	c	-1	M_u3hga__91__c__93__	C29H50N3O18P2	UDP-3-O-(3-hydroxytetradecanoyl)-D-glucosamine
735	731	c	-3	M_uGgla__91__c__93__	C40H62N9O26P2	UDP-N-acetylmuramoyl-L-alanyl-gamma-D-glutamyl-L-lysyl-D-alanyl-D-alanine
736	732	c	-3	M_uaGgla__91__c__93__	C86H140N7O21P2	Undecaprenyl-diphospho-N-acetylmuramoyl-L-alanyl-gamma-D-glutamyl-L-lysyl-D-alanyl-D-alanine
737	733	c	-3	M_uaaGgla__91__c__93__	C94H153N8O26P2	Undecaprenyl-diphospho-N-acetylmuramoyl-(N-acetylglucosamine)-L-alanyl-gamma-D-glutamyl-L-lysyl-D-alanyl-D-alanine
738	734	c	-4	M_uaagmda__91__c__93__	C95H152N8O28P2	Undecaprenyl-diphospho-N-acetylmuramoyl-(N-acetylglucosamine)-L-ala-D-glu-meso-2,6-diaminopimeloyl-D-ala-D-ala
739	735	c	-3	M_uaccg__91__c__93__	C20H26N3O19P2	UDP-N-acetyl-3-O-(1-carboxyvinyl)-D-glucosamine
740	736	c	-2	M_uacgam__91__c__93__	C17H25N3O17P2	UDP-N-acetyl-alpha-D-glucosamine(2-)
741	737	c	-2	M_uacmam__91__c__93__	C17H25N3O17P2	UDP-N-acetyl-D-mannosamine
742	738	c	-4	M_uagmda__91__c__93__	C87H139N7O23P2	Undecaprenyl-diphospho-N-acetylmuramoyl-L-alanyl-D-glutamyl-meso-2,6-diaminopimeloyl-D-alanyl-D-alanine
743	739	c	-3	M_uama__91__c__93__	C23H33N4O20P2	UDP-N-acetylmuramoyl-L-alanine
744	740	c	-4	M_uamag__91__c__93__	C28H39N5O23P2	UDP-N-acetylmuramoyl-L-alanyl-D-glutamate
745	741	c	-3	M_uamr__91__c__93__	C20H28N3O19P2	UDP-N-acetylmuramate
746	742	c	-3	M_udcpdp__91__c__93__	C55H89O7P2	Undecaprenyl diphosphate
747	743	c	-2	M_udcpp__91__c__93__	C55H89O4P	Undecaprenyl phosphate
748	744	c	-3	M_udp__91__c__93__	C9H11N2O12P2	UDP
749	745	c	-2	M_udpacgal__91__c__93__	C17H25N3O17P2	UDP-N-acetyl-D-galactosamine(2-)
750	746	c	-2	M_udpg__91__c__93__	C15H22N2O17P2	UDPglucose
751	747	c	-2	M_udpgal__91__c__93__	C15H22N2O17P2	UDP-D-galactose(2-)
752	748	c	-2	M_udpgalfur__91__c__93__	C15H22N2O17P2	UDP-D-galacto-1,4-furanose
753	749	c	-3	M_udpglcur__91__c__93__	C15H19N2O18P2	UDP-D-glucuronate
754	750	c	-4	M_ugmd__91__c__93__	C35H51N7O26P2	UDP-N-acetylmuramoyl-L-alanyl-D-gamma-glutamyl-meso-2,6-diaminopimelate
755	751	c	-4	M_ugmda__91__c__93__	C41H61N9O28P2	UDP-N-acetylmuramoyl-L-alanyl-D-glutamyl-meso-2,6-diaminopimeloyl-D-alanyl-D-alanine
756	752	c	-2	M_ump__91__c__93__	C9H11N2O9P	UMP
757	753	c	-2	M_unaga__91__c__93__	C63H103NO12P2	Undecaprenyl diphospho N-acetyl-glucosamine
758	754	c	+0	M_ura__91__c__93__	C4H4N2O2	uracil
759	755	c	-1	M_urcan__91__c__93__	C6H5N2O2	Urocanate
760	756	c	+0	M_urea__91__c__93__	CH4N2O	Urea
761	757	c	+0	M_uri__91__c__93__	C9H12N2O6	Uridine
762	758	c	-4	M_utp__91__c__93__	C9H11N2O15P3	UTP
763	759	c	+0	M_val_L__91__c__93__	C5H11NO2	L-valine
764	760	c	+0	M_xan__91__c__93__	C5H4N4O2	Xanthine
765	761	c	-2	M_xmp__91__c__93__	C10H11N4O9P	Xanthosine 5-phosphate
766	762	c	-2	M_xu5p_D__91__c__93__	C5H9O8P	D-xylulose 5-phosphate(2-)
767	763	c	-2	M_xu5p_L__91__c__93__	C5H9O8P	L-Xylulose 5-phosphate
768	764	c	+2	M_zn2__91__c__93__	Zn	Zinc
