CNC	distance
0.266073	0.0852124
0.316228	0.0835957
0.375837	0.0760619
0.446684	0.0730163
0.530884	0.0678622
0.630957	0.0666717
0.749894	0.0594697
0.817523	0.0647692
0.891251	0.0625841
0.971628	0.0640618
1.05925	0.0607864
1.15478	0.0635925
1.25893	0.0585125
1.37246	0.0532471
1.49624	0.0478126
1.63117	0.04219
1.70314	0.0393397
1.77828	0.0364258
1.85674	0.0334604
1.93865	0.0304742
2.02418	0.0274838
2.11349	0.0244113
2.20673	0.0212801
2.30409	0.0181475
2.40575	0.0149845
2.45824	0.0134054
2.51189	0.0118179
2.5667	0.0102617
2.62271	0.0089247
2.67994	0.00794401
2.73842	0.00739314
2.79818	0.00723464
2.81332	0.00725169
2.82854	0.0073048
2.84385	0.00734686
2.85924	0.00740811
2.87471	0.00748056
2.89026	0.00756068
2.9059	0.00769269
2.92163	0.00780516
2.93744	0.00796751
2.95333	0.008129
2.98538	0.00847317
3.01778	0.00887169
3.05053	0.0092932
3.08363	0.00975059
inf	0.839318
inf	0.839317
inf	0.839318
inf	0.839318
inf	0.839318
inf	0.839318
inf	0.839318
inf	0.839317
inf	0.839318
inf	0.839318
inf	0.839318
inf	0.839318
inf	0.839318
inf	0.839317
inf	0.839317
inf	0.839317
inf	0.839317
inf	0.839317
inf	0.839317
inf	0.839317
inf	0.839347
inf	0.839317
inf	0.839317
inf	0.839317
inf	0.839317
inf	0.839317
inf	0.839317
inf	0.839317
inf	0.839317
inf	0.839317
inf	0.839317
inf	0.839317
inf	0.839317
inf	0.839317
inf	0.839317
inf	0.839317
inf	0.839317
inf	0.839317
inf	0.839317
inf	0.839317
0.01	0.156041
0.0141254	0.154532
0.0199526	0.129971
0.0281838	0.128657
0.0398107	0.127072
0.0562341	0.130565
0.0794328	0.125244
0.112202	0.118931
0.158489	0.107682
0.223872	0.100018
