CNC	distance
0.0613056	0.0113353
0.0616373	0.014799
0.0619709	0.0146208
0.0623062	0.0148736
0.0626434	0.0208217
0.0629823	0.0179383
0.0633231	0.019175
0.0636658	0.0153756
0.0640103	0.0196613
0.0643567	0.017805
0.0647049	0.021005
0.0654071	0.0238541
0.0661169	0.0191789
0.0668344	0.0239814
0.0675597	0.0206598
0.0682928	0.0226707
0.0697831	0.0228088
0.0713058	0.0288805
0.0728618	0.0275508
0.0744518	0.0329778
0.0760764	0.0357096
0.0829373	0.0432671
0.0865964	0.0498323
0.090417	0.0537448
0.0944061	0.0572885
0.10292	0.0653181
0.122321	0.0889506
0.133352	0.0988176
0.188365	0.135601
0.266073	0.16645
inf	0.839317
inf	0.839317
inf	0.839317
inf	0.839317
inf	0.839318
inf	0.839317
inf	0.839317
inf	0.839317
inf	0.839317
inf	0.839317
inf	0.839317
inf	0.839317
inf	0.839317
inf	0.839317
inf	0.839317
inf	0.839317
inf	0.839317
inf	0.839317
inf	0.839317
inf	0.839317
inf	0.839317
inf	0.839317
inf	0.839317
inf	0.839317
inf	0.839317
inf	0.839317
inf	0.839317
inf	0.839317
inf	0.839317
inf	0.839317
inf	0.839317
inf	0.839317
inf	0.839317
inf	0.839317
inf	0.839317
inf	0.839317
inf	0.839317
inf	0.839317
inf	0.839317
inf	0.839317
0.01	0.10208
0.0141254	0.0869251
0.0199526	0.0683131
0.0281838	0.0474325
0.0398107	0.0267879
0.0562341	0.0133034
0.0794328	0.0408875
0.112202	0.0755505
0.158489	0.119522
0.223872	0.150988
