CNC	distance
0.122321	0.165172
0.133352	0.119145
0.145378	0.0886641
0.151792	0.122043
0.165482	0.0725821
0.166377	0.20125
0.167277	0.142263
0.168183	0.11037
0.169093	0.100649
0.170008	0.118155
0.170928	0.158338
0.171853	0.151407
0.172783	0.165304
0.173718	0.107835
0.174658	0.133412
0.176553	0.134289
0.178469	0.109434
0.180406	0.158687
0.182363	0.154702
0.184342	0.150573
0.188365	0.144486
0.192475	0.106637
0.196675	0.127212
0.200967	0.154877
0.205353	0.123261
0.214412	0.144799
0.244062	0.121713
0.266073	0.141047
0.316228	0.145395
0.375837	0.150931
0.446684	0.151646
0.530884	0.142071
inf	0.839317
inf	0.839317
inf	0.839317
inf	0.839317
inf	0.839317
inf	0.839317
inf	0.839317
inf	0.839317
inf	0.839317
inf	0.839317
inf	0.839317
inf	0.839317
inf	0.839317
inf	0.839317
inf	0.839317
inf	0.839317
inf	0.839317
inf	0.839317
inf	0.839317
inf	0.839317
inf	0.839317
inf	0.839317
inf	0.839317
inf	0.839317
inf	0.839317
inf	0.839317
inf	0.839317
inf	0.839317
inf	0.839317
inf	0.839317
inf	0.839317
inf	0.839317
inf	0.839317
inf	0.839317
inf	0.839317
inf	0.839317
inf	0.839317
inf	0.839317
inf	0.839317
inf	0.839317
0.01	0.118227
0.0141254	5.38319e+303
0.0199526	0.140758
0.0281838	0.145686
0.0398107	0.143643
0.0562341	0.136213
0.0794328	0.133015
0.112202	0.096909
0.158489	0.112868
0.223872	0.175968
