CNC	distance
0.225084	0.0113519
0.226302	0.0117233
0.227526	0.0119222
0.228757	0.0122506
0.229995	0.0125438
0.23124	0.0133644
0.232491	0.0134888
0.233749	0.0139664
0.235014	0.0139868
0.236286	0.0143688
0.23885	0.0147549
0.241442	0.0158322
0.244062	0.0164934
0.24671	0.0172252
0.249388	0.0181741
0.25483	0.0198477
0.26039	0.0212222
0.266073	0.0229685
0.271879	0.024575
0.277811	0.0262836
0.290068	0.0298149
0.302866	0.0337444
0.316228	0.0372885
0.330179	0.0415726
0.344747	0.0455958
0.375837	0.0527569
0.409732	0.0589569
0.446684	0.0654123
0.486968	0.0693997
0.530884	0.0711952
0.630957	0.084216
0.749894	0.0989431
0.891251	0.113306
1.05925	0.128226
inf	0.839318
inf	0.839318
inf	0.839317
inf	0.839317
inf	0.839317
inf	0.839317
inf	0.839317
inf	0.839317
inf	0.839318
inf	0.839317
inf	0.839317
inf	0.839317
inf	0.839317
inf	0.839317
inf	0.839317
inf	0.839317
inf	0.839317
inf	0.839317
inf	0.839317
inf	0.839317
inf	0.839317
inf	0.839317
inf	0.839317
inf	0.839317
inf	0.839318
inf	0.839317
inf	0.839317
inf	0.839317
inf	0.839317
inf	0.839317
inf	0.839317
inf	0.839317
inf	0.839317
inf	0.839317
inf	0.839317
inf	0.839317
inf	0.839317
inf	0.839317
inf	0.839317
inf	0.839317
0.01	0.138766
0.0141254	0.132391
0.0199526	0.124314
0.0281838	0.114093
0.0398107	0.102018
0.0562341	0.0867576
0.0794328	0.068645
0.112202	0.0470164
0.158489	0.0222996
0.223872	0.0114213
