ID	program_log_doneSim	program_log_doneR	slurm_log	run_time	max_mem_used
setA_11_plastic	1	1	COMPLETED	00:09:04	321.09M(pg-node182)
setA_13_plastic	1	1	COMPLETED	00:37:14	234.96M(pg-node181)
setA_14_plastic	1	1	COMPLETED	00:16:20	298.67M(pg-node179)
setA_15_plastic	1	1	COMPLETED	00:35:11	317.65M(pg-node147)
setA_16_plastic	1	1	COMPLETED	00:09:53	331.59M(pg-node136)
setA_17_plastic	1	1	COMPLETED	00:59:56	323.76M(pg-node112)
setA_18_plastic	1	1	COMPLETED	04:40:09	353.90M(pg-node112)
setA_19_plastic	1	1	COMPLETED	03:21:45	368.43M(pg-node109)
setA_20_plastic	1	1	COMPLETED	00:07:56	330.98M(pg-node109)
setA_21_plastic	1	1	COMPLETED	01:00:00	410.63M(pg-node096)
setA_22_plastic	1	1	COMPLETED	08:00:47	302.68M(pg-node096)
setA_24_plastic	1	1	COMPLETED	00:25:39	252.27M(pg-node088)
setA_26_plastic	1	1	COMPLETED	00:47:51	401.09M(pg-node087)
setA_3_plastic	1	1	COMPLETED	00:47:56	320.55M(pg-node087)
setA_4_plastic	1	1	COMPLETED	01:46:13	266.87M(pg-node059)
setA_6_plastic	1	1	COMPLETED	02:39:17	434.75M(pg-node058)
setA_8_plastic	1	1	COMPLETED	00:45:08	373.20M(pg-node056)
setA_9_plastic	1	1	COMPLETED	00:07:07	309.04M(pg-node038)
