[1;35m[LOGGING SYSTEM]:[0m Hello World!
[1;35m[LOGGING SYSTEM]:[0m set to lvl 3
********************************
*** Detecting program directory ***
********************************
*****************************************
*** Finished detecting program directory ***
*****************************************

********************************
*** Fetching parameter files ***
********************************
Loading parameters from arguments...
Simulation setA_22_plastic : initialised with 1 species and 11 media.
Use parameters from calibration in environment: EU_avg.
*****************************************
*** Finished fetching parameter files ***
*****************************************

*************************************
*** Initialising folder structure ***
*************************************
**********************************************
*** Finished initialising folder structure ***
**********************************************

*******************************
*** Loading SBML model data ***
*******************************
Loading species (1/1)
Parsing of SBML file: ../materials/sbml_files/agora_1.03/Prevotella_ruminicola_23.xml complete
Species ID		: Prevotella_ruminicola_23
Amount of metabolites	: 916
Stoichiometric matrix	: 4346 non-zero metabolite-reaction pairs
Amount of reactions	: 1416	: 100.0%
---------------------------------------
	# forward 	: 1039	: 73.3757%
	# reverse 	: 377	: 26.6243%
	-----------------------------------
	# internal	: 1258	: 88.8418%
	# exchange	: 158	: 11.1582%

Flux objective(s): 
	1 x R_biomass328

Starting calculations for Jaccard Distance Matrices...Done!

****************************************
*** Finished loading SBML model data ***
****************************************

*******************************************
*** Calibrating species growth curve(s) ***
*******************************************
Parsing parameter file for species (1/1)
Set new seed: 850672928
Set param (FLX)   : 2246.130000
Set param (YLD)   : 0.083715
Set param (CRW)   : 0.179342
Set param (CNC)   : 3.050530
Set param (maxR)  : 1.109000
Set param (maxOD) : 1.464940

****************************************************
*** Finished calibrating species growth curve(s) ***
****************************************************

*************************************
*** Simulating batch mono-culture ***
*************************************
Analysing species in medium (1/11): EU_avg
Set new seed: 852369541
total metabolites env/read/known: 101/423/101
[1;33m[WARNING]:[0m At setSpeciesOD, flux mode #0 is computed by FBA...

Analysing species in medium (2/11): DACH
Set new seed: 1869960619
total metabolites env/read/known: 101/423/101
[1;33m[WARNING]:[0m At setSpeciesOD, flux mode #0 is computed by FBA...

Analysing species in medium (3/11): diabetes2
Set new seed: 2874983177
total metabolites env/read/known: 101/423/101
[1;33m[WARNING]:[0m At setSpeciesOD, flux mode #0 is computed by FBA...

Analysing species in medium (4/11): gluten_free
Set new seed: 3878494710
total metabolites env/read/known: 101/423/101
[1;33m[WARNING]:[0m At setSpeciesOD, flux mode #0 is computed by FBA...

Analysing species in medium (5/11): high_fat
Set new seed: 577548346
total metabolites env/read/known: 101/423/101
[1;33m[WARNING]:[0m At setSpeciesOD, flux mode #0 is computed by FBA...

Analysing species in medium (6/11): high_fiber
Set new seed: 1576540407
total metabolites env/read/known: 101/423/101
[1;33m[WARNING]:[0m At setSpeciesOD, flux mode #0 is computed by FBA...

Analysing species in medium (7/11): high_protein
Set new seed: 2579522445
total metabolites env/read/known: 101/423/101
[1;33m[WARNING]:[0m At setSpeciesOD, flux mode #0 is computed by FBA...

Analysing species in medium (8/11): mediterranean
Set new seed: 3608809640
total metabolites env/read/known: 101/423/101
[1;33m[WARNING]:[0m At setSpeciesOD, flux mode #0 is computed by FBA...

Analysing species in medium (9/11): unhealthy
Set new seed: 303547241
total metabolites env/read/known: 101/423/101
[1;33m[WARNING]:[0m At setSpeciesOD, flux mode #0 is computed by FBA...

Analysing species in medium (10/11): vegan
Set new seed: 1331551117
total metabolites env/read/known: 101/423/101
[1;33m[WARNING]:[0m At setSpeciesOD, flux mode #0 is computed by FBA...

Analysing species in medium (11/11): vegetarian
Set new seed: 2294576321
total metabolites env/read/known: 101/423/101
[1;33m[WARNING]:[0m At setSpeciesOD, flux mode #0 is computed by FBA...
******************************************
*** Simulating continuous mono-culture ***
******************************************
Analysing species in medium (1/11): EU_avg
Set new seed: 3312554146
total metabolites env/read/known: 101/423/101
[1;33m[WARNING]:[0m At setSpeciesOD, flux mode #0 is computed by FBA...

Analysing species in medium (2/11): DACH
Set new seed: 15684349
total metabolites env/read/known: 101/423/101
[1;33m[WARNING]:[0m At setSpeciesOD, flux mode #0 is computed by FBA...

Analysing species in medium (3/11): diabetes2
Set new seed: 1015596991
total metabolites env/read/known: 101/423/101
[1;33m[WARNING]:[0m At setSpeciesOD, flux mode #0 is computed by FBA...

Analysing species in medium (4/11): gluten_free
Set new seed: 2020214593
total metabolites env/read/known: 101/423/101
[1;33m[WARNING]:[0m At setSpeciesOD, flux mode #0 is computed by FBA...

Analysing species in medium (5/11): high_fat
Set new seed: 3019607990
total metabolites env/read/known: 101/423/101
[1;33m[WARNING]:[0m At setSpeciesOD, flux mode #0 is computed by FBA...

Analysing species in medium (6/11): high_fiber
Set new seed: 4052004720
total metabolites env/read/known: 101/423/101
[1;33m[WARNING]:[0m At setSpeciesOD, flux mode #0 is computed by FBA...

Analysing species in medium (7/11): high_protein
Set new seed: 713330415
total metabolites env/read/known: 101/423/101
[1;33m[WARNING]:[0m At setSpeciesOD, flux mode #0 is computed by FBA...

Analysing species in medium (8/11): mediterranean
Set new seed: 1722037100
total metabolites env/read/known: 101/423/101
[1;33m[WARNING]:[0m At setSpeciesOD, flux mode #0 is computed by FBA...

Analysing species in medium (9/11): unhealthy
Set new seed: 2744639155
total metabolites env/read/known: 101/423/101
[1;33m[WARNING]:[0m At setSpeciesOD, flux mode #0 is computed by FBA...

Analysing species in medium (10/11): vegan
Set new seed: 3740619543
total metabolites env/read/known: 101/423/101
[1;33m[WARNING]:[0m At setSpeciesOD, flux mode #0 is computed by FBA...

Analysing species in medium (11/11): vegetarian
Set new seed: 450468858
total metabolites env/read/known: 101/423/101
[1;33m[WARNING]:[0m At setSpeciesOD, flux mode #0 is computed by FBA...
[1;33m[WARNING]:[0m Detected only 1 bacterium, skipping coculture experiments...

*******************************
*** All simulations started ***
*******************************
Waiting for 22 threads to finish simulations

[1;33m[WARNING]:[0m No (further) growth detected, stopping simulation...
Simulating trajectory complete
batch_mono-culture with vegetarian diet
final point:
	t = 2.49439h
	OD[0] = 235.104;	r[0] = -0.1

[1;33m[WARNING]:[0m No (further) growth detected, stopping simulation...
Simulating trajectory complete
batch_mono-culture with gluten_free diet
final point:
	t = 2.87975h
	OD[0] = 241.815;	r[0] = -0.1

[1;33m[WARNING]:[0m No (further) growth detected, stopping simulation...
Simulating trajectory complete
batch_mono-culture with high_fiber diet
final point:
	t = 2.8957h
	OD[0] = 259.763;	r[0] = -0.1

[1;33m[WARNING]:[0m No (further) growth detected, stopping simulation...
Simulating trajectory complete
batch_mono-culture with DACH diet
final point:
	t = 2.31609h
	OD[0] = 296.185;	r[0] = -0.1

[1;33m[WARNING]:[0m No (further) growth detected, stopping simulation...
Simulating trajectory complete
batch_mono-culture with high_fat diet
final point:
	t = 3.73097h
	OD[0] = 255.024;	r[0] = -0.1

[1;33m[WARNING]:[0m No (further) growth detected, stopping simulation...
Simulating trajectory complete
batch_mono-culture with unhealthy diet
final point:
	t = 2.73235h
	OD[0] = 521.203;	r[0] = -0.1

[1;33m[WARNING]:[0m No (further) growth detected, stopping simulation...
Simulating trajectory complete
batch_mono-culture with high_protein diet
final point:
	t = 2.42916h
	OD[0] = 1054.63;	r[0] = -0.1

[1;33m[WARNING]:[0m No (further) growth detected, stopping simulation...
Simulating trajectory complete
batch_mono-culture with mediterranean diet
final point:
	t = 2.59213h
	OD[0] = 1047.69;	r[0] = -0.1

[1;33m[WARNING]:[0m No (further) growth detected, stopping simulation...
Simulating trajectory complete
batch_mono-culture with vegan diet
final point:
	t = 2.45h
	OD[0] = 1059.81;	r[0] = -0.1

[1;33m[WARNING]:[0m No (further) growth detected, stopping simulation...
Simulating trajectory complete
batch_mono-culture with diabetes2 diet
final point:
	t = 2.39226h
	OD[0] = 1058.91;	r[0] = -0.1

[1;33m[WARNING]:[0m No (further) growth detected, stopping simulation...
Simulating trajectory complete
batch_mono-culture with EU_avg diet
final point:
	t = 2.42916h
	OD[0] = 1054.37;	r[0] = -0.1

Simulating trajectory complete
continuous_mono-culture with high_fat diet
final point:
	t = 42h
	OD[0] = 549.754;	r[0] = 0.0999283

Simulating trajectory complete
continuous_mono-culture with EU_avg diet
final point:
	t = 42h
	OD[0] = 1154.78;	r[0] = 0.0999279

Simulating trajectory complete
continuous_mono-culture with vegetarian diet
final point:
	t = 42h
	OD[0] = 1135.92;	r[0] = 0.0999429

Simulating trajectory complete
continuous_mono-culture with vegan diet
final point:
	t = 42h
	OD[0] = 1334.46;	r[0] = 0.100637

Simulating trajectory complete
continuous_mono-culture with unhealthy diet
final point:
	t = 42h
	OD[0] = 1002.23;	r[0] = 0.0999553

Simulating trajectory complete
continuous_mono-culture with gluten_free diet
final point:
	t = 42h
	OD[0] = 1198.65;	r[0] = 0.100009

Simulating trajectory complete
continuous_mono-culture with high_protein diet
final point:
	t = 42h
	OD[0] = 1176.82;	r[0] = 0.0999385

Simulating trajectory complete
continuous_mono-culture with DACH diet
final point:
	t = 42h
	OD[0] = 1102.94;	r[0] = 0.100006

Simulating trajectory complete
continuous_mono-culture with diabetes2 diet
final point:
	t = 42h
	OD[0] = 1145;	r[0] = 0.0999977

Simulating trajectory complete
continuous_mono-culture with mediterranean diet
final point:
	t = 42h
	OD[0] = 1143.52;	r[0] = -0.0187293

Simulating trajectory complete
continuous_mono-culture with high_fiber diet
final point:
	t = 42h
	OD[0] = 1441.06;	r[0] = 0.0999245

********************************
*** All simulations finished ***
********************************

*************************
*** Calling R scripts ***
*************************
Calling: Mono-culture-plotter.R for medium: EU_avg
Saving 7 x 7 in image
[1] "index == ncol, removed all non-consumed metabolites"
Saving 7 x 7 in image
Saving 7 x 7 in image
[1] "index == ncol, removed all non-consumed metabolites"
Saving 7 x 7 in image

Calling: Mono-culture-plotter.R for medium: DACH
Saving 7 x 7 in image
[1] "index == ncol, removed all non-consumed metabolites"
Saving 7 x 7 in image
Saving 7 x 7 in image
[1] "index == ncol, removed all non-consumed metabolites"
Saving 7 x 7 in image

Calling: Mono-culture-plotter.R for medium: diabetes2
Saving 7 x 7 in image
[1] "index == ncol, removed all non-consumed metabolites"
Saving 7 x 7 in image
Saving 7 x 7 in image
[1] "index == ncol, removed all non-consumed metabolites"
Saving 7 x 7 in image

Calling: Mono-culture-plotter.R for medium: gluten_free
Saving 7 x 7 in image
[1] "index == ncol, removed all non-consumed metabolites"
Saving 7 x 7 in image
Saving 7 x 7 in image
[1] "index == ncol, removed all non-consumed metabolites"
Saving 7 x 7 in image

Calling: Mono-culture-plotter.R for medium: high_fat
Saving 7 x 7 in image
[1] "index == ncol, removed all non-consumed metabolites"
Saving 7 x 7 in image
Saving 7 x 7 in image
[1] "index == ncol, removed all non-consumed metabolites"
Saving 7 x 7 in image

Calling: Mono-culture-plotter.R for medium: high_fiber
Saving 7 x 7 in image
[1] "index == ncol, removed all non-consumed metabolites"
Saving 7 x 7 in image
Saving 7 x 7 in image
[1] "index == ncol, removed all non-consumed metabolites"
Saving 7 x 7 in image

Calling: Mono-culture-plotter.R for medium: high_protein
Saving 7 x 7 in image
[1] "index == ncol, removed all non-consumed metabolites"
Saving 7 x 7 in image
Saving 7 x 7 in image
[1] "index == ncol, removed all non-consumed metabolites"
Saving 7 x 7 in image

Calling: Mono-culture-plotter.R for medium: mediterranean
Saving 7 x 7 in image
[1] "index == ncol, removed all non-consumed metabolites"
Saving 7 x 7 in image
Saving 7 x 7 in image
[1] "index == ncol, removed all non-consumed metabolites"
Saving 7 x 7 in image

Calling: Mono-culture-plotter.R for medium: unhealthy
Saving 7 x 7 in image
[1] "index == ncol, removed all non-consumed metabolites"
Saving 7 x 7 in image
Saving 7 x 7 in image
[1] "index == ncol, removed all non-consumed metabolites"
Saving 7 x 7 in image

Calling: Mono-culture-plotter.R for medium: vegan
Saving 7 x 7 in image
[1] "index == ncol, removed all non-consumed metabolites"
Saving 7 x 7 in image
Saving 7 x 7 in image
[1] "index == ncol, removed all non-consumed metabolites"
Saving 7 x 7 in image

Calling: Mono-culture-plotter.R for medium: vegetarian
Saving 7 x 7 in image
[1] "index == ncol, removed all non-consumed metabolites"
Saving 7 x 7 in image
Saving 7 x 7 in image
[1] "index == ncol, removed all non-consumed metabolites"
Saving 7 x 7 in image

Calling: Flux-plotter.R for medium: EU_avg
[1] TRUE

Calling: Flux-plotter.R for medium: DACH
[1] TRUE

Calling: Flux-plotter.R for medium: diabetes2
[1] TRUE

Calling: Flux-plotter.R for medium: gluten_free
[1] TRUE

Calling: Flux-plotter.R for medium: high_fat
[1] TRUE

Calling: Flux-plotter.R for medium: high_fiber
[1] TRUE

Calling: Flux-plotter.R for medium: high_protein
[1] TRUE

Calling: Flux-plotter.R for medium: mediterranean
[1] TRUE

Calling: Flux-plotter.R for medium: unhealthy
[1] TRUE

Calling: Flux-plotter.R for medium: vegan
[1] TRUE

Calling: Flux-plotter.R for medium: vegetarian
[1] TRUE

Calling: gc_monocultures.R for medium: EU_avg
Saving 7 x 7 in image
[[1]]
NULL

Saving 7 x 7 in image
[[1]]
NULL


Calling: gc_monocultures.R for medium: DACH
Saving 7 x 7 in image
[[1]]
NULL

Saving 7 x 7 in image
[[1]]
NULL


Calling: gc_monocultures.R for medium: diabetes2
Saving 7 x 7 in image
[[1]]
NULL

Saving 7 x 7 in image
[[1]]
NULL


Calling: gc_monocultures.R for medium: gluten_free
Saving 7 x 7 in image
[[1]]
NULL

Saving 7 x 7 in image
[[1]]
NULL


Calling: gc_monocultures.R for medium: high_fat
Saving 7 x 7 in image
[[1]]
NULL

Saving 7 x 7 in image
[[1]]
NULL


Calling: gc_monocultures.R for medium: high_fiber
Saving 7 x 7 in image
[[1]]
NULL

Saving 7 x 7 in image
[[1]]
NULL


Calling: gc_monocultures.R for medium: high_protein
Saving 7 x 7 in image
[[1]]
NULL

Saving 7 x 7 in image
[[1]]
NULL


Calling: gc_monocultures.R for medium: mediterranean
Saving 7 x 7 in image
[[1]]
NULL

Saving 7 x 7 in image
[[1]]
NULL


Calling: gc_monocultures.R for medium: unhealthy
Saving 7 x 7 in image
[[1]]
NULL

Saving 7 x 7 in image
[[1]]
NULL


Calling: gc_monocultures.R for medium: vegan
Saving 7 x 7 in image
[[1]]
NULL

Saving 7 x 7 in image
[[1]]
NULL


Calling: gc_monocultures.R for medium: vegetarian
Saving 7 x 7 in image
[[1]]
NULL

Saving 7 x 7 in image
[[1]]
NULL


**********************************
*** Finished calling R scripts ***
**********************************

[1;35m[LOGGING SYSTEM]:[0m Goodbye World!
