	metabolite_index	reaction_index	stoichiometry	metabolite_id	reaction_id
1	0	16	-1	M_2dmmq8__91__e__93__	R_1P4H2CBXLAH
2	1	19	-1	M_2obut__91__e__93__	R_23DHMPO
3	1	20	+1	M_2obut__91__e__93__	R_23PDE2
4	2	120	-1	M_4abz__91__e__93__	R_23PDE4
5	4	134	-1	M_acald__91__e__93__	R_23PDE7
6	4	135	+1	M_acald__91__e__93__	R_23PDE9
7	3	167	-1	M_ac__91__e__93__	R_26DAPLLAT
8	3	168	+1	M_ac__91__e__93__	R_2AHBUTI
9	5	176	-1	M_ade__91__e__93__	R_2DDPENTHL
10	5	177	+1	M_ade__91__e__93__	R_2DHPL
11	6	198	-1	M_adn__91__e__93__	R_2DMMQ8abc
12	6	199	+1	M_adn__91__e__93__	R_2MBCOATA
13	7	204	-1	M_adocbl__91__e__93__	R_2OBUTt2r
14	8	274	-1	M_amp__91__e__93__	R_3HAD100
15	9	283	-1	M_arab_L__91__e__93__	R_3HAD10M12
16	11	293	-1	M_asn_L__91__e__93__	R_3HAD11M12
17	11	294	+1	M_asn_L__91__e__93__	R_3HAD120
18	12	305	-1	M_asp_L__91__e__93__	R_3HAD12M14
19	12	306	+1	M_asp_L__91__e__93__	R_3HAD13M14
20	13	316	-1	M_ca2__91__e__93__	R_3HAD140
21	14	319	-1	M_cbl1__91__e__93__	R_3HAD14M16
22	15	320	-1	M_cbl2__91__e__93__	R_3HAD15M16
23	16	322	+1	M_cd2__91__e__93__	R_3HAD160
24	17	328	-1	M_cellb__91__e__93__	R_3HAD180
25	18	329	-1	M_cgly__91__e__93__	R_3HAD40
26	20	353	-1	M_co2__91__e__93__	R_3HAD4M6
27	20	354	+1	M_co2__91__e__93__	R_3HAD5M6
28	22	361	+1	M_cro4__91__e__93__	R_3HAD60
29	22	362	-1	M_cro4__91__e__93__	R_3HAD6M8
30	23	363	-1	M_csn__91__e__93__	R_3HAD7M8
31	23	364	+1	M_csn__91__e__93__	R_3HAD80
32	25	375	-1	M_cys_L__91__e__93__	R_3HAD8M10
33	25	376	+1	M_cys_L__91__e__93__	R_3HAD9M10
34	26	384	-1	M_cytd__91__e__93__	R_3MOBS
35	26	385	+1	M_cytd__91__e__93__	R_3OAR100
36	21	390	-1	M_cobalt2__91__e__93__	R_3OAR10M11
37	24	391	-1	M_cu2__91__e__93__	R_3OAR10M12
38	24	392	+1	M_cu2__91__e__93__	R_3OAR11M12
39	27	396	-1	M_dad_2__91__e__93__	R_3OAR120
40	27	397	+1	M_dad_2__91__e__93__	R_3OAR12M13
41	28	421	-1	M_dcyt__91__e__93__	R_3OAR12M14
42	28	422	+1	M_dcyt__91__e__93__	R_3OAR13M14
43	29	431	-1	M_dgsn__91__e__93__	R_3OAR140
44	30	456	-1	M_din__91__e__93__	R_3OAR14M15
45	31	485	-1	M_duri__91__e__93__	R_3OAR14M16
46	32	556	-1	M_fe2__91__e__93__	R_3OAR15M16
47	33	557	-1	M_fe3__91__e__93__	R_3OAR160
48	34	565	-1	M_for__91__e__93__	R_3OAR180
49	34	566	+1	M_for__91__e__93__	R_3OAR40
50	35	575	-1	M_fru__91__e__93__	R_3OAR4M5
51	35	576	+1	M_fru__91__e__93__	R_3OAR4M6
52	37	618	-1	M_galt__91__e__93__	R_3OAR5M6
53	38	621	+1	M_galur__91__e__93__	R_3OAR60
54	38	622	-1	M_galur__91__e__93__	R_3OAR6M7
55	36	623	-1	M_gal__91__e__93__	R_3OAR6M8
56	39	628	-1	M_gcald__91__e__93__	R_3OAR7M8
57	39	629	+1	M_gcald__91__e__93__	R_3OAR80
58	40	649	-1	M_glcur__91__e__93__	R_3OAR8M10
59	40	650	+1	M_glcur__91__e__93__	R_3OAR8M9
60	41	655	-1	M_gln_L__91__e__93__	R_3OAR9M10
61	41	656	+1	M_gln_L__91__e__93__	R_3OAS100
62	42	671	-1	M_glu_L__91__e__93__	R_3OAS10M11
63	42	672	+1	M_glu_L__91__e__93__	R_3OAS10M12
64	43	679	+1	M_glyc__91__e__93__	R_3OAS11M12
65	43	680	-1	M_glyc__91__e__93__	R_3OAS120
66	44	702	-1	M_gsn__91__e__93__	R_3OAS12M13
67	44	703	+1	M_gsn__91__e__93__	R_3OAS12M14
68	45	709	-1	M_gua__91__e__93__	R_3OAS13M14
69	45	710	+1	M_gua__91__e__93__	R_3OAS140
70	45	711	-1	M_gua__91__e__93__	R_3OAS160
71	46	718	-1	M_h2s__91__e__93__	R_3OAS180
72	46	719	+1	M_h2s__91__e__93__	R_3OAS2M3
73	47	732	+1	M_hg2__91__e__93__	R_3OAS3M4
74	48	755	-1	M_hxan__91__e__93__	R_3OAS4M3O6
75	49	772	-1	M_ins__91__e__93__	R_3OAS4M5
76	49	773	+1	M_ins__91__e__93__	R_3OAS4M6
77	50	775	-1	M_inulin__91__e__93__	R_3OAS5M6
78	51	788	-1	M_isobut__91__e__93__	R_3OAS60
79	51	789	+1	M_isobut__91__e__93__	R_3OAS6M7
80	52	790	-1	M_isocapr__91__e__93__	R_3OAS6M8
81	52	791	+1	M_isocapr__91__e__93__	R_3OAS7M8
82	53	792	-1	M_isoval__91__e__93__	R_3OAS80
83	53	793	+1	M_isoval__91__e__93__	R_3OAS8M10
84	54	810	-1	M_k__91__e__93__	R_3OAS8M9
85	54	811	+1	M_k__91__e__93__	R_3OAS9M10
86	54	812	+1	M_k__91__e__93__	R_4ABZt2
87	56	822	-1	M_leu_L__91__e__93__	R_4HBZCL
88	56	823	+1	M_leu_L__91__e__93__	R_4HTHRS
89	57	825	+1	M_lys_L__91__e__93__	R_4NTPPH2
90	57	826	-1	M_lys_L__91__e__93__	R_5DOAN
91	55	829	-1	M_lac_L__91__e__93__	R_6PGALSZ2i
92	55	830	+1	M_lac_L__91__e__93__	R_6PHBG
93	58	838	-1	M_malt__91__e__93__	R_A5PISO
94	60	846	-1	M_mantr__91__e__93__	R_AACOAT
95	59	847	-1	M_man__91__e__93__	R_AACPS6
96	61	857	-1	M_melib__91__e__93__	R_AACPS7
97	62	858	-1	M_meoh__91__e__93__	R_ABUTD
98	62	859	+1	M_meoh__91__e__93__	R_ACALDt
99	63	869	-1	M_met_L__91__e__93__	R_ACBIPGT
100	63	870	+1	M_met_L__91__e__93__	R_ACCOAC
101	64	872	-1	M_mg2__91__e__93__	R_ACCOALYS2
102	66	880	+1	M_mqn8__91__e__93__	R_ACGAMH
103	66	881	-1	M_mqn8__91__e__93__	R_ACGAMT
104	65	890	-1	M_mn2__91__e__93__	R_ACGK
105	68	901	+1	M_nac__91__e__93__	R_ACGS
106	68	902	-1	M_nac__91__e__93__	R_ACHBPL
107	67	909	+1	M_na1__91__e__93__	R_ACKr
108	67	910	-1	M_na1__91__e__93__	R_ACLS_a
109	69	932	-1	M_nh4__91__e__93__	R_ACLS_b
110	69	933	+1	M_nh4__91__e__93__	R_ACOAAGPAT140
111	70	958	-1	M_o2__91__e__93__	R_ACOAAGPAT160
112	70	959	+1	M_o2__91__e__93__	R_ACOAAGPAT180
113	71	986	-1	M_orn__91__e__93__	R_ACOAAGPATAI15
114	71	987	+1	M_orn__91__e__93__	R_ACOAAGPATAI17
115	72	997	+1	M_pb__91__e__93__	R_ACOAAGPATI14
116	74	1035	-1	M_phe_L__91__e__93__	R_ACOAAGPATI15
117	74	1036	+1	M_phe_L__91__e__93__	R_ACOAAGPATI16
118	75	1039	-1	M_pi__91__e__93__	R_ACOAAGPATI17
119	67	1040	-3	M_na1__91__e__93__	R_ACOATA
120	75	1040	-1	M_pi__91__e__93__	R_ACOATA
121	76	1057	+1	M_ppa__91__e__93__	R_ACOCT
122	76	1058	-1	M_ppa__91__e__93__	R_ACODAr
123	67	1088	-1	M_na1__91__e__93__	R_ACOTA
124	77	1088	-1	M_pro_L__91__e__93__	R_ACOTA
125	67	1089	+1	M_na1__91__e__93__	R_ACPS1
126	77	1089	+1	M_pro_L__91__e__93__	R_ACPS1
127	78	1126	+1	M_ptrc__91__e__93__	R_ACt2r
128	79	1142	-1	M_pydam__91__e__93__	R_ADAD
129	81	1145	-1	M_pydxn__91__e__93__	R_ADCL
130	80	1146	-1	M_pydx__91__e__93__	R_ADCPS1
131	82	1150	-1	M_q8__91__e__93__	R_ADCPS2
132	83	1152	-1	M_raffin__91__e__93__	R_ADCS
133	84	1192	-1	M_salcn__91__e__93__	R_ADCYRS
134	85	1196	-1	M_ser_L__91__e__93__	R_ADEt2r
135	85	1197	+1	M_ser_L__91__e__93__	R_ADK1
136	86	1202	-1	M_sheme__91__e__93__	R_ADK10
137	87	1207	-1	M_so4__91__e__93__	R_ADK11
138	87	1208	+1	M_so4__91__e__93__	R_ADK2
139	88	1216	-1	M_stys__91__e__93__	R_ADK3
140	89	1220	-1	M_succ__91__e__93__	R_ADK5
141	89	1221	+1	M_succ__91__e__93__	R_ADK7
142	90	1232	-1	M_sucr__91__e__93__	R_ADK8
143	93	1264	-1	M_thymd__91__e__93__	R_ADK9
144	93	1265	+1	M_thymd__91__e__93__	R_ADMDCr
145	91	1266	-1	M_thm__91__e__93__	R_ADNCNT3tc
146	92	1271	-1	M_thr_L__91__e__93__	R_ADNK1
147	92	1272	+1	M_thr_L__91__e__93__	R_ADOCBIK
148	94	1298	-1	M_tym__91__e__93__	R_ADOCBIK2
149	94	1299	+1	M_tym__91__e__93__	R_ADOCBLS
150	95	1338	-1	M_ura__91__e__93__	R_ADOCBLabc
151	96	1358	-1	M_uri__91__e__93__	R_ADPRDP
152	96	1359	+1	M_uri__91__e__93__	R_ADPT
153	97	1366	-1	M_val_L__91__e__93__	R_ADSL1r
154	97	1367	+1	M_val_L__91__e__93__	R_ADSL2r
155	98	1375	-1	M_xyl_D__91__e__93__	R_ADSS
156	98	1376	-1	M_xyl_D__91__e__93__	R_AGMD
157	98	1377	+1	M_xyl_D__91__e__93__	R_AGMHE
158	54	1380	-1	M_k__91__e__93__	R_AGPAT120
159	100	1380	+1	M_zn2__91__e__93__	R_AGPAT120
160	54	1381	+1	M_k__91__e__93__	R_AGPAT140
161	100	1381	-1	M_zn2__91__e__93__	R_AGPAT140
162	19	1405	-1	M_cl__91__e__93__	R_AGPAT141
163	19	1406	+1	M_cl__91__e__93__	R_AGPAT160
