CNC	distance
0.0473151	0.119061
0.0668344	0.106773
0.0728618	0.094983
0.0865964	0.15063
0.0944061	0.114611
0.10292	0.0579269
0.103477	0.161614
0.104037	0.102701
0.1046	0.156264
0.105166	0.170547
0.105735	0.146631
0.106307	0.153934
0.106882	0.147678
0.107461	0.0721431
0.108042	0.117186
0.108627	0.132864
0.109806	0.151093
0.110997	0.143002
0.113419	0.147509
0.11465	0.161543
0.117152	0.149546
0.119709	0.157488
0.122321	0.106154
0.12499	0.165832
0.127717	0.219267
0.133352	0.169086
0.139236	0.151665
0.145378	0.155941
0.151792	0.179319
0.188365	0.229378
inf	0.839318
inf	0.839318
inf	0.839318
inf	0.839317
inf	0.839318
inf	0.839318
inf	0.839317
inf	0.839318
inf	0.839318
inf	0.839318
inf	0.839318
inf	0.839318
inf	0.839318
inf	0.839318
inf	0.839318
inf	0.839318
inf	0.839317
inf	0.839317
inf	0.839318
inf	0.839318
inf	0.839317
inf	0.839318
inf	0.839318
inf	0.839317
inf	0.839317
inf	0.839317
inf	0.839317
inf	0.839318
inf	0.839317
inf	0.839317
inf	0.839317
inf	0.839317
inf	0.839317
inf	0.839317
inf	0.839317
inf	0.839317
inf	0.839317
inf	0.839317
inf	0.839317
inf	0.839317
0.01	0.149082
0.0141254	0.140366
0.0199526	0.139324
0.0281838	0.133127
0.0398107	0.12203
0.0562341	0.147198
0.0794328	0.159841
0.112202	0.155223
0.158489	0.174725
0.223872	0.167995
