	metabolite_index	reaction_index	stoichiometry	metabolite_id	reaction_id
1	0	9	-1	M_26dap_M__91__e__93__	R_1P4H2CBXLAH
2	0	10	+1	M_26dap_M__91__e__93__	R_23PDE2
3	1	13	-1	M_2dmmq8__91__e__93__	R_23PDE4
4	2	20	-1	M_2obut__91__e__93__	R_23PDE7
5	2	21	+1	M_2obut__91__e__93__	R_23PDE9
6	3	113	-1	M_4abz__91__e__93__	R_26DAPLLAT
7	4	114	-1	M_4hbz__91__e__93__	R_26DAPt2r
8	4	115	+1	M_4hbz__91__e__93__	R_2DHPL
9	6	130	-1	M_acald__91__e__93__	R_2DMMQ8abc
10	6	131	+1	M_acald__91__e__93__	R_2HBO
11	7	136	-1	M_acgam__91__e__93__	R_2HMCOXT
12	5	161	-1	M_ac__91__e__93__	R_2MBCOATA
13	5	162	+1	M_ac__91__e__93__	R_2OBUTt2r
14	10	220	-1	M_alaasp__91__e__93__	R_34DHOXPEGOX
15	11	223	-1	M_alagln__91__e__93__	R_3HAD10M12
16	12	226	-1	M_alaglu__91__e__93__	R_3HAD11M12
17	13	229	-1	M_alagly__91__e__93__	R_3HAD12M14
18	14	232	-1	M_alahis__91__e__93__	R_3HAD13M14
19	15	235	-1	M_alaleu__91__e__93__	R_3HAD14M16
20	16	243	-1	M_alathr__91__e__93__	R_3HAD15M16
21	9	244	-1	M_ala_L__91__e__93__	R_3HAD4M6
22	9	245	+1	M_ala_L__91__e__93__	R_3HAD5M6
23	17	252	-1	M_alltn__91__e__93__	R_3HAD6M8
24	17	253	+1	M_alltn__91__e__93__	R_3HAD7M8
25	19	265	-1	M_arbt__91__e__93__	R_3HAD8M10
26	18	266	-1	M_arab_L__91__e__93__	R_3HAD9M10
27	20	268	-1	M_arg_L__91__e__93__	R_3OAR100
28	21	269	-1	M_arsenb__91__e__93__	R_3OAR10M11
29	22	272	-1	M_asn_L__91__e__93__	R_3OAR10M12
30	22	273	+1	M_asn_L__91__e__93__	R_3OAR11M12
31	23	279	-1	M_asp_L__91__e__93__	R_3OAR120
32	23	280	+1	M_asp_L__91__e__93__	R_3OAR12M13
33	24	291	-1	M_btn__91__e__93__	R_3OAR12M14
34	25	293	-1	M_ca2__91__e__93__	R_3OAR13M14
35	26	299	+1	M_cd2__91__e__93__	R_3OAR140
36	74	300	-1	M_k__91__e__93__	R_3OAR14M15
37	26	300	+1	M_cd2__91__e__93__	R_3OAR14M15
38	74	301	+1	M_k__91__e__93__	R_3OAR14M16
39	26	301	-1	M_cd2__91__e__93__	R_3OAR14M16
40	27	307	-1	M_cellb__91__e__93__	R_3OAR15M16
41	28	308	-1	M_cgly__91__e__93__	R_3OAR160
42	30	332	-1	M_co2__91__e__93__	R_3OAR180
43	30	333	+1	M_co2__91__e__93__	R_3OAR40
44	31	334	+1	M_cobalt2__91__e__93__	R_3OAR4M5
45	31	335	-1	M_cobalt2__91__e__93__	R_3OAR4M6
46	32	337	-1	M_csn__91__e__93__	R_3OAR5M6
47	33	338	-1	M_ctbt__91__e__93__	R_3OAR60
48	35	345	-1	M_cys_L__91__e__93__	R_3OAR6M7
49	35	346	+1	M_cys_L__91__e__93__	R_3OAR6M8
50	36	354	-1	M_cytd__91__e__93__	R_3OAR7M8
51	36	355	+1	M_cytd__91__e__93__	R_3OAR80
52	34	360	-1	M_cu2__91__e__93__	R_3OAR8M10
53	34	361	+1	M_cu2__91__e__93__	R_3OAR8M9
54	38	362	+1	M_diact__91__e__93__	R_3OAR9M10
55	37	364	-1	M_dad_2__91__e__93__	R_3OAS100
56	37	365	+1	M_dad_2__91__e__93__	R_3OAS10M11
57	8	373	-1	M_ala_D__91__e__93__	R_3OAS10M12
58	8	374	+1	M_ala_D__91__e__93__	R_3OAS11M12
59	39	431	-1	M_drib__91__e__93__	R_3OAS120
60	117	432	-1	M_ser_D__91__e__93__	R_3OAS12M13
61	117	433	+1	M_ser_D__91__e__93__	R_3OAS12M14
62	75	440	-1	M_lac_D__91__e__93__	R_3OAS13M14
63	75	441	+1	M_lac_D__91__e__93__	R_3OAS140
64	40	472	-1	M_etoh__91__e__93__	R_3OAS160
65	40	473	+1	M_etoh__91__e__93__	R_3OAS180
66	41	484	-1	M_fe2__91__e__93__	R_3OAS2M3
67	42	485	-1	M_fe3__91__e__93__	R_3OAS3M4
68	43	491	-1	M_fol__91__e__93__	R_3OAS4M3O6
69	43	492	+1	M_fol__91__e__93__	R_3OAS4M5
70	44	495	-1	M_for__91__e__93__	R_3OAS4M6
71	44	496	+1	M_for__91__e__93__	R_3OAS5M6
72	45	505	-1	M_fru__91__e__93__	R_3OAS60
73	47	544	-1	M_galt__91__e__93__	R_3OAS6M7
74	46	547	-1	M_gal__91__e__93__	R_3OAS6M8
75	46	548	-1	M_gal__91__e__93__	R_3OAS7M8
76	46	549	+1	M_gal__91__e__93__	R_3OAS80
77	48	550	-1	M_gam__91__e__93__	R_3OAS8M10
78	49	554	-1	M_gbbtn__91__e__93__	R_3OAS8M9
79	50	556	-1	M_gcald__91__e__93__	R_3OAS9M10
80	50	557	+1	M_gcald__91__e__93__	R_4ABZt2
81	52	572	-1	M_glcn__91__e__93__	R_4HBZt2
82	52	573	+1	M_glcn__91__e__93__	R_5AIZCDC
83	51	576	-1	M_glc_D__91__e__93__	R_6P3HXI
84	51	577	-1	M_glc_D__91__e__93__	R_6PHBG
85	51	578	-1	M_glc_D__91__e__93__	R_6PHBG2
86	53	584	-1	M_gln_L__91__e__93__	R_AACPS6
87	53	585	-1	M_gln_L__91__e__93__	R_AACPS7
88	53	586	+1	M_gln_L__91__e__93__	R_AB6PGH
89	54	594	-1	M_glu_L__91__e__93__	R_AB6PGH2
90	54	595	+1	M_glu_L__91__e__93__	R_ABTOXy
91	56	598	-1	M_glyasn__91__e__93__	R_ABUTD
92	57	601	-1	M_glyasp__91__e__93__	R_ACALD
93	58	602	-1	M_glyb__91__e__93__	R_ACALDt
94	59	603	-1	M_glyc3p__91__e__93__	R_ACBIPGT
95	61	605	-1	M_glycys__91__e__93__	R_ACCOACL
96	60	606	+1	M_glyc__91__e__93__	R_ACCOALYS2
97	60	607	-1	M_glyc__91__e__93__	R_ACGAMT
98	62	610	-1	M_glygln__91__e__93__	R_ACGApts
99	63	613	-1	M_glyglu__91__e__93__	R_ACHBPL
100	64	617	-1	M_glyleu__91__e__93__	R_ACKr
101	65	620	-1	M_glymet__91__e__93__	R_ACLDC
102	66	623	-1	M_glyphe__91__e__93__	R_ACLS_a
103	67	626	-1	M_glypro__91__e__93__	R_ACLS_b
104	68	629	-1	M_glytyr__91__e__93__	R_ACOAAGPAT140
105	55	630	-1	M_gly__91__e__93__	R_ACOAAGPAT160
106	55	631	+1	M_gly__91__e__93__	R_ACOAAGPAT180
107	69	653	-1	M_gua__91__e__93__	R_ACOAAGPATAI15
108	69	654	+1	M_gua__91__e__93__	R_ACOAAGPATAI17
109	69	655	-1	M_gua__91__e__93__	R_ACOAAGPATI14
110	103	677	-1	M_pheme__91__e__93__	R_ACOAAGPATI15
111	70	684	+1	M_hg2__91__e__93__	R_ACOAAGPATI16
112	71	686	-1	M_his_L__91__e__93__	R_ACOAAGPATI17
113	71	687	+1	M_his_L__91__e__93__	R_ACOATA
114	72	697	-1	M_hxan__91__e__93__	R_ACOCT
115	73	716	-1	M_ile_L__91__e__93__	R_ACODAr
116	73	717	+1	M_ile_L__91__e__93__	R_ACPS1
117	74	736	+1	M_k__91__e__93__	R_ACTD
118	74	737	-1	M_k__91__e__93__	R_ACt2r
119	77	749	-1	M_leu_L__91__e__93__	R_ADD
120	77	750	+1	M_leu_L__91__e__93__	R_ADK1
121	78	751	-1	M_lys_L__91__e__93__	R_ADK10
122	78	752	+1	M_lys_L__91__e__93__	R_ADK11
123	79	756	-1	M_mal_L__91__e__93__	R_ADK2
124	76	756	+1	M_lac_L__91__e__93__	R_ADK2
125	93	756	+1	M_na1__91__e__93__	R_ADK2
126	79	757	+1	M_mal_L__91__e__93__	R_ADK3
127	76	757	-1	M_lac_L__91__e__93__	R_ADK3
128	93	757	-1	M_na1__91__e__93__	R_ADK3
129	76	758	-1	M_lac_L__91__e__93__	R_ADK5
130	75	763	-1	M_lac_D__91__e__93__	R_ADK7
131	93	763	-1	M_na1__91__e__93__	R_ADK7
132	79	763	+1	M_mal_L__91__e__93__	R_ADK7
133	75	764	+1	M_lac_D__91__e__93__	R_ADK8
134	93	764	+1	M_na1__91__e__93__	R_ADK8
135	79	764	-1	M_mal_L__91__e__93__	R_ADK8
136	79	765	-1	M_mal_L__91__e__93__	R_ADK9
137	93	765	-1	M_na1__91__e__93__	R_ADK9
138	79	766	+1	M_mal_L__91__e__93__	R_ADNK1
139	93	766	+1	M_na1__91__e__93__	R_ADNK1
140	81	768	-1	M_malthx__91__e__93__	R_ADNUC
141	82	769	-1	M_malttr__91__e__93__	R_ADOCBIK
142	80	770	-1	M_malt__91__e__93__	R_ADOCBLS
143	80	771	-1	M_malt__91__e__93__	R_ADPRDP
144	83	774	-1	M_man__91__e__93__	R_ADPT
145	86	788	-1	M_metala__91__e__93__	R_ADSL1r
146	84	790	-1	M_met_D__91__e__93__	R_ADSL2r
147	88	793	-1	M_metsox_S_L__91__e__93__	R_ADSS
148	87	794	-1	M_metsox_R_L__91__e__93__	R_AGDC
149	85	797	-1	M_met_L__91__e__93__	R_AGPAT120
150	85	798	-1	M_met_L__91__e__93__	R_AGPAT140
151	85	799	+1	M_met_L__91__e__93__	R_AGPAT141
152	89	801	-1	M_mg2__91__e__93__	R_AGPAT160
153	89	802	+1	M_mg2__91__e__93__	R_AGPAT161
154	89	803	-1	M_mg2__91__e__93__	R_AGPAT180
155	92	807	+1	M_mqn8__91__e__93__	R_AGPAT181
156	92	808	-1	M_mqn8__91__e__93__	R_AHCYSNS_r
157	91	813	-1	M_mnl__91__e__93__	R_AHSERL2
158	90	814	-1	M_mn2__91__e__93__	R_AHSERL3
159	90	815	-1	M_mn2__91__e__93__	R_AICART
160	94	826	+1	M_nac__91__e__93__	R_AIHDUDPMG
161	94	827	-1	M_nac__91__e__93__	R_AIHDUPDG
162	93	837	+1	M_na1__91__e__93__	R_AIHPDCOATA
163	93	838	-1	M_na1__91__e__93__	R_AIPDCOATA
164	95	858	-1	M_nh4__91__e__93__	R_AIRC4
165	95	859	+1	M_nh4__91__e__93__	R_ALAALA
166	96	861	-1	M_nmn__91__e__93__	R_ALAASP1c
167	98	867	-1	M_no3__91__e__93__	R_ALAASPabc
168	97	867	+1	M_no2__91__e__93__	R_ALAASPabc
169	99	882	-1	M_o2__91__e__93__	R_ALAGLN1c
170	99	883	+1	M_o2__91__e__93__	R_ALAGLNabc
171	101	908	+1	M_pb__91__e__93__	R_ALAGLU1c
172	102	950	-1	M_phe_L__91__e__93__	R_ALAGLUabc
173	102	951	+1	M_phe_L__91__e__93__	R_ALAGLY1c
174	104	955	-1	M_pi__91__e__93__	R_ALAGLYabc
175	104	956	-1	M_pi__91__e__93__	R_ALAHIS1c
176	104	957	+1	M_pi__91__e__93__	R_ALAHISabc
177	93	965	-1	M_na1__91__e__93__	R_ALALEU1c
178	105	965	-1	M_pnto_R__91__e__93__	R_ALALEU1c
179	106	972	+1	M_ppi__91__e__93__	R_ALALEUabc
180	107	984	-1	M_pro_L__91__e__93__	R_ALAPGPL
181	108	1007	-1	M_ptrc__91__e__93__	R_ALAR
182	109	1009	-1	M_pydam__91__e__93__	R_ALATA_D
183	111	1012	-1	M_pydxn__91__e__93__	R_ALATHR1c
184	110	1013	-1	M_pydx__91__e__93__	R_ALATHRabc
185	112	1018	-1	M_q8__91__e__93__	R_ALAt2r
186	113	1031	+1	M_rib_D__91__e__93__	R_ALCD19
187	114	1032	-1	M_ribflv__91__e__93__	R_ALCD2x
188	114	1033	+1	M_ribflv__91__e__93__	R_ALCD4
189	113	1034	-1	M_rib_D__91__e__93__	R_ALLTNt2r
190	115	1048	-1	M_salcn__91__e__93__	R_AMMQLT8
191	116	1049	-1	M_sbt_D__91__e__93__	R_AMMQT8r
192	118	1051	-1	M_ser_L__91__e__93__	R_AMPMS2
193	118	1052	+1	M_ser_L__91__e__93__	R_AMPTASECG
194	119	1055	-1	M_sheme__91__e__93__	R_AMPTASEGC
195	120	1060	-1	M_so4__91__e__93__	R_APAT
196	120	1061	+1	M_so4__91__e__93__	R_APRAUR
197	121	1064	-1	M_spmd__91__e__93__	R_ARAI
198	122	1069	-1	M_succ__91__e__93__	R_ARBTpts
199	122	1070	+1	M_succ__91__e__93__	R_ARBabc
200	123	1071	-1	M_sucr__91__e__93__	R_ARGDA
201	126	1129	-1	M_thymd__91__e__93__	R_ARGt2
202	126	1130	+1	M_thymd__91__e__93__	R_ARSENBabc
203	124	1131	-1	M_thm__91__e__93__	R_ASAD
204	124	1132	-1	M_thm__91__e__93__	R_ASNt2r
205	124	1133	+1	M_thm__91__e__93__	R_ASPCT
206	125	1135	-1	M_thr_L__91__e__93__	R_ASPKi
207	125	1136	+1	M_thr_L__91__e__93__	R_ASPT
208	127	1152	-1	M_tre__91__e__93__	R_ASPTA
209	128	1154	-1	M_trp_L__91__e__93__	R_ASPt2r
210	128	1155	+1	M_trp_L__91__e__93__	R_ATPS4
211	129	1161	-1	M_tyr_L__91__e__93__	R_BGLA
212	129	1162	+1	M_tyr_L__91__e__93__	R_BGLA1
213	130	1193	-1	M_ura__91__e__93__	R_BGLAr
214	131	1211	-1	M_uri__91__e__93__	R_BPNT
215	131	1212	+1	M_uri__91__e__93__	R_BTDD_RR
216	132	1215	-1	M_val_L__91__e__93__	R_BTNCLi
217	132	1216	+1	M_val_L__91__e__93__	R_BTND1
218	133	1217	-1	M_xan__91__e__93__	R_BTNabc
219	134	1226	-1	M_xyl_D__91__e__93__	R_C180SN
220	134	1227	-1	M_xyl_D__91__e__93__	R_CAt4i
221	134	1228	+1	M_xyl_D__91__e__93__	R_CBIAT
222	74	1231	-1	M_k__91__e__93__	R_CBMKr
223	135	1231	+1	M_zn2__91__e__93__	R_CBMKr
224	74	1232	+1	M_k__91__e__93__	R_CBPS
225	135	1232	-1	M_zn2__91__e__93__	R_CBPS
226	135	1233	-1	M_zn2__91__e__93__	R_CD2abc1
227	54	1254	-1	M_glu_L__91__e__93__	R_CD2t6r
228	93	1254	-1	M_na1__91__e__93__	R_CD2t6r
229	20	1255	-1	M_arg_L__91__e__93__	R_CDPEAS
230	100	1255	+1	M_orn__91__e__93__	R_CDPEAS
231	20	1256	+1	M_arg_L__91__e__93__	R_CDPGLYCGPT
232	100	1256	-1	M_orn__91__e__93__	R_CDPGLYCGPT
233	29	1257	-1	M_cl__91__e__93__	R_CDPMEK
234	29	1258	+1	M_cl__91__e__93__	R_CELBpts
