CNC	distance
0.0237137	0.151377
0.0334965	0.108004
0.0365174	0.137816
0.043401	0.115155
0.0473151	0.153427
0.0515822	0.101855
0.0518613	0.137833
0.052142	0.136547
0.0524241	0.113101
0.0527078	0.186084
0.052993	0.125447
0.0532798	0.146238
0.0535681	0.148006
0.053858	0.17495
0.0541494	0.100671
0.0544424	0.145088
0.0550332	0.146187
0.0556304	0.103633
0.0568444	0.133028
0.0574612	0.101933
0.0587151	0.14913
0.0599964	0.135876
0.0613056	0.133667
0.0626434	0.252579
0.0640103	0.120829
0.0668344	0.149569
0.0697831	0.142652
0.0728618	0.250714
0.0760764	0.135723
0.0944061	0.247462
inf	0.839317
inf	0.839317
inf	0.839317
inf	0.839317
inf	0.839317
inf	0.839317
inf	0.839317
inf	0.839317
inf	0.839317
inf	0.839317
inf	0.839317
inf	0.839317
inf	0.839317
inf	0.839317
inf	0.839317
inf	0.839317
inf	0.839317
inf	0.839317
inf	0.839317
inf	0.839317
inf	0.839317
inf	0.839317
inf	0.839317
inf	0.839317
inf	0.839317
inf	0.839317
inf	0.839317
inf	0.839317
inf	0.839317
inf	0.839317
inf	0.839317
inf	0.839317
inf	0.839317
inf	0.839317
inf	0.839317
inf	0.839317
inf	0.839317
inf	0.839317
inf	0.839317
inf	0.839317
0.01	0.150743
0.0141254	5.38319e+303
0.0199526	0.11082
0.0281838	0.143148
0.0398107	0.142773
0.0562341	0.144373
0.0794328	0.137474
0.112202	0.1174
0.158489	0.112835
0.223872	0.114144
