rep_name	media	ecotype	ecotype_ID	species_ID	species_name	I_a	I_b	II_a	II_b	V_a
rep1	EU_avg	I	I_a	setA_15	Helicobacter_pylori_26695	NA	0.555377	0.57898	0.501852	0.568224
rep1	EU_avg	I	I_b	setA_21	Pseudomonas_nitroreducens_HBP1	0.370811	NA	0.37123	0.37075	0.366788
rep1	EU_avg	II	II_a	setA_11	Eggerthella_lenta_DSM_2243	0.372858	0.373259	NA	0.366217	0.357783
rep1	EU_avg	II	II_b	setA_24	Ruminococcus_lactaris_ATCC_29176	0.43801	0.459162	0.440865	NA	0.358423
rep1	EU_avg	V	V_a	setA_16	Lactobacillus_gastricus_PS3	0.358857	0.35897	0.357165	0.358835	NA
rep1	high_fat	I	I_a	setA_15	Helicobacter_pylori_26695	NA	0.598956	0.524824	0.549271	0.524317
rep1	high_fat	I	I_b	setA_21	Pseudomonas_nitroreducens_HBP1	0.38705	NA	0.383056	0.378341	0.379101
rep1	high_fat	II	II_a	setA_11	Eggerthella_lenta_DSM_2243	0.373105	0.373122	NA	0.373107	0.373143
rep1	high_fat	II	II_b	setA_24	Ruminococcus_lactaris_ATCC_29176	0.482294	0.495306	0.481976	NA	0.481744
rep1	high_fat	V	V_a	setA_16	Lactobacillus_gastricus_PS3	0.85305	0.380533	0.36701	0.48257	NA
rep2	EU_avg	I	I_a	setA_15	Helicobacter_pylori_26695	NA	0.555459	0.578363	0.501934	0.568127
rep2	EU_avg	I	I_b	setA_21	Pseudomonas_nitroreducens_HBP1	0.370815	NA	0.373203	0.370761	0.366791
rep2	EU_avg	II	II_a	setA_11	Eggerthella_lenta_DSM_2243	0.364936	0.383485	NA	0.372821	0.357797
rep2	EU_avg	II	II_b	setA_24	Ruminococcus_lactaris_ATCC_29176	0.43801	0.438194	0.374488	NA	0.358485
rep2	EU_avg	V	V_a	setA_16	Lactobacillus_gastricus_PS3	0.358811	0.358894	0.357181	0.358817	NA
rep2	high_fat	I	I_a	setA_15	Helicobacter_pylori_26695	NA	0.557113	0.546257	0.549872	0.524381
rep2	high_fat	I	I_b	setA_21	Pseudomonas_nitroreducens_HBP1	0.375693	NA	0.383301	0.383265	0.384848
rep2	high_fat	II	II_a	setA_11	Eggerthella_lenta_DSM_2243	0.373105	0.373123	NA	0.373106	0.373145
rep2	high_fat	II	II_b	setA_24	Ruminococcus_lactaris_ATCC_29176	0.482742	0.510803	0.485848	NA	0.482818
rep2	high_fat	V	V_a	setA_16	Lactobacillus_gastricus_PS3	0.851991	0.379823	0.367014	0.483658	NA
rep3	EU_avg	I	I_a	setA_15	Helicobacter_pylori_26695	NA	0.555689	0.578794	0.501986	0.570122
rep3	EU_avg	I	I_b	setA_21	Pseudomonas_nitroreducens_HBP1	0.372365	NA	0.371319	0.372051	0.36676
rep3	EU_avg	II	II_a	setA_11	Eggerthella_lenta_DSM_2243	0.364727	0.36444	NA	0.366795	0.357756
rep3	EU_avg	II	II_b	setA_24	Ruminococcus_lactaris_ATCC_29176	0.438011	0.438193	0.441793	NA	0.358373
rep3	EU_avg	V	V_a	setA_16	Lactobacillus_gastricus_PS3	0.358774	0.358966	0.357145	0.358812	NA
rep3	high_fat	I	I_a	setA_15	Helicobacter_pylori_26695	NA	0.377535	0.524184	0.556336	0.544532
rep3	high_fat	I	I_b	setA_21	Pseudomonas_nitroreducens_HBP1	0.395695	NA	0.385156	0.397948	0.371566
rep3	high_fat	II	II_a	setA_11	Eggerthella_lenta_DSM_2243	0.373106	0.373121	NA	0.373106	0.373145
rep3	high_fat	II	II_b	setA_24	Ruminococcus_lactaris_ATCC_29176	0.482717	0.52363	0.483345	NA	0.482615
rep3	high_fat	V	V_a	setA_16	Lactobacillus_gastricus_PS3	0.854933	0.854212	0.36684	0.483455	NA
rep4	EU_avg	I	I_a	setA_15	Helicobacter_pylori_26695	NA	0.555232	0.578188	0.501766	0.567654
rep4	EU_avg	I	I_b	setA_21	Pseudomonas_nitroreducens_HBP1	0.370934	NA	0.373273	0.37095	0.36694
rep4	EU_avg	II	II_a	setA_11	Eggerthella_lenta_DSM_2243	0.376192	0.362524	NA	0.373811	0.357757
rep4	EU_avg	II	II_b	setA_24	Ruminococcus_lactaris_ATCC_29176	0.438011	0.43819	0.376035	NA	0.358324
rep4	EU_avg	V	V_a	setA_16	Lactobacillus_gastricus_PS3	0.358797	0.358923	0.357148	0.358799	NA
rep4	high_fat	I	I_a	setA_15	Helicobacter_pylori_26695	NA	0.627548	0.526344	0.56104	0.54459
rep4	high_fat	I	I_b	setA_21	Pseudomonas_nitroreducens_HBP1	0.381589	NA	0.419405	0.384832	0.380415
rep4	high_fat	II	II_a	setA_11	Eggerthella_lenta_DSM_2243	0.373109	0.373121	NA	0.373106	0.373145
rep4	high_fat	II	II_b	setA_24	Ruminococcus_lactaris_ATCC_29176	0.484803	0.515518	0.481687	NA	0.482352
rep4	high_fat	V	V_a	setA_16	Lactobacillus_gastricus_PS3	0.851921	0.489887	0.367003	0.483185	NA
rep5	EU_avg	I	I_a	setA_15	Helicobacter_pylori_26695	NA	0.555598	0.578595	0.542766	0.56801
rep5	EU_avg	I	I_b	setA_21	Pseudomonas_nitroreducens_HBP1	0.370945	NA	0.371861	0.370739	0.366788
rep5	EU_avg	II	II_a	setA_11	Eggerthella_lenta_DSM_2243	0.375817	0.374101	NA	0.366089	0.357728
rep5	EU_avg	II	II_b	setA_24	Ruminococcus_lactaris_ATCC_29176	0.43801	0.438191	0.440864	NA	0.358455
rep5	EU_avg	V	V_a	setA_16	Lactobacillus_gastricus_PS3	0.35888	0.358955	0.35712	0.358914	NA
rep5	high_fat	I	I_a	setA_15	Helicobacter_pylori_26695	NA	0.618695	0.543772	0.545452	0.544577
rep5	high_fat	I	I_b	setA_21	Pseudomonas_nitroreducens_HBP1	0.38439	NA	0.386861	0.382241	0.380861
rep5	high_fat	II	II_a	setA_11	Eggerthella_lenta_DSM_2243	0.373105	0.373121	NA	0.373107	0.373142
rep5	high_fat	II	II_b	setA_24	Ruminococcus_lactaris_ATCC_29176	0.483277	0.502227	0.483802	NA	0.482398
rep5	high_fat	V	V_a	setA_16	Lactobacillus_gastricus_PS3	0.855611	0.90764	0.366952	0.483234	NA
rep6	EU_avg	I	I_a	setA_15	Helicobacter_pylori_26695	NA	0.555435	0.578641	0.500969	0.568071
rep6	EU_avg	I	I_b	setA_21	Pseudomonas_nitroreducens_HBP1	0.371149	NA	0.374044	0.370951	0.366815
rep6	EU_avg	II	II_a	setA_11	Eggerthella_lenta_DSM_2243	0.364977	0.379342	NA	0.374383	0.35773
rep6	EU_avg	II	II_b	setA_24	Ruminococcus_lactaris_ATCC_29176	0.43801	0.438191	0.374713	NA	0.358396
rep6	EU_avg	V	V_a	setA_16	Lactobacillus_gastricus_PS3	0.358859	0.35892	0.357124	0.358812	NA
rep6	high_fat	I	I_a	setA_15	Helicobacter_pylori_26695	NA	0.384792	0.524226	0.552361	0.544462
rep6	high_fat	I	I_b	setA_21	Pseudomonas_nitroreducens_HBP1	0.390922	NA	0.383367	0.382129	0.382229
rep6	high_fat	II	II_a	setA_11	Eggerthella_lenta_DSM_2243	0.373106	0.373123	NA	0.373106	0.373147
rep6	high_fat	II	II_b	setA_24	Ruminococcus_lactaris_ATCC_29176	0.482412	0.476384	0.481588	NA	0.482186
rep6	high_fat	V	V_a	setA_16	Lactobacillus_gastricus_PS3	0.851261	0.601031	0.367019	0.483017	NA
rep7	EU_avg	I	I_a	setA_15	Helicobacter_pylori_26695	NA	0.556252	0.581748	0.585157	0.567752
rep7	EU_avg	I	I_b	setA_21	Pseudomonas_nitroreducens_HBP1	0.370765	NA	0.37274	0.370765	0.366782
rep7	EU_avg	II	II_a	setA_11	Eggerthella_lenta_DSM_2243	0.374296	0.363048	NA	0.365754	0.357769
rep7	EU_avg	II	II_b	setA_24	Ruminococcus_lactaris_ATCC_29176	0.43801	0.438193	0.440505	NA	0.358363
rep7	EU_avg	V	V_a	setA_16	Lactobacillus_gastricus_PS3	0.358823	0.358937	0.357151	0.358805	NA
rep7	high_fat	I	I_a	setA_15	Helicobacter_pylori_26695	NA	0.566531	0.545014	0.5528	0.546296
rep7	high_fat	I	I_b	setA_21	Pseudomonas_nitroreducens_HBP1	0.382386	NA	0.38385	0.381836	0.376414
rep7	high_fat	II	II_a	setA_11	Eggerthella_lenta_DSM_2243	0.373106	0.373121	NA	0.373106	0.373147
rep7	high_fat	II	II_b	setA_24	Ruminococcus_lactaris_ATCC_29176	0.482117	0.512195	0.481794	NA	0.481806
rep7	high_fat	V	V_a	setA_16	Lactobacillus_gastricus_PS3	0.858484	0.87245	0.367014	0.482633	NA
rep8	EU_avg	I	I_a	setA_15	Helicobacter_pylori_26695	NA	0.555481	0.577983	0.585044	0.568036
rep8	EU_avg	I	I_b	setA_21	Pseudomonas_nitroreducens_HBP1	0.371131	NA	0.363663	0.37082	0.366871
rep8	EU_avg	II	II_a	setA_11	Eggerthella_lenta_DSM_2243	0.374841	0.363801	NA	0.364897	0.357784
rep8	EU_avg	II	II_b	setA_24	Ruminococcus_lactaris_ATCC_29176	0.43801	0.438196	0.439936	NA	0.358413
rep8	EU_avg	V	V_a	setA_16	Lactobacillus_gastricus_PS3	0.358839	0.358975	0.357173	0.358806	NA
rep8	high_fat	I	I_a	setA_15	Helicobacter_pylori_26695	NA	0.379465	0.545291	0.54126	0.544211
rep8	high_fat	I	I_b	setA_21	Pseudomonas_nitroreducens_HBP1	0.37746	NA	0.38454	0.370616	0.380792
rep8	high_fat	II	II_a	setA_11	Eggerthella_lenta_DSM_2243	0.373106	0.373122	NA	0.373106	0.373145
rep8	high_fat	II	II_b	setA_24	Ruminococcus_lactaris_ATCC_29176	0.488254	0.484723	0.482673	NA	0.485025
rep8	high_fat	V	V_a	setA_16	Lactobacillus_gastricus_PS3	0.852683	0.908054	0.367024	0.485904	NA
rep9	EU_avg	I	I_a	setA_15	Helicobacter_pylori_26695	NA	0.583027	0.578255	0.533737	0.568221
rep9	EU_avg	I	I_b	setA_21	Pseudomonas_nitroreducens_HBP1	0.371819	NA	0.372312	0.370771	0.366838
rep9	EU_avg	II	II_a	setA_11	Eggerthella_lenta_DSM_2243	0.366437	0.373602	NA	0.382275	0.357846
rep9	EU_avg	II	II_b	setA_24	Ruminococcus_lactaris_ATCC_29176	0.438011	0.437909	0.376016	NA	0.358435
rep9	EU_avg	V	V_a	setA_16	Lactobacillus_gastricus_PS3	0.358849	0.358939	0.357195	0.358857	NA
rep9	high_fat	I	I_a	setA_15	Helicobacter_pylori_26695	NA	0.596613	0.545817	0.546477	0.544785
rep9	high_fat	I	I_b	setA_21	Pseudomonas_nitroreducens_HBP1	0.380312	NA	0.382043	0.377919	0.381967
rep9	high_fat	II	II_a	setA_11	Eggerthella_lenta_DSM_2243	0.373106	0.373122	NA	0.373109	0.373147
rep9	high_fat	II	II_b	setA_24	Ruminococcus_lactaris_ATCC_29176	0.482549	0.513501	0.481738	NA	0.482408
rep9	high_fat	V	V_a	setA_16	Lactobacillus_gastricus_PS3	0.853713	0.976033	0.367024	0.483239	NA
rep10	EU_avg	I	I_a	setA_15	Helicobacter_pylori_26695	NA	0.555302	0.578315	0.502141	0.568415
rep10	EU_avg	I	I_b	setA_21	Pseudomonas_nitroreducens_HBP1	0.371817	NA	0.371724	0.36892	0.366781
rep10	EU_avg	II	II_a	setA_11	Eggerthella_lenta_DSM_2243	0.3652	0.363331	NA	0.37392	0.357659
rep10	EU_avg	II	II_b	setA_24	Ruminococcus_lactaris_ATCC_29176	0.43801	0.438141	0.375687	NA	0.35834
rep10	EU_avg	V	V_a	setA_16	Lactobacillus_gastricus_PS3	0.358835	0.358907	0.357095	0.358799	NA
rep10	high_fat	I	I_a	setA_15	Helicobacter_pylori_26695	NA	0.632107	0.524175	0.562672	0.545217
rep10	high_fat	I	I_b	setA_21	Pseudomonas_nitroreducens_HBP1	0.379778	NA	0.39866	0.384785	0.377654
rep10	high_fat	II	II_a	setA_11	Eggerthella_lenta_DSM_2243	0.373107	0.373122	NA	0.373106	0.373147
rep10	high_fat	II	II_b	setA_24	Ruminococcus_lactaris_ATCC_29176	0.482436	0.521828	0.484092	NA	0.482133
rep10	high_fat	V	V_a	setA_16	Lactobacillus_gastricus_PS3	0.852669	0.865885	0.366602	0.482963	NA
