rep_name	media	ecotype	ecotype_ID	species_ID	species_name	I_a	I_b	II_a	II_b	V_a
rep1	EU_avg	I	I_a	setA_15	Helicobacter_pylori_26695	NA	0.49198	0.49227	0.492274	0.49244
rep1	EU_avg	I	I_b	setA_21	Pseudomonas_nitroreducens_HBP1	0.368423	NA	0.361742	0.368423	0.366987
rep1	EU_avg	II	II_a	setA_11	Eggerthella_lenta_DSM_2243	0.36335	0.36172	NA	0.36335	0.357831
rep1	EU_avg	II	II_b	setA_24	Ruminococcus_lactaris_ATCC_29176	0.43801	0.438152	0.439117	NA	0.358597
rep1	EU_avg	V	V_a	setA_16	Lactobacillus_gastricus_PS3	0.358989	0.359107	0.357285	0.358977	NA
rep1	high_fat	I	I_a	setA_15	Helicobacter_pylori_26695	NA	0.508307	0.507895	0.463934	0.507897
rep1	high_fat	I	I_b	setA_21	Pseudomonas_nitroreducens_HBP1	0.369934	NA	0.369951	0.369934	0.369934
rep1	high_fat	II	II_a	setA_11	Eggerthella_lenta_DSM_2243	0.373106	0.373121	NA	0.373106	0.373144
rep1	high_fat	II	II_b	setA_24	Ruminococcus_lactaris_ATCC_29176	0.460565	0.464129	0.464168	NA	0.464042
rep1	high_fat	V	V_a	setA_16	Lactobacillus_gastricus_PS3	0.851507	0.852403	0.367003	0.478598	NA
rep2	EU_avg	I	I_a	setA_15	Helicobacter_pylori_26695	NA	0.49198	0.49227	0.492274	0.49244
rep2	EU_avg	I	I_b	setA_21	Pseudomonas_nitroreducens_HBP1	0.368423	NA	0.361742	0.368423	0.366987
rep2	EU_avg	II	II_a	setA_11	Eggerthella_lenta_DSM_2243	0.363349	0.36172	NA	0.36335	0.357831
rep2	EU_avg	II	II_b	setA_24	Ruminococcus_lactaris_ATCC_29176	0.43801	0.438152	0.439117	NA	0.358597
rep2	EU_avg	V	V_a	setA_16	Lactobacillus_gastricus_PS3	0.358989	0.359107	0.357285	0.358977	NA
rep2	high_fat	I	I_a	setA_15	Helicobacter_pylori_26695	NA	0.508307	0.507895	0.463934	0.507897
rep2	high_fat	I	I_b	setA_21	Pseudomonas_nitroreducens_HBP1	0.369933	NA	0.36995	0.369934	0.369934
rep2	high_fat	II	II_a	setA_11	Eggerthella_lenta_DSM_2243	0.373106	0.373121	NA	0.373106	0.373146
rep2	high_fat	II	II_b	setA_24	Ruminococcus_lactaris_ATCC_29176	0.460565	0.464129	0.464168	NA	0.464042
rep2	high_fat	V	V_a	setA_16	Lactobacillus_gastricus_PS3	0.851507	0.852403	0.367003	0.478598	NA
rep3	EU_avg	I	I_a	setA_15	Helicobacter_pylori_26695	NA	0.49198	0.49227	0.492274	0.49244
rep3	EU_avg	I	I_b	setA_21	Pseudomonas_nitroreducens_HBP1	0.368423	NA	0.361742	0.368423	0.366987
rep3	EU_avg	II	II_a	setA_11	Eggerthella_lenta_DSM_2243	0.363349	0.36172	NA	0.36335	0.357831
rep3	EU_avg	II	II_b	setA_24	Ruminococcus_lactaris_ATCC_29176	0.43801	0.438152	0.439117	NA	0.358597
rep3	EU_avg	V	V_a	setA_16	Lactobacillus_gastricus_PS3	0.358988	0.359107	0.357285	0.358977	NA
rep3	high_fat	I	I_a	setA_15	Helicobacter_pylori_26695	NA	0.508307	0.507895	0.463934	0.507897
rep3	high_fat	I	I_b	setA_21	Pseudomonas_nitroreducens_HBP1	0.369934	NA	0.369951	0.369934	0.369934
rep3	high_fat	II	II_a	setA_11	Eggerthella_lenta_DSM_2243	0.373105	0.373121	NA	0.373106	0.373145
rep3	high_fat	II	II_b	setA_24	Ruminococcus_lactaris_ATCC_29176	0.460565	0.464129	0.464168	NA	0.464042
rep3	high_fat	V	V_a	setA_16	Lactobacillus_gastricus_PS3	0.851507	0.852403	0.367003	0.478598	NA
