	index	compartment	charge	id	formula	name
1	863	c	+0	C_charge_balance	X	charge balance
2	864	c	+0	C_cytosol_crowding	X	cytosol molecular crowding
3	865	c	+0	C_membrane_crowding	X	membrane molecular crowding
4	0	c	-6	M_10fthf5glu__91__c__93__	C40H45N11O19	10-formyltetrahydrofolate-[Glu](5)
5	1	c	-2	M_10fthf__91__c__93__	C20H21N7O7	10-Formyltetrahydrofolate
6	2	c	-1	M_10m3hddcaACP__91__c__93__	C24H45N2O9PRS	10-methyl-3-hydroxy-dodecanoyl-ACP
7	3	c	-1	M_10m3hundecACP__91__c__93__	C23H43N2O9PRS	10-methyl-3-hydroxy-undecanoyl-ACP
8	4	c	-1	M_10m3oddcaACP__91__c__93__	C24H43N2O9PRS	10-methyl-3-oxo-dodecanoyl-ACP
9	5	c	-1	M_10m3oundecACP__91__c__93__	C23H41N2O9PRS	10-methyl-3-oxo-undecanoyl-ACP
10	6	c	-1	M_10mddcaACP__91__c__93__	C24H45N2O8PRS	10-methyl-dodecanoyl-ACP
11	7	c	-1	M_10mtddec2eACP__91__c__93__	C24H43N2O8PRS	10-methyl-trans-dodec-2-enoyl-ACP
12	8	c	-1	M_11m3hddcaACP__91__c__93__	C24H45N2O9PRS	11-methyl-3-hydroxy-dodecanoyl-ACP
13	9	c	-1	M_11m3oddcaACP__91__c__93__	C24H43N2O9PRS	11-methyl-3-oxo-dodecanoyl-ACP
14	10	c	-1	M_11mddcaACP__91__c__93__	C24H45N2O8PRS	11-methyl-dodecanoyl-ACP
15	11	c	-1	M_11mtddec2eACP__91__c__93__	C24H43N2O8PRS	11-methyl-trans-dodec-2-enoyl-ACP
16	12	c	-1	M_12m3hmyrsACP__91__c__93__	C26H49N2O9PRS	12-methyl-3-hydroxy-tetra-decanoyl-ACP
17	13	c	-1	M_12m3htridecACP__91__c__93__	C25H47N2O9PRS	12-methyl-3-hydroxy-tridecanoyl-ACP
18	14	c	-1	M_12m3omyrsACP__91__c__93__	C26H47N2O9PRS	12-methyl-3-oxo-tetra-decanoyl-ACP
19	15	c	-1	M_12m3otridecACP__91__c__93__	C25H45N2O9PRS	12-methyl-3-oxo-tridecanoyl-ACP
20	16	c	-1	M_12mmyrsACP__91__c__93__	C26H49N2O8PRS	12-methyl-tetra-decanoyl-ACP
21	17	c	-1	M_12mtmrs2eACP__91__c__93__	C26H47N2O8PRS	12-methyl-trans-tetra-dec-2-enoyl-ACP
22	18	c	+0	M_12ppd_S__91__c__93__	C3H8O2	(S)-propane-1,2-diol
23	19	c	-4	M_13dpg__91__c__93__	C3H4O10P2	3-Phospho-D-glyceroyl phosphate
24	20	c	-1	M_13m3hmyrsACP__91__c__93__	C26H49N2O9PRS	13-methyl-3-hydroxy-tetra-decanoyl-ACP
25	21	c	-1	M_13m3omyrsACP__91__c__93__	C26H47N2O9PRS	13-methyl-3-oxo-tetra-decanoyl-ACP
26	22	c	-1	M_13mmyrsACP__91__c__93__	C26H49N2O8PRS	13-methyl-tetra-decanoyl-ACP
27	23	c	-1	M_13mtmrs2eACP__91__c__93__	C26H47N2O8PRS	13-methyl-trans-tetra-dec-2-enoyl-ACP
28	24	c	-1	M_14m3hpalmACP__91__c__93__	C28H53N2O9PRS	14-methyl-3-hydroxy-hexa-decanoyl-ACP
29	25	c	-1	M_14m3hpentdecACP__91__c__93__	C27H51N2O9PRS	14-methyl-3-hydroxy-pentadecanoyl-ACP
30	26	c	-1	M_14m3opalmACP__91__c__93__	C28H51N2O9PRS	14-methyl-3-oxo-hexa-decanoyl-ACP
31	27	c	-1	M_14m3opentdecACP__91__c__93__	C27H49N2O9PRS	14-methyl-3-oxo-pentadecanoyl-ACP
32	28	c	-1	M_14mpalmACP__91__c__93__	C28H53N2O8PRS	14-methyl-hexa-decanoyl-ACP
33	29	c	-1	M_14mtpalm2eACP__91__c__93__	C28H51N2O8PRS	14-methyl-trans-hexa-dec-2-enoyl-ACP
34	30	c	-1	M_15m3hpalmACP__91__c__93__	C28H53N2O9PRS	15-methyl-3-hydroxy-hexa-decanoyl-ACP
35	31	c	-1	M_15m3opalmACP__91__c__93__	C28H51N2O9PRS	15-methyl-3-oxo-hexa-decanoyl-ACP
36	32	c	-1	M_15mpalmACP__91__c__93__	C28H53N2O8PRS	15-methyl-hexa-decanoyl-ACP
37	33	c	-1	M_15mtpalm2eACP__91__c__93__	C28H51N2O8PRS	15-methyl-trans-hexa-dec-2-enoyl-ACP
38	34	c	+0	M_1agpe120__91__c__93__	C17H36NO7P1	1-Acyl-sn-glycero-3-phosphoethanolamine (n-C12:0)
39	35	c	+0	M_1agpe140__91__c__93__	C19H40NO7P1	1-Acyl-sn-glycero-3-phosphoethanolamine (n-C14:0)
40	36	c	+0	M_1agpe141__91__c__93__	C19H38NO7P1	1-Acyl-sn-glycero-3-phosphoethanolamine (n-C14:1)
41	37	c	+0	M_1agpe160__91__c__93__	C21H44NO7P1	1-Acyl-sn-glycero-3-phosphoethanolamine (n-C16:0)
42	38	c	+0	M_1agpe161__91__c__93__	C21H42NO7P1	1-Acyl-sn-glycero-3-phosphoethanolamine (n-C16:1)
43	39	c	+0	M_1agpe180__91__c__93__	C23H48NO7P1	1-Acyl-sn-glycero-3-phosphoethanolamine (n-C18:0)
44	40	c	+0	M_1agpe181__91__c__93__	C23H46NO7P1	1-Acyl-sn-glycero-3-phosphoethanolamine (n-C18:1)
45	41	c	-1	M_1agpg120__91__c__93__	C18H36O9P1	1-Acyl-sn-glycero-3-phosphoglycerol (n-C12:0)
46	42	c	-1	M_1agpg140__91__c__93__	C20H40O9P1	1-Acyl-sn-glycero-3-phosphoglycerol (n-C14:0)
47	43	c	-1	M_1agpg141__91__c__93__	C20H38O9P1	1-Acyl-sn-glycero-3-phosphoglycerol (n-C14:1)
48	44	c	-1	M_1agpg160__91__c__93__	C22H44O9P1	1-Acyl-sn-glycero-3-phosphoglycerol (n-C16:0)
49	45	c	-1	M_1agpg161__91__c__93__	C22H42O9P1	1-Acyl-sn-glycero-3-phosphoglycerol (n-C16:1)
50	46	c	-1	M_1agpg180__91__c__93__	C24H48O9P1	1-Acyl-sn-glycero-3-phosphoglycerol (n-C18:0)
51	47	c	-1	M_1agpg181__91__c__93__	C24H46O9P1	1-Acyl-sn-glycero-3-phosphoglycerol (n-C18:1)
52	48	c	-2	M_1aihpdecg3p__91__c__93__	C20H39O7P	1-anteisoheptadecanoyl-sn-glycerol 3-phosphate (14-methyl-hexadecanoyl, anteiso-C17)
53	49	c	-1	M_1aipdecg3p__91__c__93__	C18H36O7P	1-anteisopentadecanoyl-sn-glycerol 3-phosphate (12-methyl-tetradecanoyl, anteiso-C15)
54	50	c	-2	M_1ddecg3p__91__c__93__	C15H29O7P1	1-acyl-sn-glycerol 3-phosphate(2-)
55	51	c	-2	M_1hdec9eg3p__91__c__93__	C19H35O7P1	1-hexadec-9-enoyl-sn-glycerol 3-phosphate
56	52	c	-2	M_1hdecg3p__91__c__93__	C19H37O7P1	1-hexadecanoyl-sn-glycerol 3-phosphate
57	53	c	-1	M_1ihdecg3p__91__c__93__	C19H38O7P	1-isohexadecanoyl-sn-glycerol 3-phosphate (14-methyl-pentadecanoyl, iso-C16)
58	54	c	-2	M_1ihpdecg3p__91__c__93__	C20H39O7P	1-isoheptadecanoyl-sn-glycerol 3-phosphate (15-methyl-hexadecanoyl, iso-C17)
59	55	c	-1	M_1ipdecg3p__91__c__93__	C18H36O7P	1-isopentadecanoyl-sn-glycerol 3-phosphate (13-methyl-tetradecanoyl, iso-C15)
60	56	c	-1	M_1itdecg3p__91__c__93__	C17H34O7P	1-isotetradecanoyl-sn-glycerol 3-phosphate (12-methyl-tridecanoyl, iso-C14)
61	57	c	-2	M_1odec11eg3p__91__c__93__	C21H39O7P1	1-octadec-11-enoyl-sn-glycerol 3-phosphate
62	58	c	-2	M_1odecg3p__91__c__93__	C21H41O7P1	1-octadecanoyl-sn-glycerol 3-phosphate
63	59	c	-1	M_1pyr5c__91__c__93__	C5H6NO2	1-Pyrroline-5-carboxylate
64	60	c	-2	M_1tdec7eg3p__91__c__93__	C17H31O7P1	1-tetradec-7-enoyl-sn-glycerol 3-phosphate
65	61	c	-2	M_1tdecg3p__91__c__93__	C17H33O7P1	1-tetradecanoyl-sn-glycerol 3-phosphate
66	62	c	-1	M_23camp__91__c__93__	C10H11N5O6P	2,3-Cyclic AMP
67	63	c	-1	M_23ccmp__91__c__93__	C9H11N3O7P	2,3-Cyclic CMP
68	64	c	-1	M_23cgmp__91__c__93__	C10H11N5O7P	2,3-Cyclic GMP
69	65	c	-1	M_23cump__91__c__93__	C9H10N2O8P	2,3-cyclic UMP(1-)
70	66	c	-2	M_23dhdp__91__c__93__	C7H5NO4	2,3-Dihydrodipicolinate
71	67	c	-1	M_23dhmb__91__c__93__	C5H9O4	(R)-2,3-Dihydroxy-3-methylbutanoate
72	68	c	-1	M_23dhmp__91__c__93__	C6H11O4	(R)-2,3-Dihydroxy-3-methylpentanoate
73	69	c	-4	M_25aics__91__c__93__	C13H15N4O12P	(S)-2-[5-Amino-1-(5-phospho-D-ribosyl)imidazole-4-carboxamido]succinate
74	70	c	+0	M_26dap_LL__91__c__93__	C7H14N2O4	LL-2,6-Diaminoheptanedioate
75	71	c	+0	M_26dap_M__91__c__93__	C7H14N2O4	meso-2,6-Diaminoheptanedioate
76	72	c	+0	M_2agpe120__91__c__93__	C17H36NO7P1	2-Acyl-sn-glycero-3-phosphoethanolamine (n-C12:0)
77	73	c	+0	M_2agpe140__91__c__93__	C19H40NO7P1	2-Acyl-sn-glycero-3-phosphoethanolamine (n-C14:0)
78	74	c	+0	M_2agpe141__91__c__93__	C19H38NO7P1	2-Acyl-sn-glycero-3-phosphoethanolamine (n-C14:1)
79	75	c	+0	M_2agpe160__91__c__93__	C21H44NO7P1	2-Acyl-sn-glycero-3-phosphoethanolamine (n-C16:0)
80	76	c	+0	M_2agpe161__91__c__93__	C21H42NO7P1	2-Acyl-sn-glycero-3-phosphoethanolamine (n-C16:1)
81	77	c	+0	M_2agpe180__91__c__93__	C23H48NO7P1	2-Acyl-sn-glycero-3-phosphoethanolamine (n-C18:0)
82	78	c	+0	M_2agpe181__91__c__93__	C23H46NO7P1	2-Acyl-sn-glycero-3-phosphoethanolamine (n-C18:1)
83	79	c	-1	M_2agpg120__91__c__93__	C18H36O9P1	2-Acyl-sn-glycero-3-phosphoglycerol (n-C12:0)
84	80	c	-1	M_2agpg140__91__c__93__	C20H40O9P1	2-Acyl-sn-glycero-3-phosphoglycerol (n-C14:0)
85	81	c	-1	M_2agpg141__91__c__93__	C20H38O9P1	2-Acyl-sn-glycero-3-phosphoglycerol (n-C14:1)
86	82	c	-1	M_2agpg160__91__c__93__	C22H44O9P1	2-Acyl-sn-glycero-3-phosphoglycerol (n-C16:0)
87	83	c	-1	M_2agpg161__91__c__93__	C22H42O9P1	2-Acyl-sn-glycero-3-phosphoglycerol (n-C16:1)
88	84	c	-1	M_2agpg180__91__c__93__	C24H48O9P1	2-Acyl-sn-glycero-3-phosphoglycerol (n-C18:0)
89	85	c	-1	M_2agpg181__91__c__93__	C24H46O9P1	2-Acyl-sn-glycero-3-phosphoglycerol (n-C18:1)
90	86	c	-1	M_2ahbut__91__c__93__	C6H9O4	(S)-2-Aceto-2-hydroxybutanoate
91	87	c	-3	M_2ahhmd__91__c__93__	C7H8N5O8P2	2-Amino-4-hydroxy-6-hydroxymethyl-7,8-dihydropteridine diphosphate
92	88	c	+0	M_2ahhmp__91__c__93__	C7H9N5O2	2-Amino-4-hydroxy-6-hydroxymethyl-7,8-dihydropteridine
93	89	c	+0	M_2aobut__91__c__93__	C4H7NO3	L-2-amino-3-oxobutanoic acid
94	90	c	-3	M_2cpr5p__91__c__93__	C12H13NO9P	1-(2-Carboxyphenylamino)-1-deoxy-D-ribulose 5-phosphate
95	91	c	-3	M_2dda7p__91__c__93__	C7H10O10P	2-Dehydro-3-deoxy-D-arabino-heptonate 7-phosphate
96	92	c	-1	M_2ddecg3p__91__c__93__	C15H30O7P1	2-dodecanoyl-sn-glycerol 3-phosphate
97	93	c	-1	M_2dhp__91__c__93__	C6H9O4	2-Dehydropantoate
98	94	c	+0	M_2dmmq7__91__c__93__	C45H62O2	2-Demethylmenaquinone 7
99	95	c	+0	M_2dmmq8__91__c__93__	C50H70O2	2-Demethylmenaquinone 8
100	96	c	+0	M_2dmmql8__91__c__93__	C50H72O2	2-Demethylmenaquinol 8
101	97	c	-2	M_2dr5p__91__c__93__	C5H9O7P	2-deoxy-D-ribose 5-phosphate(2-)
102	98	c	-1	M_2hdec9eg3p__91__c__93__	C19H36O7P1	2-hexadec-9-enoyl-sn-glycerol 3-phosphate
103	99	c	-1	M_2hdecg3p__91__c__93__	C19H38O7P1	2-hexadecanoyl-sn-glycerol 3-phosphate
104	100	c	-2	M_2ippm__91__c__93__	C7H8O4	2-Isopropylmaleate
105	101	c	-4	M_2maacoa__91__c__93__	C26H38N7O18P3S	2-methylacetoacetyl-CoA(4-)
106	102	c	-3	M_2mahmp__91__c__93__	C6H8N3O7P2	2-Methyl-4-amino-5-hydroxymethylpyrimidine diphosphate
107	103	c	-4	M_2mbcoa__91__c__93__	C26H40N7O17P3S	2-methylbutanoyl-CoA(4-)
108	104	c	-1	M_2mbutACP__91__c__93__	C16H29N2O8PRS	2-methylbutanoyl-ACP,2-methylbutyryl-ACP
109	105	c	-3	M_2mcacn__91__c__93__	C7H5O6	(Z)-but-2-ene-1,2,3-tricarboxylate
110	106	c	-2	M_2me4p__91__c__93__	C5H11O7P	2-C-methyl-D-erythritol 4-phosphate
111	107	c	-2	M_2mecdp__91__c__93__	C5H10O9P2	2-C-methyl-D-erythritol 2,4-cyclodiphosphate
112	108	c	-1	M_2mop__91__c__93__	C4H5O3	2-methyl-3-oxopropanoate
113	109	c	-1	M_2obut__91__c__93__	C4H5O3	2-Oxobutanoate
114	110	c	-1	M_2odec11eg3p__91__c__93__	C21H40O7P1	2-octadec-11-enoyl-sn-glycerol 3-phosphate
115	111	c	-1	M_2odecg3p__91__c__93__	C21H42O7P1	2-octadecanoyl-sn-glycerol 3-phosphate
116	112	c	+0	M_2ohph__91__c__93__	C46H70O2	2-Octaprenyl-6-hydroxyphenol
117	113	c	+0	M_2ombzl__91__c__93__	C47H72O3	2-Octaprenyl-6-methoxy-1,4-benzoquinol
118	114	c	+0	M_2omhmbl__91__c__93__	C48H74O4	2-Octaprenyl-3-methyl-5-hydroxy-6-methoxy-1,4-benzoquinol
119	115	c	+0	M_2ommbl__91__c__93__	C48H74O3	2-Octaprenyl-3-methyl-6-methoxy- 1,4-benzoquinol
120	116	c	+0	M_2omph__91__c__93__	C47H72O2	2-Octaprenyl-6-methoxyphenol
121	117	c	+0	M_2oph__91__c__93__	C46H70O	2-Octaprenylphenol
122	118	c	-4	M_2p4c2me__91__c__93__	C14H22N3O17P3	2-phospho-4-(cytidine 5-diphospho)-2-C-methyl-D-erythritol
123	119	c	-3	M_2pg__91__c__93__	C3H4O7P	D-Glycerate 2-phosphate
124	120	c	-3	M_2pglyc__91__c__93__	C2H2O6P	2-phosphonatoglycolate(3-)
125	121	c	-2	M_2shchc__91__c__93__	C11H10O6	2-Succinyl-6-hydroxy-2,4-cyclohexadiene-1-carboxylate
126	122	c	-1	M_2tdec7eg3p__91__c__93__	C17H32O7P1	2-tetradec-7-enoyl-sn-glycerol 3-phosphate
127	123	c	-1	M_2tdecg3p__91__c__93__	C17H34O7P1	2-tetradecanoyl-sn-glycerol 3-phosphate
128	124	c	-1	M_33hmeoxobut__91__c__93__	C5H7O4	2-Oxo-3-hydroxyisovalerate
129	125	c	-1	M_34hpp__91__c__93__	C9H7O4	3-(4-hydroxyphenyl)pyruvate
130	126	c	-2	M_3amp__91__c__93__	C10H12N5O7P	3-AMP(2-)
131	127	c	-2	M_3c2hmp__91__c__93__	C7H10O5	3-Carboxy-2-hydroxy-4-methylpentanoate
132	128	c	-2	M_3c3hmp__91__c__93__	C7H10O5	3-Carboxy-3-hydroxy-4-methylpentanoate
133	129	c	-2	M_3c4mop__91__c__93__	C7H8O5	3-Carboxy-4-methyl-2-oxopentanoate
134	130	c	-2	M_3cmp__91__c__93__	C9H12N3O8P	3-cmp
135	131	c	-1	M_3dhq__91__c__93__	C7H9O6	3-Dehydroquinate
136	132	c	-1	M_3dhsk__91__c__93__	C7H7O5	3-Dehydroshikimate
137	133	c	-2	M_3gmp__91__c__93__	C10H12N5O8P	3-GMP
138	134	c	-1	M_3h3mop__91__c__93__	C6H9O4	(R)-3-Hydroxy-3-methyl-2-oxopentanoate
139	135	c	-1	M_3haACP__91__c__93__	C15H27N2O9PRS	(3R)-3-Hydroxyacyl-[acyl-carrier protein]
140	136	c	-5	M_3hadpcoa__91__c__93__	C27H39N7O20P3S	(3S)-3-Hydroxyadipyl-CoA
141	137	c	-4	M_3hbcoa__91__c__93__	C25H38N7O18P3S	(S)-3-hydroxybutanoyl-CoA(4-)
142	138	c	-4	M_3hdcoa__91__c__93__	C31H50N7O18P3S	(S)-3-Hydroxydecanoyl-CoA
143	139	c	-4	M_3hddcoa__91__c__93__	C33H54N7O18P3S	(S)-3-Hydroxydodecanoyl-CoA
144	140	c	-1	M_3hddecACP__91__c__93__	C23H43N2O9PRS	(R)-3-Hydroxydodecanoyl-[acyl-carrier protein]
145	141	c	-1	M_3hdecACP__91__c__93__	C21H39N2O9PRS	(R)-3-Hydroxydecanoyl-[acyl-carrier protein]
146	142	c	-4	M_3hhcoa__91__c__93__	C27H42N7O18P3S	(S)-3-Hydroxyhexanoyl-CoA
147	143	c	-4	M_3hhdcoa__91__c__93__	C37H62N7O18P3S	(S)-3-Hydroxyhexadecanoyl-CoA
148	144	c	-1	M_3hhexACP__91__c__93__	C17H31N2O9PRS	(R)-3-Hydroxyhexanoyl-[acyl-carrier protein]
149	145	c	-4	M_3hmbcoa__91__c__93__	C26H40N7O18P3S	(2S,3S)-3-hydroxy-2-methylbutanoyl-CoA(4-)
150	146	c	-1	M_3hmp__91__c__93__	C4H7O3	3-hydroxy-2-methylpropanoate
151	147	c	-1	M_3hmrsACP__91__c__93__	C25H47N2O9PRS	(R)-3-Hydroxytetradecanoyl-[acyl-carrier protein]
152	148	c	-4	M_3hocoa__91__c__93__	C29H46N7O18P3S	(S)-3-Hydroxyoctanoyl-CoA
153	149	c	-1	M_3hoctACP__91__c__93__	C19H35N2O9PRS	(R)-3-Hydroxyoctanoyl-[acyl-carrier protein]
154	150	c	-1	M_3hoctaACP__91__c__93__	C29H55N2O9PRS	(R)-3-Hydroxyoctadecanoyl-[acyl-carrier protein]
155	151	c	-1	M_3hpalmACP__91__c__93__	C27H51N2O9PRS	R-3-hydroxypalmitoyl-[acyl-carrier protein]
156	152	c	-4	M_3htdcoa__91__c__93__	C35H58N7O18P3S	(S)-3-Hydroxytetradecanoyl-CoA
157	153	c	-2	M_3ig3p__91__c__93__	C11H12NO6P	C-(3-Indolyl)-glycerol 3-phosphate
158	154	c	-1	M_3mbutACP__91__c__93__	C16H29N2O8PRS	3-methylbutanoyl-ACP,isovaleryl-ACP
159	155	c	-1	M_3mob__91__c__93__	C5H7O3	3-methyl-2-oxobutanoate
160	156	c	-1	M_3mop__91__c__93__	C6H9O3	3-methyl-2-oxopentanoate
161	157	c	-4	M_3odcoa__91__c__93__	C31H48N7O18P3S	3-Oxodecanoyl-CoA
162	158	c	-4	M_3oddcoa__91__c__93__	C33H52N7O18P3S	3-Oxododecanoyl-CoA
163	159	c	-1	M_3oddecACP__91__c__93__	C23H41N2O9PRS	3-Oxododecanoyl-[acyl-carrier protein]
164	160	c	-1	M_3odecACP__91__c__93__	C21H37N2O9PRS	3-Oxodecanoyl-[acyl-carrier protein]
165	161	c	-4	M_3ohcoa__91__c__93__	C27H40N7O18P3S	3-Oxohexanoyl-CoA
166	162	c	-4	M_3ohdcoa__91__c__93__	C37H60N7O18P3S	3-oxopalmitoyl-CoA(4-)
167	163	c	-1	M_3ohexACP__91__c__93__	C17H29N2O9PRS	3-Oxohexanoyl-[acyl-carrier protein]
168	164	c	-1	M_3omrsACP__91__c__93__	C25H45N2O9PRS	3-Oxotetradecanoyl-[acyl-carrier protein]
169	165	c	-4	M_3oocoa__91__c__93__	C29H44N7O18P3S	3-Oxooctanoyl-CoA
170	166	c	-1	M_3ooctACP__91__c__93__	C19H33N2O9PRS	3-Oxooctanoyl-[acyl-carrier protein]
171	167	c	-1	M_3ooctdACP__91__c__93__	C29H53N2O9PRS	3-Oxooctadecanoyl-[acyl-carrier protein]
172	168	c	-1	M_3opalmACP__91__c__93__	C27H49N2O9PRS	3-Oxohexadecanoyl-[acyl-carrier protein]
173	169	c	-1	M_3ophb__91__c__93__	C47H69O3	3-Octaprenyl-4-hydroxybenzoate
174	170	c	-4	M_3otdcoa__91__c__93__	C35H56N7O18P3S	3-Oxotetradecanoyl-CoA
175	171	c	-3	M_3pg__91__c__93__	C3H4O7P	3-Phospho-D-glycerate
176	172	c	-3	M_3php__91__c__93__	C3H2O7P	3-phosphonatooxypyruvate(3-)
177	173	c	-4	M_3psme__91__c__93__	C10H9O10P	5-O-(1-Carboxyvinyl)-3-phosphoshikimate
178	174	c	-2	M_3ump__91__c__93__	C9H11N2O9P	3-UMP(2-)
179	175	c	+0	M_4abut__91__c__93__	C4H9NO2	4-Aminobutanoate
180	176	c	+1	M_4abutn__91__c__93__	C4H10NO	4-Aminobutanal
181	177	c	-1	M_4abz__91__c__93__	C7H6NO2	4-Aminobenzoate
182	178	c	-1	M_4adcho__91__c__93__	C10H10NO5	4-amino-4-deoxychorismate
183	179	c	+0	M_4ahmmp__91__c__93__	C6H9N3O	4-Amino-5-hydroxymethyl-2-methylpyrimidine
184	180	c	-2	M_4ampm__91__c__93__	C6H8N3O4P	4-Amino-2-methyl-5-phosphomethylpyrimidine
185	181	c	-2	M_4c2me__91__c__93__	C14H23N3O14P2	4-(cytidine 5-diphospho)-2-C-methyl-D-erythritol
186	182	c	+0	M_4gubut__91__c__93__	C5H11N3O2	4-Guanidinobutanoate
187	183	c	+1	M_4gudbd__91__c__93__	C5H13N4O	4-Guanidinobutanamide
188	184	c	-2	M_4h2oglt__91__c__93__	C5H4O6	4-hydroxy-2-oxoglutarate(2-)
189	185	c	+0	M_4hba__91__c__93__	C7H8O2	4-Hydroxy-benzyl alcohol
190	186	c	-1	M_4hbz__91__c__93__	C7H5O3	4-hydroxybenzoate
191	187	c	+0	M_4hthr__91__c__93__	C4H9NO4	4-Hydroxy-L-threonine
192	188	c	-1	M_4m3hhexACP__91__c__93__	C18H33N2O9PRS	4-methyl-3-hydroxy-hexanoyl-ACP
193	189	c	-1	M_4m3hpentACP__91__c__93__	C17H31N2O9PRS	4-methyl-3-hydroxy-pentanoyl-ACP
194	190	c	-1	M_4m3ohexACP__91__c__93__	C18H31N2O9PRS	4-methyl-3-oxo-hexanoyl-ACP
195	191	c	-1	M_4m3opentACP__91__c__93__	C17H29N2O9PRS	4-methyl-3-oxo-pentanoyl-ACP
196	192	c	+0	M_4mhetz__91__c__93__	C6H9NOS	4-Methyl-5-(2-hydroxyethyl)-thiazole
197	193	c	-1	M_4mhexACP__91__c__93__	C18H33N2O8PRS	4-methyl-hexanoyl-ACP
198	194	c	-1	M_4mop__91__c__93__	C6H9O3	4-methyl-2-oxopentanoate
199	195	c	-2	M_4mpetz__91__c__93__	C6H8NO4PS	4-Methyl-5-(2-phosphoethyl)-thiazole
200	196	c	-1	M_4mthex2eACP__91__c__93__	C18H31N2O8PRS	4-methyl-trans-hex-2-enoyl-ACP
201	197	c	-2	M_4pasp__91__c__93__	C4H6NO7P	4-Phospho-L-aspartate
202	198	c	-3	M_4per__91__c__93__	C4H6O8P	4-Phospho-D-erythronate
203	199	c	-3	M_4ppan__91__c__93__	C9H15NO8P	D-4-Phosphopantothenate
204	200	c	-3	M_4ppcys__91__c__93__	C12H20N2O9PS	N-((R)-4-Phosphopantothenoyl)-L-cysteine
205	201	c	-3	M_5aizc__91__c__93__	C9H11N3O9P	5-amino-1-(5-phospho-D-ribosyl)imidazole-4-carboxylate
206	202	c	+0	M_5aop__91__c__93__	C5H9NO3	5-Amino-4-oxopentanoate
207	203	c	+0	M_5drib__91__c__93__	C5H10O4	5-deoxyribose
208	204	c	-2	M_5fthf__91__c__93__	C20H21N7O7	5-formyltetrahydrofolate(2-)
209	205	c	-1	M_5m3hhexACP__91__c__93__	C18H33N2O9PRS	5-methyl-3-hydroxy-hexanoyl-ACP
210	206	c	-1	M_5m3ohexACP__91__c__93__	C18H31N2O9PRS	5-methyl-3-oxo-hexanoyl-ACP
211	207	c	-1	M_5mhexACP__91__c__93__	C18H33N2O8PRS	5-methyl-hexanoyl-ACP
212	208	c	+0	M_5mta__91__c__93__	C11H15N5O3S	5-Methylthioadenosine
213	209	c	+0	M_5mtc__91__c__93__	C5H7N3O	5-Methylcytosine
214	210	c	-1	M_5mthex2eACP__91__c__93__	C18H31N2O8PRS	5-methyl-trans-hex-2-enoyl-ACP
215	211	c	-1	M_5mthf__91__c__93__	C20H24N7O6	5-Methyltetrahydrofolate
216	212	c	+0	M_5mthglu__91__c__93__	C25H34N8O12	5_Methyltetrahydropteroyltri_L_glutamate
217	213	c	+0	M_5mtr__91__c__93__	C6H12O4S	5-Methylthio-D-ribose
218	214	c	-2	M_5prdmbz__91__c__93__	C14H17N2O7P	N1-(5-Phospho-alpha-D-ribosyl)-5,6-dimethylbenzimidazole
219	215	c	-1	M_6m3hheptACP__91__c__93__	C19H35N2O9PRS	6-methyl-3-hydroxy-heptanoyl-ACP
220	216	c	-1	M_6m3hocACP__91__c__93__	C20H37N2O9PRS	6-methyl-3-hydroxy-octanoyl-ACP
221	217	c	-1	M_6m3oheptACP__91__c__93__	C19H33N2O9PRS	6-methyl-3-oxo-heptanoyl-ACP
222	218	c	-1	M_6m3oocACP__91__c__93__	C20H35N2O9PRS	6-methyl-3-oxo-octanoyl-ACP
223	219	c	-1	M_6mocACP__91__c__93__	C20H37N2O8PRS	6-methyl-octanoyl-ACP
224	220	c	-1	M_6mtoct2eACP__91__c__93__	C20H35N2O8PRS	6-methyl-trans-oct-2-enoyl-ACP
225	221	c	-3	M_6pgc__91__c__93__	C6H10O10P	6-Phospho-D-gluconate
226	222	c	-2	M_6pgl__91__c__93__	C6H9O9P	6-phospho-D-glucono-1,5-lactone
227	223	c	-1	M_7m3hocACP__91__c__93__	C20H37N2O9PRS	7-methyl-3-hydroxy-octanoyl-ACP
228	224	c	-1	M_7m3oocACP__91__c__93__	C20H35N2O9PRS	7-methyl-3-oxo-octanoyl-ACP
229	225	c	-1	M_7mocACP__91__c__93__	C20H37N2O8PRS	7-methyl-octanoyl-ACP
230	226	c	-1	M_7mtoct2eACP__91__c__93__	C20H35N2O8PRS	7-methyl-trans-oct-2-enoyl-ACP
231	227	c	-1	M_8m3hdcaACP__91__c__93__	C22H41N2O9PRS	8-methyl-3-hydroxy-decanoyl-ACP
232	228	c	-1	M_8m3hnonACP__91__c__93__	C21H39N2O9PRS	8-methyl-3-hydroxy-nonanoyl-ACP
233	229	c	-1	M_8m3odcaACP__91__c__93__	C22H39N2O9PRS	8-methyl-3-oxo-decanoyl-ACP
234	230	c	-1	M_8m3ononACP__91__c__93__	C21H37N2O9PRS	8-methyl-3-oxo-nonanoyl-ACP
235	231	c	-1	M_8mdcaACP__91__c__93__	C22H41N2O8PRS	8-methyl-decanoyl-ACP
236	232	c	-1	M_8mtdec2eACP__91__c__93__	C22H39N2O8PRS	8-methyl-trans-dec-2-enoyl-ACP
237	233	c	-1	M_9m3hdcaACP__91__c__93__	C22H41N2O9PRS	9-methyl-3-hydroxy-decanoyl-ACP
238	234	c	-1	M_9m3odcaACP__91__c__93__	C22H39N2O9PRS	9-methyl-3-oxo-decanoyl-ACP
239	235	c	-1	M_9mdcaACP__91__c__93__	C22H41N2O8PRS	9-methyl-decanoyl-ACP
240	236	c	-1	M_9mtdec2eACP__91__c__93__	C22H39N2O8PRS	9-methyl-trans-dec-2-enoyl-ACP
241	237	c	-1	M_ACP__91__c__93__	C11H21N2O7PRS	acyl carrier protein
242	238	c	-1	M_CE5656__91__c__93__	C18H25N5O8PS2	lipoyl-AMP(1-)
243	239	c	-3	M_HC01434__91__c__93__	C6H3O7	oxalatosuccinate(3-)
244	240	c	-4	M_HC01651__91__c__93__	C10H14N5O15P3	Formamidopyrimidine nucleoside triphosphate
245	241	c	-4	M_HC01652__91__c__93__	C9H14N5O14P3	2,5-Diaminopyrimidine nucleoside triphosphate
246	242	c	-4	M_HC01710__91__c__93__	C9H14N5O14P3	2,5-Diamino-6-(5-triphosphoryl-3,4-trihydroxy-2-oxopentyl)- amino-4-oxopyrimidine
247	243	c	-1	M_Largn__91__c__93__	C10H12NO5	L-Arogenate
248	244	c	+0	M_PGP__91__c__93__	C39H64N8O19X	Peptidoglycan polymer (n subunits)
249	245	c	+0	M_PGPm1__91__c__93__	X	Peptidoglycan polymer (n-1 subunits)
250	246	c	+0	M_aa__91__c__93__	C3H5NO	Acrylamide
251	247	c	+1	M_aacald__91__c__93__	C2H6NO	Aminoacetaldehyde
252	248	c	-4	M_aacoa__91__c__93__	C25H36N7O18P3S	Acetoacetyl-CoA
253	249	c	+1	M_aact__91__c__93__	C3H8NO	ammonioacetone
254	250	c	+0	M_abt__91__c__93__	C5H12O5	L-arabinitol
255	251	c	-1	M_acACP__91__c__93__	C13H23N2O8PRS	Acetyl-ACP
256	252	c	-1	M_ac__91__c__93__	C2H3O2	acetate
257	253	c	-1	M_acac__91__c__93__	C4H5O3	acetoacetate
258	254	c	+0	M_acald__91__c__93__	C2H4O	acetaldehyde
259	255	c	-4	M_accoa__91__c__93__	C23H34N7O17P3S	Acetyl-CoA
260	256	c	-3	M_acg5p__91__c__93__	C7H9NO8P	N-acetyl-L-gamma-glutamyl phosphate(3-)
261	257	c	-1	M_acg5sa__91__c__93__	C7H10NO4	2-acetamido-5-oxopentanoate
262	258	c	-2	M_acgam1p__91__c__93__	C8H14NO9P	N-Acetyl-D-glucosamine 1-phosphate
263	259	c	-2	M_acgam6p__91__c__93__	C8H14NO9P	N-acetyl-D-glucosamine 6-phosphate(2-)
264	260	c	+0	M_acgam__91__c__93__	C8H15NO6	N-acetyl-D-glucosamine
265	261	c	-2	M_acglu__91__c__93__	C7H9NO5	N-acetyl-L-glutamate(2-)
266	262	c	+0	M_achms__91__c__93__	C6H11NO4	O-Acetyl-L-homoserine
267	263	c	+0	M_acmana__91__c__93__	C8H15NO6	N-acetyl-D-mannosamine
268	264	c	-3	M_acon_C__91__c__93__	C6H3O6	cis-Aconitate
269	265	c	-3	M_acon_T__91__c__93__	C6H3O6	trans-Aconitate
270	266	c	-2	M_aconm__91__c__93__	C7H6O6	E-3-carboxy-2-pentenedioate 6-methyl ester
271	267	c	+0	M_acorn__91__c__93__	C7H14N2O3	N(2)-acetyl-L-ornithine
272	268	c	-1	M_acryl__91__c__93__	C3H3O2	acrylate
273	269	c	-1	M_actACP__91__c__93__	C15H25N2O9PRS	Acetoacetyl-ACP
274	270	c	-2	M_actp__91__c__93__	C2H3O5P	Acetyl phosphate
275	271	c	+0	M_ad__91__c__93__	C2H5NO	Acetamide
276	272	c	+0	M_ade__91__c__93__	C5H5N5	Adenine
277	273	c	+0	M_adn__91__c__93__	C10H13N5O4	Adenosine
278	274	c	+1	M_adocbi__91__c__93__	C58H84CoN16O11	Adenosyl cobinamide
279	275	c	-1	M_adocbip__91__c__93__	C58H83CoN16O14P	Adenosyl cobinamide phosphate
280	276	c	+0	M_adocbl__91__c__93__	C72H100CoN18O17P	Adenosylcobalamin
281	277	c	-3	M_adp__91__c__93__	C10H12N5O10P2	ADP
282	278	c	-2	M_adpglc__91__c__93__	C16H23N5O15P2	ADP alpha-D-glucoside(2-)
283	279	c	-2	M_adphep_DD__91__c__93__	C17H25N5O16P2	ADP-D-glycero-D-manno-heptose
284	280	c	-2	M_adphep_LD__91__c__93__	C17H25N5O16P2	ADP-L-glycero-D-manno-heptose
285	281	c	-2	M_adprib__91__c__93__	C15H21N5O14P2	ADPribose
286	282	c	-1	M_agdpcbi__91__c__93__	C68H95CoN21O21P2	Adenosine-GDP-cobinamide
287	283	c	+0	M_ahcys__91__c__93__	C14H20N6O5S	S-Adenosyl-L-homocysteine
288	284	c	-4	M_ahdt__91__c__93__	C9H12N5O13P3	7,8-dihydroneopterin 3-triphosphate(4-)
289	285	c	-24	M_ai15tca1__91__c__93__	C117H228O135P24	Anteisopentadecanoyllipoteichoic acid (n=24), linked, unsubstituted
290	286	c	-24	M_ai15tcaacgam__91__c__93__	C309H540N24O255P24	Anteisopentadecanoyllipoteichoic acid (n=24), linked, N-acetyl-D-glucosamine
291	287	c	-24	M_ai17tca1__91__c__93__	C121H236O135P24	Anteisoheptadecanoyllipoteichoic acid (n=24), linked, unsubstituted
292	288	c	-24	M_ai17tcaacgam__91__c__93__	C313H548N24O255P24	Anteisoheptadecanoyllipoteichoic acid (n=24), linked, N-acetyl-D-glucosamine
293	289	c	-2	M_aicar__91__c__93__	C9H13N4O8P	5-Amino-1-(5-Phospho-D-ribosyl)imidazole-4-carboxamide
294	290	c	-4	M_aihpdcoa__91__c__93__	C38H64N7O17P3S	fa12coa,Anteiso-C17:0 CoA   Anteisoheptadecanoyl-CoA
295	291	c	-4	M_aipdcoa__91__c__93__	C36H60N7O17P3S	fa4coa,Anteiso-C15:0 CoA   Anteisopentadecanoyl-CoA
296	292	c	-2	M_air__91__c__93__	C8H12N3O7P	5-amino-1-(5-phospho-D-ribosyl)imidazole
297	293	c	-2	M_akg__91__c__93__	C5H4O5	2-Oxoglutarate
298	294	c	+0	M_ala_D__91__c__93__	C3H7NO2	D-alanine
299	295	c	+0	M_ala_L__91__c__93__	C3H7NO2	L-alanine
300	296	c	+0	M_alaala__91__c__93__	C6H12N2O3	D-Alanyl-D-alanine
301	297	c	-1	M_alaasp__91__c__93__	C7H11N2O5	L-alanyl-L-aspartate
302	298	c	-1	M_alac_S__91__c__93__	C5H7O4	(S)-2-Acetolactate
303	299	c	+0	M_alagln__91__c__93__	C8H15N3O4	L-alanyl-L-glutamine
304	300	c	-1	M_alaglu__91__c__93__	C8H13N2O5	L-alanyl-L-glutamate
305	301	c	+0	M_alagly__91__c__93__	C5H10N2O3	L-alanylglycine
306	302	c	+0	M_alahis__91__c__93__	C9H14N4O3	L-alanyl-L-histidine
307	303	c	+0	M_alaleu__91__c__93__	C9H18N2O3	L-alanyl-L-leucine
308	304	c	+0	M_alathr__91__c__93__	C7H14N2O4	L-alanyl-L-threonine
309	305	c	+1	M_alpro__91__c__93__	CH6NS2X	S-Aminomethyldihydrolipoylprotein
310	306	c	+1	M_amet__91__c__93__	C15H23N6O5S	S-Adenosyl-L-methionine
311	307	c	+2	M_ametam__91__c__93__	C14H24N6O3S	S-Adenosylmethioninamine
312	308	c	-2	M_amp__91__c__93__	C10H12N5O7P	AMP
313	309	c	-1	M_anth__91__c__93__	C7H6NO2	anthranilate
314	310	c	+0	M_apoACP__91__c__93__	RHO	apoprotein [acyl carrier protein]
315	311	c	+0	M_apoC_Lys_btn__91__c__93__	C16H27N4O3SX	Holocarboxylase (biotin covalent bound to Lys residue of apoC)
316	312	c	+0	M_arab_D__91__c__93__	C5H10O5	D-Arabinose
317	313	c	+0	M_arab_L__91__c__93__	C5H10O5	L-arabinose
318	314	c	-2	M_arbt6p__91__c__93__	C12H15O10P	Arbutin 6-phosphate
319	315	c	+1	M_arg_L__91__c__93__	C6H15N4O2	L-argininium(1+)
320	316	c	-1	M_argsuc__91__c__93__	C10H17N4O6	N(omega)-(L-Arginino)succinate
321	317	c	+0	M_asn_L__91__c__93__	C4H8N2O3	L-asparagine
322	318	c	-1	M_asp_L__91__c__93__	C4H6NO4	L-aspartate(1-)
323	319	c	+0	M_aspsa__91__c__93__	C4H7NO3	L-Aspartate 4-semialdehyde
324	320	c	-4	M_atp__91__c__93__	C10H12N5O13P3	ATP
325	321	c	+0	M_biomass__91__c__93__	X	Produced biomass
326	322	c	-1	M_btamp__91__c__93__	C20H27N7O9PS	Biotinyl-5-AMP
327	323	c	-1	M_btn__91__c__93__	C10H15N2O3S	Biotin
328	324	c	-1	M_btn_co2__91__c__93__	C17H26N4O5SX	Carboxybiotin-carboxyl-carrier protein
329	325	c	-1	M_but2eACP__91__c__93__	C15H25N2O8PRS	But-2-enoyl-[acyl-carrier protein]
330	326	c	-1	M_butACP__91__c__93__	C15H27N2O8PRS	Butyryl-ACP (n-C4:0ACP)
331	327	c	-1	M_bz__91__c__93__	C7H5O2	benzoate
332	328	c	+0	M_bzam__91__c__93__	C7H7NO	Benzamide
333	329	c	+2	M_ca2__91__c__93__	Ca	calcium(2+)
334	330	c	-1	M_camp__91__c__93__	C10H11N5O6P	3,5-cyclic AMP(1-)
335	331	c	-2	M_cbasp__91__c__93__	C5H6N2O5	N-Carbamoyl-L-aspartate
336	332	c	+0	M_cbi__91__c__93__	C48H72CoN11O8	Cobinamide
337	333	c	-2	M_cbp__91__c__93__	CH2NO5P	Carbamoyl phosphate
338	334	c	+2	M_cd2__91__c__93__	Cd	Cadmium
339	335	c	-3	M_cdp__91__c__93__	C9H12N3O11P2	CDP
340	336	c	-2	M_cdpdaihpdecg__91__c__93__	C46H83N3O15P2	CDP-1,2-dianteisoheptadecanoylglycerol (14-methyl-hexadecanoyl, anteiso-C17)
341	337	c	-2	M_cdpdaipdecg__91__c__93__	C42H75N3O15P2	CDP-1,2-dianteisopentadecanoylglycerol (12-methyl-tetradecanoyl, anteiso-C15)
342	338	c	-2	M_cdpdddecg__91__c__93__	C36H63N3O15P2	CDP-1,2-didodecanoylglycerol
343	339	c	-2	M_cdpdhdec9eg__91__c__93__	C44H75N3O15P2	CDP-1,2-dihexadec-9-enoylglycerol
344	340	c	-2	M_cdpdhdecg__91__c__93__	C44H79N3O15P2	CDP-1,2-dihexadecanoylglycerol
345	341	c	-2	M_cdpdihdecg__91__c__93__	C44H79N3O15P2	CDP-1,2-diisohexadecanoylglycerol (14-methyl-pentadecanoyl, iso-C16)
346	342	c	-2	M_cdpdihpdecg__91__c__93__	C46H83N3O15P2	CDP-1,2-diisoheptadecanoylglycerol (15-methyl-hexadecanoyl, iso-C17)
347	343	c	-2	M_cdpdipdecg__91__c__93__	C42H75N3O15P2	CDP-1,2-diisopentadecanoylglycerol (13-methyl-tetradecanoyl, iso-C15)
348	344	c	-2	M_cdpditdecg__91__c__93__	C40H71N3O15P2	CDP-1,2-diisotetradecanoylglycerol (12-methyl-tridecanoyl, iso-C14)
349	345	c	-2	M_cdpdodec11eg__91__c__93__	C48H83N3O15P2	CDP-1,2-dioctadec-11-enoylglycerol
350	346	c	-2	M_cdpdodecg__91__c__93__	C48H87N3O15P2	CDP-1,2-dioctadecanoylglycerol
351	347	c	-2	M_cdpdtdec7eg__91__c__93__	C40H67N3O15P2	CDP-1,2-ditetradec-7-enoylglycerol
352	348	c	-2	M_cdpdtdecg__91__c__93__	C40H71N3O15P2	CDP-1,2-ditetradecanoylglycerol
353	349	c	+0	M_cellb__91__c__93__	C12H22O11	cellobiose
354	350	c	+0	M_cgly__91__c__93__	C5H10N2O3S	L-cysteinylglycine
355	351	c	+1	M_chol__91__c__93__	C5H14NO	Choline
356	352	c	-2	M_chor__91__c__93__	C10H8O6	chorismate
357	353	c	+0	M_chtbs__91__c__93__	C16H28N2O11	N,N-diacetylchitobiose
358	354	c	-3	M_cit__91__c__93__	C6H5O7	Citrate
359	355	c	+0	M_citr_L__91__c__93__	C6H13N3O3	L-citrulline
360	356	c	-2	M_ckdo__91__c__93__	C17H24N3O15P	CMP-3-deoxy-D-manno-octulosonate
361	357	c	-1	M_cl__91__c__93__	Cl	Chloride
362	358	c	-2	M_clpn180__91__c__93__	C81H156O17P2	cardiolipin (tetraoctadecanoyl, n-C18:0)
363	359	c	-2	M_clpnai17__91__c__93__	C77H148O17P2	cardiolipin (14-methyl-hexadecanoyl, anteiso-C17)
364	360	c	-2	M_clpni17__91__c__93__	C77H148O17P2	cardiolipin (15-methyl-hexadecanoyl, iso-C17)
365	361	c	-2	M_cmp__91__c__93__	C9H12N3O8P	CMP
366	362	c	+0	M_co2__91__c__93__	CO2	carbon dioxide
367	363	c	-4	M_coa__91__c__93__	C21H32N7O16P3S	Coenzyme A
368	364	c	+2	M_cobalt2__91__c__93__	Co	Co2+
369	365	c	-11	M_colipa__91__c__93__	C176H303N2O100P4	core oligosaccharide lipid A
370	366	c	-4	M_cpppg3__91__c__93__	C36H40N4O8	Coproporphyrinogen III
371	367	c	+0	M_csn__91__c__93__	C4H5N3O	cytosine
372	368	c	-4	M_ctp__91__c__93__	C9H12N3O14P3	CTP
373	369	c	+2	M_cu2__91__c__93__	Cu	Cu2+
374	370	c	+0	M_cys_L__91__c__93__	C3H7NO2S	L-cysteine
375	371	c	+0	M_cyst_L__91__c__93__	C7H14N2O4S	L-cystathionine
376	372	c	+0	M_cytd__91__c__93__	C9H13N3O5	Cytidine
377	373	c	+0	M_dad_2__91__c__93__	C10H13N5O3	2-deoxyadenosine
378	374	c	+0	M_dad_5__91__c__93__	C10H13N5O3	5-Deoxyadenosine
379	375	c	-3	M_dadp__91__c__93__	C10H12N5O9P2	dADP
380	376	c	-2	M_damp__91__c__93__	C10H12N5O6P	dAMP(2-)
381	377	c	-4	M_datp__91__c__93__	C10H12N5O12P3	dATP
382	378	c	-1	M_dcaACP__91__c__93__	C21H39N2O8PRS	Decanoyl-ACP (n-C10:0ACP)
383	379	c	-4	M_dcamp__91__c__93__	C14H14N5O11P	N6-(1,2-Dicarboxyethyl)-AMP
384	380	c	-3	M_dcdp__91__c__93__	C9H12N3O10P2	dCDP
385	381	c	-2	M_dcmp__91__c__93__	C9H12N3O7P	dCMP
386	382	c	-4	M_dctp__91__c__93__	C9H12N3O13P3	dCTP
387	383	c	+0	M_dcyt__91__c__93__	C9H13N3O4	Deoxycytidine
388	384	c	-1	M_ddcaACP__91__c__93__	C23H43N2O8PRS	Dodecanoyl-ACP (n-C12:0ACP)
389	385	c	-1	M_ddca__91__c__93__	C12H23O2	laurate
390	386	c	+0	M_dextrin__91__c__93__	C36H62O31	Dextrin
391	387	c	-3	M_dgdp__91__c__93__	C10H12N5O10P2	dGDP
392	388	c	-2	M_dgmp__91__c__93__	C10H12N5O7P	dGMP
393	389	c	+0	M_dgsn__91__c__93__	C10H13N5O4	Deoxyguanosine
394	390	c	-4	M_dgtp__91__c__93__	C10H12N5O13P3	dGTP
395	391	c	-2	M_dhap__91__c__93__	C3H5O6P	Dihydroxyacetone phosphate
396	392	c	-2	M_dhf__91__c__93__	C19H19N7O6	7,8-Dihydrofolate
397	393	c	+0	M_dhlam__91__c__93__	C8H17NOS2	dihydrolipoamide
398	394	c	+0	M_dhlpro__91__c__93__	H2S2X	Dihydrolipolprotein
399	395	c	-1	M_dhna__91__c__93__	C11H7O4	1,4-Dihydroxy-2-naphthoate
400	396	c	+0	M_dhnpt__91__c__93__	C9H13N5O4	Dihydroneopterin
401	397	c	-1	M_dhor_S__91__c__93__	C5H5N2O4	(S)-dihydroorotate
402	398	c	-1	M_dhpt__91__c__93__	C14H13N6O3	Dihydropteroate
403	399	c	+0	M_dhptd__91__c__93__	C5H8O4	4,5-dihydroxy-2,3-pentanedione
404	400	c	+0	M_dmbzid__91__c__93__	C9H10N2	5,6-Dimethylbenzimidazole
405	401	c	+0	M_dmphqno__91__c__93__	C30H44O2	Demethylphylloquinone
406	402	c	-3	M_dmpp__91__c__93__	C5H9O7P2	Dimethylallyl diphosphate
407	403	c	-2	M_dnad__91__c__93__	C21H24N6O15P2	Deamino-NAD+
408	404	c	+0	M_dnarep__91__c__93__	X	DNA replication
409	405	c	-2	M_dpcoa__91__c__93__	C21H33N7O13P2S	Dephospho-CoA
410	406	c	+0	M_drib__91__c__93__	C5H10O4	2-deoxy-D-ribose
411	407	c	-7	M_dscl__91__c__93__	C42H41N4O16	dihydrosirohydrochlorin
412	408	c	-2	M_dtdp4d6dg__91__c__93__	C16H22N2O15P2	dTDP-4-dehydro-6-deoxy-alpha-D-glucose(2-)
413	409	c	-2	M_dtdp4d6dm__91__c__93__	C16H22N2O15P2	dTDP-4-dehydro-6-deoxy-L-mannose(2-)
414	410	c	-3	M_dtdp__91__c__93__	C10H13N2O11P2	dTDP
415	411	c	-2	M_dtdpglu__91__c__93__	C16H24N2O16P2	dTDP-glucose(2-)
416	412	c	-2	M_dtdprmn__91__c__93__	C16H24N2O15P2	dTDP-L-rhamnose
417	413	c	-2	M_dtmp__91__c__93__	C10H13N2O8P	dTMP
418	414	c	-4	M_dttp__91__c__93__	C10H13N2O14P3	dTTP
419	415	c	-3	M_dudp__91__c__93__	C9H11N2O11P2	dUDP
420	416	c	-2	M_dump__91__c__93__	C9H11N2O8P	dUMP
421	417	c	+0	M_duri__91__c__93__	C9H12N2O5	Deoxyuridine
422	418	c	-4	M_dutp__91__c__93__	C9H11N2O14P3	dUTP
423	419	c	-2	M_dxyl5p__91__c__93__	C5H9O7P	1-deoxy-D-xylulose 5-phosphate
424	420	c	-1	M_e4hglu__91__c__93__	C5H8NO5	erythro-4-hydroxy-L-glutamate(1-)
425	421	c	-2	M_e4p__91__c__93__	C4H7O7P	D-Erythrose 4-phosphate
426	422	c	-2	M_eig3p__91__c__93__	C6H9N2O6P	D-erythro-1-(Imidazol-4-yl)glycerol 3-phosphate
427	423	c	+1	M_etha__91__c__93__	C2H8NO	etha[c]
428	424	c	+0	M_etoh__91__c__93__	C2H6O	ethanol
429	425	c	-2	M_f1p__91__c__93__	C6H11O9P	D-Fructose 1-phosphate
430	426	c	-2	M_f6p__91__c__93__	C6H11O9P	D-Fructose 6-phosphate
431	427	c	-1	M_fa11__91__c__93__	C17H33O2	Fatty acid (Iso-C17:0)
432	428	c	-1	M_fa12__91__c__93__	C17H33O2	Fatty acid (Anteiso-C17:0)
433	429	c	-1	M_fa1__91__c__93__	C14H27O2	Fatty acid (Iso-C14:0)
434	430	c	-1	M_fa3__91__c__93__	C15H29O2	Fatty acid (Iso-C15:0)
435	431	c	-1	M_fa4__91__c__93__	C15H29O2	Fatty acid (Anteiso-C15:0)
436	432	c	-1	M_fa6__91__c__93__	C16H31O2	Fatty acid (iso-C16:0)
437	433	c	-2	M_fad__91__c__93__	C27H31N9O15P2	Flavin adenine dinucleotide oxidized
438	434	c	-2	M_fadh2__91__c__93__	C27H33N9O15P2	Flavin adenine dinucleotide reduced
439	435	c	-4	M_fdp__91__c__93__	C6H10O12P2	D-Fructose 1,6-bisphosphate
440	436	c	+0	M_fdxox__91__c__93__	X	Oxidized ferredoxin
441	437	c	+0	M_fdxrd__91__c__93__	XH2	Reduced ferredoxin
442	438	c	+2	M_fe2__91__c__93__	Fe	Fe2+
443	439	c	+3	M_fe3__91__c__93__	Fe	Fe3+
444	440	c	-2	M_fgam__91__c__93__	C8H13N2O9P	N2-Formyl-N1-(5-phospho-D-ribosyl)glycinamide
445	441	c	+3	M_ficytC__91__c__93__	C42H54FeN8O6S2	Ferricytochrome c
446	442	c	-2	M_fmn__91__c__93__	C17H19N4O9P	FMN
447	443	c	-2	M_fmnh2__91__c__93__	C17H21N4O9P	Reduced FMN
448	444	c	+2	M_focytC__91__c__93__	C42H54FeN8O6S2	Ferrocytochrome C
449	445	c	-1	M_fol__91__c__93__	C19H18N7O6	Folate
450	446	c	-1	M_for__91__c__93__	CH1O2	Formate
451	447	c	-1	M_fpram__91__c__93__	C8H15N3O8P	2-(Formamido)-N1-(5-phospho-D-ribosyl)acetamidine
452	448	c	-2	M_fprica__91__c__93__	C10H13N4O9P	5-Formamido-1-(5-phospho-D-ribosyl)imidazole-4-carboxamide
453	449	c	-3	M_frdp__91__c__93__	C15H25O7P2	Farnesyl diphosphate
454	450	c	+0	M_fru__91__c__93__	C6H12O6	D-Fructose
455	451	c	-2	M_fum__91__c__93__	C4H2O4	Fumarate
456	452	c	-2	M_g1p__91__c__93__	C6H11O9P	D-Glucose 1-phosphate
457	453	c	-2	M_g3p__91__c__93__	C3H5O6P	Glyceraldehyde 3-phosphate
458	454	c	+0	M_g3pc__91__c__93__	C8H20NO6P	sn-Glycero-3-phosphocholine
459	455	c	+0	M_g3pe__91__c__93__	C5H14NO6P	sn-Glycero-3-phosphoethanolamine
460	456	c	-1	M_g3pg__91__c__93__	C6H14O8P	Glycerophosphoglycerol
461	458	c	-2	M_g6p_B__91__c__93__	C6H11O9P	beta-D-glucose 6-phosphate
462	457	c	-2	M_g6p__91__c__93__	C6H11O9P	D-Glucose 6-phosphate
463	459	c	-11	M_gagicolipa__91__c__93__	C157H271N2O84P4	galactosyl-glucosyl-inner core oligosaccharide lipid A
464	460	c	-2	M_gal1p__91__c__93__	C6H11O9P	(2R,3R,4S,5R,6R)-3,4,5-trihydroxy-6-(hydroxymethyl)oxan-2-yl phosphate
465	461	c	+0	M_gal__91__c__93__	C6H12O6	D-Galactose
466	462	c	-2	M_galt1p__91__c__93__	C6H13O9P	Galactitol 1-phosphate
467	463	c	-1	M_gam1p__91__c__93__	C6H13NO8P	D-Glucosamine 1-phosphate
468	464	c	-1	M_gam6p__91__c__93__	C6H13NO8P	D-Glucosamine 6-phosphate
469	465	c	-1	M_gar__91__c__93__	C7H14N2O8P	N1-(5-Phospho-D-ribosyl)glycinamide
470	466	c	+0	M_gcald__91__c__93__	C2H4O2	glycolaldehyde
471	467	c	-3	M_gdp__91__c__93__	C10H12N5O11P2	GDP
472	468	c	-7	M_gdptp__91__c__93__	C10H11N5O20P5	Guanosine 3-diphosphate 5-triphosphate
473	469	c	-11	M_ggagicolipa__91__c__93__	C163H281N2O89P4	glucosyl-galactosyl-glucosyl-inner core oligosaccharide lipid A
474	470	c	-3	M_ggdp__91__c__93__	C20H33O7P2	2-trans,6-trans,10-trans-geranylgeranyl diphosphate(3-)
475	471	c	-11	M_gggagicolipa__91__c__93__	C169H291N2O94P4	glucosyl-glucosyl-galactosyl-glucosyl-inner core oligosaccharide lipid A
476	472	c	-11	M_gicolipa__91__c__93__	C151H261N2O79P4	glucosyl-inner core oligosaccharide lipid A
477	473	c	+0	M_glc_D__91__c__93__	C6H12O6	D-glucose
478	474	c	+0	M_glc_bD__91__c__93__	C6H12O6	beta D-glucose
479	475	c	-1	M_glcn__91__c__93__	C6H11O7	D-gluconate
480	476	c	-1	M_glcur__91__c__93__	C6H9O7	D-glucuronate
481	477	c	+0	M_gln_L__91__c__93__	C5H10N2O3	L-glutamine
482	478	c	+0	M_glu1sa__91__c__93__	C5H9NO3	L-Glutamate 1-semialdehyde
483	479	c	-2	M_glu5p__91__c__93__	C5H8NO7P	L-Glutamate 5-phosphate
484	480	c	+0	M_glu5sa__91__c__93__	C5H9NO3	L-Glutamate 5-semialdehyde
485	481	c	-1	M_glu_D__91__c__93__	C5H8NO4	D-Glutamate
486	482	c	-1	M_glu_L__91__c__93__	C5H8NO4	L-glutamate(1-)
487	483	c	+0	M_glutrna__91__c__93__	C5H7NO3R	L-Glutamyl-tRNA(Glu)
488	484	c	-1	M_glx__91__c__93__	C2H1O3	glyoxylate
489	485	c	+0	M_gly__91__c__93__	C2H5NO2	Glycine
490	486	c	+0	M_glyald__91__c__93__	C3H6O3	D-Glyceraldehyde
491	487	c	+0	M_glyasn__91__c__93__	C6H11N3O4	Glycyl-L-asparagine
492	488	c	-1	M_glyasp__91__c__93__	C6H9N2O5	Glycyl-L-aspartate
493	489	c	-2	M_glyc3p__91__c__93__	C3H7O6P	Glycerol 3-phosphate
494	490	c	+0	M_glyc45tca__91__c__93__	X	glycerol teichoic acid (n=45), linked, unsubstituted
495	491	c	+0	M_glyc45tcaala_D__91__c__93__	X	glycerol teichoic acid (n=45), linked, D-ala substituted
496	492	c	+0	M_glyc45tcaglc__91__c__93__	X	glycerol teichoic acid (n=45), linked, glucose substituted
497	494	c	-1	M_glyc_R__91__c__93__	C3H5O4	D-glycerate
498	493	c	+0	M_glyc__91__c__93__	C3H8O3	Glycerol
499	495	c	-1	M_glyclt__91__c__93__	C2H3O3	glycolate
500	496	c	+0	M_glycogen__91__c__93__	C6H10O5	glycogen
501	497	c	+0	M_glycogenb__91__c__93__	X	glycogen(n-1)
502	498	c	+0	M_glycys__91__c__93__	C5H10N2O3S	Gly-Cys
503	499	c	+0	M_glygln__91__c__93__	C7H13N3O4	Glycyl-L-glutamine
504	500	c	-1	M_glyglu__91__c__93__	C7H11N2O5	Glycyl-L-glutamate
505	501	c	+0	M_glyleu__91__c__93__	C8H16N2O3	Glycylleucine
506	502	c	+0	M_glymet__91__c__93__	C7H14N2O3S	Glycyl-L-methionine
507	503	c	+0	M_glyphe__91__c__93__	C11H14N2O3	Glycylphenylalanine
508	504	c	+0	M_glypro__91__c__93__	C7H12N2O3	Glycylproline
509	505	c	+0	M_glytyr__91__c__93__	C11H14N2O4	Glycyl-L-tyrosine
510	506	c	-4	M_gmhep17bp__91__c__93__	C7H12O13P2	D-Glycero-D-manno-heptose 1,7-bisphosphate
511	507	c	-2	M_gmhep1p__91__c__93__	C7H13O10P	D-Glycero-D-manno-heptose 1-phosphate
512	508	c	-2	M_gmhep7p__91__c__93__	C7H13O10P	D-Glycero-D-manno-heptose 7-phosphate
513	509	c	-2	M_gmp__91__c__93__	C10H12N5O8P	GMP
514	510	c	-3	M_grdp__91__c__93__	C10H17O7P2	Geranyl diphosphate
515	511	c	+0	M_gsn__91__c__93__	C10H13N5O5	Guanosine
516	512	c	-1	M_gthrd__91__c__93__	C10H16N3O6S	Reduced glutathione
517	513	c	-4	M_gtp__91__c__93__	C10H12N5O14P3	GTP
518	514	c	+0	M_gua__91__c__93__	C5H5N5O	Guanine
519	515	c	-3	M_h2mb4p__91__c__93__	C5H9O8P2	1-hydroxy-2-methyl-2-(E)-butenyl 4-diphosphate
520	516	c	+0	M_h2o2__91__c__93__	H2O2	Hydrogen peroxide
521	517	c	+0	M_h2s__91__c__93__	H2S	Hydrogen sulfide
522	518	c	+1	M_h__91__c__93__	H	proton
523	519	c	-1	M_hco3__91__c__93__	CHO3	Bicarbonate
524	520	c	+0	M_hcys_L__91__c__93__	C4H9NO2S	L-homocysteine
525	521	c	-1	M_hdca__91__c__93__	C16H31O2	Hexadecanoate (n-C16:0)
526	522	c	-1	M_hdcea__91__c__93__	C16H29O2	Hexadecenoate (n-C16:1)
527	523	c	-4	M_hdcoa__91__c__93__	C37H60N7O17P3S	Hexadecenoyl-CoA (n-C16:1CoA)
528	524	c	-1	M_hdeACP__91__c__93__	C27H49N2O8PRS	cis-hexadec-9-enoyl-[acyl-carrier protein] (n-C16:1)
529	525	c	-3	M_hepdp__91__c__93__	C35H57O7P2	all-trans-Heptaprenyl diphosphate
530	526	c	-2	M_hethmpp__91__c__93__	C14H20N4O8P2S	Hydroxy ethyl Thiamin diphosphate
531	527	c	-1	M_hexACP__91__c__93__	C17H31N2O8PRS	Hexanoyl-ACP (n-C6:0ACP)
532	528	c	-3	M_hexdp__91__c__93__	C30H49O7P2	all-trans-Hexaprenyl diphosphate
533	529	c	+2	M_hg2__91__c__93__	Hg	Hg2+
534	530	c	-6	M_hhlipa__91__c__93__	C124H220N2O51P2	heptosyl-heptosyl-kdo2-lipidA
535	531	c	+0	M_his_L__91__c__93__	C6H9N3O2	L-histidine
536	532	c	-1	M_hisp__91__c__93__	C6H11N3O4P	L-Histidinol phosphate
537	533	c	+1	M_histd__91__c__93__	C6H12N3O	L-Histidinol
538	534	c	+1	M_histl_L__91__c__93__	C6H10N3O	L-Histidinal
539	535	c	-6	M_hlipa__91__c__93__	C117H208N2O45P2	heptosyl-kdo2-lipidA
540	536	c	-8	M_hmbil__91__c__93__	C40H38N4O17	Hydroxymethylbilane
541	537	c	+0	M_hom_L__91__c__93__	C4H9NO3	L-homoserine
542	538	c	-8	M_hphhlipa__91__c__93__	C131H231N2O60P3	heptosyl-phospho-heptosyl-heptosyl-kdo2-lipidA
543	539	c	+0	M_hxan__91__c__93__	C5H4N4O	Hypoxanthine
544	540	c	-24	M_i14tca1__91__c__93__	C115H224O135P24	Isotetradecanoyllipoteichoic acid (n=24), linked, unsubstituted
545	541	c	-24	M_i14tcaacgam__91__c__93__	C307H536N24O255P24	Isotetradecanoyllipoteichoic acid (n=24), linked, N-acetyl-D-glucosamine
546	542	c	-24	M_i15tca1__91__c__93__	C117H228O135P24	Isopentadecanoyllipoteichoic acid (n=24), linked, unsubstituted
547	543	c	-24	M_i15tcaacgam__91__c__93__	C309H540N24O255P24	Isopentadecanoyllipoteichoic acid (n=24), linked, N-acetyl-D-glucosamine
548	544	c	-24	M_i16tca1__91__c__93__	C119H232O135P24	Isohexadecanoyllipoteichoic acid (n=24), linked, unsubstituted
549	545	c	-24	M_i16tcaacgam__91__c__93__	C311H544N24O255P24	Isohexadecanoyllipoteichoic acid (n=24), linked, N-acetyl-D-glucosamine
550	546	c	-24	M_i17tca1__91__c__93__	C121H236O135P24	Isoheptadecanoyllipoteichoic acid (n=24), linked, unsubstituted
551	547	c	-24	M_i17tcaacgam__91__c__93__	C313H548N24O255P24	Isoheptadecanoyllipoteichoic acid (n=24), linked, N-acetyl-D-glucosamine
552	548	c	-2	M_iasp__91__c__93__	C4H3NO4	Iminoaspartate
553	549	c	-4	M_ibcoa__91__c__93__	C25H38N7O17P3S	isobutyryl-CoA(4-)
554	550	c	-2	M_ichor__91__c__93__	C10H8O6	Isochorismate
555	551	c	-3	M_icit__91__c__93__	C6H5O7	Isocitrate
556	552	c	-11	M_icolipa__91__c__93__	C145H251N2O74P4	inner core oligosaccharide lipid A (E coli)
557	553	c	-3	M_idp__91__c__93__	C10H11N4O11P2	IDP(3-)
558	554	c	-4	M_ihdcoa__91__c__93__	C37H62N7O17P3S	fa6coa,Iso-C16:0 CoA   Isohexadecanoyl-CoA
559	555	c	-4	M_ihpdcoa__91__c__93__	C38H64N7O17P3S	fa11coa, Iso-C17:0 CoA   Isoheptadecanoyl-CoA
560	556	c	+0	M_ile_L__91__c__93__	C6H13NO2	L-isoleucine
561	557	c	-1	M_im4ac__91__c__93__	C5H5N2O2	imidazol-4-ylacetate
562	558	c	+0	M_im4act__91__c__93__	C5H6N2O	imidazole-4-acetaldehyde
563	559	c	-2	M_imacp__91__c__93__	C6H7N2O5P	3-(Imidazol-4-yl)-2-oxopropyl phosphate
564	560	c	-2	M_imp__91__c__93__	C10H11N4O8P	IMP
565	561	c	-1	M_ind3ac__91__c__93__	C10H8NO2	indole-3-acetate
566	562	c	+0	M_ind3acam__91__c__93__	C10H10N2O	Indole-3-acetamide
567	563	c	+0	M_indole__91__c__93__	C8H7N	Indole
568	564	c	-1	M_indpyr__91__c__93__	C11H8NO3	Indolepyruvate
569	565	c	+0	M_inost__91__c__93__	C6H12O6	myo-inositol
570	566	c	+0	M_ins__91__c__93__	C10H12N4O5	Inosine
571	567	c	-4	M_ipdcoa__91__c__93__	C36H60N7O17P3S	fa3coa,Iso-C15:0 CoA   Isopentadecanoyl-CoA
572	568	c	-3	M_ipdp__91__c__93__	C5H9O7P2	Isopentenyl diphosphate
573	569	c	+0	M_isomal__91__c__93__	C12H22O11	Isomaltose,  Brachiose
574	570	c	-4	M_itdcoa__91__c__93__	C35H58N7O17P3S	fa1coa,Iso-C14:0 CoA   Isotetradecanoyl-CoA
575	571	c	-4	M_itp__91__c__93__	C10H11N4O14P3	ITP(3-)
576	572	c	-4	M_ivcoa__91__c__93__	C26H40N7O17P3S	Isovaleryl-CoA
577	573	c	+1	M_k__91__c__93__	K	potassium
578	574	c	-6	M_kdo2lipid4L__91__c__93__	C96H170N2O38P2	KDO(2)-lipid IV(A) with laurate
579	575	c	-6	M_kdo2lipid4__91__c__93__	C84H148N2O37P2	KDO(2)-lipid IV(A)
580	576	c	-1	M_kdo__91__c__93__	C8H13O8	3-Deoxy-D-manno-2-octulosonate
581	577	c	-5	M_kdolipid4__91__c__93__	C76H137N2O30P2	KDO-lipid IV(A)
582	578	c	-11	M_kphphhlipa__91__c__93__	C139H241N2O70P4	kdo-phospho-heptosyl-phospho-heptosyl-heptosyl-kdo2-lipidA
583	579	c	-1	M_l2a6o__91__c__93__	C7H10NO5	L-2-Amino-6-oxopimelate
584	580	c	-1	M_lac_L__91__c__93__	C3H5O3	(S)-lactate
585	581	c	+0	M_lald_L__91__c__93__	C3H6O2	(S)-lactaldehyde
586	582	c	+0	M_lcts__91__c__93__	C12H22O11	Lactose
587	583	c	+0	M_leu_L__91__c__93__	C6H13NO2	L-leucine
588	584	c	-6	M_lipa__91__c__93__	C110H196N2O39P2	KDO(2)-lipid (A)
589	585	c	-4	M_lipidA__91__c__93__	C68H126N2O23P2	2,3,23-Tetrakis(beta-hydroxymyristoyl)-D-glucosaminyl-1,6-beta-D-glucosamine 1,4-bisphosphate
590	586	c	-2	M_lipidAds__91__c__93__	C68H127N2O20P	Lipid A Disaccharide
591	587	c	-2	M_lipidX__91__c__93__	C34H64NO12P	2,3-Bis(3-hydroxytetradecanoyl)-beta-D-glucosaminyl 1-phosphate
592	588	c	+0	M_lipoate__91__c__93__	C8H14O2S2	lipoate
593	589	c	+0	M_lpam__91__c__93__	C8H15NOS2	lipoamide
594	590	c	+0	M_lpro__91__c__93__	S2X	Lipoylprotein
595	591	c	+1	M_lys_L__91__c__93__	C6H15N2O2	L-lysinium(1+)
596	592	c	+0	M_madg__91__c__93__	C7H14O6	alpha-Methyl-D-glucoside
597	593	c	-2	M_malACP__91__c__93__	C14H22N2O10PRS	Malonyl-[acyl-carrier protein]
598	594	c	-2	M_mal_L__91__c__93__	C4H4O5	(S)-malate(2-)
599	595	c	-5	M_malcoa__91__c__93__	C24H33N7O19P3S	Malonyl-CoA
600	596	c	-2	M_malt6p__91__c__93__	C12H21O14P	Maltose 6-phosphate
601	597	c	+0	M_malt__91__c__93__	C12H22O11	Maltose
602	598	c	+0	M_malthp__91__c__93__	C42H72O36	maltoheptaose
603	599	c	+0	M_malthx__91__c__93__	C36H62O31	Maltohexaose
604	600	c	+0	M_maltpt__91__c__93__	C30H52O26	maltopentaose
605	601	c	+0	M_malttr__91__c__93__	C18H32O16	maltotriose
606	602	c	+0	M_maltttr__91__c__93__	C24H42O21	Maltotetraose
607	603	c	-2	M_man6p__91__c__93__	C6H11O9P	D-Mannose 6-phosphate
608	604	c	+0	M_mantr__91__c__93__	C18H32O16	mannotriose (beta-1,4)
609	605	c	+0	M_mbdg__91__c__93__	C7H14O6	beta-Methylglucoside
610	606	c	+0	M_melib__91__c__93__	C12H22O11	Melibiose
611	607	c	+0	M_meoh__91__c__93__	CH4O1	methanol
612	608	c	+0	M_met_D__91__c__93__	C5H10NO2S	D-Methionine
613	609	c	+0	M_met_L__91__c__93__	C5H11NO2S	L-methionine
614	610	c	+0	M_metala__91__c__93__	C8H16N2O3S	L-methionyl-L-alanine
615	611	c	-1	M_methf__91__c__93__	C20H20N7O6	5,10-Methenyltetrahydrofolate
616	612	c	+0	M_metsox_R_L__91__c__93__	C5H11NO3S	L-methionine-R-sulfoxide
617	613	c	+0	M_metsox_S_L__91__c__93__	C5H11NO3S	L-Methionine Sulfoxide
618	614	c	+2	M_mg2__91__c__93__	Mg	magnesium
619	615	c	-2	M_mi1p_D__91__c__93__	C6H11O9P	1D-myo-inositol 1-phosphate(2-)
620	616	c	-2	M_mi3p_D__91__c__93__	C6H11O9P	1D-myo-inositol 3-phosphate(2-)
621	617	c	-2	M_mi4p_D__91__c__93__	C6H11O9P	1D-myo-inositol 4-phosphate(2-)
622	618	c	-3	M_micit__91__c__93__	C7H7O7	(2S,3R)-3-hydroxybutane-1,2,3-tricarboxylate
623	619	c	-2	M_mlthf__91__c__93__	C20H21N7O6	5,10-Methylenetetrahydrofolate
624	620	c	+2	M_mn2__91__c__93__	Mn	Mn2+
625	621	c	-2	M_mnl1p__91__c__93__	C6H13O9P	D-Mannitol 1-phosphate
626	622	c	+0	M_mql8__91__c__93__	C51H74O2	Menaquinol 8
627	623	c	+0	M_mqn7__91__c__93__	C46H64O2	Menaquinone 7
628	624	c	+0	M_mqn8__91__c__93__	C51H72O2	Menaquinone 8
629	625	c	-1	M_myrsACP__91__c__93__	C25H47N2O8PRS	Myristoyl-ACP (n-C14:0ACP)
630	626	c	-24	M_myrstca1__91__c__93__	C115H224O135P24	Myristoyllipoteichoic acid (n=24), linked, unsubstituted
631	627	c	-24	M_myrstcaacgam__91__c__93__	C307H536N24O255P24	Myristoyllipoteichoic acid (n=24), linked, N-acetyl-D-glucosamine
632	628	c	+1	M_na1__91__c__93__	Na	Sodium
633	629	c	-1	M_nac__91__c__93__	C6H4NO2	Nicotinate
634	630	c	-1	M_nad__91__c__93__	C21H26N7O14P2	Nicotinamide adenine dinucleotide
635	631	c	-2	M_nadh__91__c__93__	C21H27N7O14P2	Nicotinamide adenine dinucleotide - reduced
636	632	c	-3	M_nadp__91__c__93__	C21H25N7O17P3	Nicotinamide adenine dinucleotide phosphate
637	633	c	-4	M_nadph__91__c__93__	C21H26N7O17P3	Nicotinamide adenine dinucleotide phosphate - reduced
638	634	c	+0	M_ncam__91__c__93__	C6H6N2O	Nicotinamide
639	635	c	+1	M_nh4__91__c__93__	H4N	Ammonium
640	636	c	+0	M_nicrns__91__c__93__	C11H13NO6	Nicotinate D-ribonucleoside
641	637	c	-2	M_nicrnt__91__c__93__	C11H12NO9P	Nicotinate D-ribonucleotide
642	638	c	-1	M_nmn__91__c__93__	C11H14N2O8P	NMN
643	639	c	-1	M_no3__91__c__93__	NO3	Nitrate
644	640	c	+0	M_o2__91__c__93__	O2	O2
645	641	c	-2	M_oaa__91__c__93__	C4H2O5	Oxaloacetate
646	642	c	-1	M_ocACP__91__c__93__	C19H35N2O8PRS	Octanoyl-ACP (n-C8:0ACP)
647	643	c	-1	M_ocdcaACP__91__c__93__	C29H55N2O8PRS	Octadecanoyl-ACP (n-C18:0ACP)
648	644	c	-1	M_ocdca__91__c__93__	C18H35O2	octadecanoate (n-C18:0)
649	645	c	-1	M_ocdcea__91__c__93__	C18H33O2	octadecenoate (n-C18:1)
650	646	c	-3	M_octdp__91__c__93__	C40H65O7P2	all-trans-Octaprenyl diphosphate
651	647	c	-1	M_octeACP__91__c__93__	C29H53N2O8PRS	cis-octadec-11-enoyl-[acyl-carrier protein] (n-C18:1)
652	648	c	-4	M_odecoa__91__c__93__	C39H64N7O17P3S	Octadecenoyl-CoA (n-C18:1CoA)
653	649	c	-3	M_ohpb__91__c__93__	C4H4O8P	2-Oxo-3-hydroxy-4-phosphobutanoate
654	650	c	+1	M_orn__91__c__93__	C5H13N2O2	Ornithine
655	651	c	-3	M_orot5p__91__c__93__	C10H10N2O11P	Orotidine 5-phosphate
656	652	c	-1	M_orot__91__c__93__	C5H3N2O4	Orotate
657	653	c	-2	M_oxa__91__c__93__	C2O4	oxalate(2-)
658	654	c	-5	M_oxadpcoa__91__c__93__	C27H37N7O20P3S	3-Oxoadipyl-CoA
659	655	c	-2	M_pa120__91__c__93__	C27H51O8P1	1,2-didodecanoyl-sn-glycerol 3-phosphate
660	656	c	-2	M_pa140__91__c__93__	C31H59O8P1	1,2-ditetradecanoyl-sn-glycerol 3-phosphate
661	657	c	-2	M_pa141__91__c__93__	C31H55O8P1	1,2-ditetradec-7-enoyl-sn-glycerol 3-phosphate
662	658	c	-2	M_pa160__91__c__93__	C35H67O8P1	1,2-dihexadecanoyl-sn-glycerol 3-phosphate
663	659	c	-2	M_pa161__91__c__93__	C35H63O8P1	1,2-dihexadec-9-enoyl-sn-glycerol 3-phosphate
664	660	c	-2	M_pa180__91__c__93__	C39H75O8P1	1,2-dioctadecanoyl-sn-glycerol 3-phosphate
665	661	c	-2	M_pa181__91__c__93__	C39H71O8P1	1,2-dioctadec-11-enoyl-sn-glycerol 3-phosphate
666	662	c	-2	M_paai15__91__c__93__	C33H63O8P	1,2-dianteisopentadecanoyl-sn-glycerol 3-phosphate (12-methyl-tetradecanoyl, anteiso-C15)
667	663	c	-2	M_paai17__91__c__93__	C37H71O8P	1,2-dianteisoheptadecanoyl-sn-glycerol 3-phosphate (14-methyl-hexadecanoyl, anteiso-C17)
668	664	c	-1	M_pac__91__c__93__	C8H7O2	phenylacetate
669	665	c	+0	M_pad__91__c__93__	C8H9NO	2-Phenylacetamide
670	666	c	-2	M_pai14__91__c__93__	C31H59O8P	1,2-diisotetradecanoyl-sn-glycerol 3-phosphate (12-methyl-tridecanoyl, iso-C14)
671	667	c	-2	M_pai15__91__c__93__	C33H63O8P	1,2-diisopentadecanoyl-sn-glycerol 3-phosphate (13-methyl-tetradecanoyl, iso-C15)
672	668	c	-2	M_pai16__91__c__93__	C35H67O8P	1,2-diisohexadecanoyl-sn-glycerol 3-phosphate (14-methyl-pentadecanoyl, iso-C16)
673	669	c	-2	M_pai17__91__c__93__	C37H71O8P	1,2-diisoheptadecanoyl-sn-glycerol 3-phosphate (15-methyl-hexadecanoyl, iso-C17)
674	670	c	-1	M_palmACP__91__c__93__	C27H51N2O8PRS	Palmitoyl-ACP (n-C16:0ACP)
675	671	c	-24	M_palmtca1__91__c__93__	C119H232O135P24	Palmitoyllipoteichoic acid (n=24), linked, unsubstituted
676	672	c	-24	M_palmtcaacgam__91__c__93__	C311H544N24O255P24	Palmitoyllipoteichoic acid (n=24), linked, N-acetyl-D-glucosamine
677	673	c	-2	M_pan4p__91__c__93__	C11H21N2O7PS	Pantetheine 4-phosphate
678	674	c	-1	M_pant_R__91__c__93__	C6H11O4	(R)-Pantoate
679	675	c	-4	M_pap__91__c__93__	C10H11N5O10P2	adenosine 3,5-bismonophosphate(4-)
680	676	c	+2	M_pb__91__c__93__	Pb	Lead
681	677	c	-2	M_pdx5p__91__c__93__	C8H10NO6P	Pyridoxine 5-phosphate
682	678	c	+0	M_pe120__91__c__93__	C29H58N1O8P1	phosphatidylethanolamine (didodecanoyl, n-C12:0)
683	679	c	+0	M_pe140__91__c__93__	C33H66N1O8P1	phosphatidylethanolamine (ditetradecanoyl, n-C14:0)
684	680	c	+0	M_pe160__91__c__93__	C37H74N1O8P1	phosphatidylethanolamine (dihexadecanoyl, n-C16:0)
685	681	c	+0	M_pe180__91__c__93__	C41H82N1O8P1	phosphatidylethanolamine (dioctadecanoyl, n-C18:0)
686	682	c	+0	M_peai17__91__c__93__	C39H78NO8P	Phosphatidylethanolamine (14-methyl-hexadecanoyl, anteiso-C17)
687	683	c	+0	M_pei17__91__c__93__	C39H78NO8P	Phosphatidylethanolamine (15-methyl-hexadecanoyl, iso-C17)
688	684	c	-3	M_pendp__91__c__93__	C25H41O7P2	all-trans-Pentaprenyl diphosphate
689	685	c	-3	M_pep__91__c__93__	C3H2O6P	Phosphoenolpyruvate
690	686	c	+0	M_peptmet_L__91__c__93__	XC3H7S	Peptide-L-methionine
691	687	c	+0	M_peptmetox_L__91__c__93__	XC3H7OS	Peptide-L-methionine (R)-S-oxide
692	688	c	-1	M_pg180__91__c__93__	C42H82O10P1	Phosphatidylglycerol (dioctadecanoyl, n-C18:0)
693	689	c	-1	M_pgai17__91__c__93__	C40H78O10P	Phosphatidylglycerol (14-methyl-hexadecanoyl, anteiso-C17)
694	690	c	-1	M_pgi17__91__c__93__	C40H78O10P	Phosphatidylglycerol (15-methyl-hexadecanoyl, iso-C17)
695	691	c	-3	M_pgp120__91__c__93__	C30H57O13P2	Phosphatidylglycerophosphate (didodecanoyl, n-C12:0)
696	692	c	-3	M_pgp140__91__c__93__	C34H65O13P2	Phosphatidylglycerophosphate (ditetradecanoyl, n-C14:0)
697	693	c	-3	M_pgp141__91__c__93__	C34H61O13P2	Phosphatidylglycerophosphate (ditetradec-7-enoyl, n-C14:1)
698	694	c	-3	M_pgp160__91__c__93__	C38H73O13P2	Phosphatidylglycerophosphate (dihexadecanoyl, n-C16:0)
699	695	c	-3	M_pgp161__91__c__93__	C38H69O13P2	Phosphatidylglycerophosphate (dihexadec-9-enoyl, n-C16:1)
700	696	c	-3	M_pgp180__91__c__93__	C42H81O13P2	Phosphatidylglycerophosphate (dioctadecanoyl, n-C18:0)
701	697	c	-3	M_pgp181__91__c__93__	C42H77O13P2	Phosphatidylglycerophosphate (dioctadec-11-enoyl, n-C18:1)
702	698	c	-3	M_pgpai15__91__c__93__	C36H69O13P2	Phosphatidylglycerophosphate (12-methyl-tetradecanoyl, anteiso-C15)
703	699	c	-3	M_pgpai17__91__c__93__	C40H77O13P2	Phosphatidylglycerophosphate (14-methyl-hexadecanoyl, anteiso-C17)
704	700	c	-3	M_pgpi14__91__c__93__	C34H65O13P2	Phosphatidylglycerophosphate (12-methyltridecanoyl, iso-C14)
705	701	c	-3	M_pgpi15__91__c__93__	C36H69O13P2	Phosphatidylglycerophosphate (13-methyltetradecanoyl, iso-C15)
706	702	c	-3	M_pgpi16__91__c__93__	C38H73O13P2	Phosphatidylglycerophosphate (14-methylpentadecanoyl, iso-C16)
707	703	c	-3	M_pgpi17__91__c__93__	C40H77O13P2	Phosphatidylglycerophosphate (15-methyl-hexadecanoyl, iso-C17)
708	704	c	+0	M_phe_L__91__c__93__	C9H11NO2	L-phenylalanine
709	705	c	-2	M_pheme__91__c__93__	C34H30FeN4O4	Protoheme
710	706	c	-8	M_phhlipa__91__c__93__	C124H219N2O54P3	phospho-heptosyl-heptosyl-kdo2-lipidA
711	707	c	-2	M_phom__91__c__93__	C4H8NO6P	O-phosphonato-L-homoserine(2-)
712	708	c	-10	M_phphhlipa__91__c__93__	C131H230N2O63P4	phospho-heptosyl-phospho-heptosyl-heptosyl-kdo2-lipidA
713	709	c	-1	M_phpyr__91__c__93__	C9H7O3	keto-phenylpyruvate
714	710	c	-2	M_phthr__91__c__93__	C4H8NO7P	O-Phospho-4-hydroxy-L-threonine
715	711	c	-3	M_phyldpp__91__c__93__	C20H39O7P2	Phytyl diphosphate
716	712	c	-2	M_pi__91__c__93__	HO4P	hydrogenphosphate
717	713	c	-4	M_pmtcoa__91__c__93__	C37H62N7O17P3S	Palmitoyl-CoA (n-C16:0CoA)
718	714	c	-1	M_pnto_R__91__c__93__	C9H16NO5	(R)-Pantothenate
719	715	c	-1	M_ppa__91__c__93__	C3H5O2	propionate
720	716	c	-2	M_ppap__91__c__93__	C3H5O5P	Propanoyl phosphate
721	717	c	-1	M_ppbng__91__c__93__	C10H13N2O4	Porphobilinogen
722	718	c	-4	M_ppcoa__91__c__93__	C24H36N7O17P3S	Propanoyl-CoA
723	719	c	-2	M_pphn__91__c__93__	C10H8O6	Prephenate
724	720	c	-3	M_ppi__91__c__93__	HO7P2	Diphosphate
725	721	c	-2	M_ppp9__91__c__93__	C34H32N4O4	Protoporphyrin
726	722	c	-2	M_pppg9__91__c__93__	C34H38N4O4	Protoporphyrinogen IX
727	723	c	-4	M_pppi__91__c__93__	HO10P3	triphosphate(5-)
728	724	c	-1	M_pram__91__c__93__	C5H11NO7P	5-Phospho-beta-D-ribosylamine
729	725	c	-3	M_pran__91__c__93__	C12H13NO9P	N-(5-Phospho-D-ribosyl)anthranilate
730	726	c	-4	M_prbamp__91__c__93__	C15H19N5O14P2	1-(5-Phosphoribosyl)-AMP
731	727	c	-6	M_prbatp__91__c__93__	C15H19N5O20P4	1-(5-Phosphoribosyl)-ATP
732	728	c	-4	M_prfp__91__c__93__	C15H21N5O15P2	1-(5-Phosphoribosyl)-5-[(5-phosphoribosylamino)methylideneamino]imidazole-4-carboxamide
733	729	c	-47	M_prl45tca__91__c__93__	C206H386N2O242P47	Prenol-45n teichoic acid
734	730	c	-2	M_prl45tcaala__91__c__93__	C341H566N47O242P47	Prenol-45n teichoic acid-alanine substituted
735	731	c	-47	M_prl45tcaglc__91__c__93__	C476H836N2O467P47	Prenol-45n teichoic acid-glucose substituted
736	732	c	-4	M_prlp__91__c__93__	C15H21N5O15P2	5-[(5-phospho-1-deoxyribulos-1-ylamino)methylideneamino]-1-(5-phosphoribosyl)imidazole-4-carboxamide
737	733	c	+0	M_pro_L__91__c__93__	C5H9NO2	L-proline
738	734	c	+0	M_proteinsynth__91__c__93__	X	Protein biosynthesis
739	735	c	-5	M_prpp__91__c__93__	C5H8O14P3	5-Phospho-alpha-D-ribose 1-diphosphate
740	736	c	-1	M_ps120__91__c__93__	C30H57N1O10P1	phosphatidylserine (didodecanoyl, n-C12:0)
741	737	c	-1	M_ps140__91__c__93__	C34H65N1O10P1	phosphatidylserine (ditetradecanoyl, n-C14:0)
742	738	c	-1	M_ps160__91__c__93__	C38H73N1O10P1	phosphatidylserine (dihexadecanoyl, n-C16:0)
743	739	c	-1	M_ps180__91__c__93__	C42H81N1O10P1	phosphatidylserine (dioctadecanoyl, n-C18:0)
744	740	c	-1	M_psai17__91__c__93__	C40H77NO10P	Phosphatidylserine (14-methyl-hexadecanoyl, anteiso-C17)
745	741	c	-2	M_psd5p__91__c__93__	C9H11N2O9P	Pseudouridine 5-phosphate
746	742	c	-2	M_pser_L__91__c__93__	C3H6NO6P	O-Phospho-L-serine
747	743	c	-1	M_psi17__91__c__93__	C40H77NO10P	Phosphatidylserine (15-methyl-hexadecanoyl, iso-C17)
748	744	c	+2	M_ptrc__91__c__93__	C4H14N2	Putrescine
749	745	c	-1	M_pyam5p__91__c__93__	C8H12N2O5P	Pyridoxamine 5-phosphate
750	746	c	+1	M_pydam__91__c__93__	C8H13N2O2	Pyridoxamine
751	747	c	-2	M_pydx5p__91__c__93__	C8H8NO6P	Pyridoxal 5-phosphate
752	748	c	+0	M_pydx__91__c__93__	C8H9NO3	Pyridoxal
753	749	c	+0	M_pydxn__91__c__93__	C8H11NO3	Pyridoxine
754	750	c	-1	M_pyr__91__c__93__	C3H3O3	pyruvate
755	751	c	+0	M_q8__91__c__93__	C49H74O4	Ubiquinone-8
756	752	c	+0	M_q8h2__91__c__93__	C49H76O4	Ubiquinol-8
757	753	c	-2	M_quln__91__c__93__	C7H3NO4	quinolinate(2-)
758	754	c	-2	M_r5p__91__c__93__	C5H9O8P	alpha-D-Ribose 5-phosphate
759	755	c	+0	M_raffin__91__c__93__	C18H32O16	Raffinose
760	756	c	+0	M_rbl_D__91__c__93__	C5H10O5	D-ribulose
761	757	c	+0	M_rbl_L__91__c__93__	C5H10O5	L-Ribulose
762	758	c	+0	M_rdmbzi__91__c__93__	C14H18N2O4	N1-(alpha-D-ribosyl)-5,6-dimethylbenzimidazole
763	759	c	+0	M_rhcys__91__c__93__	C9H17NO6S	S-Ribosyl-L-homocysteine
764	760	c	+0	M_rib_D__91__c__93__	C5H10O5	D-ribose
765	761	c	+0	M_ribflv__91__c__93__	C17H20N4O6	Riboflavin
766	762	c	+0	M_rmn__91__c__93__	C6H12O5	L-Rhamnose
767	763	c	+1	M_rnam__91__c__93__	C11H15N2O5	N-Ribosylnicotinamide
768	764	c	+0	M_rnatrans__91__c__93__	X	RNA transcription
769	765	c	-2	M_ru5p_D__91__c__93__	C5H9O8P	D-ribulose 5-phosphate(2-)
770	766	c	-2	M_ru5p_L__91__c__93__	C5H9O8P	L-Ribulose 5-phosphate
771	767	c	-4	M_s17bp__91__c__93__	C7H12O13P2	Sedoheptulose 1,7-bisphosphate
772	768	c	-2	M_s7p__91__c__93__	C7H13O10P	Sedoheptulose 7-phosphate
773	769	c	-2	M_salc6p__91__c__93__	C13H17O10P	Salicin 6-phosphate
774	770	c	-2	M_sbt6p__91__c__93__	C6H13O9P	D-Sorbitol 6-phosphate
775	771	c	-5	M_sbzcoa__91__c__93__	C32H39N7O20P3S	O-Succinylbenzoyl-CoA
776	772	c	-7	M_scl__91__c__93__	C42H39N4O16	sirohydrochlorin
777	773	c	+0	M_ser_L__91__c__93__	C3H7NO3	L-serine
778	774	c	-8	M_sheme__91__c__93__	C42H36FeN4O16	Siroheme
779	775	c	-3	M_skm5p__91__c__93__	C7H8O8P	Shikimate 5-phosphate
780	776	c	-1	M_skm__91__c__93__	C7H9O5	Shikimate
781	777	c	-2	M_sl26da__91__c__93__	C11H16N2O7	N-Succinyl-LL-2,6-diaminoheptanedioate
782	778	c	-3	M_sl2a6o__91__c__93__	C11H12NO8	N-Succinyl-2-L-amino-6-oxoheptanedioate
783	779	c	-2	M_so3__91__c__93__	O3S	Sulfite
784	780	c	-2	M_so4__91__c__93__	O4S	sulfate
785	781	c	+3	M_spmd__91__c__93__	C7H22N3	Spermidine
786	782	c	-4	M_stcoa__91__c__93__	C39H66N7O17P3S	Stearoyl-CoA (n-C18:0CoA)
787	783	c	-24	M_sttca1__91__c__93__	C123H240O135P24	Stearoyllipoteichoic acid (n=24), linked, unsubstituted
788	784	c	-24	M_sttcaacgam__91__c__93__	C315H552N24O255P24	Stearoyllipoteichoic acid (n=24), linked, N-acetyl-D-glucosamine
789	785	c	+0	M_stys__91__c__93__	C24H42O21	Stachyose
790	786	c	-2	M_suc6p__91__c__93__	C12H21O14P	Sucrose 6-phosphate
791	787	c	-2	M_sucbz__91__c__93__	C11H8O5	o-Succinylbenzoate
792	788	c	-2	M_succ__91__c__93__	C4H4O4	Succinate
793	789	c	-5	M_succoa__91__c__93__	C25H35N7O19P3S	Succinyl-CoA
794	790	c	-1	M_suchms__91__c__93__	C8H12NO6	O-Succinyl-L-homoserine
795	791	c	+0	M_sucr__91__c__93__	C12H22O11	Sucrose
796	792	c	+0	M_taur__91__c__93__	C2H7NO3S	Taurine
797	793	c	-4	M_tdcoa__91__c__93__	C35H58N7O17P3S	Tetradecanoyl-CoA (n-C14:0CoA)
798	794	c	-1	M_tddec2eACP__91__c__93__	C23H41N2O8PRS	trans-Dodec-2-enoyl-[acyl-carrier protein]
799	795	c	-1	M_tdeACP__91__c__93__	C25H45N2O8PRS	cis-tetradec-7-enoyl-[acyl-carrier protein] (n-C14:1)
800	796	c	-1	M_tdec2eACP__91__c__93__	C21H37N2O8PRS	trans-Dec-2-enoyl-[acyl-carrier protein]
801	797	c	-2	M_thdp__91__c__93__	C7H7NO4	2,3,4,5-Tetrahydrodipicolinate
802	798	c	-1	M_thex2eACP__91__c__93__	C17H29N2O8PRS	trans-Hex-2-enoyl-[acyl-carrier protein]
803	799	c	-2	M_thf__91__c__93__	C19H21N7O6	5,6,7,8-Tetrahydrofolate
804	800	c	-3	M_thfglu__91__c__93__	C24H27N8O9	Tetrahydrofolyl-[Glu](2)
805	801	c	+0	M_thglu__91__c__93__	C24H32N8O12	Tetrahydropteroyltri_L_glutamate
806	802	c	+1	M_thm__91__c__93__	C12H17N4OS	Thiamin
807	803	c	-1	M_thmmp__91__c__93__	C12H16N4O4PS	Thiamin monophosphate
808	804	c	-2	M_thmpp__91__c__93__	C12H16N4O7P2S	Thiamine diphosphate
809	805	c	+0	M_thr_L__91__c__93__	C4H9NO3	L-threonine
810	806	c	+0	M_thym__91__c__93__	C5H6N2O2	Thymine
811	807	c	+0	M_thymd__91__c__93__	C10H14N2O5	Thymidine
812	808	c	-1	M_tmrs2eACP__91__c__93__	C25H45N2O8PRS	trans-Tetradec-2-enoyl-[acyl-carrier protein]
813	809	c	-1	M_toct2eACP__91__c__93__	C19H33N2O8PRS	trans-Oct-2-enoyl-[acyl-carrier protein]
814	810	c	-1	M_toctd2eACP__91__c__93__	C29H53N2O8PRS	trans-octadec-2-enoyl-[acyl-carrier protein]
815	811	c	-1	M_tpalm2eACP__91__c__93__	C27H49N2O8PRS	trans-Hexadec-2-enoyl-[acyl-carrier protein]
816	812	c	+0	M_trdox__91__c__93__	X	Oxidized thioredoxin
817	813	c	+0	M_trdrd__91__c__93__	XH2	Reduced thioredoxin
818	814	c	-2	M_tre6p__91__c__93__	C12H21O14P	alpha,alpha-Trehalose 6-phosphate
819	815	c	+0	M_trnaglu__91__c__93__	R	tRNA (Glu)
820	816	c	+0	M_trp_L__91__c__93__	C11H12N2O2	L-tryptophan
821	817	c	-2	M_tsul__91__c__93__	O3S2	thiosulfate(2-)
822	818	c	-1	M_ttdca__91__c__93__	C14H27O2	tetradecanoate (n-C14:0)
823	819	c	-1	M_ttdcea__91__c__93__	C14H25O2	tetradecenoate (n-C14:1)
824	820	c	+0	M_tyr_L__91__c__93__	C9H11NO3	L-tyrosine
825	821	c	-2	M_u23ga__91__c__93__	C43H75N3O20P2	UDP-2,3-bis(3-hydroxytetradecanoyl)glucosamine
826	822	c	-2	M_u3aga__91__c__93__	C31H51N3O19P2	UDP-3-O-(3-hydroxytetradecanoyl)-N-acetylglucosamine
827	823	c	-1	M_u3hga__91__c__93__	C29H50N3O18P2	UDP-3-O-(3-hydroxytetradecanoyl)-D-glucosamine
828	824	c	-3	M_uGgla__91__c__93__	C40H62N9O26P2	UDP-N-acetylmuramoyl-L-alanyl-gamma-D-glutamyl-L-lysyl-D-alanyl-D-alanine
829	825	c	-3	M_uaGgla__91__c__93__	C86H140N7O21P2	Undecaprenyl-diphospho-N-acetylmuramoyl-L-alanyl-gamma-D-glutamyl-L-lysyl-D-alanyl-D-alanine
830	826	c	-3	M_uaaAgla__91__c__93__	C94H153N8O26P2	Undecaprenyl-diphospho-N-acetylmuramoyl-(N-acetylglucosamine)-L-alanyl-D-glutamyl-L-lysyl-D-alanyl-D-alanine
831	827	c	-2	M_uaaAgtla__91__c__93__	C94H155N9O25P2	Undecaprenyl-diphospho-N-acetylmuramoyl-(N-acetylglucosamine)-L-alanyl-D-glutaminyl-L-lysyl-D-alanyl-D-alanine
832	828	c	-3	M_uaaGgla__91__c__93__	C94H153N8O26P2	Undecaprenyl-diphospho-N-acetylmuramoyl-(N-acetylglucosamine)-L-alanyl-gamma-D-glutamyl-L-lysyl-D-alanyl-D-alanine
833	829	c	-2	M_uaaGgtla__91__c__93__	C94H155N9O25P2	Undecaprenyl-diphospho-N-acetylmuramoyl-(N-acetylglucosamine)-L-alanyl-D-isoglutaminyl-L-lysyl-D-alanyl-D-alanine
834	830	c	-4	M_uaagmda__91__c__93__	C95H152N8O28P2	Undecaprenyl-diphospho-N-acetylmuramoyl-(N-acetylglucosamine)-L-ala-D-glu-meso-2,6-diaminopimeloyl-D-ala-D-ala
835	831	c	-3	M_uaagtmda__91__c__93__	C95H154N9O27P2	Undecaprenyl-diphospho-N-acetylmuramoyl-(N-acetylglucosamine)-L-alanyl-D-glutaminyl-meso-2,6-diaminopimeloyl-D-alanyl-D-alanine
836	832	c	-3	M_uaccg__91__c__93__	C20H26N3O19P2	UDP-N-acetyl-3-O-(1-carboxyvinyl)-D-glucosamine
837	833	c	-2	M_uacgam__91__c__93__	C17H25N3O17P2	UDP-N-acetyl-alpha-D-glucosamine(2-)
838	834	c	-4	M_uagmda__91__c__93__	C87H139N7O23P2	Undecaprenyl-diphospho-N-acetylmuramoyl-L-alanyl-D-glutamyl-meso-2,6-diaminopimeloyl-D-alanyl-D-alanine
839	835	c	-3	M_uama__91__c__93__	C23H33N4O20P2	UDP-N-acetylmuramoyl-L-alanine
840	836	c	-4	M_uamag__91__c__93__	C28H39N5O23P2	UDP-N-acetylmuramoyl-L-alanyl-D-glutamate
841	837	c	-3	M_uamr__91__c__93__	C20H28N3O19P2	UDP-N-acetylmuramate
842	838	c	-3	M_udcpdp__91__c__93__	C55H89O7P2	Undecaprenyl diphosphate
843	839	c	-2	M_udcpp__91__c__93__	C55H89O4P	Undecaprenyl phosphate
844	840	c	-3	M_udp__91__c__93__	C9H11N2O12P2	UDP
845	841	c	-2	M_udpacgal__91__c__93__	C17H25N3O17P2	UDP-N-acetyl-D-galactosamine(2-)
846	842	c	-2	M_udpg__91__c__93__	C15H22N2O17P2	UDPglucose
847	843	c	-2	M_udpgal__91__c__93__	C15H22N2O17P2	UDP-D-galactose(2-)
848	844	c	-2	M_udpgalfur__91__c__93__	C15H22N2O17P2	UDP-D-galacto-1,4-furanose
849	845	c	-3	M_udpglcur__91__c__93__	C15H19N2O18P2	UDP-D-glucuronate
850	846	c	-4	M_ugmd__91__c__93__	C35H51N7O26P2	UDP-N-acetylmuramoyl-L-alanyl-D-gamma-glutamyl-meso-2,6-diaminopimelate
851	847	c	-4	M_ugmda__91__c__93__	C41H61N9O28P2	UDP-N-acetylmuramoyl-L-alanyl-D-glutamyl-meso-2,6-diaminopimeloyl-D-alanyl-D-alanine
852	848	c	-2	M_ump__91__c__93__	C9H11N2O9P	UMP
853	849	c	-2	M_unaga__91__c__93__	C63H103NO12P2	Undecaprenyl diphospho N-acetyl-glucosamine
854	850	c	-8	M_uppg3__91__c__93__	C40H36N4O16	Uroporphyrinogen III
855	851	c	+0	M_ura__91__c__93__	C4H4N2O2	uracil
856	852	c	-1	M_urcan__91__c__93__	C6H5N2O2	Urocanate
857	853	c	+0	M_uri__91__c__93__	C9H12N2O6	Uridine
858	854	c	-4	M_utp__91__c__93__	C9H11N2O15P3	UTP
859	855	c	+0	M_val_L__91__c__93__	C5H11NO2	L-valine
860	856	c	+0	M_xan__91__c__93__	C5H4N4O2	Xanthine
861	857	c	-2	M_xmp__91__c__93__	C10H11N4O9P	Xanthosine 5-phosphate
862	858	c	+0	M_xtsn__91__c__93__	C10H12N4O6	xanthosine
863	859	c	-2	M_xu5p_D__91__c__93__	C5H9O8P	D-xylulose 5-phosphate(2-)
864	860	c	+0	M_xyl_D__91__c__93__	C5H10O5	aldehydo-D-xylose
865	861	c	+0	M_xylu_D__91__c__93__	C5H10O5	D-xylulose
866	862	c	+2	M_zn2__91__c__93__	Zn	Zinc
