CNC	distance
0.0284897	0.133526
0.0287988	0.11256
0.0291114	0.105007
0.0292689	0.105617
0.0294273	0.112288
0.0295865	0.143927
0.0297466	0.143921
0.0299076	0.143896
0.0300694	0.143727
0.0302321	0.13333
0.0303957	0.143681
0.0305602	0.14355
0.0307256	0.174083
0.031059	0.109953
0.031396	0.143274
0.0320812	0.111178
0.0327812	0.142145
0.0334965	0.132644
0.0342275	0.142
0.0349744	0.111076
0.0365174	0.140933
0.0381285	0.140125
0.0415671	0.132473
0.043401	0.132064
0.0473151	0.120079
0.0515822	0.11094
0.0613056	0.111921
0.0668344	0.147585
0.0944061	0.146037
0.133352	0.144613
inf	0.839317
inf	0.839317
inf	0.839317
inf	0.839317
inf	0.839317
inf	0.839317
inf	0.839317
inf	0.839317
inf	0.839317
inf	0.839317
inf	0.839317
inf	0.839317
inf	0.839317
inf	0.839347
inf	0.839317
inf	0.839347
inf	0.839317
inf	0.839317
inf	0.839317
inf	0.839317
inf	0.839347
inf	0.839317
inf	0.839347
inf	0.839317
inf	0.839347
inf	0.839347
inf	0.839347
inf	0.839347
inf	0.839317
inf	0.839317
inf	0.839317
inf	0.839317
inf	0.839317
inf	0.839317
inf	0.839317
inf	0.839317
inf	0.839317
inf	0.839317
inf	0.839317
inf	0.839317
0.01	0.153603
0.0141254	0.151377
0.0199526	0.148455
0.0281838	0.108757
0.0398107	0.132725
0.0562341	0.122881
0.0794328	0.129537
0.112202	0.120731
0.158489	0.127927
0.223872	0.117012
