rep_name	species_ID	mode	EU_avg	DACH	diabetes2	gluten_free	high_fat	high_fiber	high_protein	mediterranean	unhealthy	vegan	vegetarian
rep1	setA_11	plastic	144	144	144	144	144	144	144	144	144	144	144
rep1	setA_11	sfm	144	144	144	144	144	144	144	144	144	144	144
rep1	setA_13	plastic	2.23463	2.93266	3.12743	2.32443	3.48573	2.69725	2.7165	2.97771	2.2519	2.74849	2.2861
rep1	setA_13	sfm	144	144	144	144	144	144	144	144	144	144	144
rep1	setA_14	plastic	144	144	144	144	144	144	144	144	144	144	144
rep1	setA_14	sfm	144	144	144	144	144	144	144	144	144	144	144
rep1	setA_15	plastic	144	144	144	144	144	144	144	144	144	144	144
rep1	setA_15	sfm	144	144	144	144	144	144	144	144	144	144	144
rep1	setA_16	plastic	144	144	144	144	144	144	144	144	144	144	144
rep1	setA_16	sfm	144	144	144	144	144	144	144	144	144	144	144
rep1	setA_17	plastic	144	144	144	144	144	144	144	144	144	144	144
rep1	setA_17	sfm	144	144	144	144	144	144	144	144	144	144	144
rep1	setA_18	plastic	144	144	144	144	144	144	144	144	144	144	144
rep1	setA_18	sfm	144	144	144	144	144	144	144	144	144	144	144
rep1	setA_19	plastic	144	144	144	144	144	144	144	144	144	144	144
rep1	setA_19	sfm	144	144	144	144	144	144	144	144	144	144	144
rep1	setA_20	plastic	144	144	144	144	144	144	144	144	144	144	144
rep1	setA_20	sfm	144	144	144	144	144	144	144	144	144	144	144
rep1	setA_21	plastic	144	144	144	144	144	144	144	144	144	144	144
rep1	setA_21	sfm	144	144	144	144	144	144	144	144	144	144	144
rep1	setA_22	plastic	144	144	144	144	144	144	144	144	144	144	144
rep1	setA_22	sfm	144	144	144	144	144	144	144	144	144	144	144
rep1	setA_24	plastic	144	144	144	144	144	144	144	144	144	144	144
rep1	setA_24	sfm	144	144	144	144	144	144	144	144	144	144	144
rep1	setA_26	plastic	144	144	144	144	144	144	144	144	144	144	144
rep1	setA_26	sfm	144	144	144	144	144	144	144	144	144	144	144
rep1	setA_3	plastic	144	144	144	144	144	144	144	144	144	144	144
rep1	setA_3	sfm	144	144	144	144	144	144	144	144	144	144	144
rep1	setA_4	plastic	144	144	144	144	144	144	144	144	144	144	144
rep1	setA_4	sfm	144	144	144	144	144	144	144	144	144	144	144
rep1	setA_6	plastic	144	144	144	144	144	144	144	144	144	144	144
rep1	setA_6	sfm	144	144	144	144	144	144	144	144	144	144	144
rep1	setA_8	plastic	144	144	144	144	144	144	144	144	144	144	144
rep1	setA_8	sfm	144	144	144	144	144	144	144	144	144	144	144
rep1	setA_9	plastic	144	144	144	144	144	144	144	144	144	144	144
rep1	setA_9	sfm	144	144	144	144	144	144	144	144	144	144	144
rep2	setA_11	plastic	144	144	144	144	144	144	144	144	144	144	144
rep2	setA_11	sfm	144	144	144	144	144	144	144	144	144	144	144
rep2	setA_13	plastic	2.3367	2.7198	3.07894	3.19944	3.0233	2.97548	2.8813	2.73108	2.38248	2.82146	2.27822
rep2	setA_13	sfm	144	144	144	144	144	144	144	144	144	144	144
rep2	setA_14	plastic	144	144	144	144	144	144	144	144	144	144	144
rep2	setA_14	sfm	144	144	144	144	144	144	144	144	144	144	144
rep2	setA_15	plastic	144	144	144	144	144	144	144	144	144	144	144
rep2	setA_15	sfm	144	144	144	144	144	144	144	144	144	144	144
rep2	setA_16	plastic	144	144	144	144	144	144	144	144	144	144	144
rep2	setA_16	sfm	144	144	144	144	144	144	144	144	144	144	144
rep2	setA_17	plastic	144	144	144	144	144	144	144	144	144	144	144
rep2	setA_17	sfm	144	144	144	144	144	144	144	144	144	144	144
rep2	setA_18	plastic	144	144	144	144	144	144	144	144	144	144	144
rep2	setA_18	sfm	144	144	144	144	144	144	144	144	144	144	144
rep2	setA_19	plastic	144	144	144	144	144	144	144	144	144	144	144
rep2	setA_19	sfm	144	144	144	144	144	144	144	144	144	144	144
rep2	setA_20	plastic	144	144	144	144	144	144	144	144	144	144	144
rep2	setA_20	sfm	144	144	144	144	144	144	144	144	144	144	144
rep2	setA_21	plastic	144	144	144	144	144	144	144	144	144	144	144
rep2	setA_21	sfm	144	144	144	144	144	144	144	144	144	144	144
rep2	setA_22	plastic	144	144	144	144	144	144	144	144	144	144	144
rep2	setA_22	sfm	144	144	144	144	144	144	144	144	144	144	144
rep2	setA_24	plastic	144	144	144	144	144	144	144	144	144	144	144
rep2	setA_24	sfm	144	144	144	144	144	144	144	144	144	144	144
rep2	setA_26	plastic	144	144	144	144	144	144	144	144	144	144	144
rep2	setA_26	sfm	144	144	144	144	144	144	144	144	144	144	144
rep2	setA_3	plastic	144	144	144	144	144	144	144	144	144	144	144
rep2	setA_3	sfm	144	144	144	144	144	144	144	144	144	144	144
rep2	setA_4	plastic	144	144	144	144	144	144	144	144	144	144	144
rep2	setA_4	sfm	144	144	144	144	144	144	144	144	144	144	144
rep2	setA_6	plastic	144	144	144	144	144	144	144	144	144	144	144
rep2	setA_6	sfm	144	144	144	144	144	144	144	144	144	144	144
rep2	setA_8	plastic	144	144	144	144	144	144	144	144	144	144	144
rep2	setA_8	sfm	144	144	144	144	144	144	144	144	144	144	144
rep2	setA_9	plastic	144	144	144	144	144	144	144	144	144	144	144
rep2	setA_9	sfm	144	144	144	144	144	144	144	144	144	144	144
rep3	setA_11	plastic	144	144	144	144	144	144	144	144	144	144	144
rep3	setA_11	sfm	144	144	144	144	144	144	144	144	144	144	144
rep3	setA_13	plastic	2.33452	3.38764	3.32314	2.75313	3.07138	3.13698	2.85983	2.63455	2.52686	2.98862	2.58083
rep3	setA_13	sfm	144	144	144	144	144	144	144	144	144	144	144
rep3	setA_14	plastic	144	144	144	144	144	144	144	144	144	144	144
rep3	setA_14	sfm	144	144	144	144	144	144	144	144	144	144	144
rep3	setA_15	plastic	144	144	144	144	144	144	144	144	144	144	144
rep3	setA_15	sfm	144	144	144	144	144	144	144	144	144	144	144
rep3	setA_16	plastic	144	144	144	144	144	144	144	144	144	144	144
rep3	setA_16	sfm	144	144	144	144	144	144	144	144	144	144	144
rep3	setA_17	plastic	144	144	144	144	144	144	144	144	144	144	144
rep3	setA_17	sfm	144	144	144	144	144	144	144	144	144	144	144
rep3	setA_18	plastic	144	144	144	144	144	144	144	144	144	144	144
rep3	setA_18	sfm	144	144	144	144	144	144	144	144	144	144	144
rep3	setA_19	plastic	144	144	144	144	144	144	144	144	144	144	144
rep3	setA_19	sfm	144	144	144	144	144	144	144	144	144	144	144
rep3	setA_20	plastic	144	144	144	144	144	144	144	144	144	144	144
rep3	setA_20	sfm	144	144	144	144	144	144	144	144	144	144	144
rep3	setA_21	plastic	144	144	144	144	144	144	144	144	144	144	144
rep3	setA_21	sfm	144	144	144	144	144	144	144	144	144	144	144
rep3	setA_22	plastic	144	144	144	144	144	144	144	144	144	144	144
rep3	setA_22	sfm	144	144	144	144	144	144	144	144	144	144	144
rep3	setA_24	plastic	144	144	144	144	144	144	144	144	144	144	144
rep3	setA_24	sfm	144	144	144	144	144	144	144	144	144	144	144
rep3	setA_26	plastic	144	144	144	144	144	144	144	144	144	144	144
rep3	setA_26	sfm	144	144	144	144	144	144	144	144	144	144	144
rep3	setA_3	plastic	144	144	144	144	144	144	144	144	144	144	144
rep3	setA_3	sfm	144	144	144	144	144	144	144	144	144	144	144
rep3	setA_4	plastic	144	144	144	144	144	144	144	144	144	144	144
rep3	setA_4	sfm	144	144	144	144	144	144	144	144	144	144	144
rep3	setA_6	plastic	144	144	144	144	144	144	144	144	144	144	144
rep3	setA_6	sfm	144	144	144	144	144	144	144	144	144	144	144
rep3	setA_8	plastic	144	144	144	144	144	144	144	144	144	144	144
rep3	setA_8	sfm	144	144	144	144	144	144	144	144	144	144	144
rep3	setA_9	plastic	144	144	144	144	144	144	144	144	144	144	144
rep3	setA_9	sfm	144	144	144	144	144	144	144	144	144	144	144
