	metabolite_index	reaction_index	stoichiometry	metabolite_id	reaction_id
1	1	4	-1	M_2dmmq8__91__e__93__	R_26DAPLLATi
2	2	11	-1	M_2obut__91__e__93__	R_2DHPL
3	2	12	+1	M_2obut__91__e__93__	R_2DMMQ8abc
4	3	15	-1	M_34dhphe__91__e__93__	R_2HBO
5	4	106	-1	M_4hbz__91__e__93__	R_2HMCOXT
6	4	107	+1	M_4hbz__91__e__93__	R_2MBCOATA
7	5	110	-1	M_5htrp__91__e__93__	R_2OBUTt2r
8	7	127	-1	M_acald__91__e__93__	R_34DHOXPEGOX
9	7	128	+1	M_acald__91__e__93__	R_34DHPHEt2
10	8	136	-1	M_acgam__91__e__93__	R_3HAD10M12
11	8	137	+1	M_acgam__91__e__93__	R_3HAD11M12
12	8	138	-1	M_acgam__91__e__93__	R_3HAD12M14
13	9	164	-1	M_actn_R__91__e__93__	R_3HAD13M14
14	9	165	+1	M_actn_R__91__e__93__	R_3HAD14M16
15	6	166	-1	M_ac__91__e__93__	R_3HAD15M16
16	6	167	+1	M_ac__91__e__93__	R_3HAD4M6
17	10	170	-1	M_ade__91__e__93__	R_3HAD5M6
18	10	171	+1	M_ade__91__e__93__	R_3HAD6M8
19	11	190	-1	M_adn__91__e__93__	R_3HAD7M8
20	11	191	+1	M_adn__91__e__93__	R_3HAD8M10
21	13	229	-1	M_alaasp__91__e__93__	R_3HAD9M10
22	14	234	-1	M_alagln__91__e__93__	R_3HLYTCL
23	15	237	-1	M_alaglu__91__e__93__	R_3OAR100
24	16	240	-1	M_alagly__91__e__93__	R_3OAR10M11
25	17	243	-1	M_alahis__91__e__93__	R_3OAR10M12
26	18	246	-1	M_alaleu__91__e__93__	R_3OAR11M12
27	19	254	-1	M_alathr__91__e__93__	R_3OAR120
28	12	255	-1	M_ala_L__91__e__93__	R_3OAR12M13
29	12	256	+1	M_ala_L__91__e__93__	R_3OAR12M14
30	21	274	-1	M_arbt__91__e__93__	R_3OAR13M14
31	20	275	-1	M_arab_L__91__e__93__	R_3OAR140
32	22	277	-1	M_arg_L__91__e__93__	R_3OAR14M15
33	23	281	-1	M_asn_L__91__e__93__	R_3OAR14M16
34	23	282	+1	M_asn_L__91__e__93__	R_3OAR15M16
35	24	288	-1	M_asp_L__91__e__93__	R_3OAR160
36	24	289	+1	M_asp_L__91__e__93__	R_3OAR180
37	25	296	-1	M_btn__91__e__93__	R_3OAR40
38	26	297	-1	M_ca2__91__e__93__	R_3OAR4M5
39	27	303	+1	M_cd2__91__e__93__	R_3OAR4M6
40	72	304	-1	M_k__91__e__93__	R_3OAR5M6
41	27	304	+1	M_cd2__91__e__93__	R_3OAR5M6
42	72	305	+1	M_k__91__e__93__	R_3OAR60
43	27	305	-1	M_cd2__91__e__93__	R_3OAR60
44	28	318	-1	M_cellb__91__e__93__	R_3OAR6M7
45	29	319	-1	M_cgly__91__e__93__	R_3OAR6M8
46	30	320	-1	M_chol__91__e__93__	R_3OAR7M8
47	30	321	+1	M_chol__91__e__93__	R_3OAR80
48	32	345	-1	M_co2__91__e__93__	R_3OAR8M10
49	32	346	+1	M_co2__91__e__93__	R_3OAR8M9
50	33	347	+1	M_cobalt2__91__e__93__	R_3OAR9M10
51	33	348	-1	M_cobalt2__91__e__93__	R_3OAS100
52	34	352	-1	M_csn__91__e__93__	R_3OAS10M11
53	36	364	-1	M_cys_L__91__e__93__	R_3OAS10M12
54	37	371	-1	M_cytd__91__e__93__	R_3OAS11M12
55	37	372	+1	M_cytd__91__e__93__	R_3OAS120
56	35	377	-1	M_cu2__91__e__93__	R_3OAS12M13
57	35	378	+1	M_cu2__91__e__93__	R_3OAS12M14
58	38	380	-1	M_dad_2__91__e__93__	R_3OAS13M14
59	38	381	+1	M_dad_2__91__e__93__	R_3OAS140
60	0	393	-1	M_26dap_M__91__e__93__	R_3OAS160
61	39	411	-1	M_dcyt__91__e__93__	R_3OAS180
62	39	412	+1	M_dcyt__91__e__93__	R_3OAS2M3
63	40	418	-1	M_dgsn__91__e__93__	R_3OAS3M4
64	40	419	+1	M_dgsn__91__e__93__	R_3OAS4M3O6
65	41	445	+1	M_dopa__91__e__93__	R_3OAS4M5
66	42	491	-1	M_etoh__91__e__93__	R_3OAS4M6
67	42	492	+1	M_etoh__91__e__93__	R_3OAS5M6
68	43	527	-1	M_fe2__91__e__93__	R_3OAS60
69	44	528	-1	M_fe3__91__e__93__	R_3OAS6M7
70	45	535	-1	M_fol__91__e__93__	R_3OAS6M8
71	45	536	+1	M_fol__91__e__93__	R_3OAS7M8
72	46	539	-1	M_for__91__e__93__	R_3OAS80
73	46	540	+1	M_for__91__e__93__	R_3OAS8M10
74	47	549	-1	M_fru__91__e__93__	R_3OAS8M9
75	47	550	-1	M_fru__91__e__93__	R_3OAS9M10
76	47	551	+1	M_fru__91__e__93__	R_4HBZt2
77	49	596	-1	M_galt__91__e__93__	R_4HTHRS
78	48	599	-1	M_gal__91__e__93__	R_5HLTDL
79	50	600	-1	M_gam__91__e__93__	R_5HTRPt2
80	51	604	-1	M_gcald__91__e__93__	R_5HXKYNDCL
81	51	605	+1	M_gcald__91__e__93__	R_5MTHCYST
82	52	622	-1	M_glc_D__91__e__93__	R_6PGALSZ
83	52	623	-1	M_glc_D__91__e__93__	R_6PGALSZ2i
84	53	629	-1	M_gln_L__91__e__93__	R_6PHBG
85	53	630	-1	M_gln_L__91__e__93__	R_6PHBG2
86	53	631	+1	M_gln_L__91__e__93__	R_AACOAT
87	54	641	-1	M_glu_L__91__e__93__	R_AACPS6
88	54	642	+1	M_glu_L__91__e__93__	R_AACPS7
89	56	645	-1	M_glyasn__91__e__93__	R_AB6PGH
90	57	648	-1	M_glyasp__91__e__93__	R_AB6PGH2
91	59	651	-1	M_glycys__91__e__93__	R_ABUTD
92	58	652	+1	M_glyc__91__e__93__	R_ACALD
93	58	653	-1	M_glyc__91__e__93__	R_ACALDt
94	60	656	-1	M_glygln__91__e__93__	R_ACBIPGT
95	61	659	-1	M_glyglu__91__e__93__	R_ACCOACL
96	62	663	-1	M_glyleu__91__e__93__	R_ACCOALYS2
97	63	666	-1	M_glymet__91__e__93__	R_ACEDIPIT
98	64	670	-1	M_glyphe__91__e__93__	R_ACGAMK
99	65	673	-1	M_glypro__91__e__93__	R_ACGAMT
100	66	676	-1	M_glytyr__91__e__93__	R_ACGAMtr2
101	55	677	-1	M_gly__91__e__93__	R_ACGApts
102	55	678	+1	M_gly__91__e__93__	R_ACGS
103	67	692	-1	M_gua__91__e__93__	R_ACHBPL
104	67	693	+1	M_gua__91__e__93__	R_ACKr
105	67	694	-1	M_gua__91__e__93__	R_ACLDC
106	103	701	-1	M_pheme__91__e__93__	R_ACLS_a
107	68	707	+1	M_hg2__91__e__93__	R_ACLS_b
108	70	709	+1	M_hista__91__e__93__	R_ACNML
109	69	710	-1	M_his_L__91__e__93__	R_ACOAAGPAT140
110	69	711	+1	M_his_L__91__e__93__	R_ACOAAGPAT160
111	71	740	-1	M_ile_L__91__e__93__	R_ACOAAGPAT180
112	71	741	-1	M_ile_L__91__e__93__	R_ACOAAGPATAI15
113	71	742	+1	M_ile_L__91__e__93__	R_ACOAAGPATAI17
114	72	760	-1	M_k__91__e__93__	R_ACOAAGPATI14
115	72	761	+1	M_k__91__e__93__	R_ACOAAGPATI15
116	72	762	+1	M_k__91__e__93__	R_ACOAAGPATI16
117	77	766	-1	M_lcts__91__e__93__	R_ACOAAGPATI17
118	78	773	-1	M_leu_L__91__e__93__	R_ACOATA
119	78	774	-1	M_leu_L__91__e__93__	R_ACOCT
120	78	775	+1	M_leu_L__91__e__93__	R_ACPS1
121	79	778	-1	M_lys_L__91__e__93__	R_ACTNDH
122	79	779	+1	M_lys_L__91__e__93__	R_ACTNdiff
123	76	784	-1	M_lac_L__91__e__93__	R_ACt2r
124	76	785	+1	M_lac_L__91__e__93__	R_ADAD
125	81	792	-1	M_malthx__91__e__93__	R_ADEt2r
126	82	793	-1	M_malttr__91__e__93__	R_ADK1
127	80	794	-1	M_malt__91__e__93__	R_ADK10
128	80	795	-1	M_malt__91__e__93__	R_ADK11
129	83	798	-1	M_man__91__e__93__	R_ADK2
130	86	809	-1	M_metala__91__e__93__	R_ADK3
131	84	812	-1	M_met_D__91__e__93__	R_ADK5
132	88	815	-1	M_metsox_S_L__91__e__93__	R_ADK7
133	87	816	-1	M_metsox_R_L__91__e__93__	R_ADK8
134	85	819	-1	M_met_L__91__e__93__	R_ADK9
135	85	820	-1	M_met_L__91__e__93__	R_ADNCNT3tc
136	85	821	+1	M_met_L__91__e__93__	R_ADNCYC
137	89	823	-1	M_mg2__91__e__93__	R_ADNK1
138	89	824	+1	M_mg2__91__e__93__	R_ADOCBIK
139	89	825	-1	M_mg2__91__e__93__	R_ADOCBLS
140	92	829	+1	M_mqn8__91__e__93__	R_ADPRDP
141	92	830	-1	M_mqn8__91__e__93__	R_ADPT
142	91	840	-1	M_mnl__91__e__93__	R_ADSL1r
143	90	841	-1	M_mn2__91__e__93__	R_ADSL2r
144	94	852	+1	M_nac__91__e__93__	R_ADSS
145	94	853	-1	M_nac__91__e__93__	R_AGDC
146	93	860	+1	M_na1__91__e__93__	R_AGPAT120
147	93	861	-1	M_na1__91__e__93__	R_AGPAT140
148	95	880	-1	M_nh4__91__e__93__	R_AGPAT141
149	95	881	+1	M_nh4__91__e__93__	R_AGPAT160
150	97	888	-1	M_no3__91__e__93__	R_AGPAT161
151	96	888	+1	M_no2__91__e__93__	R_AGPAT161
152	98	904	-1	M_o2__91__e__93__	R_AGPAT180
153	98	905	+1	M_o2__91__e__93__	R_AGPAT181
154	99	911	-1	M_ocdca__91__e__93__	R_AHC
155	101	932	+1	M_pb__91__e__93__	R_AHCYSNS_r
156	102	974	-1	M_phe_L__91__e__93__	R_AICART
157	102	975	+1	M_phe_L__91__e__93__	R_AIHDUDPMG
158	104	977	-1	M_pi__91__e__93__	R_AIHDUPDG
159	93	978	-3	M_na1__91__e__93__	R_AIHPDCOATA
160	104	978	-1	M_pi__91__e__93__	R_AIHPDCOATA
161	105	985	-1	M_pnto_R__91__e__93__	R_AIPDCOATA
162	106	992	+1	M_ppa__91__e__93__	R_AIRC4
163	107	1010	-1	M_pro_L__91__e__93__	R_ALAALA
164	107	1011	+1	M_pro_L__91__e__93__	R_ALAASP1c
165	109	1050	-1	M_pydam__91__e__93__	R_ALAASPabc
166	111	1053	-1	M_pydxn__91__e__93__	R_ALAD_R
167	110	1054	-1	M_pydx__91__e__93__	R_ALAGLN1c
168	112	1062	-1	M_q8__91__e__93__	R_ALAGLNabc
169	113	1073	-1	M_ribflv__91__e__93__	R_ALAGLU1c
170	113	1074	+1	M_ribflv__91__e__93__	R_ALAGLUabc
171	114	1089	-1	M_salcn__91__e__93__	R_ALAGLY1c
172	115	1092	-1	M_sbt_D__91__e__93__	R_ALAGLYabc
173	116	1095	-1	M_ser_L__91__e__93__	R_ALAHIS1c
174	116	1096	+1	M_ser_L__91__e__93__	R_ALAHISabc
175	117	1098	-1	M_sheme__91__e__93__	R_ALALEU1c
176	118	1107	-1	M_so4__91__e__93__	R_ALALEUabc
177	118	1108	+1	M_so4__91__e__93__	R_ALAPGPL
178	119	1109	-1	M_spmd__91__e__93__	R_ALAR
179	120	1111	+1	M_srtn__91__e__93__	R_ALATA_L
180	121	1115	-1	M_succ__91__e__93__	R_ALATHR1c
181	121	1116	+1	M_succ__91__e__93__	R_ALATHRabc
182	122	1119	-1	M_sucr__91__e__93__	R_ALAt2r
183	125	1182	-1	M_thymd__91__e__93__	R_ALCD19
184	125	1183	+1	M_thymd__91__e__93__	R_ALCD2x
185	123	1184	-1	M_thm__91__e__93__	R_AMALT1
186	124	1187	-1	M_thr_L__91__e__93__	R_AMALT2
187	124	1188	+1	M_thr_L__91__e__93__	R_AMALT3
188	126	1194	-1	M_tma__91__e__93__	R_AMALT4
189	126	1195	+1	M_tma__91__e__93__	R_AMANAPEr
190	127	1209	-1	M_tre__91__e__93__	R_AMANK
191	128	1211	-1	M_trp_L__91__e__93__	R_AMPTASECG
192	128	1212	+1	M_trp_L__91__e__93__	R_AMPTASEGC
193	129	1213	+1	M_trypta__91__e__93__	R_APAT
194	130	1216	-1	M_tym__91__e__93__	R_ARAI
195	130	1217	+1	M_tym__91__e__93__	R_ARBTpts
196	131	1221	-1	M_tyr_L__91__e__93__	R_ARBabc
197	131	1222	+1	M_tyr_L__91__e__93__	R_ARGDA
198	132	1248	-1	M_ura__91__e__93__	R_ARGt2
199	133	1265	-1	M_uri__91__e__93__	R_ASAD
200	133	1266	+1	M_uri__91__e__93__	R_ASCBPL
201	134	1271	-1	M_val_L__91__e__93__	R_ASNt2r
202	134	1272	-1	M_val_L__91__e__93__	R_ASPCT
203	134	1273	+1	M_val_L__91__e__93__	R_ASPKi
204	135	1274	-1	M_xan__91__e__93__	R_ASPT
205	72	1282	-1	M_k__91__e__93__	R_ASPTA
206	136	1282	+1	M_zn2__91__e__93__	R_ASPTA
207	72	1283	+1	M_k__91__e__93__	R_ASPt2r
208	136	1283	-1	M_zn2__91__e__93__	R_ASPt2r
209	136	1284	-1	M_zn2__91__e__93__	R_ATPS4
210	22	1304	-1	M_arg_L__91__e__93__	R_BGLA1
211	100	1304	+1	M_orn__91__e__93__	R_BGLA1
212	22	1305	+1	M_arg_L__91__e__93__	R_BPNT
213	100	1305	-1	M_orn__91__e__93__	R_BPNT
214	31	1306	-1	M_cl__91__e__93__	R_BTDD_RR
215	31	1307	+1	M_cl__91__e__93__	R_BTNCLi
