CNC	distance
0.0798627	0.0117038
0.0802948	0.0122216
0.0807293	0.012853
0.0811662	0.0125914
0.0816054	0.0127453
0.082047	0.0128092
0.0824909	0.013863
0.0829373	0.0144852
0.0833861	0.0140833
0.0838373	0.0150952
0.0847471	0.015264
0.0856668	0.0159694
0.0865964	0.0165663
0.0875362	0.0176075
0.0884861	0.0191252
0.090417	0.0199679
0.09239	0.0227169
0.0944061	0.0235787
0.0964662	0.0250812
0.0985712	0.0270995
0.10292	0.0306332
0.107461	0.035296
0.117152	0.0423121
0.122321	0.0464885
0.133352	0.0549596
0.145378	0.061815
0.172783	0.0788219
0.188365	0.0864774
0.266073	0.118
0.316228	0.133273
0.375837	0.146458
inf	0.839347
inf	0.839347
inf	0.839317
inf	0.839347
inf	0.839317
inf	0.839347
inf	0.839317
inf	0.839347
inf	0.839317
inf	0.839317
inf	0.839347
inf	0.839317
inf	0.839317
inf	0.839317
inf	0.839317
inf	0.839317
inf	0.839317
inf	0.839317
inf	0.839317
inf	0.839317
inf	0.839317
inf	0.839317
inf	0.839317
inf	0.839318
inf	0.839317
inf	0.839318
inf	0.839317
inf	0.839318
inf	0.839317
inf	0.839317
inf	0.839317
inf	0.839317
inf	0.839317
inf	0.839317
inf	0.839317
inf	0.839317
inf	0.839317
inf	0.839317
inf	0.839317
inf	0.839317
0.01	0.112531
0.0141254	0.0998453
0.0199526	0.0843903
0.0281838	0.0660207
0.0398107	0.045068
0.0562341	0.0204061
0.0794328	0.0106146
0.112202	0.038701
0.158489	0.070695
0.223872	0.102359
