CNC	distance
0.266073	0.14081
0.316228	0.138619
0.375837	0.136452
0.446684	0.133134
0.530884	0.130101
0.630957	0.12561
0.749894	0.12223
0.891251	0.117779
1.05925	0.115446
1.15478	0.111385
1.25893	0.111984
1.37246	0.108206
1.49624	0.106145
1.63117	0.104611
1.77828	0.101524
1.93865	0.0997822
2.11349	0.0971406
2.30409	0.0960718
2.40575	0.0953032
2.51189	0.0941103
2.62271	0.0935774
2.73842	0.0899861
2.85924	0.0896888
2.98538	0.0875472
3.11709	0.0846386
3.25462	0.0833828
3.39821	0.0806975
3.47236	0.0797831
3.54813	0.0795779
3.62556	0.077983
3.70467	0.0758019
3.78552	0.0748853
3.86812	0.0747459
3.95253	0.0730354
4.03878	0.0711548
4.12691	0.0699346
4.17169	0.0694894
4.21697	0.068902
4.26273	0.0673273
4.30899	0.067765
4.35575	0.0679636
4.40301	0.0669615
4.45079	0.0670004
4.49909	0.0648546
4.54792	0.0643148
4.57253	0.0638394
4.59727	0.0627407
4.62215	0.0633521
4.64716	0.0626316
4.67231	0.0632276
4.69759	0.0637236
4.72301	0.0610031
4.74857	0.0614877
4.77426	0.0610105
inf	0.839317
inf	0.839317
inf	0.839317
inf	0.839317
inf	0.839317
inf	0.839317
inf	0.839317
inf	0.839317
inf	0.839318
inf	0.839317
inf	0.839318
inf	0.839317
inf	0.839317
inf	0.839347
inf	0.839317
inf	0.839317
inf	0.839317
inf	0.839317
inf	0.839347
inf	0.839347
inf	0.839317
inf	0.839317
inf	0.839317
inf	0.839317
inf	0.839317
inf	0.839317
inf	0.839317
inf	0.839317
inf	0.839317
inf	0.839347
inf	0.839317
inf	0.839317
inf	0.839317
inf	0.839317
inf	0.839317
inf	0.839317
inf	0.839317
inf	0.839317
inf	0.839317
inf	0.839317
0.01	3.42826e+238
0.0141254	0.159056
0.0199526	0.15847
0.0281838	0.15769
0.0398107	0.156687
0.0562341	0.155247
0.0794328	0.153446
0.112202	0.150937
0.158489	0.147598
0.223872	0.143439
