CNC	distance
0.226302	0.00774506
0.227526	0.00804618
0.228757	0.00797718
0.229995	0.00843127
0.23124	0.00843277
0.232491	0.00839924
0.233749	0.00834944
0.235014	0.00855281
0.236286	0.00882858
0.237564	0.00934803
0.23885	0.00916611
0.241442	0.0091616
0.244062	0.0101724
0.24671	0.0106344
0.249388	0.0114541
0.25483	0.0124587
0.26039	0.0139082
0.266073	0.0135602
0.271879	0.0156778
0.277811	0.0171757
0.290068	0.0195696
0.302866	0.0230219
0.316228	0.0248471
0.330179	0.0261499
0.344747	0.0296476
0.375837	0.0343192
0.409732	0.0398948
0.446684	0.0455998
0.486968	0.0548121
0.530884	0.0637318
0.630957	0.0820297
0.749894	0.0992313
0.891251	0.114425
1.05925	0.129343
inf	0.839317
inf	0.839347
inf	0.839347
inf	0.839347
inf	0.839347
inf	0.839317
inf	0.839317
inf	0.839317
inf	0.839317
inf	0.839317
inf	0.839317
inf	0.839347
inf	0.839347
inf	0.839347
inf	0.839317
inf	0.839317
inf	0.839347
inf	0.839347
inf	0.839317
inf	0.839347
inf	0.839347
inf	0.839317
inf	0.839317
inf	0.839347
inf	0.839347
inf	0.839317
inf	0.839347
inf	0.839317
inf	0.839317
inf	0.839317
inf	0.839317
inf	0.839317
inf	0.839317
inf	0.839317
inf	0.839317
inf	0.839317
inf	0.839317
inf	0.839317
inf	0.839317
inf	0.839317
0.01	0.1409
0.0141254	0.135189
0.0199526	0.127794
0.0281838	0.118707
0.0398107	0.107499
0.0562341	0.0935591
0.0794328	0.0765021
0.112202	0.0561051
0.158489	0.0320268
0.223872	0.00784435
