	metabolite_index	reaction_index	stoichiometry	metabolite_id	reaction_id
1	0	1	-1	M_12ppd_S__91__e__93__	R_12PPDt
2	0	2	+1	M_12ppd_S__91__e__93__	R_23DHMPO
3	1	19	-1	M_2obut__91__e__93__	R_23PDE2
4	1	20	+1	M_2obut__91__e__93__	R_23PDE4
5	3	130	-1	M_4hbz__91__e__93__	R_23PDE7
6	3	131	+1	M_4hbz__91__e__93__	R_23PDE9
7	2	140	-1	M_4abut__91__e__93__	R_26DAPLLAT
8	2	141	+1	M_4abut__91__e__93__	R_2AHBUTI
9	8	145	-1	M_acgal__91__e__93__	R_2MBCOATA
10	8	146	+1	M_acgal__91__e__93__	R_2MMALD
11	12	150	-1	M_acgam__91__e__93__	R_2MMALD2
12	12	151	+1	M_acgam__91__e__93__	R_2OBUTt2r
13	13	161	-1	M_acnam__91__e__93__	R_3HACPR1
14	7	189	-1	M_ac__91__e__93__	R_3HACPR2
15	7	190	+1	M_ac__91__e__93__	R_3HAD100
16	14	211	-1	M_adn__91__e__93__	R_3HAD10M11
17	14	212	+1	M_adn__91__e__93__	R_3HAD10M12
18	15	214	-1	M_adocbl__91__e__93__	R_3HAD11M12
19	16	277	-1	M_ala_L__91__e__93__	R_3HAD120
20	16	278	+1	M_ala_L__91__e__93__	R_3HAD12M13
21	17	318	-1	M_arab_L__91__e__93__	R_3HAD12M14
22	20	324	-1	M_arg_L__91__e__93__	R_3HAD13M14
23	21	325	-1	M_arsenb__91__e__93__	R_3HAD140
24	22	330	-1	M_asn_L__91__e__93__	R_3HAD14M15
25	22	331	+1	M_asn_L__91__e__93__	R_3HAD14M16
26	23	350	-1	M_btn__91__e__93__	R_3HAD15M16
27	24	354	-1	M_ca2__91__e__93__	R_3HAD160
28	25	357	-1	M_cbl1__91__e__93__	R_3HAD180
29	26	358	-1	M_cbl2__91__e__93__	R_3HAD40
30	27	364	+1	M_cd2__91__e__93__	R_3HAD4M5
31	28	369	-1	M_cellb__91__e__93__	R_3HAD4M6
32	29	373	-1	M_chtbs__91__e__93__	R_3HAD5M6
33	31	394	-1	M_co2__91__e__93__	R_3HAD60
34	31	395	+1	M_co2__91__e__93__	R_3HAD6M7
35	32	396	+1	M_cobalt2__91__e__93__	R_3HAD6M8
36	32	397	-1	M_cobalt2__91__e__93__	R_3HAD7M8
37	40	399	+1	M_cro4__91__e__93__	R_3HAD80
38	40	400	-1	M_cro4__91__e__93__	R_3HAD8M10
39	49	401	-1	M_ctbt__91__e__93__	R_3HAD8M9
40	51	409	-1	M_cys_L__91__e__93__	R_3HAD9M10
41	51	410	+1	M_cys_L__91__e__93__	R_3MOBS
42	52	418	-1	M_cytd__91__e__93__	R_3OAACPR1
43	52	419	+1	M_cytd__91__e__93__	R_3OAACPR2
44	50	424	-1	M_cu2__91__e__93__	R_3OAR100
45	50	425	+1	M_cu2__91__e__93__	R_3OAR10M11
46	53	426	-1	M_dad_2__91__e__93__	R_3OAR10M12
47	53	427	+1	M_dad_2__91__e__93__	R_3OAR11M12
48	54	451	-1	M_dcyt__91__e__93__	R_3OAR120
49	54	452	+1	M_dcyt__91__e__93__	R_3OAR12M13
50	55	453	-1	M_ddca__91__e__93__	R_3OAR12M14
51	55	454	+1	M_ddca__91__e__93__	R_3OAR13M14
52	56	461	-1	M_dgsn__91__e__93__	R_3OAR140
53	57	487	-1	M_din__91__e__93__	R_3OAR14M15
54	59	511	-1	M_duri__91__e__93__	R_3OAR14M16
55	95	517	-1	M_lac_D__91__e__93__	R_3OAR15M16
56	95	518	+1	M_lac_D__91__e__93__	R_3OAR160
57	61	592	-1	M_fe2__91__e__93__	R_3OAR180
58	62	593	-1	M_fe3__91__e__93__	R_3OAR40
59	63	599	-1	M_for__91__e__93__	R_3OAR4M5
60	63	600	+1	M_for__91__e__93__	R_3OAR4M6
61	64	607	-1	M_fru__91__e__93__	R_3OAR5M6
62	64	608	+1	M_fru__91__e__93__	R_3OAR60
63	65	612	-2	M_fuc_L__91__e__93__	R_3OAR6M7
64	65	613	+2	M_fuc_L__91__e__93__	R_3OAR6M8
65	67	645	-1	M_galt__91__e__93__	R_3OAR7M8
66	68	646	+1	M_galur__91__e__93__	R_3OAR80
67	68	647	-1	M_galur__91__e__93__	R_3OAR8M10
68	66	649	-1	M_gal__91__e__93__	R_3OAR8M9
69	69	650	-1	M_gam__91__e__93__	R_3OAR9M10
70	69	651	+1	M_gam__91__e__93__	R_3OAS100
71	70	656	-1	M_gbbtn__91__e__93__	R_3OAS10M11
72	71	658	-1	M_gcald__91__e__93__	R_3OAS10M12
73	71	659	+1	M_gcald__91__e__93__	R_3OAS11M12
74	73	676	-1	M_glcur__91__e__93__	R_3OAS120
75	73	677	+1	M_glcur__91__e__93__	R_3OAS12M13
76	72	678	-1	M_glc_D__91__e__93__	R_3OAS12M14
77	74	704	-1	M_glyb__91__e__93__	R_3OAS13M14
78	77	731	-1	M_gsn__91__e__93__	R_3OAS140
79	77	732	+1	M_gsn__91__e__93__	R_3OAS160
80	79	743	-1	M_h2s__91__e__93__	R_3OAS180
81	79	744	+1	M_h2s__91__e__93__	R_3OAS2M3
82	78	745	+1	M_h2__91__e__93__	R_3OAS3M4
83	78	746	-1	M_h2__91__e__93__	R_3OAS4M3O6
84	83	747	-1	M_hdca__91__e__93__	R_3OAS4M5
85	83	748	+1	M_hdca__91__e__93__	R_3OAS4M6
86	118	749	-1	M_pheme__91__e__93__	R_3OAS5M6
87	84	761	+1	M_hg2__91__e__93__	R_3OAS60
88	91	768	-1	M_k__91__e__93__	R_3OAS6M7
89	87	806	-1	M_ins__91__e__93__	R_3OAS6M8
90	87	807	+1	M_ins__91__e__93__	R_3OAS7M8
91	88	809	-1	M_inulin__91__e__93__	R_3OAS80
92	89	823	-1	M_isocapr__91__e__93__	R_3OAS8M10
93	89	824	+1	M_isocapr__91__e__93__	R_3OAS8M9
94	90	825	-1	M_isoval__91__e__93__	R_3OAS9M10
95	90	826	+1	M_isoval__91__e__93__	R_4HBZt2
96	91	843	+1	M_k__91__e__93__	R_4HTHRS
97	91	844	-1	M_k__91__e__93__	R_4NTPPH2
98	97	851	-1	M_lcts__91__e__93__	R_5AIZCDC
99	98	858	-1	M_leu_L__91__e__93__	R_6PHBG
100	98	859	+1	M_leu_L__91__e__93__	R_A5PISO
101	99	865	+1	M_lys_L__91__e__93__	R_AACPS7
102	99	866	-1	M_lys_L__91__e__93__	R_AADSACYCL
103	96	869	-1	M_lac_L__91__e__93__	R_ABUTt2r
104	96	870	+1	M_lac_L__91__e__93__	R_ACCOAC
105	100	878	-1	M_malt__91__e__93__	R_ACCOACL
106	102	886	-1	M_mantr__91__e__93__	R_ACGALK3
107	101	887	-1	M_man__91__e__93__	R_ACGALt2r
108	103	897	-1	M_melib__91__e__93__	R_ACGAM2E
109	104	898	-1	M_meoh__91__e__93__	R_ACGAMK
110	104	899	+1	M_meoh__91__e__93__	R_ACGAMtr2
111	106	903	-1	M_metala__91__e__93__	R_ACGK
112	105	911	-1	M_met_L__91__e__93__	R_ACGS
113	105	912	+1	M_met_L__91__e__93__	R_ACHBPL
114	107	913	-1	M_mg2__91__e__93__	R_ACKr
115	107	915	+1	M_mg2__91__e__93__	R_ACLS_a
116	107	916	-1	M_mg2__91__e__93__	R_ACLS_b
117	108	928	-1	M_mn2__91__e__93__	R_ACNAMabc
118	110	937	+1	M_nac__91__e__93__	R_ACNML
119	110	938	-1	M_nac__91__e__93__	R_ACOAAGPAT140
120	109	948	+1	M_na1__91__e__93__	R_ACOAAGPAT160
121	109	949	-1	M_na1__91__e__93__	R_ACOAAGPAT180
122	111	969	-1	M_nh4__91__e__93__	R_ACOAAGPATAI15
123	111	970	+1	M_nh4__91__e__93__	R_ACOAAGPATAI17
124	112	973	-1	M_no2__91__e__93__	R_ACOAAGPATI14
125	111	973	+1	M_nh4__91__e__93__	R_ACOAAGPATI14
126	113	993	-1	M_o2__91__e__93__	R_ACOAAGPATI15
127	113	994	+1	M_o2__91__e__93__	R_ACOAAGPATI16
128	114	999	-1	M_ocdca__91__e__93__	R_ACOAAGPATI17
129	114	1000	+1	M_ocdca__91__e__93__	R_ACOATA
130	115	1019	+1	M_pb__91__e__93__	R_ACOCT
131	119	1086	-1	M_pi__91__e__93__	R_ACODAr
132	119	1087	-1	M_pi__91__e__93__	R_ACONT
133	119	1088	+1	M_pi__91__e__93__	R_ACONTa
134	109	1089	-3	M_na1__91__e__93__	R_ACONTb
135	119	1089	-1	M_pi__91__e__93__	R_ACONTb
136	120	1105	+1	M_ppa__91__e__93__	R_ACOTA
137	120	1106	-1	M_ppa__91__e__93__	R_ACPS1
138	121	1113	+1	M_ppi__91__e__93__	R_ACS
139	109	1135	-1	M_na1__91__e__93__	R_ACTNDH
140	122	1135	-1	M_pro_L__91__e__93__	R_ACTNDH
141	109	1136	+1	M_na1__91__e__93__	R_ACt2r
142	122	1136	+1	M_pro_L__91__e__93__	R_ACt2r
143	123	1173	-1	M_ptrc__91__e__93__	R_ADCL
144	124	1191	-1	M_pydam__91__e__93__	R_ADCS
145	124	1192	+1	M_pydam__91__e__93__	R_ADK1
146	126	1195	-1	M_pydxn__91__e__93__	R_ADK10
147	126	1196	+1	M_pydxn__91__e__93__	R_ADK11
148	125	1197	-1	M_pydx__91__e__93__	R_ADK2
149	125	1198	+1	M_pydx__91__e__93__	R_ADK3
150	127	1201	-1	M_raffin__91__e__93__	R_ADK5
151	129	1221	-1	M_rib_D__91__e__93__	R_ADK7
152	130	1227	-1	M_rmn__91__e__93__	R_ADK8
153	130	1228	+1	M_rmn__91__e__93__	R_ADK9
154	133	1243	-1	M_salcn__91__e__93__	R_ADNCNT3tc
155	134	1246	-1	M_ser_L__91__e__93__	R_ADNUC
156	134	1247	+1	M_ser_L__91__e__93__	R_ADOCBLabc
157	135	1256	-1	M_so4__91__e__93__	R_ADPRDP
158	135	1257	+1	M_so4__91__e__93__	R_ADPT
159	136	1260	-1	M_spmd__91__e__93__	R_ADSELK
160	139	1266	-1	M_stys__91__e__93__	R_ADSK
161	140	1270	-1	M_succ__91__e__93__	R_ADSL1r
162	140	1271	+1	M_succ__91__e__93__	R_ADSL2r
163	141	1282	-1	M_sucr__91__e__93__	R_ADSS
164	143	1318	-1	M_thymd__91__e__93__	R_AEPPT
165	143	1319	+1	M_thymd__91__e__93__	R_AGDC
166	142	1324	-1	M_thr_L__91__e__93__	R_AGDC2
167	142	1325	+1	M_thr_L__91__e__93__	R_AGMD
168	144	1347	-1	M_tre__91__e__93__	R_AGMHE
169	145	1355	-1	M_ttdca__91__e__93__	R_AGPAT120
170	145	1356	+1	M_ttdca__91__e__93__	R_AGPAT140
171	146	1393	-1	M_ura__91__e__93__	R_AGPAT141
172	147	1394	-1	M_urea__91__e__93__	R_AGPAT160
173	147	1395	+1	M_urea__91__e__93__	R_AGPAT161
174	148	1403	-1	M_uri__91__e__93__	R_AGPAT180
175	148	1404	+1	M_uri__91__e__93__	R_AGPAT181
176	149	1410	-1	M_xan__91__e__93__	R_AGPR
177	150	1418	-1	M_xyl_D__91__e__93__	R_AHC
178	150	1419	-1	M_xyl_D__91__e__93__	R_AHCYSNS_r
179	150	1420	+1	M_xyl_D__91__e__93__	R_AHEXASE3
180	151	1423	-1	M_zn2__91__e__93__	R_AHMMPS
181	30	1441	-1	M_cl__91__e__93__	R_AHSERL2
182	30	1442	+1	M_cl__91__e__93__	R_AHSERL3
