	metabolite_index	reaction_index	stoichiometry	metabolite_id	reaction_id
1	0	1	-1	M_12dgr180__91__e__93__	R_12DGR180ti
2	1	10	-1	M_26dap_M__91__e__93__	R_23DHMPO
3	1	11	+1	M_26dap_M__91__e__93__	R_23PDE2
4	2	14	-1	M_2obut__91__e__93__	R_23PDE4
5	2	15	+1	M_2obut__91__e__93__	R_23PDE7
6	3	33	-1	M_4abz__91__e__93__	R_23PDE9
7	10	55	-1	M_acald__91__e__93__	R_26DAPLLAT
8	10	56	+1	M_acald__91__e__93__	R_26DAPt2r
9	11	58	-1	M_acgal__91__e__93__	R_2AHBUTI
10	11	59	+1	M_acgal__91__e__93__	R_2OBUTt2r
11	12	61	-1	M_acgam__91__e__93__	R_3HAD100
12	12	62	+1	M_acgam__91__e__93__	R_3HAD120
13	12	63	-1	M_acgam__91__e__93__	R_3HAD140
14	13	74	-1	M_acnam__91__e__93__	R_3HAD160
15	9	101	-1	M_ac__91__e__93__	R_3HAD180
16	9	102	+1	M_ac__91__e__93__	R_3HAD40
17	14	105	-1	M_ade__91__e__93__	R_3HAD60
18	14	106	+1	M_ade__91__e__93__	R_3HAD80
19	16	160	-1	M_alaasp__91__e__93__	R_3MOBS
20	17	165	-1	M_alagln__91__e__93__	R_3OAS100
21	18	168	-1	M_alaglu__91__e__93__	R_3OAS120
22	19	171	-1	M_alagly__91__e__93__	R_3OAS140
23	20	174	-1	M_alahis__91__e__93__	R_3OAS160
24	21	177	-1	M_alaleu__91__e__93__	R_3OAS180
25	22	182	-1	M_alathr__91__e__93__	R_3OAS60
26	15	183	-1	M_ala_L__91__e__93__	R_3OAS80
27	15	184	+1	M_ala_L__91__e__93__	R_4ABZt2
28	23	208	-1	M_arbt__91__e__93__	R_4HTHRS
29	24	215	-1	M_asn_L__91__e__93__	R_4NTPPH2
30	24	216	+1	M_asn_L__91__e__93__	R_5AIZCDC
31	25	226	-1	M_asp_L__91__e__93__	R_5MTHCYST
32	25	227	+1	M_asp_L__91__e__93__	R_6PHBG
33	26	234	-1	M_btn__91__e__93__	R_6PHBG2
34	27	235	-1	M_ca2__91__e__93__	R_AACGLYDH
35	28	239	+1	M_cd2__91__e__93__	R_AACPS6
36	85	240	-1	M_k__91__e__93__	R_AACPS7
37	28	240	+1	M_cd2__91__e__93__	R_AACPS7
38	85	241	+1	M_k__91__e__93__	R_AADSACYCL
39	28	241	-1	M_cd2__91__e__93__	R_AADSACYCL
40	29	243	-1	M_cellb__91__e__93__	R_AB6PGH
41	30	244	-1	M_cgly__91__e__93__	R_AB6PGH2
42	33	248	-1	M_co2__91__e__93__	R_ABTOXy
43	33	249	+1	M_co2__91__e__93__	R_ABUTD
44	34	250	+1	M_cobalt2__91__e__93__	R_ABUTR
45	34	251	-1	M_cobalt2__91__e__93__	R_ACALD
46	42	253	-1	M_csn__91__e__93__	R_ACALDt
47	44	262	-1	M_cys_L__91__e__93__	R_ACCOACL
48	44	263	+1	M_cys_L__91__e__93__	R_ACGALt2r
49	45	265	-1	M_cytd__91__e__93__	R_ACGAMT
50	101	265	-1	M_na1__91__e__93__	R_ACGAMT
51	43	266	-1	M_cu2__91__e__93__	R_ACGAMtr2
52	43	267	+1	M_cu2__91__e__93__	R_ACGApts
53	46	268	-1	M_dad_2__91__e__93__	R_ACGK
54	46	269	+1	M_dad_2__91__e__93__	R_ACGS
55	48	291	-1	M_dgsn__91__e__93__	R_ACHBPL
56	48	292	+1	M_dgsn__91__e__93__	R_ACKr
57	49	328	-1	M_dpcoa__91__e__93__	R_ACLDC
58	51	341	-1	M_etoh__91__e__93__	R_ACLS_a
59	51	342	+1	M_etoh__91__e__93__	R_ACLS_b
60	53	374	-1	M_fe2__91__e__93__	R_ACNAMabc
61	54	375	-1	M_fe3__91__e__93__	R_ACOAAGPAT140
62	55	382	-1	M_fol__91__e__93__	R_ACOAAGPAT160
63	55	383	+1	M_fol__91__e__93__	R_ACOAAGPAT180
64	56	384	-1	M_for__91__e__93__	R_ACOAAGPATAI15
65	56	385	+1	M_for__91__e__93__	R_ACOAAGPATAI17
66	57	394	-1	M_fru__91__e__93__	R_ACOAAGPATI14
67	57	395	+1	M_fru__91__e__93__	R_ACOAAGPATI15
68	59	424	-1	M_galt__91__e__93__	R_ACOAAGPATI16
69	58	427	-1	M_gal__91__e__93__	R_ACOAAGPATI17
70	60	433	-1	M_gcald__91__e__93__	R_ACOATA
71	60	434	+1	M_gcald__91__e__93__	R_ACOCT
72	62	444	-1	M_glc_D__91__e__93__	R_ACONMT
73	62	445	-1	M_glc_D__91__e__93__	R_ACONT
74	63	452	-1	M_gln_L__91__e__93__	R_ACONTa
75	63	453	+1	M_gln_L__91__e__93__	R_ACONTb
76	64	464	-1	M_glu_L__91__e__93__	R_ACOTA
77	64	465	+1	M_glu_L__91__e__93__	R_ACPS1
78	66	470	-1	M_glyasn__91__e__93__	R_ACTNDH
79	67	473	-1	M_glyasp__91__e__93__	R_ACYP
80	69	477	-1	M_glycys__91__e__93__	R_ACYP_2
81	68	478	+1	M_glyc__91__e__93__	R_ACt2r
82	68	479	-1	M_glyc__91__e__93__	R_ADCL
83	70	482	-1	M_glygln__91__e__93__	R_ADCS
84	71	485	-1	M_glyglu__91__e__93__	R_ADEt2r
85	72	488	-1	M_glyleu__91__e__93__	R_ADK1
86	73	491	-1	M_glymet__91__e__93__	R_ADK10
87	74	494	-1	M_glyphe__91__e__93__	R_ADK11
88	75	497	-1	M_glypro__91__e__93__	R_ADK2
89	76	500	-1	M_glytyr__91__e__93__	R_ADK3
90	65	501	-1	M_gly__91__e__93__	R_ADK5
91	65	502	+1	M_gly__91__e__93__	R_ADK7
92	79	513	-1	M_gua__91__e__93__	R_ADK8
93	79	514	+1	M_gua__91__e__93__	R_ADK9
94	80	520	+1	M_hg2__91__e__93__	R_ADNCYC
95	81	526	-1	M_his_L__91__e__93__	R_ADNUC
96	81	527	+1	M_his_L__91__e__93__	R_ADPRDP
97	82	540	-1	M_hxan__91__e__93__	R_ADPT
98	83	547	-1	M_ile_L__91__e__93__	R_ADSL1r
99	83	548	+1	M_ile_L__91__e__93__	R_ADSL2r
100	84	554	-1	M_ins__91__e__93__	R_ADSS
101	84	555	+1	M_ins__91__e__93__	R_AGDC
102	85	570	+1	M_k__91__e__93__	R_AGPAT120
103	85	571	-1	M_k__91__e__93__	R_AGPAT140
104	87	578	-1	M_lcts__91__e__93__	R_AGPAT141
105	88	583	-1	M_leu_L__91__e__93__	R_AGPAT160
106	88	584	+1	M_leu_L__91__e__93__	R_AGPAT161
107	89	628	-1	M_lys_L__91__e__93__	R_AGPAT180
108	89	629	+1	M_lys_L__91__e__93__	R_AGPAT181
109	86	638	-1	M_lac_L__91__e__93__	R_AGPR
110	86	639	+1	M_lac_L__91__e__93__	R_AHCYSNS_r
111	91	641	-1	M_malthx__91__e__93__	R_AHEXASE3
112	92	642	-1	M_malttr__91__e__93__	R_AHMMPS
113	90	643	-1	M_malt__91__e__93__	R_AHSERL2
114	90	644	-1	M_malt__91__e__93__	R_AHSERL3
115	93	647	-1	M_mantr__91__e__93__	R_AICART
116	96	657	-1	M_metala__91__e__93__	R_AIRC4
117	94	659	-1	M_met_D__91__e__93__	R_AKGS
118	98	662	-1	M_metsox_S_L__91__e__93__	R_AKP1
119	97	663	-1	M_metsox_R_L__91__e__93__	R_ALAALA
120	95	666	-1	M_met_L__91__e__93__	R_ALAASP1c
121	99	667	-1	M_mg2__91__e__93__	R_ALAASPabc
122	99	668	+1	M_mg2__91__e__93__	R_ALACI
123	99	669	-1	M_mg2__91__e__93__	R_ALAGLN1c
124	100	673	-1	M_mn2__91__e__93__	R_ALAGLNabc
125	4	681	+1	M_5mthf__91__e__93__	R_ALAGLU1c
126	102	683	+1	M_nac__91__e__93__	R_ALAGLUabc
127	102	684	-1	M_nac__91__e__93__	R_ALAGLY1c
128	101	691	+1	M_na1__91__e__93__	R_ALAGLYabc
129	101	692	-1	M_na1__91__e__93__	R_ALAHIS1c
130	103	711	-1	M_nh4__91__e__93__	R_ALAHISabc
131	103	712	+1	M_nh4__91__e__93__	R_ALALEU1c
132	104	732	-1	M_o2__91__e__93__	R_ALALEUabc
133	104	733	+1	M_o2__91__e__93__	R_ALAR
134	105	739	-1	M_ocdca__91__e__93__	R_ALATHR1c
135	105	740	+1	M_ocdca__91__e__93__	R_ALATHRabc
136	106	748	+1	M_oxa__91__e__93__	R_ALAt2r
137	107	753	+1	M_pb__91__e__93__	R_ALCD19
138	108	795	-1	M_phe_L__91__e__93__	R_ALCD2x
139	108	796	+1	M_phe_L__91__e__93__	R_ALDD2x
140	109	797	-1	M_pi__91__e__93__	R_ALDD8x
141	109	798	-1	M_pi__91__e__93__	R_ALKP
142	109	799	+1	M_pi__91__e__93__	R_ALLTNRS
143	110	807	-1	M_pnto_R__91__e__93__	R_ALLTNS
144	111	815	+1	M_ppi__91__e__93__	R_AMALT1
145	112	831	-1	M_pro_L__91__e__93__	R_AMALT2
146	112	832	+1	M_pro_L__91__e__93__	R_AMALT3
147	113	852	-1	M_pydam__91__e__93__	R_AMALT4
148	113	853	+1	M_pydam__91__e__93__	R_AMOPBHL
149	115	856	-1	M_pydxn__91__e__93__	R_AMPMS2
150	115	857	+1	M_pydxn__91__e__93__	R_AMPTASECG
151	114	858	-1	M_pydx__91__e__93__	R_AMPTASEGC
152	114	859	+1	M_pydx__91__e__93__	R_ANPRT
153	116	876	-1	M_ribflv__91__e__93__	R_ANS
154	116	877	+1	M_ribflv__91__e__93__	R_ANS2
155	119	890	-1	M_salcn__91__e__93__	R_AOBUTDs
156	120	895	-1	M_ser_L__91__e__93__	R_AOXHEXCYCL
157	120	896	+1	M_ser_L__91__e__93__	R_ARBTpts
158	121	897	-1	M_sheme__91__e__93__	R_ARGSL
159	122	902	-1	M_so4__91__e__93__	R_ARGSSr
160	122	903	+1	M_so4__91__e__93__	R_ASAD
161	123	908	-1	M_stys__91__e__93__	R_ASNt2r
162	124	909	-1	M_succ__91__e__93__	R_ASPCT
163	124	910	+1	M_succ__91__e__93__	R_ASPKi
164	128	955	+1	M_thf__91__e__93__	R_ASPO1
165	130	957	-1	M_thymd__91__e__93__	R_ASPO5
166	130	958	+1	M_thymd__91__e__93__	R_ASPO6
167	129	962	-1	M_thr_L__91__e__93__	R_ASPO7
168	129	963	+1	M_thr_L__91__e__93__	R_ASPT
169	131	983	-1	M_trp_L__91__e__93__	R_ASPTA
170	131	984	+1	M_trp_L__91__e__93__	R_ASPt2r
171	132	989	-1	M_tyr_L__91__e__93__	R_ATPPRT
172	132	990	+1	M_tyr_L__91__e__93__	R_ATPS4
173	133	1015	-1	M_ura__91__e__93__	R_BACCLi
174	134	1016	-1	M_urea__91__e__93__	R_BGLA1
175	134	1017	+1	M_urea__91__e__93__	R_BPNT
176	135	1021	-1	M_uri__91__e__93__	R_BTNCLi
177	135	1022	+1	M_uri__91__e__93__	R_BTNabc
178	136	1027	-1	M_val_L__91__e__93__	R_CA2abc
179	136	1028	+1	M_val_L__91__e__93__	R_CBMTHL2
180	137	1029	-1	M_xan__91__e__93__	R_CBPS
181	85	1034	-1	M_k__91__e__93__	R_CD2abc1
182	138	1034	+1	M_zn2__91__e__93__	R_CD2abc1
183	85	1035	+1	M_k__91__e__93__	R_CD2t6r
184	138	1035	-1	M_zn2__91__e__93__	R_CD2t6r
185	138	1036	-1	M_zn2__91__e__93__	R_CDPMEK
186	32	1052	-1	M_cl__91__e__93__	R_CELBpts
187	32	1053	+1	M_cl__91__e__93__	R_CGLYabc
