CNC	distance
0.225084	5.38319e+303
0.226302	0.27592
0.227526	0.274548
0.228757	0.273403
0.229995	0.277314
0.23124	0.104718
0.232491	0.274221
0.233749	0.16963
0.235014	0.273099
0.236286	0.0684377
0.23885	0.270962
0.241442	0.272055
0.244062	0.26897
0.24671	0.268875
0.249388	0.269944
0.25483	0.272854
0.26039	0.268218
0.266073	0.275924
0.271879	0.263852
0.277811	0.262923
0.290068	0.179949
0.302866	0.264251
0.316228	0.25601
0.330179	0.257165
0.344747	0.253513
0.375837	0.252061
0.409732	0.252322
0.446684	0.234614
0.486968	0.227564
0.530884	0.212013
0.630957	0.190745
0.749894	0.166004
0.891251	0.164514
1.05925	0.143331
inf	0.839317
inf	0.839317
inf	0.839318
inf	0.839317
inf	0.839318
inf	0.839317
inf	0.839318
inf	0.839317
inf	0.839317
inf	0.839317
inf	0.839317
inf	0.839318
inf	0.839317
inf	0.839318
inf	0.839318
inf	0.839317
inf	0.839317
inf	0.839317
inf	0.839317
inf	0.839317
inf	0.839317
inf	0.839317
inf	0.839317
inf	0.839317
inf	0.839317
inf	0.839318
inf	0.839317
inf	0.839317
inf	0.839317
inf	0.839317
inf	0.839317
inf	0.839317
inf	0.839317
inf	0.839317
inf	0.839317
inf	0.839317
inf	0.839317
inf	0.839317
inf	0.839317
inf	0.839317
0.01	0.148624
0.0141254	0.144931
0.0199526	0.139849
0.0281838	0.133197
0.0398107	0.124049
0.0562341	0.143869
0.0794328	0.105615
0.112202	0.15319
0.158489	0.149349
0.223872	0.0595313
