CNC	distance
0.021752	0.0881827
0.0218697	0.138367
0.0219881	0.1381
0.0221071	0.138379
0.0222267	0.13774
0.022347	0.149575
0.0224679	0.137672
0.0225895	0.137878
0.0227117	0.138422
0.0228346	0.137547
0.0229582	0.137192
0.0232073	0.0928668
0.0234592	0.129069
0.0237137	0.137193
0.0239711	0.136925
0.0242312	0.118657
0.02476	0.136151
0.0253003	0.135362
0.0258523	0.115171
0.0264165	0.12702
0.0269929	0.133839
0.0294273	0.113499
0.0307256	0.131521
0.0320812	0.130515
0.0334965	0.127909
0.0365174	0.12672
0.043401	0.117141
0.0473151	0.118571
0.0668344	0.101034
0.0944061	0.108878
inf	0.839318
inf	0.839318
inf	0.839317
inf	0.839317
inf	0.839318
inf	0.839318
inf	0.839317
inf	0.839318
inf	0.839318
inf	0.839317
inf	0.839318
inf	0.839317
inf	0.839318
inf	0.839318
inf	0.839318
inf	0.839318
inf	0.839317
inf	0.839318
inf	0.839318
inf	0.839317
inf	0.839347
inf	0.839347
inf	0.839317
inf	0.839317
inf	0.839317
inf	0.839317
inf	0.839317
inf	0.839317
inf	0.839317
inf	0.839318
inf	0.839317
inf	0.839317
inf	0.839317
inf	0.839317
inf	0.839317
inf	0.839317
inf	0.839317
inf	0.839317
inf	0.839317
inf	0.839317
0.01	0.148799
0.0141254	0.145064
0.0199526	0.0991569
0.0281838	0.13237
0.0398107	0.145641
0.0562341	0.110568
0.0794328	0.162753
0.112202	0.163786
0.158489	0.171993
0.223872	0.179641
