CNC	distance
0.266073	0.0249181
0.316228	0.0143888
0.375837	0.0139116
0.377871	0.0140362
0.379916	0.0141509
0.381972	0.0142889
0.384039	0.01451
0.386117	0.0146786
0.388206	0.0148658
0.390307	0.0150105
0.392419	0.0152262
0.394542	0.0154045
0.396677	0.0156206
0.400982	0.0160652
0.405334	0.0164807
0.409732	0.0169551
0.414178	0.0174766
0.418673	0.0180064
0.427809	0.0191332
0.437144	0.0203045
0.446684	0.0215289
0.456431	0.0228751
0.466391	0.0242844
0.486968	0.0272346
0.508452	0.0303649
0.530884	0.0335835
0.554307	0.0369499
0.578762	0.0403754
0.630957	0.0474509
0.68786	0.0547225
0.749894	0.062056
0.817523	0.0694794
0.891251	0.0768681
1.05925	0.0916382
inf	0.839317
inf	0.839317
inf	0.839317
inf	0.839317
inf	0.839318
inf	0.839317
inf	0.839317
inf	0.839317
inf	0.839317
inf	0.839318
inf	0.839317
inf	0.839317
inf	0.839317
inf	0.839317
inf	0.839318
inf	0.839317
inf	0.839317
inf	0.839317
inf	0.839317
inf	0.839317
inf	0.839317
inf	0.839317
inf	0.839317
inf	0.839317
inf	0.839317
inf	0.839317
inf	0.839317
inf	0.839317
inf	0.839317
inf	0.839317
inf	0.839317
inf	0.839317
inf	0.839317
inf	0.839317
inf	0.839317
inf	0.839317
inf	0.839317
inf	0.839317
inf	0.839317
inf	0.839317
0.01	0.147132
0.0141254	0.142849
0.0199526	0.137385
0.0281838	0.130349
0.0398107	0.121456
0.0562341	0.110349
0.0794328	0.0966729
0.112202	0.0800865
0.158489	0.060362
0.223872	0.0375182
