CNC	distance
0.159347	0.0120273
0.160209	0.0122083
0.161076	0.0122166
0.161948	0.0132907
0.162824	0.0132929
0.163705	0.0139296
0.164591	0.0141168
0.165482	0.0145308
0.166377	0.0145422
0.167277	0.0150806
0.169093	0.0161893
0.170928	0.0167558
0.172783	0.0173373
0.174658	0.0186718
0.176553	0.0192817
0.180406	0.0210267
0.184342	0.0225778
0.188365	0.0237954
0.192475	0.0256041
0.196675	0.027609
0.205353	0.0314814
0.214412	0.0348978
0.233749	0.0424404
0.244062	0.0460407
0.266073	0.0543599
0.290068	0.0618607
0.316228	0.0692233
0.344747	0.0762628
0.375837	0.0838616
0.446684	0.0980237
0.530884	0.110631
0.630957	0.120894
0.749894	0.135444
inf	0.839317
inf	0.839317
inf	0.839317
inf	0.839317
inf	0.839317
inf	0.839317
inf	0.839318
inf	0.839318
inf	0.839317
inf	0.839318
inf	0.839318
inf	0.839318
inf	0.839317
inf	0.839317
inf	0.839317
inf	0.839317
inf	0.839317
inf	0.839317
inf	0.839317
inf	0.839317
inf	0.839317
inf	0.839317
inf	0.839317
inf	0.839317
inf	0.839317
inf	0.839317
inf	0.839317
inf	0.839317
inf	0.839317
inf	0.839317
inf	0.839317
inf	0.839317
inf	0.839317
inf	0.839317
inf	0.839317
inf	0.839317
inf	0.839317
inf	0.839317
inf	0.839317
inf	0.839317
0.01	0.131203
0.0141254	0.122927
0.0199526	0.112505
0.0281838	0.0999289
0.0398107	0.0844645
0.0562341	0.065853
0.0794328	0.0440382
0.112202	0.019536
0.158489	0.0120146
0.223872	0.0387151
