[1;35m[LOGGING SYSTEM]:[0m Hello World!
[1;35m[LOGGING SYSTEM]:[0m set to lvl 3
********************************
*** Detecting program directory ***
********************************
*****************************************
*** Finished detecting program directory ***
*****************************************

********************************
*** Fetching parameter files ***
********************************
[1;33m[WARNING]:[0m Simulation ID already in use, reproducing previous experiments.

Loading parameters from file...
Simulation setA_8_plastic : initialised with 1 species and 11 media.
Use parameters from calibration in environment: EU_avg.
*****************************************
*** Finished fetching parameter files ***
*****************************************

*************************************
*** Initialising folder structure ***
*************************************
**********************************************
*** Finished initialising folder structure ***
**********************************************

*******************************
*** Loading SBML model data ***
*******************************
Loading species (1/1)
Parsing of SBML file: /data/s4278836/First_project/experiments/materials/sbml_files/agora_1.03/Clostridium_difficile_NAP07.xml complete
Species ID		: Clostridium_difficile_NAP07
Amount of metabolites	: 966
Stoichiometric matrix	: 4708 non-zero metabolite-reaction pairs
Amount of reactions	: 1558	: 100.0%
---------------------------------------
	# forward 	: 1137	: 72.9782%
	# reverse 	: 421	: 27.0218%
	-----------------------------------
	# internal	: 1310	: 84.0822%
	# exchange	: 248	: 15.9178%

Flux objective(s): 
	1 x R_biomass525

Starting calculations for Jaccard Distance Matrices...Done!

****************************************
*** Finished loading SBML model data ***
****************************************

*******************************************
*** Calibrating species growth curve(s) ***
*******************************************
Parsing parameter file for species (1/1)
Got old seed: 4116671256
Set param (FLX)   : 2246.130000
Set param (YLD)   : 0.083715
Set param (CRW)   : 0.278965
Set param (CNC)   : 0.086596
Set param (maxR)  : 1.109000
Set param (maxOD) : 2.743200

****************************************************
*** Finished calibrating species growth curve(s) ***
****************************************************

*************************************
*** Simulating batch mono-culture ***
*************************************
Analysing species in medium (1/11): EU_avg
Got old seed: 4148618236
total metabolites env/read/known: 157/423/156
[1;33m[WARNING]:[0m At setSpeciesOD, flux mode #0 is computed by FBA...

Analysing species in medium (2/11): DACH
Got old seed: 863451824
total metabolites env/read/known: 157/423/156
[1;33m[WARNING]:[0m At setSpeciesOD, flux mode #0 is computed by FBA...

Analysing species in medium (3/11): diabetes2
Got old seed: 1870044599
total metabolites env/read/known: 157/423/156
[1;33m[WARNING]:[0m At setSpeciesOD, flux mode #0 is computed by FBA...

Analysing species in medium (4/11): gluten_free
Got old seed: 2876539039
total metabolites env/read/known: 157/423/156
[1;33m[WARNING]:[0m At setSpeciesOD, flux mode #0 is computed by FBA...

Analysing species in medium (5/11): high_fat
Got old seed: 3873553395
total metabolites env/read/known: 157/423/156
[1;33m[WARNING]:[0m At setSpeciesOD, flux mode #0 is computed by FBA...

Analysing species in medium (6/11): high_fiber
Got old seed: 583616283
total metabolites env/read/known: 157/423/156
[1;33m[WARNING]:[0m At setSpeciesOD, flux mode #0 is computed by FBA...

Analysing species in medium (7/11): high_protein
Got old seed: 1579621237
total metabolites env/read/known: 157/423/156
[1;33m[WARNING]:[0m At setSpeciesOD, flux mode #0 is computed by FBA...

Analysing species in medium (8/11): mediterranean
Got old seed: 2587629275
total metabolites env/read/known: 157/423/156
[1;33m[WARNING]:[0m At setSpeciesOD, flux mode #0 is computed by FBA...

Analysing species in medium (9/11): unhealthy
Got old seed: 3587617329
total metabolites env/read/known: 157/423/156
[1;33m[WARNING]:[0m At setSpeciesOD, flux mode #0 is computed by FBA...

Analysing species in medium (10/11): vegan
Got old seed: 300784974
total metabolites env/read/known: 157/423/156
[1;33m[WARNING]:[0m At setSpeciesOD, flux mode #0 is computed by FBA...

Analysing species in medium (11/11): vegetarian
Got old seed: 1310657886
total metabolites env/read/known: 157/423/156
[1;33m[WARNING]:[0m At setSpeciesOD, flux mode #0 is computed by FBA...
******************************************
*** Simulating continuous mono-culture ***
******************************************
Analysing species in medium (1/11): EU_avg
Got old seed: 2294295524
total metabolites env/read/known: 157/423/156
[1;33m[WARNING]:[0m At setSpeciesOD, flux mode #0 is computed by FBA...

Analysing species in medium (2/11): DACH
Got old seed: 3315688457
total metabolites env/read/known: 157/423/156
[1;33m[WARNING]:[0m At setSpeciesOD, flux mode #0 is computed by FBA...

Analysing species in medium (3/11): diabetes2
Got old seed: 24672123
total metabolites env/read/known: 157/423/156
[1;33m[WARNING]:[0m At setSpeciesOD, flux mode #0 is computed by FBA...

Analysing species in medium (4/11): gluten_free
Got old seed: 1030703500
total metabolites env/read/known: 157/423/156
[1;33m[WARNING]:[0m At setSpeciesOD, flux mode #0 is computed by FBA...

Analysing species in medium (5/11): high_fat
Got old seed: 2007712777
total metabolites env/read/known: 157/423/156
[1;33m[WARNING]:[0m At setSpeciesOD, flux mode #0 is computed by FBA...

Analysing species in medium (6/11): high_fiber
Got old seed: 3027696113
total metabolites env/read/known: 157/423/156
[1;33m[WARNING]:[0m At setSpeciesOD, flux mode #0 is computed by FBA...

Analysing species in medium (7/11): high_protein
Got old seed: 4042339440
total metabolites env/read/known: 157/423/156
[1;33m[WARNING]:[0m At setSpeciesOD, flux mode #0 is computed by FBA...

Analysing species in medium (8/11): mediterranean
Got old seed: 724749413
total metabolites env/read/known: 157/423/156
[1;33m[WARNING]:[0m At setSpeciesOD, flux mode #0 is computed by FBA...

Analysing species in medium (9/11): unhealthy
Got old seed: 1744743173
total metabolites env/read/known: 157/423/156
[1;33m[WARNING]:[0m At setSpeciesOD, flux mode #0 is computed by FBA...

Analysing species in medium (10/11): vegan
Got old seed: 2754752546
total metabolites env/read/known: 157/423/156
[1;33m[WARNING]:[0m At setSpeciesOD, flux mode #0 is computed by FBA...

Analysing species in medium (11/11): vegetarian
Got old seed: 3750758918
total metabolites env/read/known: 157/423/156
[1;33m[WARNING]:[0m At setSpeciesOD, flux mode #0 is computed by FBA...
[1;33m[WARNING]:[0m Detected only 1 bacterium, skipping coculture experiments...

*******************************
*** All simulations started ***
*******************************
Waiting for 22 threads to finish simulations

[1;33m[WARNING]:[0m No (further) growth detected, stopping simulation...
Simulating trajectory complete
batch_mono-culture with DACH diet
final point:
	t = 2.08351h
	OD[0] = 21.4028;	r[0] = -0.1

[1;33m[WARNING]:[0m No (further) growth detected, stopping simulation...
Simulating trajectory complete
batch_mono-culture with high_fiber diet
final point:
	t = 2.04376h
	OD[0] = 29.5209;	r[0] = -0.1

[1;33m[WARNING]:[0m No (further) growth detected, stopping simulation...
Simulating trajectory complete
batch_mono-culture with high_fat diet
final point:
	t = 2.52491h
	OD[0] = 54.1159;	r[0] = -0.1

[1;33m[WARNING]:[0m No (further) growth detected, stopping simulation...
Simulating trajectory complete
batch_mono-culture with unhealthy diet
final point:
	t = 2.06949h
	OD[0] = 74.5593;	r[0] = -0.1

[1;33m[WARNING]:[0m No (further) growth detected, stopping simulation...
Simulating trajectory complete
batch_mono-culture with vegetarian diet
final point:
	t = 1.99117h
	OD[0] = 84.3807;	r[0] = -0.1

[1;33m[WARNING]:[0m No (further) growth detected, stopping simulation...
Simulating trajectory complete
batch_mono-culture with diabetes2 diet
final point:
	t = 1.93963h
	OD[0] = 106.939;	r[0] = -0.1

[1;33m[WARNING]:[0m No (further) growth detected, stopping simulation...
Simulating trajectory complete
batch_mono-culture with EU_avg diet
final point:
	t = 2.0165h
	OD[0] = 119.63;	r[0] = -0.1

[1;33m[WARNING]:[0m No (further) growth detected, stopping simulation...
Simulating trajectory complete
batch_mono-culture with mediterranean diet
final point:
	t = 2.07468h
	OD[0] = 154.733;	r[0] = -0.1

[1;33m[WARNING]:[0m No (further) growth detected, stopping simulation...
Simulating trajectory complete
batch_mono-culture with high_protein diet
final point:
	t = 2.36243h
	OD[0] = 158.048;	r[0] = -0.1

[1;33m[WARNING]:[0m No (further) growth detected, stopping simulation...
Simulating trajectory complete
batch_mono-culture with vegan diet
final point:
	t = 2.28014h
	OD[0] = 157.978;	r[0] = -0.1

[1;33m[WARNING]:[0m No (further) growth detected, stopping simulation...
Simulating trajectory complete
batch_mono-culture with gluten_free diet
final point:
	t = 2.26741h
	OD[0] = 205.892;	r[0] = -0.1

Simulating trajectory complete
continuous_mono-culture with vegetarian diet
final point:
	t = 144h
	OD[0] = 80.6547;	r[0] = 0.100021

Simulating trajectory complete
continuous_mono-culture with high_fat diet
final point:
	t = 144h
	OD[0] = 80.6552;	r[0] = 0.100087

Simulating trajectory complete
continuous_mono-culture with EU_avg diet
final point:
	t = 144h
	OD[0] = 77.043;	r[0] = 0.100068

Simulating trajectory complete
continuous_mono-culture with mediterranean diet
final point:
	t = 144h
	OD[0] = 113.16;	r[0] = 0.100064

Simulating trajectory complete
continuous_mono-culture with unhealthy diet
final point:
	t = 144h
	OD[0] = 96.3978;	r[0] = 0.100031

Simulating trajectory complete
continuous_mono-culture with high_fiber diet
final point:
	t = 144h
	OD[0] = 121.587;	r[0] = 0.100097

Simulating trajectory complete
continuous_mono-culture with gluten_free diet
final point:
	t = 144h
	OD[0] = 104.733;	r[0] = 0.100025

Simulating trajectory complete
continuous_mono-culture with diabetes2 diet
final point:
	t = 144h
	OD[0] = 171.173;	r[0] = 0.099743

Simulating trajectory complete
continuous_mono-culture with vegan diet
final point:
	t = 144h
	OD[0] = 142.054;	r[0] = 0.100045

Simulating trajectory complete
continuous_mono-culture with DACH diet
final point:
	t = 144h
	OD[0] = 113.16;	r[0] = 0.100089

Simulating trajectory complete
continuous_mono-culture with high_protein diet
final point:
	t = 144h
	OD[0] = 131.219;	r[0] = 0.100071

********************************
*** All simulations finished ***
********************************

*************************
*** Calling R scripts ***
*************************
Calling: Mono-culture-plotter.R for medium: EU_avg
Saving 7 x 7 in image
[1] "index == ncol, removed all non-consumed metabolites"
Saving 7 x 7 in image
Saving 7 x 7 in image
[1] "index == ncol, removed all non-consumed metabolites"
Saving 7 x 7 in image

Calling: Mono-culture-plotter.R for medium: DACH
Saving 7 x 7 in image
[1] "index == ncol, removed all non-consumed metabolites"
Saving 7 x 7 in image
Saving 7 x 7 in image
[1] "index == ncol, removed all non-consumed metabolites"
Saving 7 x 7 in image

Calling: Mono-culture-plotter.R for medium: diabetes2
Saving 7 x 7 in image
[1] "index == ncol, removed all non-consumed metabolites"
Saving 7 x 7 in image
Saving 7 x 7 in image
[1] "index == ncol, removed all non-consumed metabolites"
Saving 7 x 7 in image

Calling: Mono-culture-plotter.R for medium: gluten_free
Saving 7 x 7 in image
[1] "index == ncol, removed all non-consumed metabolites"
Saving 7 x 7 in image
Saving 7 x 7 in image
[1] "index == ncol, removed all non-consumed metabolites"
Saving 7 x 7 in image

Calling: Mono-culture-plotter.R for medium: high_fat
Saving 7 x 7 in image
[1] "index == ncol, removed all non-consumed metabolites"
Saving 7 x 7 in image
Saving 7 x 7 in image
[1] "index == ncol, removed all non-consumed metabolites"
Saving 7 x 7 in image
[1] TRUE

Calling: Mono-culture-plotter.R for medium: high_fiber
Saving 7 x 7 in image
[1] "index == ncol, removed all non-consumed metabolites"
Saving 7 x 7 in image
Saving 7 x 7 in image
[1] "index == ncol, removed all non-consumed metabolites"
Saving 7 x 7 in image

Calling: Mono-culture-plotter.R for medium: high_protein
Saving 7 x 7 in image
[1] "index == ncol, removed all non-consumed metabolites"
Saving 7 x 7 in image
Saving 7 x 7 in image
[1] "index == ncol, removed all non-consumed metabolites"
Saving 7 x 7 in image
[1] TRUE

Calling: Mono-culture-plotter.R for medium: mediterranean
Saving 7 x 7 in image
[1] "index == ncol, removed all non-consumed metabolites"
Saving 7 x 7 in image
Saving 7 x 7 in image
[1] "index == ncol, removed all non-consumed metabolites"
Saving 7 x 7 in image

Calling: Mono-culture-plotter.R for medium: unhealthy
Saving 7 x 7 in image
[1] "index == ncol, removed all non-consumed metabolites"
Saving 7 x 7 in image
Saving 7 x 7 in image
[1] "index == ncol, removed all non-consumed metabolites"
Saving 7 x 7 in image

Calling: Mono-culture-plotter.R for medium: vegan
Saving 7 x 7 in image
[1] "index == ncol, removed all non-consumed metabolites"
Saving 7 x 7 in image
Saving 7 x 7 in image
[1] "index == ncol, removed all non-consumed metabolites"
Saving 7 x 7 in image

Calling: Mono-culture-plotter.R for medium: vegetarian
Saving 7 x 7 in image
[1] "index == ncol, removed all non-consumed metabolites"
Saving 7 x 7 in image
Saving 7 x 7 in image
[1] "index == ncol, removed all non-consumed metabolites"
Saving 7 x 7 in image

Calling: Flux-plotter.R for medium: EU_avg

Calling: Flux-plotter.R for medium: DACH

Calling: Flux-plotter.R for medium: diabetes2
[1] TRUE

Calling: Flux-plotter.R for medium: gluten_free
[1] TRUE

Calling: Flux-plotter.R for medium: high_fat
[1] TRUE

Calling: Flux-plotter.R for medium: high_fiber
[1] TRUE

Calling: Flux-plotter.R for medium: high_protein
[1] TRUE

Calling: Flux-plotter.R for medium: mediterranean

Calling: Flux-plotter.R for medium: unhealthy

Calling: Flux-plotter.R for medium: vegan

Calling: Flux-plotter.R for medium: vegetarian

Calling: gc_monocultures.R for medium: EU_avg
Saving 7 x 7 in image
[[1]]
NULL

Saving 7 x 7 in image
[[1]]
NULL


Calling: gc_monocultures.R for medium: DACH
Saving 7 x 7 in image
[[1]]
NULL

Saving 7 x 7 in image
[[1]]
NULL


Calling: gc_monocultures.R for medium: diabetes2
Saving 7 x 7 in image
[[1]]
NULL

Saving 7 x 7 in image
[[1]]
NULL


Calling: gc_monocultures.R for medium: gluten_free
Saving 7 x 7 in image
[[1]]
NULL

Saving 7 x 7 in image
[[1]]
NULL


Calling: gc_monocultures.R for medium: high_fat
Saving 7 x 7 in image
[[1]]
NULL

Saving 7 x 7 in image
[[1]]
NULL

[1] TRUE

Calling: gc_monocultures.R for medium: high_fiber
Saving 7 x 7 in image
[[1]]
NULL

Saving 7 x 7 in image
[[1]]
NULL


Calling: gc_monocultures.R for medium: high_protein
Saving 7 x 7 in image
[[1]]
NULL

Saving 7 x 7 in image
[[1]]
NULL


Calling: gc_monocultures.R for medium: mediterranean
Saving 7 x 7 in image
[[1]]
NULL

Saving 7 x 7 in image
[[1]]
NULL


Calling: gc_monocultures.R for medium: unhealthy
Saving 7 x 7 in image
[[1]]
NULL

Saving 7 x 7 in image
[[1]]
NULL


Calling: gc_monocultures.R for medium: vegan
Saving 7 x 7 in image
[[1]]
NULL

Saving 7 x 7 in image
[[1]]
NULL

[1] TRUE

Calling: gc_monocultures.R for medium: vegetarian
Saving 7 x 7 in image
[[1]]
NULL

Saving 7 x 7 in image
[[1]]
NULL


**********************************
*** Finished calling R scripts ***
**********************************

[1;35m[LOGGING SYSTEM]:[0m Goodbye World!
