	index	compartment	charge	id	formula	name
1	828	c	+0	C_charge_balance	X	charge balance
2	829	c	+0	C_cytosol_crowding	X	cytosol molecular crowding
3	830	c	+0	C_membrane_crowding	X	membrane molecular crowding
4	0	c	-6	M_10fthf5glu__91__c__93__	C40H45N11O19	10-formyltetrahydrofolate-[Glu](5)
5	1	c	-2	M_10fthf__91__c__93__	C20H21N7O7	10-Formyltetrahydrofolate
6	2	c	-1	M_10m3hddcaACP__91__c__93__	C24H45N2O9PRS	10-methyl-3-hydroxy-dodecanoyl-ACP
7	3	c	-1	M_10m3hundecACP__91__c__93__	C23H43N2O9PRS	10-methyl-3-hydroxy-undecanoyl-ACP
8	4	c	-1	M_10m3oddcaACP__91__c__93__	C24H43N2O9PRS	10-methyl-3-oxo-dodecanoyl-ACP
9	5	c	-1	M_10m3oundecACP__91__c__93__	C23H41N2O9PRS	10-methyl-3-oxo-undecanoyl-ACP
10	6	c	-1	M_10mddcaACP__91__c__93__	C24H45N2O8PRS	10-methyl-dodecanoyl-ACP
11	7	c	-1	M_10mtddec2eACP__91__c__93__	C24H43N2O8PRS	10-methyl-trans-dodec-2-enoyl-ACP
12	8	c	-1	M_10mtundec2eACP__91__c__93__	C23H41N2O8PRS	10-methyl-trans-undec-2-enoyl-ACP
13	9	c	-1	M_10mundecACP__91__c__93__	C23H43N2O8PRS	10-methyl-undecanoyl-ACP
14	10	c	-1	M_11m3hddcaACP__91__c__93__	C24H45N2O9PRS	11-methyl-3-hydroxy-dodecanoyl-ACP
15	11	c	-1	M_11m3oddcaACP__91__c__93__	C24H43N2O9PRS	11-methyl-3-oxo-dodecanoyl-ACP
16	12	c	-1	M_11mddcaACP__91__c__93__	C24H45N2O8PRS	11-methyl-dodecanoyl-ACP
17	13	c	-1	M_11mtddec2eACP__91__c__93__	C24H43N2O8PRS	11-methyl-trans-dodec-2-enoyl-ACP
18	14	c	-1	M_12m3hmyrsACP__91__c__93__	C26H49N2O9PRS	12-methyl-3-hydroxy-tetra-decanoyl-ACP
19	15	c	-1	M_12m3htridecACP__91__c__93__	C25H47N2O9PRS	12-methyl-3-hydroxy-tridecanoyl-ACP
20	16	c	-1	M_12m3omyrsACP__91__c__93__	C26H47N2O9PRS	12-methyl-3-oxo-tetra-decanoyl-ACP
21	17	c	-1	M_12m3otridecACP__91__c__93__	C25H45N2O9PRS	12-methyl-3-oxo-tridecanoyl-ACP
22	18	c	-1	M_12mmyrsACP__91__c__93__	C26H49N2O8PRS	12-methyl-tetra-decanoyl-ACP
23	19	c	-1	M_12mtmrs2eACP__91__c__93__	C26H47N2O8PRS	12-methyl-trans-tetra-dec-2-enoyl-ACP
24	20	c	-1	M_12mtridecACP__91__c__93__	C25H47N2O8PRS	12-methyl-tridecanoyl-ACP
25	21	c	-1	M_12mttritec2eACP__91__c__93__	C25H45N2O8PRS	12-methyl-trans-tridec-2-enoyl-ACP
26	22	c	+0	M_12ppd_S__91__c__93__	C3H8O2	(S)-propane-1,2-diol
27	23	c	-4	M_13dpg__91__c__93__	C3H4O10P2	3-Phospho-D-glyceroyl phosphate
28	24	c	-1	M_13m3hmyrsACP__91__c__93__	C26H49N2O9PRS	13-methyl-3-hydroxy-tetra-decanoyl-ACP
29	25	c	-1	M_13m3omyrsACP__91__c__93__	C26H47N2O9PRS	13-methyl-3-oxo-tetra-decanoyl-ACP
30	26	c	-1	M_13mmyrsACP__91__c__93__	C26H49N2O8PRS	13-methyl-tetra-decanoyl-ACP
31	27	c	-1	M_13mtmrs2eACP__91__c__93__	C26H47N2O8PRS	13-methyl-trans-tetra-dec-2-enoyl-ACP
32	28	c	-1	M_14m3hpalmACP__91__c__93__	C28H53N2O9PRS	14-methyl-3-hydroxy-hexa-decanoyl-ACP
33	29	c	-1	M_14m3hpentdecACP__91__c__93__	C27H51N2O9PRS	14-methyl-3-hydroxy-pentadecanoyl-ACP
34	30	c	-1	M_14m3opalmACP__91__c__93__	C28H51N2O9PRS	14-methyl-3-oxo-hexa-decanoyl-ACP
35	31	c	-1	M_14m3opentdecACP__91__c__93__	C27H49N2O9PRS	14-methyl-3-oxo-pentadecanoyl-ACP
36	32	c	-1	M_14mpalmACP__91__c__93__	C28H53N2O8PRS	14-methyl-hexa-decanoyl-ACP
37	33	c	-1	M_14mpentdecACP__91__c__93__	C27H51N2O8PRS	14-methyl-pentadecanoyl-ACP
38	34	c	-1	M_14mtpalm2eACP__91__c__93__	C28H51N2O8PRS	14-methyl-trans-hexa-dec-2-enoyl-ACP
39	35	c	-1	M_14mtpentdec2eACP__91__c__93__	C27H49N2O8PRS	14-methyl-trans-pentadec-2-enoyl-ACP
40	36	c	+2	M_15dap__91__c__93__	C5H16N2	1,5-Diaminopentane
41	37	c	-1	M_15m3hpalmACP__91__c__93__	C28H53N2O9PRS	15-methyl-3-hydroxy-hexa-decanoyl-ACP
42	38	c	-1	M_15m3opalmACP__91__c__93__	C28H51N2O9PRS	15-methyl-3-oxo-hexa-decanoyl-ACP
43	39	c	-1	M_15mpalmACP__91__c__93__	C28H53N2O8PRS	15-methyl-hexa-decanoyl-ACP
44	40	c	-1	M_15mtpalm2eACP__91__c__93__	C28H51N2O8PRS	15-methyl-trans-hexa-dec-2-enoyl-ACP
45	41	c	+0	M_1agpe120__91__c__93__	C17H36NO7P1	1-Acyl-sn-glycero-3-phosphoethanolamine (n-C12:0)
46	42	c	+0	M_1agpe140__91__c__93__	C19H40NO7P1	1-Acyl-sn-glycero-3-phosphoethanolamine (n-C14:0)
47	43	c	+0	M_1agpe141__91__c__93__	C19H38NO7P1	1-Acyl-sn-glycero-3-phosphoethanolamine (n-C14:1)
48	44	c	+0	M_1agpe160__91__c__93__	C21H44NO7P1	1-Acyl-sn-glycero-3-phosphoethanolamine (n-C16:0)
49	45	c	+0	M_1agpe161__91__c__93__	C21H42NO7P1	1-Acyl-sn-glycero-3-phosphoethanolamine (n-C16:1)
50	46	c	+0	M_1agpe180__91__c__93__	C23H48NO7P1	1-Acyl-sn-glycero-3-phosphoethanolamine (n-C18:0)
51	47	c	+0	M_1agpe181__91__c__93__	C23H46NO7P1	1-Acyl-sn-glycero-3-phosphoethanolamine (n-C18:1)
52	48	c	-1	M_1agpg120__91__c__93__	C18H36O9P1	1-Acyl-sn-glycero-3-phosphoglycerol (n-C12:0)
53	49	c	-1	M_1agpg140__91__c__93__	C20H40O9P1	1-Acyl-sn-glycero-3-phosphoglycerol (n-C14:0)
54	50	c	-1	M_1agpg141__91__c__93__	C20H38O9P1	1-Acyl-sn-glycero-3-phosphoglycerol (n-C14:1)
55	51	c	-1	M_1agpg160__91__c__93__	C22H44O9P1	1-Acyl-sn-glycero-3-phosphoglycerol (n-C16:0)
56	52	c	-1	M_1agpg161__91__c__93__	C22H42O9P1	1-Acyl-sn-glycero-3-phosphoglycerol (n-C16:1)
57	53	c	-1	M_1agpg180__91__c__93__	C24H48O9P1	1-Acyl-sn-glycero-3-phosphoglycerol (n-C18:0)
58	54	c	-1	M_1agpg181__91__c__93__	C24H46O9P1	1-Acyl-sn-glycero-3-phosphoglycerol (n-C18:1)
59	55	c	-2	M_1aihpdecg3p__91__c__93__	C20H39O7P	1-anteisoheptadecanoyl-sn-glycerol 3-phosphate (14-methyl-hexadecanoyl, anteiso-C17)
60	56	c	-1	M_1aipdecg3p__91__c__93__	C18H36O7P	1-anteisopentadecanoyl-sn-glycerol 3-phosphate (12-methyl-tetradecanoyl, anteiso-C15)
61	57	c	-2	M_1ddecg3p__91__c__93__	C15H29O7P1	1-acyl-sn-glycerol 3-phosphate(2-)
62	58	c	-2	M_1hdec9eg3p__91__c__93__	C19H35O7P1	1-hexadec-9-enoyl-sn-glycerol 3-phosphate
63	59	c	-2	M_1hdecg3p__91__c__93__	C19H37O7P1	1-hexadecanoyl-sn-glycerol 3-phosphate
64	60	c	-1	M_1ihdecg3p__91__c__93__	C19H38O7P	1-isohexadecanoyl-sn-glycerol 3-phosphate (14-methyl-pentadecanoyl, iso-C16)
65	61	c	-2	M_1ihpdecg3p__91__c__93__	C20H39O7P	1-isoheptadecanoyl-sn-glycerol 3-phosphate (15-methyl-hexadecanoyl, iso-C17)
66	62	c	-1	M_1ipdecg3p__91__c__93__	C18H36O7P	1-isopentadecanoyl-sn-glycerol 3-phosphate (13-methyl-tetradecanoyl, iso-C15)
67	63	c	-1	M_1itdecg3p__91__c__93__	C17H34O7P	1-isotetradecanoyl-sn-glycerol 3-phosphate (12-methyl-tridecanoyl, iso-C14)
68	64	c	-2	M_1odec11eg3p__91__c__93__	C21H39O7P1	1-octadec-11-enoyl-sn-glycerol 3-phosphate
69	65	c	-2	M_1odecg3p__91__c__93__	C21H41O7P1	1-octadecanoyl-sn-glycerol 3-phosphate
70	66	c	+0	M_1pipdn2c__91__c__93__	C6H9NO2	1-piperideine-2-carboxylate
71	67	c	-1	M_1pyr5c__91__c__93__	C5H6NO2	1-Pyrroline-5-carboxylate
72	68	c	-2	M_1tdec7eg3p__91__c__93__	C17H31O7P1	1-tetradec-7-enoyl-sn-glycerol 3-phosphate
73	69	c	-2	M_1tdecg3p__91__c__93__	C17H33O7P1	1-tetradecanoyl-sn-glycerol 3-phosphate
74	70	c	-1	M_23camp__91__c__93__	C10H11N5O6P	2,3-Cyclic AMP
75	71	c	-1	M_23ccmp__91__c__93__	C9H11N3O7P	2,3-Cyclic CMP
76	72	c	-1	M_23cgmp__91__c__93__	C10H11N5O7P	2,3-Cyclic GMP
77	73	c	-1	M_23cump__91__c__93__	C9H10N2O8P	2,3-cyclic UMP(1-)
78	74	c	-1	M_23ddhb__91__c__93__	C7H7O4	2,3-Dihydro-2,3-dihydroxybenzoate
79	75	c	-2	M_23dhdp__91__c__93__	C7H5NO4	2,3-Dihydrodipicolinate
80	76	c	-1	M_23dhmb__91__c__93__	C5H9O4	(R)-2,3-Dihydroxy-3-methylbutanoate
81	77	c	-1	M_23dhmp__91__c__93__	C6H11O4	(R)-2,3-Dihydroxy-3-methylpentanoate
82	78	c	-4	M_25aics__91__c__93__	C13H15N4O12P	(S)-2-[5-Amino-1-(5-phospho-D-ribosyl)imidazole-4-carboxamido]succinate
83	79	c	-2	M_25dhpp__91__c__93__	C9H14N5O8P	2,5-Diamino-6-hydroxy-4-(5-phosphoribosylamino)-pyrimidine
84	80	c	+0	M_26dap_LL__91__c__93__	C7H14N2O4	LL-2,6-Diaminoheptanedioate
85	81	c	+0	M_26dap_M__91__c__93__	C7H14N2O4	meso-2,6-Diaminoheptanedioate
86	82	c	+0	M_2agpe120__91__c__93__	C17H36NO7P1	2-Acyl-sn-glycero-3-phosphoethanolamine (n-C12:0)
87	83	c	+0	M_2agpe140__91__c__93__	C19H40NO7P1	2-Acyl-sn-glycero-3-phosphoethanolamine (n-C14:0)
88	84	c	+0	M_2agpe141__91__c__93__	C19H38NO7P1	2-Acyl-sn-glycero-3-phosphoethanolamine (n-C14:1)
89	85	c	+0	M_2agpe160__91__c__93__	C21H44NO7P1	2-Acyl-sn-glycero-3-phosphoethanolamine (n-C16:0)
90	86	c	+0	M_2agpe161__91__c__93__	C21H42NO7P1	2-Acyl-sn-glycero-3-phosphoethanolamine (n-C16:1)
91	87	c	+0	M_2agpe180__91__c__93__	C23H48NO7P1	2-Acyl-sn-glycero-3-phosphoethanolamine (n-C18:0)
92	88	c	+0	M_2agpe181__91__c__93__	C23H46NO7P1	2-Acyl-sn-glycero-3-phosphoethanolamine (n-C18:1)
93	89	c	-1	M_2agpg120__91__c__93__	C18H36O9P1	2-Acyl-sn-glycero-3-phosphoglycerol (n-C12:0)
94	90	c	-1	M_2agpg140__91__c__93__	C20H40O9P1	2-Acyl-sn-glycero-3-phosphoglycerol (n-C14:0)
95	91	c	-1	M_2agpg141__91__c__93__	C20H38O9P1	2-Acyl-sn-glycero-3-phosphoglycerol (n-C14:1)
96	92	c	-1	M_2agpg160__91__c__93__	C22H44O9P1	2-Acyl-sn-glycero-3-phosphoglycerol (n-C16:0)
97	93	c	-1	M_2agpg161__91__c__93__	C22H42O9P1	2-Acyl-sn-glycero-3-phosphoglycerol (n-C16:1)
98	94	c	-1	M_2agpg180__91__c__93__	C24H48O9P1	2-Acyl-sn-glycero-3-phosphoglycerol (n-C18:0)
99	95	c	-1	M_2agpg181__91__c__93__	C24H46O9P1	2-Acyl-sn-glycero-3-phosphoglycerol (n-C18:1)
100	96	c	-1	M_2ahbut__91__c__93__	C6H9O4	(S)-2-Aceto-2-hydroxybutanoate
101	97	c	+0	M_2aobut__91__c__93__	C4H7NO3	L-2-amino-3-oxobutanoic acid
102	98	c	-2	M_2c25dho__91__c__93__	C7H4O6	2-Carboxy-2,5-dihydro-5-oxofuran-2-acetate
103	99	c	-3	M_2dda7p__91__c__93__	C7H10O10P	2-Dehydro-3-deoxy-D-arabino-heptonate 7-phosphate
104	100	c	-1	M_2ddecg3p__91__c__93__	C15H30O7P1	2-dodecanoyl-sn-glycerol 3-phosphate
105	101	c	-3	M_2ddg6p__91__c__93__	C6H8O9P	2-Dehydro-3-deoxy-D-gluconate 6-phosphate
106	102	c	-1	M_2ddglcn__91__c__93__	C6H9O6	2-Dehydro-3-deoxy-D-gluconate
107	103	c	-1	M_2dhp__91__c__93__	C6H9O4	2-Dehydropantoate
108	104	c	+0	M_2dmmq8__91__c__93__	C50H70O2	2-Demethylmenaquinone 8
109	105	c	+0	M_2dmmql8__91__c__93__	C50H72O2	2-Demethylmenaquinol 8
110	106	c	-2	M_2dr1p__91__c__93__	C5H9O7P	2-Deoxy-D-ribose 1-phosphate
111	107	c	-2	M_2dr5p__91__c__93__	C5H9O7P	2-deoxy-D-ribose 5-phosphate(2-)
112	108	c	-1	M_2hdec9eg3p__91__c__93__	C19H36O7P1	2-hexadec-9-enoyl-sn-glycerol 3-phosphate
113	109	c	-1	M_2hdecg3p__91__c__93__	C19H38O7P1	2-hexadecanoyl-sn-glycerol 3-phosphate
114	110	c	+0	M_2hymeph__91__c__93__	C7H8O2	2-(Hydroxymethyl)phenol
115	111	c	-2	M_2ippm__91__c__93__	C7H8O4	2-Isopropylmaleate
116	112	c	-4	M_2maacoa__91__c__93__	C26H38N7O18P3S	2-methylacetoacetyl-CoA(4-)
117	113	c	-3	M_2mahmp__91__c__93__	C6H8N3O7P2	2-Methyl-4-amino-5-hydroxymethylpyrimidine diphosphate
118	114	c	-4	M_2mb2coa__91__c__93__	C26H38N7O17P3S	2-methylcrotonoyl-CoA(4-)
119	115	c	-4	M_2mbcoa__91__c__93__	C26H40N7O17P3S	2-methylbutanoyl-CoA(4-)
120	116	c	-1	M_2mbutACP__91__c__93__	C16H29N2O8PRS	2-methylbutanoyl-ACP,2-methylbutyryl-ACP
121	117	c	-2	M_2me4p__91__c__93__	C5H11O7P	2-C-methyl-D-erythritol 4-phosphate
122	118	c	-2	M_2mecdp__91__c__93__	C5H10O9P2	2-C-methyl-D-erythritol 2,4-cyclodiphosphate
123	119	c	-4	M_2mp2coa__91__c__93__	C25H36N7O17P3S	2-Methylprop-2-enoyl-CoA
124	120	c	-1	M_2mpropACP__91__c__93__	C15H27N2O8PRS	2-methylpropionyl-ACP,isobutyryl-ACP
125	121	c	-1	M_2obut__91__c__93__	C4H5O3	2-Oxobutanoate
126	122	c	-1	M_2odec11eg3p__91__c__93__	C21H40O7P1	2-octadec-11-enoyl-sn-glycerol 3-phosphate
127	123	c	-1	M_2odecg3p__91__c__93__	C21H42O7P1	2-octadecanoyl-sn-glycerol 3-phosphate
128	124	c	-4	M_2p4c2me__91__c__93__	C14H22N3O17P3	2-phospho-4-(cytidine 5-diphospho)-2-C-methyl-D-erythritol
129	125	c	-3	M_2pg__91__c__93__	C3H4O7P	D-Glycerate 2-phosphate
130	126	c	-3	M_2pglyc__91__c__93__	C2H2O6P	2-phosphonatoglycolate(3-)
131	127	c	-1	M_2tdec7eg3p__91__c__93__	C17H32O7P1	2-tetradec-7-enoyl-sn-glycerol 3-phosphate
132	128	c	-1	M_2tdecg3p__91__c__93__	C17H34O7P1	2-tetradecanoyl-sn-glycerol 3-phosphate
133	129	c	-1	M_33hmeoxobut__91__c__93__	C5H7O4	2-Oxo-3-hydroxyisovalerate
134	130	c	-1	M_34hpp__91__c__93__	C9H7O4	3-(4-hydroxyphenyl)pyruvate
135	131	c	-1	M_3a2opp__91__c__93__	C3H7NO5P	3-Amino-2-oxopropyl phosphate
136	132	c	-2	M_3amp__91__c__93__	C10H12N5O7P	3-AMP(2-)
137	133	c	-2	M_3c2hmp__91__c__93__	C7H10O5	3-Carboxy-2-hydroxy-4-methylpentanoate
138	134	c	-2	M_3c3hmp__91__c__93__	C7H10O5	3-Carboxy-3-hydroxy-4-methylpentanoate
139	135	c	-2	M_3c4mop__91__c__93__	C7H8O5	3-Carboxy-4-methyl-2-oxopentanoate
140	136	c	-2	M_3cmp__91__c__93__	C9H12N3O8P	3-cmp
141	137	c	-1	M_3dhq__91__c__93__	C7H9O6	3-Dehydroquinate
142	138	c	-1	M_3dhsk__91__c__93__	C7H7O5	3-Dehydroshikimate
143	139	c	-2	M_3gmp__91__c__93__	C10H12N5O8P	3-GMP
144	140	c	-1	M_3h3mop__91__c__93__	C6H9O4	(R)-3-Hydroxy-3-methyl-2-oxopentanoate
145	141	c	-1	M_3haACP__91__c__93__	C15H27N2O9PRS	(3R)-3-Hydroxyacyl-[acyl-carrier protein]
146	143	c	-4	M_3hbcoa_R__91__c__93__	C25H38N7O18P3S	(R)-3-hydroxybutanoyl-CoA(4-)
147	142	c	-4	M_3hbcoa__91__c__93__	C25H38N7O18P3S	(S)-3-hydroxybutanoyl-CoA(4-)
148	144	c	-1	M_3hddecACP__91__c__93__	C23H43N2O9PRS	(R)-3-Hydroxydodecanoyl-[acyl-carrier protein]
149	145	c	-1	M_3hdecACP__91__c__93__	C21H39N2O9PRS	(R)-3-Hydroxydecanoyl-[acyl-carrier protein]
150	146	c	-1	M_3hhexACP__91__c__93__	C17H31N2O9PRS	(R)-3-Hydroxyhexanoyl-[acyl-carrier protein]
151	147	c	-1	M_3hmrsACP__91__c__93__	C25H47N2O9PRS	(R)-3-Hydroxytetradecanoyl-[acyl-carrier protein]
152	148	c	-1	M_3hoctACP__91__c__93__	C19H35N2O9PRS	(R)-3-Hydroxyoctanoyl-[acyl-carrier protein]
153	149	c	-1	M_3hoctaACP__91__c__93__	C29H55N2O9PRS	(R)-3-Hydroxyoctadecanoyl-[acyl-carrier protein]
154	150	c	-1	M_3hpalmACP__91__c__93__	C27H51N2O9PRS	R-3-hydroxypalmitoyl-[acyl-carrier protein]
155	151	c	-1	M_3mbutACP__91__c__93__	C16H29N2O8PRS	3-methylbutanoyl-ACP,isovaleryl-ACP
156	152	c	-1	M_3mob__91__c__93__	C5H7O3	3-methyl-2-oxobutanoate
157	153	c	-1	M_3mop__91__c__93__	C6H9O3	3-methyl-2-oxopentanoate
158	154	c	-4	M_3odcoa__91__c__93__	C31H48N7O18P3S	3-Oxodecanoyl-CoA
159	155	c	-4	M_3oddcoa__91__c__93__	C33H52N7O18P3S	3-Oxododecanoyl-CoA
160	156	c	-1	M_3oddecACP__91__c__93__	C23H41N2O9PRS	3-Oxododecanoyl-[acyl-carrier protein]
161	157	c	-1	M_3odecACP__91__c__93__	C21H37N2O9PRS	3-Oxodecanoyl-[acyl-carrier protein]
162	158	c	-4	M_3ohcoa__91__c__93__	C27H40N7O18P3S	3-Oxohexanoyl-CoA
163	159	c	-4	M_3ohdcoa__91__c__93__	C37H60N7O18P3S	3-oxopalmitoyl-CoA(4-)
164	160	c	-1	M_3ohexACP__91__c__93__	C17H29N2O9PRS	3-Oxohexanoyl-[acyl-carrier protein]
165	161	c	-1	M_3omrsACP__91__c__93__	C25H45N2O9PRS	3-Oxotetradecanoyl-[acyl-carrier protein]
166	162	c	-4	M_3oocoa__91__c__93__	C29H44N7O18P3S	3-Oxooctanoyl-CoA
167	163	c	-1	M_3ooctACP__91__c__93__	C19H33N2O9PRS	3-Oxooctanoyl-[acyl-carrier protein]
168	164	c	-1	M_3ooctdACP__91__c__93__	C29H53N2O9PRS	3-Oxooctadecanoyl-[acyl-carrier protein]
169	165	c	-1	M_3opalmACP__91__c__93__	C27H49N2O9PRS	3-Oxohexadecanoyl-[acyl-carrier protein]
170	166	c	-4	M_3otdcoa__91__c__93__	C35H56N7O18P3S	3-Oxotetradecanoyl-CoA
171	167	c	-3	M_3pg__91__c__93__	C3H4O7P	3-Phospho-D-glycerate
172	168	c	-3	M_3php__91__c__93__	C3H2O7P	3-phosphonatooxypyruvate(3-)
173	169	c	-4	M_3psme__91__c__93__	C10H9O10P	5-O-(1-Carboxyvinyl)-3-phosphoshikimate
174	170	c	-2	M_3ump__91__c__93__	C9H11N2O9P	3-UMP(2-)
175	171	c	+0	M_4ahmmp__91__c__93__	C6H9N3O	4-Amino-5-hydroxymethyl-2-methylpyrimidine
176	172	c	-2	M_4ampm__91__c__93__	C6H8N3O4P	4-Amino-2-methyl-5-phosphomethylpyrimidine
177	173	c	-2	M_4c2me__91__c__93__	C14H23N3O14P2	4-(cytidine 5-diphospho)-2-C-methyl-D-erythritol
178	174	c	-2	M_4h2oglt__91__c__93__	C5H4O6	4-hydroxy-2-oxoglutarate(2-)
179	175	c	+0	M_4hba__91__c__93__	C7H8O2	4-Hydroxy-benzyl alcohol
180	176	c	+0	M_4hthr__91__c__93__	C4H9NO4	4-Hydroxy-L-threonine
181	177	c	-1	M_4m3hhexACP__91__c__93__	C18H33N2O9PRS	4-methyl-3-hydroxy-hexanoyl-ACP
182	178	c	-1	M_4m3hpentACP__91__c__93__	C17H31N2O9PRS	4-methyl-3-hydroxy-pentanoyl-ACP
183	179	c	-1	M_4m3ohexACP__91__c__93__	C18H31N2O9PRS	4-methyl-3-oxo-hexanoyl-ACP
184	180	c	-1	M_4m3opentACP__91__c__93__	C17H29N2O9PRS	4-methyl-3-oxo-pentanoyl-ACP
185	181	c	+0	M_4mhetz__91__c__93__	C6H9NOS	4-Methyl-5-(2-hydroxyethyl)-thiazole
186	182	c	-1	M_4mhexACP__91__c__93__	C18H33N2O8PRS	4-methyl-hexanoyl-ACP
187	183	c	-1	M_4mop__91__c__93__	C6H9O3	4-methyl-2-oxopentanoate
188	184	c	-1	M_4mpentACP__91__c__93__	C17H31N2O8PRS	4-methyl-pentanoyl-ACP
189	185	c	-2	M_4mpetz__91__c__93__	C6H8NO4PS	4-Methyl-5-(2-phosphoethyl)-thiazole
190	186	c	-1	M_4mthex2eACP__91__c__93__	C18H31N2O8PRS	4-methyl-trans-hex-2-enoyl-ACP
191	187	c	-1	M_4mtpent2eACP__91__c__93__	C17H29N2O8PRS	4-methyl-trans-pent-2-enoyl-ACP
192	188	c	-2	M_4pasp__91__c__93__	C4H6NO7P	4-Phospho-L-aspartate
193	189	c	-3	M_4per__91__c__93__	C4H6O8P	4-Phospho-D-erythronate
194	190	c	-3	M_4ppan__91__c__93__	C9H15NO8P	D-4-Phosphopantothenate
195	191	c	-3	M_4ppcys__91__c__93__	C12H20N2O9PS	N-((R)-4-Phosphopantothenoyl)-L-cysteine
196	192	c	+0	M_4r5au__91__c__93__	C9H16N4O6	4-(1-D-Ribitylamino)-5-aminouracil
197	193	c	-3	M_5aizc__91__c__93__	C9H11N3O9P	5-amino-1-(5-phospho-D-ribosyl)imidazole-4-carboxylate
198	194	c	-2	M_5aprbu__91__c__93__	C9H15N4O9P	5-Amino-6-(5-phosphoribitylamino)uracil
199	195	c	-2	M_5apru__91__c__93__	C9H13N4O9P	5-Amino-6-(5-phosphoribosylamino)uracil
200	196	c	-1	M_5dglcn__91__c__93__	C6H9O7	5-Dehydro-D-gluconate
201	197	c	-2	M_5forthf__91__c__93__	C20H22N8O6	5-Formiminotetrahydrofolate
202	198	c	-2	M_5fthf__91__c__93__	C20H21N7O7	5-formyltetrahydrofolate(2-)
203	199	c	-1	M_5hxudidzcba__91__c__93__	C5H5N4O5	5-Hydroxy-2-oxo-4-ureido-2,5-dihydro-1H-imidazole-5-carboxylate
204	200	c	-1	M_5m3hhexACP__91__c__93__	C18H33N2O9PRS	5-methyl-3-hydroxy-hexanoyl-ACP
205	201	c	-1	M_5m3ohexACP__91__c__93__	C18H31N2O9PRS	5-methyl-3-oxo-hexanoyl-ACP
206	202	c	-1	M_5mhexACP__91__c__93__	C18H33N2O8PRS	5-methyl-hexanoyl-ACP
207	203	c	+0	M_5mta__91__c__93__	C11H15N5O3S	5-Methylthioadenosine
208	204	c	-1	M_5mthex2eACP__91__c__93__	C18H31N2O8PRS	5-methyl-trans-hex-2-enoyl-ACP
209	205	c	-1	M_5mthf__91__c__93__	C20H24N7O6	5-Methyltetrahydrofolate
210	206	c	+0	M_5mtr__91__c__93__	C6H12O4S	5-Methylthio-D-ribose
211	207	c	-1	M_5odhf2a__91__c__93__	C6H5O4	5-Oxo-4,5-dihydrofuran-2-acetate
212	208	c	-2	M_5prdmbz__91__c__93__	C14H17N2O7P	N1-(5-Phospho-alpha-D-ribosyl)-5,6-dimethylbenzimidazole
213	209	c	+0	M_6a2ohxnt__91__c__93__	C6H11NO3	6-amino-2-oxohexanoic acid
214	210	c	-1	M_6m3hheptACP__91__c__93__	C19H35N2O9PRS	6-methyl-3-hydroxy-heptanoyl-ACP
215	211	c	-1	M_6m3hocACP__91__c__93__	C20H37N2O9PRS	6-methyl-3-hydroxy-octanoyl-ACP
216	212	c	-1	M_6m3oheptACP__91__c__93__	C19H33N2O9PRS	6-methyl-3-oxo-heptanoyl-ACP
217	213	c	-1	M_6m3oocACP__91__c__93__	C20H35N2O9PRS	6-methyl-3-oxo-octanoyl-ACP
218	214	c	-1	M_6mheptACP__91__c__93__	C19H35N2O8PRS	6-methyl-heptanoyl-ACP
219	215	c	-1	M_6mocACP__91__c__93__	C20H37N2O8PRS	6-methyl-octanoyl-ACP
220	216	c	-1	M_6mthept2eACP__91__c__93__	C19H33N2O8PRS	6-methyl-trans-hept-2-enoyl-ACP
221	217	c	-1	M_6mtoct2eACP__91__c__93__	C20H35N2O8PRS	6-methyl-trans-oct-2-enoyl-ACP
222	218	c	-2	M_6pgg__91__c__93__	C12H21O14P	6-Phospho-beta-D-glucosyl-(1,4)-D-glucose
223	219	c	-1	M_7m3hocACP__91__c__93__	C20H37N2O9PRS	7-methyl-3-hydroxy-octanoyl-ACP
224	220	c	-1	M_7m3oocACP__91__c__93__	C20H35N2O9PRS	7-methyl-3-oxo-octanoyl-ACP
225	221	c	-1	M_7mocACP__91__c__93__	C20H37N2O8PRS	7-methyl-octanoyl-ACP
226	222	c	-1	M_7mtoct2eACP__91__c__93__	C20H35N2O8PRS	7-methyl-trans-oct-2-enoyl-ACP
227	223	c	-1	M_8m3hdcaACP__91__c__93__	C22H41N2O9PRS	8-methyl-3-hydroxy-decanoyl-ACP
228	224	c	-1	M_8m3hnonACP__91__c__93__	C21H39N2O9PRS	8-methyl-3-hydroxy-nonanoyl-ACP
229	225	c	-1	M_8m3odcaACP__91__c__93__	C22H39N2O9PRS	8-methyl-3-oxo-decanoyl-ACP
230	226	c	-1	M_8m3ononACP__91__c__93__	C21H37N2O9PRS	8-methyl-3-oxo-nonanoyl-ACP
231	227	c	-1	M_8mdcaACP__91__c__93__	C22H41N2O8PRS	8-methyl-decanoyl-ACP
232	228	c	-1	M_8mnonACP__91__c__93__	C21H39N2O8PRS	8-methyl-nonanoyl-ACP
233	229	c	-1	M_8mtdec2eACP__91__c__93__	C22H39N2O8PRS	8-methyl-trans-dec-2-enoyl-ACP
234	230	c	-1	M_8mtnon2eACP__91__c__93__	C21H37N2O8PRS	8-methyl-trans-non-2-enoyl-ACP
235	231	c	-1	M_9m3hdcaACP__91__c__93__	C22H41N2O9PRS	9-methyl-3-hydroxy-decanoyl-ACP
236	232	c	-1	M_9m3odcaACP__91__c__93__	C22H39N2O9PRS	9-methyl-3-oxo-decanoyl-ACP
237	233	c	-1	M_9mdcaACP__91__c__93__	C22H41N2O8PRS	9-methyl-decanoyl-ACP
238	234	c	-1	M_9mtdec2eACP__91__c__93__	C22H39N2O8PRS	9-methyl-trans-dec-2-enoyl-ACP
239	235	c	-1	M_ACP__91__c__93__	C11H21N2O7PRS	acyl carrier protein
240	236	c	+0	M_C11821__91__c__93__	C5H4N4O4	5-Hydroxyisourate
241	237	c	-2	M_HC01104__91__c__93__	C6H4NO6P	4-nitrophenyl phosphate(2-)
242	238	c	-3	M_HC01434__91__c__93__	C6H3O7	oxalatosuccinate(3-)
243	239	c	+0	M_L2aadp6sa__91__c__93__	C6H11NO3	L-allysine
244	240	c	-1	M_Largn__91__c__93__	C10H12NO5	L-Arogenate
245	241	c	-1	M_Lcyst__91__c__93__	C3H6NO5S	L-cysteate(1-)
246	242	c	+0	M_Naccitr_L__91__c__93__	C8H15N3O4	N-Acetyl-L-citrulline
247	243	c	+0	M_PGP__91__c__93__	C39H64N8O19X	Peptidoglycan polymer (n subunits)
248	244	c	+0	M_PGPm1__91__c__93__	X	Peptidoglycan polymer (n-1 subunits)
249	245	c	-4	M_aacoa__91__c__93__	C25H36N7O18P3S	Acetoacetyl-CoA
250	246	c	+1	M_aact__91__c__93__	C3H8NO	ammonioacetone
251	247	c	-1	M_acACP__91__c__93__	C13H23N2O8PRS	Acetyl-ACP
252	248	c	-1	M_ac__91__c__93__	C2H3O2	acetate
253	249	c	+0	M_acald__91__c__93__	C2H4O	acetaldehyde
254	250	c	-4	M_accoa__91__c__93__	C23H34N7O17P3S	Acetyl-CoA
255	251	c	-3	M_acg5p__91__c__93__	C7H9NO8P	N-acetyl-L-gamma-glutamyl phosphate(3-)
256	252	c	-1	M_acg5sa__91__c__93__	C7H10NO4	2-acetamido-5-oxopentanoate
257	253	c	-2	M_acgam1p__91__c__93__	C8H14NO9P	N-Acetyl-D-glucosamine 1-phosphate
258	254	c	-2	M_acgam6p__91__c__93__	C8H14NO9P	N-acetyl-D-glucosamine 6-phosphate(2-)
259	255	c	-2	M_acglu__91__c__93__	C7H9NO5	N-acetyl-L-glutamate(2-)
260	256	c	+0	M_achms__91__c__93__	C6H11NO4	O-Acetyl-L-homoserine
261	257	c	+0	M_acmana__91__c__93__	C8H15NO6	N-acetyl-D-mannosamine
262	258	c	-2	M_acmanap__91__c__93__	C8H14NO9P	N-acetyl-D-mannosamine 6-phosphate(2-)
263	259	c	-1	M_acnam__91__c__93__	C11H18NO9	N-acetylneuraminate
264	260	c	+0	M_acorn__91__c__93__	C7H14N2O3	N(2)-acetyl-L-ornithine
265	261	c	+0	M_acser__91__c__93__	C5H9NO4	O-Acetyl-L-serine
266	262	c	-1	M_actACP__91__c__93__	C15H25N2O9PRS	Acetoacetyl-ACP
267	263	c	-2	M_actp__91__c__93__	C2H3O5P	Acetyl phosphate
268	264	c	-4	M_adcobdam__91__c__93__	C55H68CoN11O15	Adenosyl cobyrinate diamide
269	265	c	+0	M_adcobhex__91__c__93__	C55H76CoN15O11	adenosyl-cobyric acid
270	266	c	+0	M_ade__91__c__93__	C5H5N5	Adenine
271	267	c	+0	M_adhlam__91__c__93__	C10H19NO2S2	S-Acetyldihydrolipoamide
272	268	c	+0	M_adn__91__c__93__	C10H13N5O4	Adenosine
273	269	c	+1	M_adocbi__91__c__93__	C58H84CoN16O11	Adenosyl cobinamide
274	270	c	-1	M_adocbip__91__c__93__	C58H83CoN16O14P	Adenosyl cobinamide phosphate
275	271	c	+0	M_adocbl__91__c__93__	C72H100CoN18O17P	Adenosylcobalamin
276	272	c	-3	M_adp__91__c__93__	C10H12N5O10P2	ADP
277	273	c	-2	M_adpglc__91__c__93__	C16H23N5O15P2	ADP alpha-D-glucoside(2-)
278	274	c	-2	M_adprib__91__c__93__	C15H21N5O14P2	ADPribose
279	275	c	-1	M_agdpcbi__91__c__93__	C68H95CoN21O21P2	Adenosine-GDP-cobinamide
280	276	c	+2	M_agm__91__c__93__	C5H16N4	agmatinium(2+)
281	277	c	+0	M_ahcys__91__c__93__	C14H20N6O5S	S-Adenosyl-L-homocysteine
282	278	c	-4	M_ahdt__91__c__93__	C9H12N5O13P3	7,8-dihydroneopterin 3-triphosphate(4-)
283	279	c	-2	M_aicar__91__c__93__	C9H13N4O8P	5-Amino-1-(5-Phospho-D-ribosyl)imidazole-4-carboxamide
284	280	c	-4	M_aihpdcoa__91__c__93__	C38H64N7O17P3S	fa12coa,Anteiso-C17:0 CoA   Anteisoheptadecanoyl-CoA
285	281	c	-4	M_aipdcoa__91__c__93__	C36H60N7O17P3S	fa4coa,Anteiso-C15:0 CoA   Anteisopentadecanoyl-CoA
286	282	c	-2	M_air__91__c__93__	C8H12N3O7P	5-amino-1-(5-phospho-D-ribosyl)imidazole
287	283	c	-2	M_akg__91__c__93__	C5H4O5	2-Oxoglutarate
288	284	c	+0	M_ala_D__91__c__93__	C3H7NO2	D-alanine
289	285	c	+0	M_ala_L__91__c__93__	C3H7NO2	L-alanine
290	286	c	+0	M_alaala__91__c__93__	C6H12N2O3	D-Alanyl-D-alanine
291	287	c	-1	M_alaasp__91__c__93__	C7H11N2O5	L-alanyl-L-aspartate
292	288	c	-1	M_alac_S__91__c__93__	C5H7O4	(S)-2-Acetolactate
293	289	c	+0	M_alagln__91__c__93__	C8H15N3O4	L-alanyl-L-glutamine
294	290	c	-1	M_alaglu__91__c__93__	C8H13N2O5	L-alanyl-L-glutamate
295	291	c	+0	M_alagly__91__c__93__	C5H10N2O3	L-alanylglycine
296	292	c	+0	M_alahis__91__c__93__	C9H14N4O3	L-alanyl-L-histidine
297	293	c	+0	M_alaleu__91__c__93__	C9H18N2O3	L-alanyl-L-leucine
298	294	c	+0	M_alathr__91__c__93__	C7H14N2O4	L-alanyl-L-threonine
299	296	c	+0	M_alltn_R__91__c__93__	C4H6N4O3	(R)-Allantoin
300	295	c	+0	M_alltn__91__c__93__	C4H6N4O3	Allantoin
301	297	c	-1	M_altrn__91__c__93__	C6H11O7	D-Altronate
302	298	c	+1	M_amet__91__c__93__	C15H23N6O5S	S-Adenosyl-L-methionine
303	299	c	+2	M_ametam__91__c__93__	C14H24N6O3S	S-Adenosylmethioninamine
304	300	c	-2	M_amopbut_L__91__c__93__	C4H6NO7P	2-Amino-3-oxo-4-phosphonooxybutyrate
305	301	c	-2	M_amp__91__c__93__	C10H12N5O7P	AMP
306	302	c	+0	M_apoACP__91__c__93__	RHO	apoprotein [acyl carrier protein]
307	303	c	+0	M_apoC_Lys_btn__91__c__93__	C16H27N4O3SX	Holocarboxylase (biotin covalent bound to Lys residue of apoC)
308	304	c	+1	M_appl__91__c__93__	C3H10NO	1-Aminopropan-2-ol
309	305	c	-1	M_applp__91__c__93__	C3H9NO4P	D-1-Aminopropan-2-ol O-phosphate
310	306	c	+0	M_arab_L__91__c__93__	C5H10O5	L-arabinose
311	307	c	-2	M_arbt6p__91__c__93__	C12H15O10P	Arbutin 6-phosphate
312	308	c	+1	M_arg_L__91__c__93__	C6H15N4O2	L-argininium(1+)
313	309	c	-1	M_argsuc__91__c__93__	C10H17N4O6	N(omega)-(L-Arginino)succinate
314	310	c	+0	M_asn_L__91__c__93__	C4H8N2O3	L-asparagine
315	311	c	-3	M_aso3__91__c__93__	AsO3	arsenite
316	312	c	-3	M_aso4__91__c__93__	AsO4	arsenate
317	313	c	-1	M_asp_L__91__c__93__	C4H6NO4	L-aspartate(1-)
318	314	c	+0	M_aspsa__91__c__93__	C4H7NO3	L-Aspartate 4-semialdehyde
319	315	c	-4	M_atp__91__c__93__	C10H12N5O13P3	ATP
320	316	c	-4	M_b2coa__91__c__93__	C25H36N7O17P3S	crotonoyl-CoA(4-)
321	317	c	+0	M_biomass__91__c__93__	X	Produced biomass
322	318	c	-1	M_btamp__91__c__93__	C20H27N7O9PS	Biotinyl-5-AMP
323	319	c	-4	M_btcoa__91__c__93__	C25H38N7O17P3S	Butanoyl-CoA
324	320	c	-1	M_btn__91__c__93__	C10H15N2O3S	Biotin
325	321	c	-1	M_btn_co2__91__c__93__	C17H26N4O5SX	Carboxybiotin-carboxyl-carrier protein
326	322	c	-1	M_but2eACP__91__c__93__	C15H25N2O8PRS	But-2-enoyl-[acyl-carrier protein]
327	323	c	-1	M_butACP__91__c__93__	C15H27N2O8PRS	Butyryl-ACP (n-C4:0ACP)
328	324	c	-1	M_but__91__c__93__	C4H7O2	butyrate
329	325	c	-1	M_butso3__91__c__93__	C4H9O3S	butanesulfonate
330	326	c	+2	M_ca2__91__c__93__	Ca	calcium(2+)
331	327	c	-1	M_camp__91__c__93__	C10H11N5O6P	3,5-cyclic AMP(1-)
332	328	c	-2	M_cbasp__91__c__93__	C5H6N2O5	N-Carbamoyl-L-aspartate
333	329	c	+0	M_cbi__91__c__93__	C48H72CoN11O8	Cobinamide
334	330	c	-1	M_cbl1__91__c__93__	C62H88CoN13O14P	Cob(I)alamin
335	331	c	+0	M_cbl2__91__c__93__	C62H92CoN13O14P	Cob(II)alamin
336	332	c	-1	M_cbmt__91__c__93__	CH2NO2	Carbamate
337	333	c	-2	M_cbp__91__c__93__	CH2NO5P	Carbamoyl phosphate
338	334	c	+2	M_cd2__91__c__93__	Cd	Cadmium
339	335	c	-3	M_cdp__91__c__93__	C9H12N3O11P2	CDP
340	336	c	-2	M_cdpdaihpdecg__91__c__93__	C46H83N3O15P2	CDP-1,2-dianteisoheptadecanoylglycerol (14-methyl-hexadecanoyl, anteiso-C17)
341	337	c	-2	M_cdpdaipdecg__91__c__93__	C42H75N3O15P2	CDP-1,2-dianteisopentadecanoylglycerol (12-methyl-tetradecanoyl, anteiso-C15)
342	338	c	-2	M_cdpdddecg__91__c__93__	C36H63N3O15P2	CDP-1,2-didodecanoylglycerol
343	339	c	-2	M_cdpdhdec9eg__91__c__93__	C44H75N3O15P2	CDP-1,2-dihexadec-9-enoylglycerol
344	340	c	-2	M_cdpdhdecg__91__c__93__	C44H79N3O15P2	CDP-1,2-dihexadecanoylglycerol
345	341	c	-2	M_cdpdihdecg__91__c__93__	C44H79N3O15P2	CDP-1,2-diisohexadecanoylglycerol (14-methyl-pentadecanoyl, iso-C16)
346	342	c	-2	M_cdpdihpdecg__91__c__93__	C46H83N3O15P2	CDP-1,2-diisoheptadecanoylglycerol (15-methyl-hexadecanoyl, iso-C17)
347	343	c	-2	M_cdpdipdecg__91__c__93__	C42H75N3O15P2	CDP-1,2-diisopentadecanoylglycerol (13-methyl-tetradecanoyl, iso-C15)
348	344	c	-2	M_cdpditdecg__91__c__93__	C40H71N3O15P2	CDP-1,2-diisotetradecanoylglycerol (12-methyl-tridecanoyl, iso-C14)
349	345	c	-2	M_cdpdodec11eg__91__c__93__	C48H83N3O15P2	CDP-1,2-dioctadec-11-enoylglycerol
350	346	c	-2	M_cdpdodecg__91__c__93__	C48H87N3O15P2	CDP-1,2-dioctadecanoylglycerol
351	347	c	-2	M_cdpdtdec7eg__91__c__93__	C40H67N3O15P2	CDP-1,2-ditetradec-7-enoylglycerol
352	348	c	-2	M_cdpdtdecg__91__c__93__	C40H71N3O15P2	CDP-1,2-ditetradecanoylglycerol
353	349	c	-2	M_cdpglyc__91__c__93__	C12H19N3O13P2	CDPglycerol
354	350	c	+0	M_cellb__91__c__93__	C12H22O11	cellobiose
355	351	c	+0	M_cgly__91__c__93__	C5H10N2O3S	L-cysteinylglycine
356	352	c	+1	M_chol__91__c__93__	C5H14NO	Choline
357	353	c	+0	M_chols__91__c__93__	C5H13NO4S	Choline sulfate
358	354	c	-2	M_chor__91__c__93__	C10H8O6	chorismate
359	355	c	-3	M_cit__91__c__93__	C6H5O7	Citrate
360	356	c	+0	M_citr_L__91__c__93__	C6H13N3O3	L-citrulline
361	357	c	-1	M_cl__91__c__93__	Cl	Chloride
362	358	c	-2	M_clpn140__91__c__93__	C65H124O17P2	cardiolipin (tetratetradecanoyl, n-C14:0)
363	359	c	-2	M_clpn160__91__c__93__	C73H140O17P2	cardiolipin (tetrahexadecanoyl, n-C16:0)
364	360	c	-2	M_clpn180__91__c__93__	C81H156O17P2	cardiolipin (tetraoctadecanoyl, n-C18:0)
365	361	c	-2	M_clpnai15__91__c__93__	C69H132O17P2	cardiolipin (12-methyl-tetradecanoyl, anteiso-C15)
366	362	c	-2	M_clpnai17__91__c__93__	C77H148O17P2	cardiolipin (14-methyl-hexadecanoyl, anteiso-C17)
367	363	c	-2	M_clpni14__91__c__93__	C65H124O17P2	cardiolipin (12-methyl-tridecanoyl, iso-C14)
368	364	c	-2	M_clpni15__91__c__93__	C69H132O17P2	cardiolipin (13-methyl-tetradecanoyl, iso-C15)
369	365	c	-2	M_clpni16__91__c__93__	C73H140O17P2	cardiolipin (14-methyl-pentadecanoyl, iso-C16)
370	366	c	-2	M_clpni17__91__c__93__	C77H148O17P2	cardiolipin (15-methyl-hexadecanoyl, iso-C17)
371	367	c	-2	M_cmp__91__c__93__	C9H12N3O8P	CMP
372	368	c	-5	M_co1dam__91__c__93__	C45H56CoN6O12	Cob(I)yrinate a,c diamide
373	369	c	+0	M_co2__91__c__93__	CO2	carbon dioxide
374	370	c	-4	M_co2dam__91__c__93__	C45H56CoN6O12	Cob(II)yrinate a,c diamide
375	371	c	-4	M_coa__91__c__93__	C21H32N7O16P3S	Coenzyme A
376	372	c	+2	M_cobalt2__91__c__93__	Co	Co2+
377	373	c	-6	M_cobya__91__c__93__	C45H52N4O14Co	Cobyrinate
378	374	c	-7	M_codhpre6__91__c__93__	C44H47N4O16Co	cobalt-dihydro-precorrin 6
379	375	c	-8	M_copre2__91__c__93__	C42H38N4O16Co	cobalt-precorrin 2
380	376	c	-8	M_copre3__91__c__93__	C43H40N4O16Co	cobalt-precorrin 3
381	377	c	-7	M_copre4__91__c__93__	C44H43N4O16Co	cobalt-precorrin 4
382	378	c	-7	M_copre5__91__c__93__	C45H45N4O16Co	cobalt-precorrin 5
383	379	c	-7	M_copre6__91__c__93__	C44H45N4O16Co	cobalt-precorrin 6
384	380	c	-6	M_copre8__91__c__93__	C45H52N4O14Co	cobalt-precorrin 8
385	381	c	-4	M_cpppg3__91__c__93__	C36H40N4O8	Coproporphyrinogen III
386	382	c	-2	M_cro4__91__c__93__	CrO4	chromate
387	383	c	+0	M_csn__91__c__93__	C4H5N3O	cytosine
388	384	c	-4	M_ctp__91__c__93__	C9H12N3O14P3	CTP
389	385	c	+2	M_cu2__91__c__93__	Cu	Cu2+
390	386	c	+0	M_cys_L__91__c__93__	C3H7NO2S	L-cysteine
391	387	c	+0	M_cytd__91__c__93__	C9H13N3O5	Cytidine
392	388	c	+0	M_dad_2__91__c__93__	C10H13N5O3	2-deoxyadenosine
393	389	c	-3	M_dadp__91__c__93__	C10H12N5O9P2	dADP
394	390	c	-2	M_damp__91__c__93__	C10H12N5O6P	dAMP(2-)
395	391	c	-4	M_datp__91__c__93__	C10H12N5O12P3	dATP
396	392	c	-2	M_db4p__91__c__93__	C4H7O6P	3,4-dihydroxy-2-butanone 4-phosphate
397	393	c	-1	M_dcaACP__91__c__93__	C21H39N2O8PRS	Decanoyl-ACP (n-C10:0ACP)
398	394	c	-4	M_dcacoa__91__c__93__	C31H50N7O17P3S	Decanoyl-CoA (n-C10:0CoA)
399	395	c	-4	M_dcamp__91__c__93__	C14H14N5O11P	N6-(1,2-Dicarboxyethyl)-AMP
400	396	c	-3	M_dcdp__91__c__93__	C9H12N3O10P2	dCDP
401	397	c	-2	M_dcmp__91__c__93__	C9H12N3O7P	dCMP
402	398	c	-4	M_dctp__91__c__93__	C9H12N3O13P3	dCTP
403	399	c	+0	M_dcyt__91__c__93__	C9H13N3O4	Deoxycytidine
404	400	c	-1	M_ddcaACP__91__c__93__	C23H43N2O8PRS	Dodecanoyl-ACP (n-C12:0ACP)
405	401	c	-1	M_ddca__91__c__93__	C12H23O2	laurate
406	402	c	-4	M_ddcacoa__91__c__93__	C33H54N7O17P3S	Dodecanoyl-CoA (n-C12:0CoA)
407	403	c	-3	M_dgdp__91__c__93__	C10H12N5O10P2	dGDP
408	404	c	-2	M_dgmp__91__c__93__	C10H12N5O7P	dGMP
409	405	c	+0	M_dgsn__91__c__93__	C10H13N5O4	Deoxyguanosine
410	406	c	-4	M_dgtp__91__c__93__	C10H12N5O13P3	dGTP
411	407	c	+0	M_dha__91__c__93__	C3H6O3	glycerone
412	408	c	-2	M_dhap__91__c__93__	C3H5O6P	Dihydroxyacetone phosphate
413	409	c	-2	M_dhf__91__c__93__	C19H19N7O6	7,8-Dihydrofolate
414	410	c	+0	M_dhlam__91__c__93__	C8H17NOS2	dihydrolipoamide
415	411	c	+0	M_dhnpt__91__c__93__	C9H13N5O4	Dihydroneopterin
416	412	c	-1	M_dhor_S__91__c__93__	C5H5N2O4	(S)-dihydroorotate
417	413	c	-1	M_dhpt__91__c__93__	C14H13N6O3	Dihydropteroate
418	414	c	+0	M_dhptd__91__c__93__	C5H8O4	4,5-dihydroxy-2,3-pentanedione
419	415	c	+0	M_din__91__c__93__	C10H12N4O4	Deoxyinosine
420	416	c	+0	M_dmbzid__91__c__93__	C9H10N2	5,6-Dimethylbenzimidazole
421	417	c	+0	M_dmlz__91__c__93__	C13H18N4O6	6,7-Dimethyl-8-(1-D-ribityl)lumazine
422	418	c	-3	M_dmpp__91__c__93__	C5H9O7P2	Dimethylallyl diphosphate
423	419	c	-2	M_dnad__91__c__93__	C21H24N6O15P2	Deamino-NAD+
424	420	c	+0	M_dnarep__91__c__93__	X	DNA replication
425	421	c	-2	M_dpcoa__91__c__93__	C21H33N7O13P2S	Dephospho-CoA
426	422	c	-7	M_dscl__91__c__93__	C42H41N4O16	dihydrosirohydrochlorin
427	423	c	-2	M_dtdp4d6dg__91__c__93__	C16H22N2O15P2	dTDP-4-dehydro-6-deoxy-alpha-D-glucose(2-)
428	424	c	-2	M_dtdp4d6dm__91__c__93__	C16H22N2O15P2	dTDP-4-dehydro-6-deoxy-L-mannose(2-)
429	425	c	-3	M_dtdp__91__c__93__	C10H13N2O11P2	dTDP
430	426	c	-2	M_dtdpglu__91__c__93__	C16H24N2O16P2	dTDP-glucose(2-)
431	427	c	-2	M_dtdprmn__91__c__93__	C16H24N2O15P2	dTDP-L-rhamnose
432	428	c	-2	M_dtmp__91__c__93__	C10H13N2O8P	dTMP
433	429	c	-4	M_dttp__91__c__93__	C10H13N2O14P3	dTTP
434	430	c	-3	M_dudp__91__c__93__	C9H11N2O11P2	dUDP
435	431	c	-2	M_dump__91__c__93__	C9H11N2O8P	dUMP
436	432	c	+0	M_duri__91__c__93__	C9H12N2O5	Deoxyuridine
437	433	c	-4	M_dutp__91__c__93__	C9H11N2O14P3	dUTP
438	434	c	-2	M_dxyl5p__91__c__93__	C5H9O7P	1-deoxy-D-xylulose 5-phosphate
439	435	c	-1	M_e4hglu__91__c__93__	C5H8NO5	erythro-4-hydroxy-L-glutamate(1-)
440	436	c	-2	M_e4p__91__c__93__	C4H7O7P	D-Erythrose 4-phosphate
441	437	c	-2	M_eig3p__91__c__93__	C6H9N2O6P	D-erythro-1-(Imidazol-4-yl)glycerol 3-phosphate
442	438	c	+1	M_etha__91__c__93__	C2H8NO	etha[c]
443	439	c	-1	M_ethso3__91__c__93__	C2H5O3S	ethanesulfonate
444	440	c	+0	M_etoh__91__c__93__	C2H6O	ethanol
445	441	c	-2	M_f1p__91__c__93__	C6H11O9P	D-Fructose 1-phosphate
446	442	c	-2	M_f6p__91__c__93__	C6H11O9P	D-Fructose 6-phosphate
447	443	c	-1	M_fa11__91__c__93__	C17H33O2	Fatty acid (Iso-C17:0)
448	444	c	-1	M_fa12__91__c__93__	C17H33O2	Fatty acid (Anteiso-C17:0)
449	445	c	-1	M_fa1__91__c__93__	C14H27O2	Fatty acid (Iso-C14:0)
450	446	c	-1	M_fa3__91__c__93__	C15H29O2	Fatty acid (Iso-C15:0)
451	447	c	-1	M_fa4__91__c__93__	C15H29O2	Fatty acid (Anteiso-C15:0)
452	448	c	-1	M_fa6__91__c__93__	C16H31O2	Fatty acid (iso-C16:0)
453	449	c	-2	M_fad__91__c__93__	C27H31N9O15P2	Flavin adenine dinucleotide oxidized
454	450	c	-2	M_fadh2__91__c__93__	C27H33N9O15P2	Flavin adenine dinucleotide reduced
455	451	c	+0	M_fald__91__c__93__	CH2O	formaldehyde
456	452	c	+0	M_fcl_L__91__c__93__	C6H12O5	L-fuculose
457	453	c	-4	M_fdp__91__c__93__	C6H10O12P2	D-Fructose 1,6-bisphosphate
458	454	c	+0	M_fdxox__91__c__93__	X	Oxidized ferredoxin
459	455	c	+0	M_fdxrd__91__c__93__	XH2	Reduced ferredoxin
460	456	c	+2	M_fe2__91__c__93__	Fe	Fe2+
461	457	c	+3	M_fe3__91__c__93__	Fe	Fe3+
462	458	c	-2	M_fgam__91__c__93__	C8H13N2O9P	N2-Formyl-N1-(5-phospho-D-ribosyl)glycinamide
463	459	c	+3	M_ficytC__91__c__93__	C42H54FeN8O6S2	Ferricytochrome c
464	460	c	-2	M_fmn__91__c__93__	C17H19N4O9P	FMN
465	461	c	+2	M_focytC__91__c__93__	C42H54FeN8O6S2	Ferrocytochrome C
466	462	c	-1	M_for__91__c__93__	CH1O2	Formate
467	463	c	-1	M_fpram__91__c__93__	C8H15N3O8P	2-(Formamido)-N1-(5-phospho-D-ribosyl)acetamidine
468	464	c	-2	M_fprica__91__c__93__	C10H13N4O9P	5-Formamido-1-(5-phospho-D-ribosyl)imidazole-4-carboxamide
469	465	c	-3	M_frdp__91__c__93__	C15H25O7P2	Farnesyl diphosphate
470	466	c	+0	M_fru__91__c__93__	C6H12O6	D-Fructose
471	467	c	-1	M_fruur__91__c__93__	C6H9O7	D-Fructuronate
472	468	c	+0	M_fuc_L__91__c__93__	C6H12O5	L-fucose
473	469	c	-2	M_fum__91__c__93__	C4H2O4	Fumarate
474	470	c	-2	M_g1p__91__c__93__	C6H11O9P	D-Glucose 1-phosphate
475	471	c	-2	M_g3p__91__c__93__	C3H5O6P	Glyceraldehyde 3-phosphate
476	472	c	+0	M_g3pc__91__c__93__	C8H20NO6P	sn-Glycero-3-phosphocholine
477	473	c	+0	M_g3pe__91__c__93__	C5H14NO6P	sn-Glycero-3-phosphoethanolamine
478	474	c	-1	M_g3pg__91__c__93__	C6H14O8P	Glycerophosphoglycerol
479	476	c	-2	M_g6p_B__91__c__93__	C6H11O9P	beta-D-glucose 6-phosphate
480	475	c	-2	M_g6p__91__c__93__	C6H11O9P	D-Glucose 6-phosphate
481	477	c	-2	M_gal1p__91__c__93__	C6H11O9P	(2R,3R,4S,5R,6R)-3,4,5-trihydroxy-6-(hydroxymethyl)oxan-2-yl phosphate
482	478	c	+0	M_gal__91__c__93__	C6H12O6	D-Galactose
483	479	c	-1	M_galur__91__c__93__	C6H9O7	D-Galacturonate
484	480	c	-1	M_gam1p__91__c__93__	C6H13NO8P	D-Glucosamine 1-phosphate
485	481	c	-1	M_gam6p__91__c__93__	C6H13NO8P	D-Glucosamine 6-phosphate
486	482	c	-1	M_gar__91__c__93__	C7H14N2O8P	N1-(5-Phospho-D-ribosyl)glycinamide
487	483	c	+0	M_gcald__91__c__93__	C2H4O2	glycolaldehyde
488	484	c	-3	M_gdp__91__c__93__	C10H12N5O11P2	GDP
489	485	c	-7	M_gdptp__91__c__93__	C10H11N5O20P5	Guanosine 3-diphosphate 5-triphosphate
490	486	c	-3	M_ggdp__91__c__93__	C20H33O7P2	2-trans,6-trans,10-trans-geranylgeranyl diphosphate(3-)
491	487	c	+0	M_glc_D__91__c__93__	C6H12O6	D-glucose
492	488	c	+0	M_glc_bD__91__c__93__	C6H12O6	beta D-glucose
493	489	c	-1	M_glcn__91__c__93__	C6H11O7	D-gluconate
494	490	c	-1	M_glcur__91__c__93__	C6H9O7	D-glucuronate
495	491	c	+0	M_gln_L__91__c__93__	C5H10N2O3	L-glutamine
496	492	c	-2	M_glu5p__91__c__93__	C5H8NO7P	L-Glutamate 5-phosphate
497	493	c	+0	M_glu5sa__91__c__93__	C5H9NO3	L-Glutamate 5-semialdehyde
498	494	c	-1	M_glu_D__91__c__93__	C5H8NO4	D-Glutamate
499	495	c	-1	M_glu_L__91__c__93__	C5H8NO4	L-glutamate(1-)
500	496	c	+0	M_glutrna__91__c__93__	C5H7NO3R	L-Glutamyl-tRNA(Glu)
501	497	c	-1	M_glx__91__c__93__	C2H1O3	glyoxylate
502	498	c	+0	M_gly__91__c__93__	C2H5NO2	Glycine
503	499	c	+0	M_glyald__91__c__93__	C3H6O3	D-Glyceraldehyde
504	500	c	+0	M_glyasn__91__c__93__	C6H11N3O4	Glycyl-L-asparagine
505	501	c	-1	M_glyasp__91__c__93__	C6H9N2O5	Glycyl-L-aspartate
506	502	c	-2	M_glyc3p__91__c__93__	C3H7O6P	Glycerol 3-phosphate
507	503	c	+0	M_glyc45tca__91__c__93__	X	glycerol teichoic acid (n=45), linked, unsubstituted
508	504	c	+0	M_glyc45tcaala_D__91__c__93__	X	glycerol teichoic acid (n=45), linked, D-ala substituted
509	505	c	+0	M_glyc45tcaglc__91__c__93__	X	glycerol teichoic acid (n=45), linked, glucose substituted
510	507	c	-1	M_glyc_R__91__c__93__	C3H5O4	D-glycerate
511	506	c	+0	M_glyc__91__c__93__	C3H8O3	Glycerol
512	508	c	-1	M_glyclt__91__c__93__	C2H3O3	glycolate
513	509	c	+0	M_glycogen__91__c__93__	C6H10O5	glycogen
514	510	c	+0	M_glycogenb__91__c__93__	X	glycogen(n-1)
515	511	c	+0	M_glycys__91__c__93__	C5H10N2O3S	Gly-Cys
516	512	c	+0	M_glygln__91__c__93__	C7H13N3O4	Glycyl-L-glutamine
517	513	c	-1	M_glyglu__91__c__93__	C7H11N2O5	Glycyl-L-glutamate
518	514	c	+0	M_glyleu__91__c__93__	C8H16N2O3	Glycylleucine
519	515	c	+0	M_glymet__91__c__93__	C7H14N2O3S	Glycyl-L-methionine
520	516	c	+0	M_glyphe__91__c__93__	C11H14N2O3	Glycylphenylalanine
521	517	c	+0	M_glypro__91__c__93__	C7H12N2O3	Glycylproline
522	518	c	+0	M_glytyr__91__c__93__	C11H14N2O4	Glycyl-L-tyrosine
523	519	c	-2	M_gmp__91__c__93__	C10H12N5O8P	GMP
524	520	c	-3	M_grdp__91__c__93__	C10H17O7P2	Geranyl diphosphate
525	521	c	+0	M_gsn__91__c__93__	C10H13N5O5	Guanosine
526	522	c	-1	M_gthrd__91__c__93__	C10H16N3O6S	Reduced glutathione
527	523	c	-4	M_gtp__91__c__93__	C10H12N5O14P3	GTP
528	524	c	+0	M_gua__91__c__93__	C5H5N5O	Guanine
529	525	c	-3	M_h2mb4p__91__c__93__	C5H9O8P2	1-hydroxy-2-methyl-2-(E)-butenyl 4-diphosphate
530	526	c	+0	M_h2o2__91__c__93__	H2O2	Hydrogen peroxide
531	527	c	+0	M_h2s__91__c__93__	H2S	Hydrogen sulfide
532	528	c	+1	M_h__91__c__93__	H	proton
533	529	c	-1	M_hco3__91__c__93__	CHO3	Bicarbonate
534	530	c	+0	M_hcys_L__91__c__93__	C4H9NO2S	L-homocysteine
535	531	c	-1	M_hdca__91__c__93__	C16H31O2	Hexadecanoate (n-C16:0)
536	532	c	-1	M_hdcea__91__c__93__	C16H29O2	Hexadecenoate (n-C16:1)
537	533	c	-4	M_hdcoa__91__c__93__	C37H60N7O17P3S	Hexadecenoyl-CoA (n-C16:1CoA)
538	534	c	-1	M_hdeACP__91__c__93__	C27H49N2O8PRS	cis-hexadec-9-enoyl-[acyl-carrier protein] (n-C16:1)
539	535	c	-3	M_hepdp__91__c__93__	C35H57O7P2	all-trans-Heptaprenyl diphosphate
540	536	c	-2	M_hethmpp__91__c__93__	C14H20N4O8P2S	Hydroxy ethyl Thiamin diphosphate
541	537	c	-1	M_hexACP__91__c__93__	C17H31N2O8PRS	Hexanoyl-ACP (n-C6:0ACP)
542	538	c	-3	M_hexdp__91__c__93__	C30H49O7P2	all-trans-Hexaprenyl diphosphate
543	539	c	-1	M_hexs__91__c__93__	C6H13O3S	hexanesulfonate
544	540	c	+2	M_hg2__91__c__93__	Hg	Hg2+
545	541	c	-4	M_hgbam__91__c__93__	C45H58N6O12	Hydrogenobyrinate a,c diamide
546	542	c	-6	M_hgbyr__91__c__93__	C45H54N4O14	Hydrogenobyrinate
547	543	c	+0	M_his_L__91__c__93__	C6H9N3O2	L-histidine
548	544	c	-1	M_hisp__91__c__93__	C6H11N3O4P	L-Histidinol phosphate
549	545	c	+1	M_histd__91__c__93__	C6H12N3O	L-Histidinol
550	546	c	+1	M_histl_L__91__c__93__	C6H10N3O	L-Histidinal
551	547	c	+0	M_hom_L__91__c__93__	C4H9NO3	L-homoserine
552	548	c	-1	M_hpyr__91__c__93__	C3H3O4	3-hydroxypyruvate
553	549	c	+0	M_hqn__91__c__93__	C6H6O2	Hydroquinone
554	550	c	+0	M_hxan__91__c__93__	C5H4N4O	Hypoxanthine
555	551	c	-4	M_hxcoa__91__c__93__	C27H42N7O17P3S	Hexanoyl-CoA (n-C6:0CoA)
556	552	c	-4	M_ibcoa__91__c__93__	C25H38N7O17P3S	isobutyryl-CoA(4-)
557	553	c	-2	M_ichor__91__c__93__	C10H8O6	Isochorismate
558	554	c	-3	M_icit__91__c__93__	C6H5O7	Isocitrate
559	555	c	-3	M_idp__91__c__93__	C10H11N4O11P2	IDP(3-)
560	556	c	-4	M_ihdcoa__91__c__93__	C37H62N7O17P3S	fa6coa,Iso-C16:0 CoA   Isohexadecanoyl-CoA
561	557	c	-4	M_ihpdcoa__91__c__93__	C38H64N7O17P3S	fa11coa, Iso-C17:0 CoA   Isoheptadecanoyl-CoA
562	558	c	+0	M_ile_L__91__c__93__	C6H13NO2	L-isoleucine
563	559	c	-2	M_imacp__91__c__93__	C6H7N2O5P	3-(Imidazol-4-yl)-2-oxopropyl phosphate
564	560	c	-2	M_imp__91__c__93__	C10H11N4O8P	IMP
565	561	c	-1	M_indpyr__91__c__93__	C11H8NO3	Indolepyruvate
566	562	c	+0	M_ins__91__c__93__	C10H12N4O5	Inosine
567	563	c	-4	M_ipdcoa__91__c__93__	C36H60N7O17P3S	fa3coa,Iso-C15:0 CoA   Isopentadecanoyl-CoA
568	564	c	-3	M_ipdp__91__c__93__	C5H9O7P2	Isopentenyl diphosphate
569	565	c	-1	M_isetac__91__c__93__	C2H5O4S	Isethionic acid
570	566	c	-4	M_itdcoa__91__c__93__	C35H58N7O17P3S	fa1coa,Iso-C14:0 CoA   Isotetradecanoyl-CoA
571	567	c	-4	M_itp__91__c__93__	C10H11N4O14P3	ITP(3-)
572	568	c	-4	M_ivcoa__91__c__93__	C26H40N7O17P3S	Isovaleryl-CoA
573	569	c	+1	M_k__91__c__93__	K	potassium
574	570	c	-1	M_l2a6o__91__c__93__	C7H10NO5	L-2-Amino-6-oxopimelate
575	571	c	-1	M_lac_D__91__c__93__	C3H5O3	(R)-lactate
576	572	c	-1	M_lac_L__91__c__93__	C3H5O3	(S)-lactate
577	573	c	+0	M_lald_L__91__c__93__	C3H6O2	(S)-lactaldehyde
578	574	c	+0	M_lcts__91__c__93__	C12H22O11	Lactose
579	575	c	+0	M_leu_L__91__c__93__	C6H13NO2	L-leucine
580	576	c	-1	M_lgt_S__91__c__93__	C13H20N3O8S	(R)-S-lactoylglutathionate(1-)
581	577	c	+0	M_lpam__91__c__93__	C8H15NOS2	lipoamide
582	578	c	+1	M_lys_L__91__c__93__	C6H15N2O2	L-lysinium(1+)
583	579	c	+0	M_madg__91__c__93__	C7H14O6	alpha-Methyl-D-glucoside
584	580	c	-2	M_malACP__91__c__93__	C14H22N2O10PRS	Malonyl-[acyl-carrier protein]
585	581	c	-2	M_mal_L__91__c__93__	C4H4O5	(S)-malate(2-)
586	582	c	-5	M_malcoa__91__c__93__	C24H33N7O19P3S	Malonyl-CoA
587	583	c	+0	M_malt__91__c__93__	C12H22O11	Maltose
588	584	c	+0	M_malthp__91__c__93__	C42H72O36	maltoheptaose
589	585	c	+0	M_malthx__91__c__93__	C36H62O31	Maltohexaose
590	586	c	+0	M_maltpt__91__c__93__	C30H52O26	maltopentaose
591	587	c	+0	M_malttr__91__c__93__	C18H32O16	maltotriose
592	588	c	+0	M_maltttr__91__c__93__	C24H42O21	Maltotetraose
593	589	c	-2	M_man1p__91__c__93__	C6H11O9P	D-Mannose 1-phosphate
594	590	c	-2	M_man6p__91__c__93__	C6H11O9P	D-Mannose 6-phosphate
595	591	c	-1	M_mana__91__c__93__	C6H11O7	D-Mannonate
596	592	c	+0	M_mbdg__91__c__93__	C7H14O6	beta-Methylglucoside
597	593	c	+0	M_melib__91__c__93__	C12H22O11	Melibiose
598	594	c	+0	M_meoh__91__c__93__	CH4O1	methanol
599	595	c	+0	M_met_D__91__c__93__	C5H10NO2S	D-Methionine
600	596	c	+0	M_met_L__91__c__93__	C5H11NO2S	L-methionine
601	597	c	+0	M_metala__91__c__93__	C8H16N2O3S	L-methionyl-L-alanine
602	598	c	-1	M_methf__91__c__93__	C20H20N7O6	5,10-Methenyltetrahydrofolate
603	599	c	+0	M_metsox_R_L__91__c__93__	C5H11NO3S	L-methionine-R-sulfoxide
604	600	c	+0	M_metsox_S_L__91__c__93__	C5H11NO3S	L-Methionine Sulfoxide
605	601	c	+2	M_mg2__91__c__93__	Mg	magnesium
606	602	c	-2	M_mlthf__91__c__93__	C20H21N7O6	5,10-Methylenetetrahydrofolate
607	603	c	+2	M_mn2__91__c__93__	Mn	Mn2+
608	604	c	-1	M_mops__91__c__93__	C7H14NO4S	3-(n-Morpholino)Propanesulfonic Acid
609	605	c	+0	M_mql8__91__c__93__	C51H74O2	Menaquinol 8
610	606	c	+0	M_mqn8__91__c__93__	C51H72O2	Menaquinone 8
611	607	c	-1	M_mso3__91__c__93__	CH3O3S	methanesulfonate
612	608	c	+0	M_mthgxl__91__c__93__	C3H4O2	methylglyoxal
613	609	c	-1	M_myrsACP__91__c__93__	C25H47N2O8PRS	Myristoyl-ACP (n-C14:0ACP)
614	610	c	-1	M_n6all26d__91__c__93__	C9H15N2O5	N6-Acetyl-LL-2,6-diaminoheptanedioate
615	611	c	+1	M_na1__91__c__93__	Na	Sodium
616	612	c	-1	M_nac__91__c__93__	C6H4NO2	Nicotinate
617	613	c	-1	M_nad__91__c__93__	C21H26N7O14P2	Nicotinamide adenine dinucleotide
618	614	c	-2	M_nadh__91__c__93__	C21H27N7O14P2	Nicotinamide adenine dinucleotide - reduced
619	615	c	-3	M_nadp__91__c__93__	C21H25N7O17P3	Nicotinamide adenine dinucleotide phosphate
620	616	c	-4	M_nadph__91__c__93__	C21H26N7O17P3	Nicotinamide adenine dinucleotide phosphate - reduced
621	617	c	+0	M_ncam__91__c__93__	C6H6N2O	Nicotinamide
622	618	c	+1	M_nh4__91__c__93__	H4N	Ammonium
623	619	c	+0	M_nicrns__91__c__93__	C11H13NO6	Nicotinate D-ribonucleoside
624	620	c	-2	M_nicrnt__91__c__93__	C11H12NO9P	Nicotinate D-ribonucleotide
625	621	c	-1	M_nmn__91__c__93__	C11H14N2O8P	NMN
626	622	c	-1	M_no3__91__c__93__	NO3	Nitrate
627	623	c	+0	M_o2__91__c__93__	O2	O2
628	624	c	-2	M_oaa__91__c__93__	C4H2O5	Oxaloacetate
629	625	c	-1	M_ocACP__91__c__93__	C19H35N2O8PRS	Octanoyl-ACP (n-C8:0ACP)
630	626	c	-4	M_occoa__91__c__93__	C29H46N7O17P3S	Octanoyl-CoA (n-C8:0CoA)
631	627	c	-1	M_ocdcaACP__91__c__93__	C29H55N2O8PRS	Octadecanoyl-ACP (n-C18:0ACP)
632	628	c	-1	M_ocdca__91__c__93__	C18H35O2	octadecanoate (n-C18:0)
633	629	c	-1	M_ocdcea__91__c__93__	C18H33O2	octadecenoate (n-C18:1)
634	630	c	-1	M_octeACP__91__c__93__	C29H53N2O8PRS	cis-octadec-11-enoyl-[acyl-carrier protein] (n-C18:1)
635	631	c	-4	M_odecoa__91__c__93__	C39H64N7O17P3S	Octadecenoyl-CoA (n-C18:1CoA)
636	632	c	-3	M_ohpb__91__c__93__	C4H4O8P	2-Oxo-3-hydroxy-4-phosphobutanoate
637	633	c	+1	M_orn__91__c__93__	C5H13N2O2	Ornithine
638	634	c	-3	M_orot5p__91__c__93__	C10H10N2O11P	Orotidine 5-phosphate
639	635	c	-1	M_orot__91__c__93__	C5H3N2O4	Orotate
640	636	c	-2	M_pa120__91__c__93__	C27H51O8P1	1,2-didodecanoyl-sn-glycerol 3-phosphate
641	637	c	-2	M_pa140__91__c__93__	C31H59O8P1	1,2-ditetradecanoyl-sn-glycerol 3-phosphate
642	638	c	-2	M_pa141__91__c__93__	C31H55O8P1	1,2-ditetradec-7-enoyl-sn-glycerol 3-phosphate
643	639	c	-2	M_pa160__91__c__93__	C35H67O8P1	1,2-dihexadecanoyl-sn-glycerol 3-phosphate
644	640	c	-2	M_pa161__91__c__93__	C35H63O8P1	1,2-dihexadec-9-enoyl-sn-glycerol 3-phosphate
645	641	c	-2	M_pa180__91__c__93__	C39H75O8P1	1,2-dioctadecanoyl-sn-glycerol 3-phosphate
646	642	c	-2	M_pa181__91__c__93__	C39H71O8P1	1,2-dioctadec-11-enoyl-sn-glycerol 3-phosphate
647	643	c	-2	M_paai15__91__c__93__	C33H63O8P	1,2-dianteisopentadecanoyl-sn-glycerol 3-phosphate (12-methyl-tetradecanoyl, anteiso-C15)
648	644	c	-2	M_paai17__91__c__93__	C37H71O8P	1,2-dianteisoheptadecanoyl-sn-glycerol 3-phosphate (14-methyl-hexadecanoyl, anteiso-C17)
649	645	c	-2	M_pai14__91__c__93__	C31H59O8P	1,2-diisotetradecanoyl-sn-glycerol 3-phosphate (12-methyl-tridecanoyl, iso-C14)
650	646	c	-2	M_pai15__91__c__93__	C33H63O8P	1,2-diisopentadecanoyl-sn-glycerol 3-phosphate (13-methyl-tetradecanoyl, iso-C15)
651	647	c	-2	M_pai16__91__c__93__	C35H67O8P	1,2-diisohexadecanoyl-sn-glycerol 3-phosphate (14-methyl-pentadecanoyl, iso-C16)
652	648	c	-2	M_pai17__91__c__93__	C37H71O8P	1,2-diisoheptadecanoyl-sn-glycerol 3-phosphate (15-methyl-hexadecanoyl, iso-C17)
653	649	c	-1	M_palmACP__91__c__93__	C27H51N2O8PRS	Palmitoyl-ACP (n-C16:0ACP)
654	650	c	-2	M_pan4p__91__c__93__	C11H21N2O7PS	Pantetheine 4-phosphate
655	651	c	-1	M_pant_R__91__c__93__	C6H11O4	(R)-Pantoate
656	652	c	-4	M_pap__91__c__93__	C10H11N5O10P2	adenosine 3,5-bismonophosphate(4-)
657	653	c	+2	M_pb__91__c__93__	Pb	Lead
658	654	c	-2	M_pdx5p__91__c__93__	C8H10NO6P	Pyridoxine 5-phosphate
659	655	c	-3	M_pendp__91__c__93__	C25H41O7P2	all-trans-Pentaprenyl diphosphate
660	656	c	-3	M_pep__91__c__93__	C3H2O6P	Phosphoenolpyruvate
661	657	c	-1	M_pg120__91__c__93__	C30H58O10P1	Phosphatidylglycerol (didodecanoyl, n-C12:0)
662	658	c	-1	M_pg140__91__c__93__	C34H66O10P1	Phosphatidylglycerol (ditetradecanoyl, n-C14:0)
663	659	c	-1	M_pg141__91__c__93__	C34H62O10P1	Phosphatidylglycerol (ditetradec-7-enoyl, n-C14:1)
664	660	c	-1	M_pg160__91__c__93__	C38H74O10P1	Phosphatidylglycerol (dihexadecanoyl, n-C16:0)
665	661	c	-1	M_pg161__91__c__93__	C38H70O10P1	Phosphatidylglycerol (dihexadec-9-enoyl, n-C16:1)
666	662	c	-1	M_pg180__91__c__93__	C42H82O10P1	Phosphatidylglycerol (dioctadecanoyl, n-C18:0)
667	663	c	-1	M_pg181__91__c__93__	C42H78O10P1	Phosphatidylglycerol (dioctadec-11-enoyl, n-C18:1)
668	664	c	-1	M_pgai15__91__c__93__	C36H70O10P	Phosphatidylglycerol (12-methyl-tetradecanoyl, anteiso-C15)
669	665	c	-1	M_pgai17__91__c__93__	C40H78O10P	Phosphatidylglycerol (14-methyl-hexadecanoyl, anteiso-C17)
670	666	c	-1	M_pgi14__91__c__93__	C34H66O10P	Phosphatidylglycerol (12-methyltridecanoyl, iso-C14)
671	667	c	-1	M_pgi15__91__c__93__	C36H70O10P	Phosphatidylglycerol (13-methyltetradecanoyl, iso-C15)
672	668	c	-1	M_pgi16__91__c__93__	C38H74O10P	Phosphatidylglycerol (14-methylpentadecanoyl, iso-C16)
673	669	c	-1	M_pgi17__91__c__93__	C40H78O10P	Phosphatidylglycerol (15-methyl-hexadecanoyl, iso-C17)
674	670	c	-3	M_pgp120__91__c__93__	C30H57O13P2	Phosphatidylglycerophosphate (didodecanoyl, n-C12:0)
675	671	c	-3	M_pgp140__91__c__93__	C34H65O13P2	Phosphatidylglycerophosphate (ditetradecanoyl, n-C14:0)
676	672	c	-3	M_pgp141__91__c__93__	C34H61O13P2	Phosphatidylglycerophosphate (ditetradec-7-enoyl, n-C14:1)
677	673	c	-3	M_pgp160__91__c__93__	C38H73O13P2	Phosphatidylglycerophosphate (dihexadecanoyl, n-C16:0)
678	674	c	-3	M_pgp161__91__c__93__	C38H69O13P2	Phosphatidylglycerophosphate (dihexadec-9-enoyl, n-C16:1)
679	675	c	-3	M_pgp180__91__c__93__	C42H81O13P2	Phosphatidylglycerophosphate (dioctadecanoyl, n-C18:0)
680	676	c	-3	M_pgp181__91__c__93__	C42H77O13P2	Phosphatidylglycerophosphate (dioctadec-11-enoyl, n-C18:1)
681	677	c	-3	M_pgpai15__91__c__93__	C36H69O13P2	Phosphatidylglycerophosphate (12-methyl-tetradecanoyl, anteiso-C15)
682	678	c	-3	M_pgpai17__91__c__93__	C40H77O13P2	Phosphatidylglycerophosphate (14-methyl-hexadecanoyl, anteiso-C17)
683	679	c	-3	M_pgpi14__91__c__93__	C34H65O13P2	Phosphatidylglycerophosphate (12-methyltridecanoyl, iso-C14)
684	680	c	-3	M_pgpi15__91__c__93__	C36H69O13P2	Phosphatidylglycerophosphate (13-methyltetradecanoyl, iso-C15)
685	681	c	-3	M_pgpi16__91__c__93__	C38H73O13P2	Phosphatidylglycerophosphate (14-methylpentadecanoyl, iso-C16)
686	682	c	-3	M_pgpi17__91__c__93__	C40H77O13P2	Phosphatidylglycerophosphate (15-methyl-hexadecanoyl, iso-C17)
687	683	c	+0	M_phe_L__91__c__93__	C9H11NO2	L-phenylalanine
688	684	c	-2	M_phom__91__c__93__	C4H8NO6P	O-phosphonato-L-homoserine(2-)
689	685	c	-1	M_phpyr__91__c__93__	C9H7O3	keto-phenylpyruvate
690	686	c	-2	M_phthr__91__c__93__	C4H8NO7P	O-Phospho-4-hydroxy-L-threonine
691	687	c	-2	M_pi__91__c__93__	HO4P	hydrogenphosphate
692	688	c	-4	M_pmtcoa__91__c__93__	C37H62N7O17P3S	Palmitoyl-CoA (n-C16:0CoA)
693	689	c	-1	M_pnp__91__c__93__	C6H4NO3	4-Hydroxynitrobenzene, p-Nitrophenol
694	690	c	-1	M_pnto_R__91__c__93__	C9H16NO5	(R)-Pantothenate
695	691	c	-1	M_ppa__91__c__93__	C3H5O2	propionate
696	692	c	+0	M_ppal__91__c__93__	C3H6O	Propanal
697	693	c	-2	M_ppap__91__c__93__	C3H5O5P	Propanoyl phosphate
698	694	c	-4	M_ppcoa__91__c__93__	C24H36N7O17P3S	Propanoyl-CoA
699	695	c	-2	M_pphn__91__c__93__	C10H8O6	Prephenate
700	696	c	-3	M_ppi__91__c__93__	HO7P2	Diphosphate
701	697	c	-2	M_pppg9__91__c__93__	C34H38N4O4	Protoporphyrinogen IX
702	698	c	-4	M_pppi__91__c__93__	HO10P3	triphosphate(5-)
703	699	c	-1	M_pram__91__c__93__	C5H11NO7P	5-Phospho-beta-D-ribosylamine
704	700	c	-4	M_prbamp__91__c__93__	C15H19N5O14P2	1-(5-Phosphoribosyl)-AMP
705	701	c	-6	M_prbatp__91__c__93__	C15H19N5O20P4	1-(5-Phosphoribosyl)-ATP
706	702	c	-7	M_pre3a__91__c__93__	C43H43N4O16	Precorrin 3 A
707	703	c	-6	M_pre3b__91__c__93__	C43H44N4O17	Precorrin 3B
708	704	c	-8	M_pre4__91__c__93__	C44H44N4O17	Precorrin 4
709	705	c	-8	M_pre5__91__c__93__	C45H46N4O17	Precorrin 5
710	706	c	-7	M_pre6a__91__c__93__	C44H47N4O16	Precorrin 6A
711	707	c	-7	M_pre6b__91__c__93__	C44H49N4O16	Precorrin 6B
712	708	c	-7	M_pre8__91__c__93__	C45H53N4O14	Precorrin 8
713	709	c	-4	M_prfp__91__c__93__	C15H21N5O15P2	1-(5-Phosphoribosyl)-5-[(5-phosphoribosylamino)methylideneamino]imidazole-4-carboxamide
714	710	c	-47	M_prl45tca__91__c__93__	C206H386N2O242P47	Prenol-45n teichoic acid
715	711	c	-2	M_prl45tcaala__91__c__93__	C341H566N47O242P47	Prenol-45n teichoic acid-alanine substituted
716	712	c	-47	M_prl45tcaglc__91__c__93__	C476H836N2O467P47	Prenol-45n teichoic acid-glucose substituted
717	713	c	-4	M_prlp__91__c__93__	C15H21N5O15P2	5-[(5-phospho-1-deoxyribulos-1-ylamino)methylideneamino]-1-(5-phosphoribosyl)imidazole-4-carboxamide
718	714	c	+0	M_pro_L__91__c__93__	C5H9NO2	L-proline
719	715	c	+0	M_proteinsynth__91__c__93__	X	Protein biosynthesis
720	716	c	-5	M_prpp__91__c__93__	C5H8O14P3	5-Phospho-alpha-D-ribose 1-diphosphate
721	717	c	-2	M_psd5p__91__c__93__	C9H11N2O9P	Pseudouridine 5-phosphate
722	718	c	-2	M_pser_L__91__c__93__	C3H6NO6P	O-Phospho-L-serine
723	719	c	+2	M_ptrc__91__c__93__	C4H14N2	Putrescine
724	720	c	-1	M_pyam5p__91__c__93__	C8H12N2O5P	Pyridoxamine 5-phosphate
725	721	c	+1	M_pydam__91__c__93__	C8H13N2O2	Pyridoxamine
726	722	c	-2	M_pydx5p__91__c__93__	C8H8NO6P	Pyridoxal 5-phosphate
727	723	c	+0	M_pydx__91__c__93__	C8H9NO3	Pyridoxal
728	724	c	+0	M_pydxn__91__c__93__	C8H11NO3	Pyridoxine
729	725	c	-1	M_pyr__91__c__93__	C3H3O3	pyruvate
730	726	c	+0	M_q8__91__c__93__	C49H74O4	Ubiquinone-8
731	727	c	+0	M_q8h2__91__c__93__	C49H76O4	Ubiquinol-8
732	728	c	-2	M_r1p__91__c__93__	C5H9O8P	alpha-D-Ribose 1-phosphate
733	729	c	-2	M_r5p__91__c__93__	C5H9O8P	alpha-D-Ribose 5-phosphate
734	730	c	+0	M_raffin__91__c__93__	C18H32O16	Raffinose
735	731	c	+0	M_rdmbzi__91__c__93__	C14H18N2O4	N1-(alpha-D-ribosyl)-5,6-dimethylbenzimidazole
736	732	c	+0	M_rhcys__91__c__93__	C9H17NO6S	S-Ribosyl-L-homocysteine
737	733	c	+0	M_ribflv__91__c__93__	C17H20N4O6	Riboflavin
738	734	c	+1	M_rnam__91__c__93__	C11H15N2O5	N-Ribosylnicotinamide
739	735	c	+0	M_rnatrans__91__c__93__	X	RNA transcription
740	736	c	-2	M_ru5p_D__91__c__93__	C5H9O8P	D-ribulose 5-phosphate(2-)
741	737	c	-2	M_ru5p_L__91__c__93__	C5H9O8P	L-Ribulose 5-phosphate
742	738	c	-4	M_s17bp__91__c__93__	C7H12O13P2	Sedoheptulose 1,7-bisphosphate
743	739	c	-2	M_s7p__91__c__93__	C7H13O10P	Sedoheptulose 7-phosphate
744	740	c	-2	M_salc6p__91__c__93__	C13H17O10P	Salicin 6-phosphate
745	741	c	+0	M_sarcs__91__c__93__	C3H7NO2	Sarcosine
746	742	c	+0	M_sbt_D__91__c__93__	C6H14O6	D-glucitol
747	743	c	-7	M_scl__91__c__93__	C42H39N4O16	sirohydrochlorin
748	744	c	-1	M_seln__91__c__93__	HSe	Selenide
749	745	c	-1	M_selnp__91__c__93__	H2O3PSe	Selenophosphate
750	746	c	+0	M_ser_L__91__c__93__	C3H7NO3	L-serine
751	747	c	-3	M_skm5p__91__c__93__	C7H8O8P	Shikimate 5-phosphate
752	748	c	-1	M_skm__91__c__93__	C7H9O5	Shikimate
753	749	c	-2	M_so3__91__c__93__	O3S	Sulfite
754	750	c	-2	M_so4__91__c__93__	O4S	sulfate
755	751	c	+3	M_spmd__91__c__93__	C7H22N3	Spermidine
756	752	c	-4	M_stcoa__91__c__93__	C39H66N7O17P3S	Stearoyl-CoA (n-C18:0CoA)
757	753	c	-2	M_suc6p__91__c__93__	C12H21O14P	Sucrose 6-phosphate
758	754	c	-2	M_succ__91__c__93__	C4H4O4	Succinate
759	755	c	-5	M_succoa__91__c__93__	C25H35N7O19P3S	Succinyl-CoA
760	756	c	-1	M_suchms__91__c__93__	C8H12NO6	O-Succinyl-L-homoserine
761	757	c	+0	M_sucr__91__c__93__	C12H22O11	Sucrose
762	758	c	-2	M_sulfac__91__c__93__	C2H2O5S	sulfoacetate
763	759	c	-2	M_tag6p_D__91__c__93__	C6H11O9P	D-Tagatose 6-phosphate
764	760	c	-4	M_tagdp_D__91__c__93__	C6H10O12P2	D-Tagatose 1,6-biphosphate
765	761	c	-1	M_tagur__91__c__93__	C6H9O7	D-Tagaturonate
766	762	c	-2	M_tartr_L__91__c__93__	C4H4O6	L-tartrate
767	763	c	+0	M_taur__91__c__93__	C2H7NO3S	Taurine
768	764	c	-4	M_tdcoa__91__c__93__	C35H58N7O17P3S	Tetradecanoyl-CoA (n-C14:0CoA)
769	765	c	-1	M_tddec2eACP__91__c__93__	C23H41N2O8PRS	trans-Dodec-2-enoyl-[acyl-carrier protein]
770	766	c	-1	M_tdeACP__91__c__93__	C25H45N2O8PRS	cis-tetradec-7-enoyl-[acyl-carrier protein] (n-C14:1)
771	767	c	-1	M_tdec2eACP__91__c__93__	C21H37N2O8PRS	trans-Dec-2-enoyl-[acyl-carrier protein]
772	768	c	-2	M_thdp__91__c__93__	C7H7NO4	2,3,4,5-Tetrahydrodipicolinate
773	769	c	-1	M_thex2eACP__91__c__93__	C17H29N2O8PRS	trans-Hex-2-enoyl-[acyl-carrier protein]
774	770	c	-2	M_thf__91__c__93__	C19H21N7O6	5,6,7,8-Tetrahydrofolate
775	771	c	-3	M_thfglu__91__c__93__	C24H27N8O9	Tetrahydrofolyl-[Glu](2)
776	772	c	+1	M_thm__91__c__93__	C12H17N4OS	Thiamin
777	773	c	-1	M_thmmp__91__c__93__	C12H16N4O4PS	Thiamin monophosphate
778	774	c	-2	M_thmpp__91__c__93__	C12H16N4O7P2S	Thiamine diphosphate
779	775	c	-1	M_thp2c__91__c__93__	C6H8NO2	1-piperideine-6-carboxylate
780	776	c	+0	M_thr_L__91__c__93__	C4H9NO3	L-threonine
781	777	c	-2	M_thrp__91__c__93__	C4H8NO6P	L-Threonine O-3-phosphate
782	778	c	+0	M_thymd__91__c__93__	C10H14N2O5	Thymidine
783	779	c	-1	M_tmrs2eACP__91__c__93__	C25H45N2O8PRS	trans-Tetradec-2-enoyl-[acyl-carrier protein]
784	780	c	-1	M_toct2eACP__91__c__93__	C19H33N2O8PRS	trans-Oct-2-enoyl-[acyl-carrier protein]
785	781	c	-1	M_toctd2eACP__91__c__93__	C29H53N2O8PRS	trans-octadec-2-enoyl-[acyl-carrier protein]
786	782	c	-1	M_tpalm2eACP__91__c__93__	C27H49N2O8PRS	trans-Hexadec-2-enoyl-[acyl-carrier protein]
787	783	c	+0	M_trdox__91__c__93__	X	Oxidized thioredoxin
788	784	c	+0	M_trdrd__91__c__93__	XH2	Reduced thioredoxin
789	785	c	+0	M_trnaglu__91__c__93__	R	tRNA (Glu)
790	786	c	+0	M_trp_L__91__c__93__	C11H12N2O2	L-tryptophan
791	787	c	-2	M_tsul__91__c__93__	O3S2	thiosulfate(2-)
792	788	c	-1	M_ttdca__91__c__93__	C14H27O2	tetradecanoate (n-C14:0)
793	789	c	-1	M_ttdcea__91__c__93__	C14H25O2	tetradecenoate (n-C14:1)
794	790	c	+0	M_tyr_L__91__c__93__	C9H11NO3	L-tyrosine
795	791	c	-3	M_uGgla__91__c__93__	C40H62N9O26P2	UDP-N-acetylmuramoyl-L-alanyl-gamma-D-glutamyl-L-lysyl-D-alanyl-D-alanine
796	792	c	-3	M_uaGgla__91__c__93__	C86H140N7O21P2	Undecaprenyl-diphospho-N-acetylmuramoyl-L-alanyl-gamma-D-glutamyl-L-lysyl-D-alanyl-D-alanine
797	793	c	-3	M_uaaAgla__91__c__93__	C94H153N8O26P2	Undecaprenyl-diphospho-N-acetylmuramoyl-(N-acetylglucosamine)-L-alanyl-D-glutamyl-L-lysyl-D-alanyl-D-alanine
798	794	c	-2	M_uaaAgtla__91__c__93__	C94H155N9O25P2	Undecaprenyl-diphospho-N-acetylmuramoyl-(N-acetylglucosamine)-L-alanyl-D-glutaminyl-L-lysyl-D-alanyl-D-alanine
799	795	c	-3	M_uaaGgla__91__c__93__	C94H153N8O26P2	Undecaprenyl-diphospho-N-acetylmuramoyl-(N-acetylglucosamine)-L-alanyl-gamma-D-glutamyl-L-lysyl-D-alanyl-D-alanine
800	796	c	-2	M_uaaGgtla__91__c__93__	C94H155N9O25P2	Undecaprenyl-diphospho-N-acetylmuramoyl-(N-acetylglucosamine)-L-alanyl-D-isoglutaminyl-L-lysyl-D-alanyl-D-alanine
801	797	c	-4	M_uaagmda__91__c__93__	C95H152N8O28P2	Undecaprenyl-diphospho-N-acetylmuramoyl-(N-acetylglucosamine)-L-ala-D-glu-meso-2,6-diaminopimeloyl-D-ala-D-ala
802	798	c	-3	M_uaagtmda__91__c__93__	C95H154N9O27P2	Undecaprenyl-diphospho-N-acetylmuramoyl-(N-acetylglucosamine)-L-alanyl-D-glutaminyl-meso-2,6-diaminopimeloyl-D-alanyl-D-alanine
803	799	c	-3	M_uaccg__91__c__93__	C20H26N3O19P2	UDP-N-acetyl-3-O-(1-carboxyvinyl)-D-glucosamine
804	800	c	-2	M_uacgam__91__c__93__	C17H25N3O17P2	UDP-N-acetyl-alpha-D-glucosamine(2-)
805	801	c	-2	M_uacmam__91__c__93__	C17H25N3O17P2	UDP-N-acetyl-D-mannosamine
806	802	c	-4	M_uagmda__91__c__93__	C87H139N7O23P2	Undecaprenyl-diphospho-N-acetylmuramoyl-L-alanyl-D-glutamyl-meso-2,6-diaminopimeloyl-D-alanyl-D-alanine
807	803	c	-3	M_uama__91__c__93__	C23H33N4O20P2	UDP-N-acetylmuramoyl-L-alanine
808	804	c	-4	M_uamag__91__c__93__	C28H39N5O23P2	UDP-N-acetylmuramoyl-L-alanyl-D-glutamate
809	805	c	-3	M_uamr__91__c__93__	C20H28N3O19P2	UDP-N-acetylmuramate
810	806	c	-3	M_udcpdp__91__c__93__	C55H89O7P2	Undecaprenyl diphosphate
811	807	c	-2	M_udcpp__91__c__93__	C55H89O4P	Undecaprenyl phosphate
812	808	c	-3	M_udp__91__c__93__	C9H11N2O12P2	UDP
813	809	c	-2	M_udpacgal__91__c__93__	C17H25N3O17P2	UDP-N-acetyl-D-galactosamine(2-)
814	810	c	-2	M_udpg__91__c__93__	C15H22N2O17P2	UDPglucose
815	811	c	-2	M_udpgal__91__c__93__	C15H22N2O17P2	UDP-D-galactose(2-)
816	812	c	-2	M_udpgalfur__91__c__93__	C15H22N2O17P2	UDP-D-galacto-1,4-furanose
817	813	c	-4	M_ugmd__91__c__93__	C35H51N7O26P2	UDP-N-acetylmuramoyl-L-alanyl-D-gamma-glutamyl-meso-2,6-diaminopimelate
818	814	c	-4	M_ugmda__91__c__93__	C41H61N9O28P2	UDP-N-acetylmuramoyl-L-alanyl-D-glutamyl-meso-2,6-diaminopimeloyl-D-alanyl-D-alanine
819	815	c	-2	M_ump__91__c__93__	C9H11N2O9P	UMP
820	816	c	+0	M_ura__91__c__93__	C4H4N2O2	uracil
821	817	c	+0	M_urea__91__c__93__	CH4N2O	Urea
822	818	c	+0	M_uri__91__c__93__	C9H12N2O6	Uridine
823	819	c	-4	M_utp__91__c__93__	C9H11N2O15P3	UTP
824	820	c	+0	M_val_L__91__c__93__	C5H11NO2	L-valine
825	821	c	+0	M_xan__91__c__93__	C5H4N4O2	Xanthine
826	822	c	-2	M_xmp__91__c__93__	C10H11N4O9P	Xanthosine 5-phosphate
827	823	c	+0	M_xtsn__91__c__93__	C10H12N4O6	xanthosine
828	824	c	-2	M_xu5p_D__91__c__93__	C5H9O8P	D-xylulose 5-phosphate(2-)
829	825	c	-2	M_xu5p_L__91__c__93__	C5H9O8P	L-Xylulose 5-phosphate
830	826	c	+0	M_xyl_D__91__c__93__	C5H10O5	aldehydo-D-xylose
831	827	c	+2	M_zn2__91__c__93__	Zn	Zinc
