CNC	distance
0.0865964	0.223984
0.0944061	0.223004
0.10292	0.224014
0.122321	0.0819446
0.127717	0.221375
0.133352	0.218342
0.139236	0.0784429
0.142274	0.219426
0.145378	0.21867
0.148551	0.217246
0.151792	0.217491
0.155105	0.221543
0.161948	0.218056
0.165482	0.21798
0.169093	0.0709703
0.170008	0.215612
0.170928	0.216008
0.171853	0.214912
0.172783	0.217429
0.172783	0.217109
0.173718	0.216799
0.174658	0.218464
0.175603	0.215796
0.176553	0.217728
0.177508	0.215589
0.178469	0.22003
0.180406	0.216416
0.180406	0.22007
0.182363	0.215238
0.184342	0.215916
0.186343	0.214991
0.188365	0.213911
0.266073	0.207022
0.316228	0.201958
0.375837	0.197923
inf	0.839317
inf	0.839317
inf	0.839317
inf	0.839317
inf	0.839317
inf	0.839317
inf	0.839347
inf	0.839347
inf	0.839347
inf	0.839347
inf	0.839347
inf	0.839347
inf	0.839317
inf	0.839317
inf	0.839317
inf	0.839317
inf	0.839317
inf	0.839347
inf	0.839317
inf	0.839347
inf	0.839317
inf	0.839317
inf	0.839317
inf	0.839318
inf	0.839347
inf	0.839318
inf	0.839317
inf	0.839317
inf	0.839317
inf	0.839317
inf	0.839317
inf	0.839317
inf	0.839317
inf	0.839317
inf	0.839317
inf	0.839317
inf	0.839317
inf	0.839317
inf	0.839317
inf	0.839317
0.01	0.147192
0.0141254	0.143458
0.0199526	0.137313
0.0281838	0.102255
0.0398107	0.124868
0.0562341	0.114211
0.0794328	0.0850785
0.112202	0.181756
0.158489	0.218405
0.223872	0.212727
