	metabolite_index	reaction_index	stoichiometry	metabolite_id	reaction_id
1	3	131	-1	M_acald__91__e__93__	R_23DHMPO
2	3	132	+1	M_acald__91__e__93__	R_26DAPLLAT
3	4	135	-1	M_acgam__91__e__93__	R_2AHBUTI
4	2	162	-1	M_ac__91__e__93__	R_2MBCOATA
5	2	163	+1	M_ac__91__e__93__	R_3HAD100
6	5	189	-1	M_adocbl__91__e__93__	R_3HAD10M11
7	7	240	-1	M_alaglu__91__e__93__	R_3HAD10M12
8	6	251	-1	M_ala_L__91__e__93__	R_3HAD11M12
9	6	252	+1	M_ala_L__91__e__93__	R_3HAD120
10	8	277	-1	M_arab_L__91__e__93__	R_3HAD12M13
11	9	302	-1	M_btn__91__e__93__	R_3HAD12M14
12	10	306	-1	M_but__91__e__93__	R_3HAD13M14
13	11	307	-1	M_ca2__91__e__93__	R_3HAD140
14	12	310	-1	M_cbl1__91__e__93__	R_3HAD14M15
15	13	311	-1	M_cbl2__91__e__93__	R_3HAD14M16
16	14	318	+1	M_cd2__91__e__93__	R_3HAD15M16
17	17	341	-1	M_co2__91__e__93__	R_3HAD160
18	17	342	+1	M_co2__91__e__93__	R_3HAD180
19	19	352	+1	M_cro4__91__e__93__	R_3HAD40
20	19	353	-1	M_cro4__91__e__93__	R_3HAD4M5
21	18	371	-1	M_cobalt2__91__e__93__	R_3HAD4M6
22	20	372	-1	M_cu2__91__e__93__	R_3HAD5M6
23	20	373	+1	M_cu2__91__e__93__	R_3HAD60
24	0	386	-1	M_26dap_M__91__e__93__	R_3HAD6M7
25	21	405	-1	M_dextrin__91__e__93__	R_3HAD6M8
26	23	439	-1	M_drib__91__e__93__	R_3HAD7M8
27	39	448	-1	M_lac_D__91__e__93__	R_3HAD80
28	39	449	+1	M_lac_D__91__e__93__	R_3HAD8M10
29	24	455	-1	M_etoh__91__e__93__	R_3HAD8M9
30	24	456	+1	M_etoh__91__e__93__	R_3HAD9M10
31	25	466	-1	M_fe2__91__e__93__	R_3MOBS
32	26	467	-1	M_fe3__91__e__93__	R_3OAR100
33	27	470	-1	M_for__91__e__93__	R_3OAR10M11
34	27	471	+1	M_for__91__e__93__	R_3OAR10M12
35	28	479	-1	M_fru__91__e__93__	R_3OAR11M12
36	29	518	-1	M_gal__91__e__93__	R_3OAR120
37	31	534	-1	M_glc_D__91__e__93__	R_3OAR12M13
38	31	535	-1	M_glc_D__91__e__93__	R_3OAR12M14
39	32	541	-1	M_gln_L__91__e__93__	R_3OAR13M14
40	33	553	-1	M_glu_L__91__e__93__	R_3OAR140
41	33	554	+1	M_glu_L__91__e__93__	R_3OAR14M15
42	35	592	+1	M_hg2__91__e__93__	R_3OAR14M16
43	36	610	-1	M_hxan__91__e__93__	R_3OAR15M16
44	36	611	+1	M_hxan__91__e__93__	R_3OAR160
45	37	632	-1	M_ile_L__91__e__93__	R_3OAR180
46	38	676	-1	M_k__91__e__93__	R_3OAR40
47	38	677	+1	M_k__91__e__93__	R_3OAR4M5
48	38	678	+1	M_k__91__e__93__	R_3OAR4M6
49	41	685	-1	M_lcts__91__e__93__	R_3OAR5M6
50	42	693	-1	M_leu_L__91__e__93__	R_3OAR60
51	43	738	-1	M_lys_L__91__e__93__	R_3OAR6M7
52	43	739	+1	M_lys_L__91__e__93__	R_3OAR6M8
53	40	743	-1	M_lac_L__91__e__93__	R_3OAR7M8
54	40	744	+1	M_lac_L__91__e__93__	R_3OAR80
55	45	746	-1	M_malthx__91__e__93__	R_3OAR8M10
56	46	747	-1	M_malttr__91__e__93__	R_3OAR8M9
57	44	748	-1	M_malt__91__e__93__	R_3OAR9M10
58	47	753	-1	M_man__91__e__93__	R_3OAS100
59	48	766	-1	M_met_D__91__e__93__	R_3OAS10M11
60	51	769	-1	M_metsox_S_L__91__e__93__	R_3OAS10M12
61	50	770	-1	M_metsox_R_L__91__e__93__	R_3OAS11M12
62	49	773	-1	M_met_L__91__e__93__	R_3OAS120
63	52	774	-1	M_mg2__91__e__93__	R_3OAS12M13
64	52	776	+1	M_mg2__91__e__93__	R_3OAS12M14
65	52	777	-1	M_mg2__91__e__93__	R_3OAS13M14
66	54	784	-1	M_mnl__91__e__93__	R_3OAS140
67	54	785	+1	M_mnl__91__e__93__	R_3OAS160
68	53	786	-1	M_mn2__91__e__93__	R_3OAS180
69	56	798	+1	M_nac__91__e__93__	R_3OAS2M3
70	56	799	-1	M_nac__91__e__93__	R_3OAS3M4
71	55	805	+1	M_na1__91__e__93__	R_3OAS4M3O6
72	55	806	-1	M_na1__91__e__93__	R_3OAS4M5
73	57	826	-1	M_nh4__91__e__93__	R_3OAS4M6
74	57	827	+1	M_nh4__91__e__93__	R_3OAS5M6
75	58	835	-1	M_o2__91__e__93__	R_3OAS60
76	58	836	+1	M_o2__91__e__93__	R_3OAS6M7
77	59	855	+1	M_pb__91__e__93__	R_3OAS6M8
78	60	900	-1	M_pi__91__e__93__	R_3OAS7M8
79	55	901	-3	M_na1__91__e__93__	R_3OAS80
80	60	901	-1	M_pi__91__e__93__	R_3OAS80
81	55	941	-1	M_na1__91__e__93__	R_3OAS8M10
82	61	941	-1	M_pro_L__91__e__93__	R_3OAS8M10
83	55	942	+1	M_na1__91__e__93__	R_3OAS8M9
84	61	942	+1	M_pro_L__91__e__93__	R_3OAS8M9
85	62	979	-1	M_ptrc__91__e__93__	R_3OAS9M10
86	63	999	-1	M_pydam__91__e__93__	R_4HTHRS
87	63	1000	+1	M_pydam__91__e__93__	R_5AIZCDC
88	65	1003	-1	M_pydxn__91__e__93__	R_5MTHCYST
89	65	1004	+1	M_pydxn__91__e__93__	R_AACGLYDH
90	64	1005	-1	M_pydx__91__e__93__	R_AACPS7
91	64	1006	+1	M_pydx__91__e__93__	R_AADSACYCL
92	66	1023	+1	M_rib_D__91__e__93__	R_ABTOXy
93	67	1024	-1	M_ribflv__91__e__93__	R_ABUTD
94	67	1025	+1	M_ribflv__91__e__93__	R_ABUTR
95	66	1026	-1	M_rib_D__91__e__93__	R_ACACCTr
96	68	1038	-1	M_ser_L__91__e__93__	R_ACALD
97	68	1039	+1	M_ser_L__91__e__93__	R_ACALDt
98	69	1053	-1	M_so4__91__e__93__	R_ACBIPGT
99	69	1054	+1	M_so4__91__e__93__	R_ACCOACL
100	70	1055	-1	M_spmd__91__e__93__	R_ACGApts
101	71	1059	-1	M_succ__91__e__93__	R_ACGK
102	71	1060	+1	M_succ__91__e__93__	R_ACGS
103	75	1090	-1	M_thr_L__91__e__93__	R_ACHBPL
104	75	1091	+1	M_thr_L__91__e__93__	R_ACKr
105	76	1146	-1	M_ura__91__e__93__	R_ACLS_a
106	77	1147	-1	M_urea__91__e__93__	R_ACLS_b
107	77	1148	+1	M_urea__91__e__93__	R_ACOAAGPAT140
108	78	1159	-1	M_val_L__91__e__93__	R_ACOAAGPAT160
109	79	1160	-1	M_xan__91__e__93__	R_ACOAAGPAT180
110	80	1162	-1	M_xyl_D__91__e__93__	R_ACOAAGPATAI15
111	80	1163	+1	M_xyl_D__91__e__93__	R_ACOAAGPATAI17
112	81	1166	-1	M_zn2__91__e__93__	R_ACOAAGPATI14
113	16	1185	-1	M_cl__91__e__93__	R_ACOAAGPATI15
114	16	1186	+1	M_cl__91__e__93__	R_ACOAAGPATI16
