CNC	distance
0.0798627	0.0089701
0.0802948	0.00933998
0.0807293	0.00969087
0.0811662	0.00971474
0.0816054	0.0101283
0.082047	0.0104196
0.0824909	0.0106812
0.0829373	0.0110899
0.0833861	0.0113268
0.0838373	0.0114648
0.0847471	0.012269
0.0856668	0.0126618
0.0865964	0.0135938
0.0875362	0.0142216
0.0884861	0.0151124
0.090417	0.0167106
0.09239	0.0181551
0.0944061	0.0195731
0.0964662	0.0209527
0.0985712	0.0228328
0.10292	0.0256523
0.107461	0.0292961
0.117152	0.0363653
0.122321	0.039789
0.133352	0.047165
0.145378	0.0544484
0.172783	0.0689683
0.188365	0.076476
0.266073	0.107109
0.316228	0.121547
0.375837	0.135713
inf	0.839317
inf	0.839347
inf	0.839317
inf	0.839317
inf	0.839318
inf	0.839317
inf	0.839317
inf	0.839317
inf	0.839318
inf	0.839318
inf	0.839347
inf	0.839318
inf	0.839317
inf	0.839317
inf	0.839317
inf	0.839317
inf	0.839318
inf	0.839317
inf	0.839317
inf	0.839317
inf	0.839317
inf	0.839317
inf	0.839317
inf	0.839317
inf	0.839317
inf	0.839317
inf	0.839317
inf	0.839318
inf	0.839317
inf	0.839317
inf	0.839317
inf	0.839317
inf	0.839317
inf	0.839317
inf	0.839317
inf	0.839317
inf	0.839317
inf	0.839317
inf	0.839317
inf	0.839317
0.01	0.100386
0.0141254	0.0831866
0.0199526	0.0649718
0.0281838	0.0420832
0.0398107	0.0263261
0.0562341	0.0197158
0.0794328	0.00883209
0.112202	0.0327233
0.158489	0.0619356
0.223872	0.0919084
