CNC	distance
0.266073	0.0940558
0.316228	0.0915611
0.375837	0.0879091
0.446684	0.0823283
0.530884	0.0784037
0.630957	0.0730017
0.749894	0.0748486
0.891251	0.0698008
0.971628	0.071374
1.05925	0.0709919
1.15478	0.0713252
1.25893	0.0665358
1.37246	0.0615554
1.49624	0.0564074
1.63117	0.0510384
1.77828	0.045528
1.93865	0.0398457
2.02418	0.0369659
2.11349	0.0340012
2.20673	0.0310105
2.30409	0.027934
2.40575	0.0249384
2.51189	0.0217678
2.62271	0.018725
2.73842	0.015543
2.85924	0.0122831
2.92163	0.0107561
2.98538	0.00932695
3.05053	0.00828465
3.11709	0.0076032
3.18511	0.00731297
3.21968	0.00730016
3.2371	0.00734272
3.25462	0.00738538
3.27223	0.0074282
3.28994	0.00749665
3.30774	0.00768261
3.32564	0.00780559
3.34363	0.00782013
3.36173	0.00802668
3.37992	0.00815538
3.39821	0.00827901
3.43509	0.00870302
3.47236	0.00908987
3.51004	0.00957068
inf	0.839318
inf	0.839317
inf	0.839318
inf	0.839317
inf	0.839317
inf	0.839318
inf	0.839317
inf	0.839318
inf	0.839317
inf	0.839318
inf	0.839317
inf	0.839318
inf	0.839318
inf	0.839318
inf	0.839318
inf	0.839317
inf	0.839317
inf	0.839347
inf	0.839318
inf	0.839317
inf	0.839317
inf	0.839317
inf	0.839317
inf	0.839317
inf	0.839347
inf	0.839317
inf	0.839317
inf	0.839317
inf	0.839317
inf	0.839317
inf	0.839347
inf	0.839347
inf	0.839317
inf	0.839317
inf	0.839317
inf	0.839317
inf	0.839317
inf	0.839317
inf	0.839347
inf	0.839317
0.01	0.156102
0.0141254	0.151238
0.0199526	0.152645
0.0281838	0.134854
0.0398107	0.146671
0.0562341	0.13254
0.0794328	0.136691
0.112202	0.13082
0.158489	0.123115
0.223872	0.109731
