	metabolite_index	reaction_index	stoichiometry	metabolite_id	reaction_id
1	0	1	-1	M_12dgr180__91__e__93__	R_12DGR180ti
2	1	14	-1	M_26dap_M__91__e__93__	R_1H2NPTH
3	1	15	+1	M_26dap_M__91__e__93__	R_1P4H2CBXLAH
4	2	20	-1	M_2dmmq8__91__e__93__	R_23DHMPO
5	3	25	-1	M_2hyoxplac__91__e__93__	R_25DOPOX
6	3	26	+1	M_2hyoxplac__91__e__93__	R_25K5O2AI
7	4	31	-1	M_2obut__91__e__93__	R_26DAPLLAT
8	4	32	+1	M_2obut__91__e__93__	R_26DAPt2r
9	5	39	-1	M_34dhphe__91__e__93__	R_2AHBUTI
10	6	77	-1	M_3mop__91__e__93__	R_2DHPL
11	6	78	+1	M_3mop__91__e__93__	R_2DMMQ8abc
12	7	162	-1	M_4abz__91__e__93__	R_2HBO
13	8	165	-1	M_4hoxpacd__91__e__93__	R_2HMCOXT
14	8	166	+1	M_4hoxpacd__91__e__93__	R_2HYOXPLACt2r
15	9	176	-1	M_5htrp__91__e__93__	R_2MBCOATA
16	13	209	-1	M_acac__91__e__93__	R_2MECOAOX
17	13	210	+1	M_acac__91__e__93__	R_2OBUTt2r
18	14	213	-1	M_acald__91__e__93__	R_2OMMBOX
19	14	214	+1	M_acald__91__e__93__	R_2OMPHH
20	15	220	-1	M_acgam__91__e__93__	R_34DCCBR
21	12	271	-1	M_ac__91__e__93__	R_34DHOXPEGOX
22	12	272	+1	M_ac__91__e__93__	R_34DHPHEt2
23	16	294	-1	M_adn__91__e__93__	R_34HPPOR
24	16	295	+1	M_adn__91__e__93__	R_3ABUTCOAL
25	17	302	-1	M_adocbl__91__e__93__	R_3CARLPDH
26	20	343	-1	M_alaasp__91__e__93__	R_3HACPR1
27	21	348	-1	M_alagln__91__e__93__	R_3HACPR2
28	22	351	-1	M_alaglu__91__e__93__	R_3HAD100
29	23	354	-1	M_alagly__91__e__93__	R_3HAD10M12
30	24	357	-1	M_alahis__91__e__93__	R_3HAD11M12
31	25	360	-1	M_alaleu__91__e__93__	R_3HAD120
32	26	365	-1	M_alathr__91__e__93__	R_3HAD121
33	19	366	-1	M_ala_L__91__e__93__	R_3HAD12M14
34	19	367	+1	M_ala_L__91__e__93__	R_3HAD13M14
35	19	368	-1	M_ala_L__91__e__93__	R_3HAD140
36	113	368	-1	M_na1__91__e__93__	R_3HAD140
37	19	369	+1	M_ala_L__91__e__93__	R_3HAD141
38	113	369	+1	M_na1__91__e__93__	R_3HAD141
39	27	378	-1	M_alltn__91__e__93__	R_3HAD14M16
40	27	379	+1	M_alltn__91__e__93__	R_3HAD15M16
41	28	409	-1	M_arbt__91__e__93__	R_3HAD160
42	29	414	-1	M_arg_L__91__e__93__	R_3HAD161
43	30	417	-1	M_asn_L__91__e__93__	R_3HAD180
44	30	418	+1	M_asn_L__91__e__93__	R_3HAD181
45	31	429	-1	M_asp_L__91__e__93__	R_3HAD40
46	31	430	-1	M_asp_L__91__e__93__	R_3HAD4M6
47	31	431	+1	M_asp_L__91__e__93__	R_3HAD5M6
48	31	432	+1	M_asp_L__91__e__93__	R_3HAD60
49	32	443	-1	M_bhb__91__e__93__	R_3HAD6M8
50	32	444	+1	M_bhb__91__e__93__	R_3HAD7M8
51	34	452	-1	M_butso3__91__e__93__	R_3HAD80
52	33	453	-1	M_but__91__e__93__	R_3HAD8M10
53	35	458	-1	M_ca2__91__e__93__	R_3HAD9M10
54	36	461	-1	M_cbl1__91__e__93__	R_3HBCOAE
55	37	462	-1	M_cbl2__91__e__93__	R_3HBCOAHL
56	94	466	-1	M_k__91__e__93__	R_3HLYTCL
57	38	466	+1	M_cd2__91__e__93__	R_3HLYTCL
58	94	467	+1	M_k__91__e__93__	R_3HPCOAHYD
59	38	467	-1	M_cd2__91__e__93__	R_3HPCOAHYD
60	39	474	-1	M_cgly__91__e__93__	R_3MOBS
61	40	475	-1	M_chol__91__e__93__	R_3MOPt2r
62	40	476	+1	M_chol__91__e__93__	R_3OAACPR1
63	41	480	-1	M_chor__91__e__93__	R_3OAACPR2
64	41	481	+1	M_chor__91__e__93__	R_3OAR100
65	44	506	-1	M_co2__91__e__93__	R_3OAR10M11
66	44	507	+1	M_co2__91__e__93__	R_3OAR10M12
67	45	508	+1	M_cobalt2__91__e__93__	R_3OAR11M12
68	45	509	-1	M_cobalt2__91__e__93__	R_3OAR120
69	46	512	-1	M_csn__91__e__93__	R_3OAR12M13
70	46	513	+1	M_csn__91__e__93__	R_3OAR12M14
71	48	526	-1	M_cys_L__91__e__93__	R_3OAR13M14
72	48	527	+1	M_cys_L__91__e__93__	R_3OAR140
73	49	532	-1	M_cytd__91__e__93__	R_3OAR14M15
74	49	533	+1	M_cytd__91__e__93__	R_3OAR14M16
75	47	538	-1	M_cu2__91__e__93__	R_3OAR15M16
76	50	543	-1	M_dad_2__91__e__93__	R_3OAR160
77	50	544	+1	M_dad_2__91__e__93__	R_3OAR180
78	18	552	-1	M_ala_D__91__e__93__	R_3OAR40
79	18	553	+1	M_ala_D__91__e__93__	R_3OAR4M5
80	51	620	+1	M_dopa__91__e__93__	R_3OAR4M6
81	137	629	-1	M_ser_D__91__e__93__	R_3OAR5M6
82	137	630	+1	M_ser_D__91__e__93__	R_3OAR60
83	95	639	-1	M_lac_D__91__e__93__	R_3OAR6M7
84	95	640	+1	M_lac_D__91__e__93__	R_3OAR6M8
85	52	726	-1	M_etha__91__e__93__	R_3OAR7M8
86	53	727	-1	M_ethso3__91__e__93__	R_3OAR80
87	54	728	-1	M_etoh__91__e__93__	R_3OAR8M10
88	54	729	+1	M_etoh__91__e__93__	R_3OAR8M9
89	55	772	-1	M_fe2__91__e__93__	R_3OAR9M10
90	56	773	-1	M_fe3__91__e__93__	R_3OAS100
91	42	774	-2	M_cit__91__e__93__	R_3OAS10M11
92	56	774	-1	M_fe3__91__e__93__	R_3OAS10M11
93	57	784	-1	M_for__91__e__93__	R_3OAS10M12
94	57	785	+1	M_for__91__e__93__	R_3OAS11M12
95	58	795	-1	M_fru__91__e__93__	R_3OAS120
96	59	801	+1	M_fum__91__e__93__	R_3OAS121
97	59	802	-1	M_fum__91__e__93__	R_3OAS12M13
98	59	803	-1	M_fum__91__e__93__	R_3OAS12M14
99	60	837	-1	M_galct_D__91__e__93__	R_3OAS13M14
100	60	838	+1	M_galct_D__91__e__93__	R_3OAS140
101	61	843	-1	M_galt__91__e__93__	R_3OAS141
102	62	846	-1	M_gam__91__e__93__	R_3OAS160
103	63	854	-1	M_gcald__91__e__93__	R_3OAS161
104	63	855	+1	M_gcald__91__e__93__	R_3OAS180
105	65	873	-1	M_glcr__91__e__93__	R_3OAS181
106	65	874	+1	M_glcr__91__e__93__	R_3OAS2M3
107	64	878	-1	M_glc_D__91__e__93__	R_3OAS3M4
108	66	885	-1	M_gln_L__91__e__93__	R_3OAS4M3O6
109	66	886	+1	M_gln_L__91__e__93__	R_3OAS4M5
110	67	904	-1	M_glu_L__91__e__93__	R_3OAS4M6
111	67	905	-1	M_glu_L__91__e__93__	R_3OAS5M6
112	67	906	+1	M_glu_L__91__e__93__	R_3OAS60
113	67	907	-1	M_glu_L__91__e__93__	R_3OAS6M7
114	113	907	-1	M_na1__91__e__93__	R_3OAS6M7
115	67	908	+1	M_glu_L__91__e__93__	R_3OAS6M8
116	113	908	+1	M_na1__91__e__93__	R_3OAS6M8
117	69	914	-1	M_glyasn__91__e__93__	R_3OAS7M8
118	70	917	-1	M_glyasp__91__e__93__	R_3OAS80
119	71	918	-1	M_glyb__91__e__93__	R_3OAS8M10
120	73	922	-1	M_glyclt__91__e__93__	R_3OAS8M9
121	73	923	+1	M_glyclt__91__e__93__	R_3OAS9M10
122	74	924	-1	M_glycys__91__e__93__	R_4ABZt2
123	72	925	+1	M_glyc__91__e__93__	R_4HBZCL
124	72	926	-1	M_glyc__91__e__93__	R_4HOXPACDt2r
125	75	933	-1	M_glygln__91__e__93__	R_4HTHRS
126	76	936	-1	M_glyglu__91__e__93__	R_4NTPPH2
127	77	940	-1	M_glyleu__91__e__93__	R_5AIZCDC
128	78	943	-1	M_glymet__91__e__93__	R_5CM2HMUDI
129	79	949	-1	M_glyphe__91__e__93__	R_5GLUP5T1
130	80	952	-1	M_glypro__91__e__93__	R_5GLUP5T2
131	81	955	-1	M_glytyr__91__e__93__	R_5HLTDL
132	68	956	-1	M_gly__91__e__93__	R_5HTRPt2
133	68	957	+1	M_gly__91__e__93__	R_5HXKYNDCL
134	82	972	-1	M_gthrd__91__e__93__	R_5MTHCYST
135	83	980	-1	M_gua__91__e__93__	R_A5PISO
136	83	981	+1	M_gua__91__e__93__	R_AACGLYDH
137	83	982	-1	M_gua__91__e__93__	R_AACOAT
138	84	985	-1	M_h2s__91__e__93__	R_AACPS6
139	84	986	+1	M_h2s__91__e__93__	R_AACPS7
140	85	1007	-1	M_hdca__91__e__93__	R_AACTOOR
141	125	1011	-1	M_pheme__91__e__93__	R_ABTAr
142	86	1019	-1	M_hexs__91__e__93__	R_ABUTD
143	88	1023	+1	M_hista__91__e__93__	R_ABUTR
144	87	1029	-1	M_his_L__91__e__93__	R_ACACCTr
145	87	1030	-1	M_his_L__91__e__93__	R_ACACT1r
146	87	1031	+1	M_his_L__91__e__93__	R_ACACT2r
147	94	1032	-1	M_k__91__e__93__	R_ACACT3r
148	89	1055	-1	M_hxan__91__e__93__	R_ACACT4r
149	90	1078	-1	M_ile_L__91__e__93__	R_ACACT5r
150	90	1079	+1	M_ile_L__91__e__93__	R_ACACT6r
151	91	1084	-1	M_ind3ac__91__e__93__	R_ACACT7r
152	91	1085	+1	M_ind3ac__91__e__93__	R_ACACt2
153	92	1087	-1	M_ins__91__e__93__	R_ACALD
154	92	1088	+1	M_ins__91__e__93__	R_ACALDt
155	93	1100	-1	M_isetac__91__e__93__	R_ACBIPGT
156	94	1119	-1	M_k__91__e__93__	R_ACCOAC
157	94	1120	+1	M_k__91__e__93__	R_ACCOACL
158	94	1121	+1	M_k__91__e__93__	R_ACCOAL
159	11	1125	-1	M_Lcyst__91__e__93__	R_ACCOALYS2
160	97	1133	-1	M_leu_L__91__e__93__	R_ACGApts
161	97	1134	+1	M_leu_L__91__e__93__	R_ACGK
162	98	1183	-1	M_lys_L__91__e__93__	R_ACGS
163	98	1184	-1	M_lys_L__91__e__93__	R_ACHBPL
164	98	1185	+1	M_lys_L__91__e__93__	R_ACKr
165	98	1186	+1	M_lys_L__91__e__93__	R_ACLS_a
166	96	1194	-1	M_lac_L__91__e__93__	R_ACLS_b
167	96	1195	+1	M_lac_L__91__e__93__	R_ACNAMS
168	10	1202	-1	M_HC00319__91__e__93__	R_ACOAAGPAT140
169	113	1202	-1	M_na1__91__e__93__	R_ACOAAGPAT140
170	10	1203	+1	M_HC00319__91__e__93__	R_ACOAAGPAT160
171	113	1203	+1	M_na1__91__e__93__	R_ACOAAGPAT160
172	100	1206	-1	M_malt__91__e__93__	R_ACOAAGPAT180
173	99	1207	-1	M_mal_L__91__e__93__	R_ACOAAGPATAI15
174	99	1208	-1	M_mal_L__91__e__93__	R_ACOAAGPATAI17
175	99	1209	+1	M_mal_L__91__e__93__	R_ACOAAGPATI14
176	101	1212	-1	M_man__91__e__93__	R_ACOAAGPATI15
177	104	1238	-1	M_metala__91__e__93__	R_ACOAAGPATI16
178	102	1240	-1	M_met_D__91__e__93__	R_ACOAAGPATI17
179	106	1244	-1	M_metsox_S_L__91__e__93__	R_ACOAD1
180	105	1245	-1	M_metsox_R_L__91__e__93__	R_ACOAD1fi
181	103	1248	-1	M_met_L__91__e__93__	R_ACOAD2
182	103	1249	-1	M_met_L__91__e__93__	R_ACOAD20
183	103	1250	+1	M_met_L__91__e__93__	R_ACOAD3rev
184	107	1251	-1	M_mg2__91__e__93__	R_ACOAD4rev
185	107	1254	+1	M_mg2__91__e__93__	R_ACOAD5rev
186	107	1255	-1	M_mg2__91__e__93__	R_ACOAD6rev
187	111	1261	+1	M_mqn8__91__e__93__	R_ACOAD7i
188	111	1262	-1	M_mqn8__91__e__93__	R_ACOAD8
189	109	1269	-1	M_mnl__91__e__93__	R_ACOADH2
190	108	1270	-1	M_mn2__91__e__93__	R_ACOATA
191	110	1274	-1	M_mops__91__e__93__	R_ACOCT
192	112	1275	-1	M_mso3__91__e__93__	R_ACODAr
193	114	1287	+1	M_nac__91__e__93__	R_ACONT
194	114	1288	-1	M_nac__91__e__93__	R_ACONTa
195	115	1299	-1	M_ncam__91__e__93__	R_ACONTb
196	116	1318	-1	M_nh4__91__e__93__	R_ACOTA
197	116	1319	+1	M_nh4__91__e__93__	R_ACPS1
198	117	1321	-1	M_nmn__91__e__93__	R_ACS
199	118	1328	-1	M_no2__91__e__93__	R_ACTNDH
200	118	1329	+1	M_no2__91__e__93__	R_ACt2r
201	119	1332	-1	M_no3__91__e__93__	R_ADA
202	119	1333	-1	M_no3__91__e__93__	R_ADCL
203	120	1359	-1	M_o2__91__e__93__	R_ADCS
204	120	1360	+1	M_o2__91__e__93__	R_ADK1
205	121	1366	-1	M_ocdca__91__e__93__	R_ADK10
206	122	1367	-1	M_ocdcea__91__e__93__	R_ADK11
207	122	1368	+1	M_ocdcea__91__e__93__	R_ADK2
208	123	1391	-1	M_orn__91__e__93__	R_ADK3
209	123	1392	-1	M_orn__91__e__93__	R_ADK5
210	123	1393	+1	M_orn__91__e__93__	R_ADK7
211	124	1470	-1	M_phe_L__91__e__93__	R_ADK8
212	124	1471	+1	M_phe_L__91__e__93__	R_ADK9
213	126	1476	-1	M_pi__91__e__93__	R_ADNCNT3tc
214	126	1477	-1	M_pi__91__e__93__	R_ADNCYC
215	126	1478	+1	M_pi__91__e__93__	R_ADNK1
216	113	1479	-3	M_na1__91__e__93__	R_ADNUC
217	126	1479	-1	M_pi__91__e__93__	R_ADNUC
218	127	1495	+1	M_ppa__91__e__93__	R_ADOCBIK
219	127	1496	-1	M_ppa__91__e__93__	R_ADOCBIK2
220	127	1497	+1	M_ppa__91__e__93__	R_ADOCBLS
221	127	1498	-1	M_ppa__91__e__93__	R_ADOCBLabc
222	128	1503	+1	M_ppi__91__e__93__	R_ADPRDP
223	129	1530	-1	M_pro_L__91__e__93__	R_ADSELK
224	129	1531	+1	M_pro_L__91__e__93__	R_ADSK
225	129	1532	-1	M_pro_L__91__e__93__	R_ADSL1r
226	129	1533	-1	M_pro_L__91__e__93__	R_ADSL2r
227	113	1534	-1	M_na1__91__e__93__	R_ADSS
228	129	1534	-1	M_pro_L__91__e__93__	R_ADSS
229	130	1571	-1	M_ptrc__91__e__93__	R_AEPPT
230	130	1572	+1	M_ptrc__91__e__93__	R_AGMD
231	131	1590	-1	M_pydam__91__e__93__	R_AGMHE
232	133	1593	-1	M_pydxn__91__e__93__	R_AGPAT120
233	132	1594	-1	M_pydx__91__e__93__	R_AGPAT140
234	134	1599	-1	M_q8__91__e__93__	R_AGPAT141
235	135	1632	-1	M_salcn__91__e__93__	R_AGPAT160
236	136	1635	-1	M_sbt_D__91__e__93__	R_AGPAT161
237	138	1642	-1	M_ser_L__91__e__93__	R_AGPAT180
238	138	1643	+1	M_ser_L__91__e__93__	R_AGPAT181
239	139	1649	-1	M_sheme__91__e__93__	R_AGPR
240	140	1659	-1	M_so4__91__e__93__	R_AHC
241	140	1660	+1	M_so4__91__e__93__	R_AHCYSNS_r
242	141	1662	-1	M_spmd__91__e__93__	R_AHMMPS
243	142	1664	+1	M_srtn__91__e__93__	R_AHSERL2
244	143	1669	+1	M_succ__91__e__93__	R_AHSERL3
245	143	1670	-1	M_succ__91__e__93__	R_AICART
246	143	1671	-1	M_succ__91__e__93__	R_AIHPDCOATA
247	144	1681	-1	M_sucr__91__e__93__	R_AIPDCOATA
248	145	1682	-1	M_sulfac__91__e__93__	R_AIRC4
249	140	1685	-1	M_so4__91__e__93__	R_AKGS
250	146	1689	-1	M_taur__91__e__93__	R_AKP1
251	149	1724	-1	M_thymd__91__e__93__	R_ALAALA
252	149	1725	+1	M_thymd__91__e__93__	R_ALAASP1c
253	147	1728	-1	M_thm__91__e__93__	R_ALAASPabc
254	147	1729	+1	M_thm__91__e__93__	R_ALACI
255	148	1732	-1	M_thr_L__91__e__93__	R_ALAGLN1c
256	148	1733	+1	M_thr_L__91__e__93__	R_ALAGLNabc
257	150	1753	-1	M_tre__91__e__93__	R_ALAGLU1c
258	151	1760	-1	M_trp_L__91__e__93__	R_ALAGLUabc
259	151	1761	+1	M_trp_L__91__e__93__	R_ALAGLY1c
260	152	1765	+1	M_trypta__91__e__93__	R_ALAGLYabc
261	153	1768	-1	M_tsul__91__e__93__	R_ALAHIS1c
262	154	1769	-1	M_ttdca__91__e__93__	R_ALAHISabc
263	155	1770	-1	M_tym__91__e__93__	R_ALALEU1c
264	155	1771	+1	M_tym__91__e__93__	R_ALALEUabc
265	156	1776	-1	M_tyr_L__91__e__93__	R_ALAR
266	156	1777	+1	M_tyr_L__91__e__93__	R_ALATHR1c
267	157	1817	-1	M_ura__91__e__93__	R_ALATHRabc
268	158	1825	-1	M_uri__91__e__93__	R_ALAt2r
269	158	1826	+1	M_uri__91__e__93__	R_ALAt4r
270	159	1832	-1	M_val_L__91__e__93__	R_ALCD19
271	159	1833	+1	M_val_L__91__e__93__	R_ALCD2x
272	94	1843	-1	M_k__91__e__93__	R_ALDD2x
273	160	1843	+1	M_zn2__91__e__93__	R_ALDD2x
274	94	1844	+1	M_k__91__e__93__	R_ALKP
275	160	1844	-1	M_zn2__91__e__93__	R_ALKP
276	160	1845	-1	M_zn2__91__e__93__	R_ALLTAH
277	42	1879	-1	M_cit__91__e__93__	R_ALLTNt2r
278	42	1880	+1	M_cit__91__e__93__	R_ALPHNH
279	29	1883	-1	M_arg_L__91__e__93__	R_AMANAPEr
280	123	1883	+1	M_orn__91__e__93__	R_AMANAPEr
281	29	1884	+1	M_arg_L__91__e__93__	R_AMAOTr
282	123	1884	-1	M_orn__91__e__93__	R_AMAOTr
283	43	1885	-1	M_cl__91__e__93__	R_AMMQLT8
284	43	1886	+1	M_cl__91__e__93__	R_AMOPBHL
