CNC	distance
0.225084	0.00750162
0.226302	0.00693403
0.227526	0.00750361
0.228757	0.00795515
0.229995	0.00755647
0.23124	0.00853323
0.232491	0.00912582
0.233749	0.00870837
0.235014	0.00887991
0.236286	0.00856932
0.23885	0.0100833
0.241442	0.0104893
0.244062	0.0119451
0.24671	0.0120192
0.249388	0.0127205
0.25483	0.0139458
0.26039	0.015479
0.266073	0.0167661
0.271879	0.0195087
0.277811	0.0202833
0.290068	0.0238141
0.302866	0.0271333
0.316228	0.0310003
0.330179	0.0349364
0.344747	0.0384553
0.375837	0.0459865
0.409732	0.0534242
0.446684	0.0621747
0.486968	0.0701271
0.530884	0.0776679
0.630957	0.0918658
0.749894	0.106709
0.891251	0.121032
1.05925	0.134457
inf	0.839318
inf	0.839317
inf	0.839317
inf	0.839318
inf	0.839317
inf	0.839317
inf	0.839318
inf	0.839317
inf	0.839318
inf	0.839318
inf	0.839317
inf	0.839317
inf	0.839318
inf	0.839317
inf	0.839317
inf	0.839317
inf	0.839318
inf	0.839317
inf	0.839317
inf	0.839317
inf	0.839317
inf	0.839317
inf	0.839317
inf	0.839317
inf	0.839317
inf	0.839317
inf	0.839317
inf	0.839317
inf	0.839317
inf	0.839317
inf	0.839317
inf	0.839317
inf	0.839317
inf	0.839317
inf	0.839317
inf	0.839317
inf	0.839317
inf	0.839317
inf	0.839317
inf	0.839317
0.01	0.138868
0.0141254	0.132759
0.0199526	0.124818
0.0281838	0.114731
0.0398107	0.103181
0.0562341	0.0880659
0.0794328	0.0702755
0.112202	0.0494551
0.158489	0.0259069
0.223872	0.0069324
