CNC	distance
0.266073	0.139357
0.316228	0.138616
0.375837	0.120724
0.446684	0.117582
0.530884	0.113448
0.630957	0.100552
0.68786	0.122834
0.749894	0.102441
0.817523	0.13875
0.891251	0.102899
0.971628	0.128625
1.05925	0.137349
1.15478	0.100005
1.20573	0.0946722
1.25893	0.140065
1.31447	0.106852
1.37246	0.106177
1.43301	0.12665
1.49624	0.136136
1.56225	0.0888835
1.5707	0.137682
1.5792	0.135603
1.58775	0.133478
1.59634	0.1354
1.60498	0.103231
1.61366	0.0946009
1.62239	0.104907
1.63117	0.0949466
1.64	0.0938605
1.64887	0.136194
1.66677	0.133327
1.68485	0.098569
1.70314	0.133801
1.72162	0.0949693
1.7403	0.138481
1.77828	0.103357
1.81708	0.133788
1.85674	0.0977109
1.89725	0.132713
inf	0.839317
inf	0.839317
inf	0.839317
inf	0.839317
inf	0.839317
inf	0.839317
inf	0.839317
inf	0.839317
inf	0.839317
inf	0.839317
inf	0.839317
inf	0.839317
inf	0.839317
inf	0.839317
inf	0.839317
inf	0.839317
inf	0.839317
inf	0.839317
inf	0.839317
inf	0.839317
inf	0.839317
inf	0.839317
inf	0.839317
inf	0.839317
inf	0.839317
inf	0.839317
inf	0.839317
inf	0.839318
inf	0.839318
inf	0.839317
inf	0.839317
inf	0.839317
inf	0.839317
inf	0.839317
inf	0.839317
inf	0.839317
inf	0.839317
inf	0.839317
inf	0.839317
inf	0.839317
0.01	0.160062
0.0141254	0.150361
0.0199526	0.15957
0.0281838	0.159606
0.0398107	0.159198
0.0562341	0.15869
0.0794328	0.125921
0.112202	0.156942
0.158489	0.117879
0.223872	0.11151
