	metabolite_index	reaction_index	stoichiometry	metabolite_id	reaction_id
1	0	1	-1	M_12dgr180__91__e__93__	R_12DGR180ti
2	1	7	-1	M_26dap_M__91__e__93__	R_1P4H2CBXLAH
3	1	8	+1	M_26dap_M__91__e__93__	R_23DHMPO
4	2	13	-1	M_2dmmq8__91__e__93__	R_26DAPLLATi
5	3	20	-1	M_2obut__91__e__93__	R_26DAPt2r
6	3	21	+1	M_2obut__91__e__93__	R_2AHBUTI
7	4	50	-1	M_3mop__91__e__93__	R_2DHPL
8	4	51	+1	M_3mop__91__e__93__	R_2DMMQ8abc
9	5	133	-1	M_4hbz__91__e__93__	R_2HBO
10	5	134	+1	M_4hbz__91__e__93__	R_2HMCOXT
11	8	163	-1	M_acald__91__e__93__	R_2MBCOATA
12	8	164	+1	M_acald__91__e__93__	R_2OBUTt2r
13	9	173	-1	M_acgam__91__e__93__	R_34DHOXPEGOX
14	7	203	-1	M_ac__91__e__93__	R_3HAD100
15	7	204	+1	M_ac__91__e__93__	R_3HAD10M12
16	10	205	-1	M_ade__91__e__93__	R_3HAD11M12
17	10	206	+1	M_ade__91__e__93__	R_3HAD120
18	12	282	-1	M_ala_L__91__e__93__	R_3HAD121
19	12	283	+1	M_ala_L__91__e__93__	R_3HAD12M14
20	13	306	-1	M_arbt__91__e__93__	R_3HAD13M14
21	14	315	-1	M_asn_L__91__e__93__	R_3HAD140
22	14	316	+1	M_asn_L__91__e__93__	R_3HAD141
23	15	332	-1	M_butso3__91__e__93__	R_3HAD14M16
24	16	334	-1	M_ca2__91__e__93__	R_3HAD15M16
25	17	338	+1	M_cd2__91__e__93__	R_3HAD160
26	60	339	-1	M_k__91__e__93__	R_3HAD161
27	17	339	+1	M_cd2__91__e__93__	R_3HAD161
28	60	340	+1	M_k__91__e__93__	R_3HAD180
29	17	340	-1	M_cd2__91__e__93__	R_3HAD180
30	18	346	-1	M_cellb__91__e__93__	R_3HAD181
31	19	347	-1	M_cgly__91__e__93__	R_3HAD40
32	21	374	-1	M_co2__91__e__93__	R_3HAD4M6
33	21	375	+1	M_co2__91__e__93__	R_3HAD5M6
34	22	376	+1	M_cobalt2__91__e__93__	R_3HAD60
35	22	377	-1	M_cobalt2__91__e__93__	R_3HAD6M8
36	23	378	-1	M_csn__91__e__93__	R_3HAD7M8
37	25	386	-1	M_cys_L__91__e__93__	R_3HAD80
38	25	387	+1	M_cys_L__91__e__93__	R_3HAD8M10
39	26	395	-1	M_cytd__91__e__93__	R_3HAD9M10
40	26	396	+1	M_cytd__91__e__93__	R_3MOBS
41	24	401	-1	M_cu2__91__e__93__	R_3MOPt2r
42	24	402	+1	M_cu2__91__e__93__	R_3OAR100
43	30	403	+1	M_diact__91__e__93__	R_3OAR10M11
44	27	405	-1	M_dad_2__91__e__93__	R_3OAR10M12
45	27	406	+1	M_dad_2__91__e__93__	R_3OAR11M12
46	11	414	-1	M_ala_D__91__e__93__	R_3OAR120
47	11	415	+1	M_ala_D__91__e__93__	R_3OAR12M13
48	28	438	-1	M_dextrin__91__e__93__	R_3OAR12M14
49	29	441	-1	M_dgsn__91__e__93__	R_3OAR13M14
50	29	442	+1	M_dgsn__91__e__93__	R_3OAR140
51	102	480	-1	M_ser_D__91__e__93__	R_3OAR14M15
52	102	481	+1	M_ser_D__91__e__93__	R_3OAR14M16
53	61	490	-1	M_lac_D__91__e__93__	R_3OAR15M16
54	61	491	+1	M_lac_D__91__e__93__	R_3OAR160
55	31	530	-1	M_ethso3__91__e__93__	R_3OAR180
56	32	531	-1	M_etoh__91__e__93__	R_3OAR40
57	32	532	+1	M_etoh__91__e__93__	R_3OAR4M5
58	33	565	-1	M_fe2__91__e__93__	R_3OAR4M6
59	34	566	-1	M_fe3__91__e__93__	R_3OAR5M6
60	35	572	-1	M_fol__91__e__93__	R_3OAR60
61	35	573	+1	M_fol__91__e__93__	R_3OAR6M7
62	36	584	-1	M_fru__91__e__93__	R_3OAR6M8
63	38	628	-1	M_galt__91__e__93__	R_3OAR7M8
64	39	631	+1	M_galur__91__e__93__	R_3OAR80
65	39	632	-1	M_galur__91__e__93__	R_3OAR8M10
66	37	633	-1	M_gal__91__e__93__	R_3OAR8M9
67	40	634	-1	M_gam__91__e__93__	R_3OAR9M10
68	41	639	-1	M_gcald__91__e__93__	R_3OAS100
69	41	640	+1	M_gcald__91__e__93__	R_3OAS10M11
70	42	652	-1	M_glc_D__91__e__93__	R_3OAS10M12
71	43	652	+1	M_glcn__91__e__93__	R_3OAS10M12
72	43	653	-1	M_glcn__91__e__93__	R_3OAS11M12
73	43	654	+1	M_glcn__91__e__93__	R_3OAS120
74	44	660	-1	M_glcur__91__e__93__	R_3OAS121
75	44	661	+1	M_glcur__91__e__93__	R_3OAS12M13
76	42	662	-1	M_glc_D__91__e__93__	R_3OAS12M14
77	42	663	-1	M_glc_D__91__e__93__	R_3OAS13M14
78	45	669	-1	M_gln_L__91__e__93__	R_3OAS140
79	45	670	+1	M_gln_L__91__e__93__	R_3OAS141
80	46	682	-1	M_glu_L__91__e__93__	R_3OAS160
81	46	683	+1	M_glu_L__91__e__93__	R_3OAS161
82	48	688	-1	M_glyb__91__e__93__	R_3OAS180
83	49	689	-1	M_glyc3p__91__e__93__	R_3OAS181
84	49	690	+1	M_glyc3p__91__e__93__	R_3OAS2M3
85	51	696	-1	M_glyclt__91__e__93__	R_3OAS3M4
86	51	697	+1	M_glyclt__91__e__93__	R_3OAS4M3O6
87	50	698	+1	M_glyc__91__e__93__	R_3OAS4M5
88	50	699	-1	M_glyc__91__e__93__	R_3OAS4M6
89	47	719	-1	M_gly__91__e__93__	R_3OAS5M6
90	47	720	+1	M_gly__91__e__93__	R_3OAS60
91	52	730	-1	M_gthox__91__e__93__	R_3OAS6M7
92	53	736	-1	M_gua__91__e__93__	R_3OAS6M8
93	53	737	+1	M_gua__91__e__93__	R_3OAS7M8
94	53	738	-1	M_gua__91__e__93__	R_3OAS80
95	88	762	-1	M_pheme__91__e__93__	R_3OAS8M10
96	54	768	-1	M_hexs__91__e__93__	R_3OAS8M9
97	55	771	+1	M_hg2__91__e__93__	R_3OAS9M10
98	56	794	-1	M_hxan__91__e__93__	R_4HBZt2
99	57	813	-1	M_ile_L__91__e__93__	R_4HTHRS
100	57	814	+1	M_ile_L__91__e__93__	R_5AIZCDC
101	58	817	-1	M_ind3ac__91__e__93__	R_6PHBG
102	58	818	+1	M_ind3ac__91__e__93__	R_6PHBG2
103	59	832	-1	M_isetac__91__e__93__	R_AACOAT
104	60	849	-1	M_k__91__e__93__	R_AACPS6
105	60	850	+1	M_k__91__e__93__	R_AACPS7
106	60	851	+1	M_k__91__e__93__	R_AB6PGH
107	63	857	-1	M_lcts__91__e__93__	R_AB6PGH2
108	6	858	-1	M_Lcyst__91__e__93__	R_ABTOXy
109	64	866	-1	M_leu_L__91__e__93__	R_ABUTD
110	64	867	+1	M_leu_L__91__e__93__	R_ACACT1r
111	65	911	-1	M_lys_L__91__e__93__	R_ACACT2r
112	65	912	+1	M_lys_L__91__e__93__	R_ACACT3r
113	62	916	-1	M_lac_L__91__e__93__	R_ACACT4r
114	62	917	+1	M_lac_L__91__e__93__	R_ACACT5r
115	66	925	-1	M_malt__91__e__93__	R_ACACT6r
116	68	930	-1	M_mantr__91__e__93__	R_ACACT7r
117	67	931	-1	M_man__91__e__93__	R_ACALD
118	67	932	-1	M_man__91__e__93__	R_ACALDt
119	69	942	-1	M_melib__91__e__93__	R_ACBIPGT
120	70	948	-1	M_met_D__91__e__93__	R_ACCOACL
121	73	951	-1	M_metsox_S_L__91__e__93__	R_ACCOALYS2
122	72	952	-1	M_metsox_R_L__91__e__93__	R_ACEDIPIT
123	71	955	-1	M_met_L__91__e__93__	R_ACGAMPM
124	71	956	-1	M_met_L__91__e__93__	R_ACGAMT
125	71	957	+1	M_met_L__91__e__93__	R_ACGApts
126	74	959	-1	M_mg2__91__e__93__	R_ACGK
127	78	963	+1	M_mqn8__91__e__93__	R_ACGS
128	78	964	-1	M_mqn8__91__e__93__	R_ACHBPL
129	76	974	-1	M_mnl__91__e__93__	R_ACKr
130	75	975	-1	M_mn2__91__e__93__	R_ACLS_a
131	77	977	-1	M_mops__91__e__93__	R_ACLS_b
132	79	978	-1	M_mso3__91__e__93__	R_ACOAAGPAT140
133	81	986	+1	M_nac__91__e__93__	R_ACOAAGPAT160
134	81	987	-1	M_nac__91__e__93__	R_ACOAAGPAT180
135	80	997	+1	M_na1__91__e__93__	R_ACOAAGPATAI15
136	80	998	-1	M_na1__91__e__93__	R_ACOAAGPATAI17
137	82	1017	-1	M_nh4__91__e__93__	R_ACOAAGPATI14
138	60	1017	+1	M_k__91__e__93__	R_ACOAAGPATI14
139	82	1018	-1	M_nh4__91__e__93__	R_ACOAAGPATI15
140	82	1019	+1	M_nh4__91__e__93__	R_ACOAAGPATI16
141	83	1039	-1	M_o2__91__e__93__	R_ACOAAGPATI17
142	83	1040	+1	M_o2__91__e__93__	R_ACOATA
143	84	1047	-1	M_ocdcea__91__e__93__	R_ACOCT
144	84	1048	+1	M_ocdcea__91__e__93__	R_ACODAr
145	86	1074	+1	M_pb__91__e__93__	R_ACOTA
146	87	1123	-1	M_phe_L__91__e__93__	R_ACPS1
147	87	1124	+1	M_phe_L__91__e__93__	R_ACTD
148	89	1127	-1	M_pi__91__e__93__	R_ACTNDH
149	90	1135	-1	M_pnto_R__91__e__93__	R_ACt2r
150	91	1140	+1	M_ppa__91__e__93__	R_ADEt2r
151	92	1160	-1	M_pro_L__91__e__93__	R_ADK1
152	93	1185	-1	M_ptrc__91__e__93__	R_ADK10
153	85	1185	+1	M_orn__91__e__93__	R_ADK10
154	93	1186	+1	M_ptrc__91__e__93__	R_ADK11
155	85	1186	-1	M_orn__91__e__93__	R_ADK11
156	93	1187	-1	M_ptrc__91__e__93__	R_ADK2
157	94	1189	-1	M_pydam__91__e__93__	R_ADK3
158	96	1192	-1	M_pydxn__91__e__93__	R_ADK5
159	95	1193	-1	M_pydx__91__e__93__	R_ADK7
160	97	1201	-1	M_q8__91__e__93__	R_ADK8
161	98	1202	-1	M_raffin__91__e__93__	R_ADK9
162	99	1220	-1	M_ribflv__91__e__93__	R_ADNK1
163	99	1221	+1	M_ribflv__91__e__93__	R_ADNUC
164	100	1239	-1	M_salcn__91__e__93__	R_ADOCBIK
165	101	1243	-1	M_sbt_D__91__e__93__	R_ADOCBLS
166	103	1245	-1	M_ser_L__91__e__93__	R_ADPRDP
167	103	1246	+1	M_ser_L__91__e__93__	R_ADPT
168	104	1248	-1	M_sheme__91__e__93__	R_ADSL1r
169	105	1257	-1	M_so4__91__e__93__	R_ADSL2r
170	105	1258	+1	M_so4__91__e__93__	R_ADSS
171	106	1259	-1	M_spmd__91__e__93__	R_AGDC
172	107	1268	-1	M_stys__91__e__93__	R_AGPAT120
173	108	1269	-1	M_succ__91__e__93__	R_AGPAT140
174	108	1270	+1	M_succ__91__e__93__	R_AGPAT141
175	109	1275	-1	M_sucr__91__e__93__	R_AGPAT160
176	110	1278	-1	M_sulfac__91__e__93__	R_AGPAT161
177	111	1281	-1	M_taur__91__e__93__	R_AGPAT180
178	113	1338	-1	M_thymd__91__e__93__	R_AGPAT181
179	113	1339	+1	M_thymd__91__e__93__	R_AGPR
180	112	1340	-1	M_thm__91__e__93__	R_AHCYSNS_r
181	114	1358	-1	M_tre__91__e__93__	R_AHSERL2
182	115	1365	-1	M_trp_L__91__e__93__	R_AHSERL3
183	115	1366	+1	M_trp_L__91__e__93__	R_AICART
184	116	1374	-1	M_tyr_L__91__e__93__	R_AIHDUDPMG
185	116	1375	+1	M_tyr_L__91__e__93__	R_AIHDUPDG
186	117	1405	-1	M_ura__91__e__93__	R_AIHPDCOATA
187	118	1423	-1	M_uri__91__e__93__	R_AIPDCOATA
188	118	1424	+1	M_uri__91__e__93__	R_AIRC4
189	119	1429	-1	M_val_L__91__e__93__	R_ALAALA
190	119	1430	+1	M_val_L__91__e__93__	R_ALAASP1c
191	120	1431	-1	M_xan__91__e__93__	R_ALACI
192	60	1441	-1	M_k__91__e__93__	R_ALAGLN1c
193	121	1441	+1	M_zn2__91__e__93__	R_ALAGLN1c
194	60	1442	+1	M_k__91__e__93__	R_ALAGLU1c
195	121	1442	-1	M_zn2__91__e__93__	R_ALAGLU1c
196	121	1443	-1	M_zn2__91__e__93__	R_ALAGLY1c
197	20	1466	-1	M_cl__91__e__93__	R_ALAHIS1c
198	20	1467	+1	M_cl__91__e__93__	R_ALALEU1c
