CNC	distance
0.188365	0.126897
0.266073	0.12609
0.316228	0.120899
0.375837	0.107168
0.446684	0.115778
0.530884	0.104302
0.554307	0.0785759
0.557306	0.100839
0.560322	0.109253
0.563354	0.109803
0.566402	0.0881962
0.569467	0.10948
0.572549	0.108508
0.575647	0.079582
0.578762	0.108133
0.581894	0.109867
0.585043	0.108737
0.591391	0.108753
0.597809	0.109525
0.604296	0.109979
0.610854	0.109395
0.617483	0.109787
0.630957	0.109933
0.644726	0.107976
0.658795	0.108986
0.67317	0.100483
0.68786	0.109375
0.718208	0.109468
0.749894	0.110473
0.782979	0.110218
0.817523	0.111516
0.891251	0.112551
0.971628	0.111954
1.05925	0.111594
1.15478	0.111661
inf	0.839317
inf	0.839317
inf	0.839317
inf	0.839317
inf	0.839317
inf	0.839317
inf	0.839317
inf	0.839317
inf	0.839317
inf	0.839317
inf	0.839317
inf	0.839317
inf	0.839317
inf	0.839317
inf	0.839317
inf	0.839317
inf	0.839317
inf	0.839317
inf	0.839317
inf	0.839317
inf	0.839317
inf	0.839317
inf	0.839317
inf	0.839317
inf	0.839317
inf	0.839317
inf	0.839317
inf	0.839317
inf	0.839317
inf	0.839317
inf	0.839317
inf	0.839317
inf	0.839317
inf	0.839317
inf	0.839317
inf	0.839317
inf	0.839317
inf	0.839317
inf	0.839317
inf	0.839317
0.01	0.133655
0.0141254	0.213815
0.0199526	0.130045
0.0281838	0.222169
0.0398107	0.358869
0.0562341	0.17463
0.0794328	0.163459
0.112202	0.162267
0.158489	0.127854
0.223872	0.129805
