CNC	distance
0.0811662	0.00413572
0.0816054	0.00467114
0.082047	0.00620111
0.0824909	0.00849342
0.0829373	0.00635704
0.0833861	0.0064704
0.0838373	0.00513761
0.084291	0.00903848
0.0847471	0.00522359
0.0852057	0.00623509
0.0856668	0.00958019
0.0865964	0.00881335
0.0875362	0.0122609
0.0884861	0.0104722
0.0894463	0.0124663
0.090417	0.0104505
0.09239	0.0124498
0.0944061	0.0187422
0.0964662	0.0175744
0.0985712	0.020906
0.10292	0.0199901
0.107461	0.0260451
0.117152	0.0377927
0.122321	0.0411558
0.133352	0.0493456
0.145378	0.0564467
0.172783	0.0792452
0.188365	0.0910428
0.266073	0.127332
0.316228	0.143821
0.375837	0.159101
inf	0.839317
inf	0.839318
inf	0.839317
inf	0.839318
inf	0.839318
inf	0.839317
inf	0.839317
inf	0.839317
inf	0.839317
inf	0.839317
inf	0.839317
inf	0.839317
inf	0.839317
inf	0.839317
inf	0.839317
inf	0.839317
inf	0.839317
inf	0.839317
inf	0.839317
inf	0.839317
inf	0.839317
inf	0.839317
inf	0.839317
inf	0.839317
inf	0.839317
inf	0.839317
inf	0.839317
inf	0.839317
inf	0.839317
inf	0.839317
inf	0.839317
inf	0.839317
inf	0.839317
inf	0.839317
inf	0.839317
inf	0.839317
inf	0.839317
inf	0.839317
inf	0.839317
inf	0.839317
0.01	0.115215
0.0141254	0.104469
0.0199526	0.0894537
0.0281838	0.0735297
0.0398107	0.0544173
0.0562341	0.0283711
0.0794328	0.00553299
0.112202	0.0271424
0.158489	0.069117
0.223872	0.111448
