

###############################################################################
Peregrine Cluster
Job 18029813 for user 's4278836'
Finished at: Tue Feb 16 23:24:40 CET 2021

Job details:
============

Job ID              : 18029813
Name                : Communism
User                : s4278836
Partition           : regular
Nodes               : pg-node037
Number of Nodes     : 1
Cores               : 1
State               : COMPLETED
Submit              : 2021-02-16T23:15:56
Start               : 2021-02-16T23:24:16
End                 : 2021-02-16T23:24:40
Reserved walltime   : 1-00:00:00
Used walltime       :   00:00:24
Used CPU time       :   00:00:21 (efficiency: 89.45%)
% User (Computation): 98.43%
% System (I/O)      :  1.57%
Mem reserved        : 4G/node
Max Mem used        : 0.00  (pg-node037)
Max Disk Write      : 0.00  (pg-node037)
Max Disk Read       : 0.00  (pg-node037)


Acknowledgements:
=================

Please see this page for information about acknowledging Peregrine in your publications:

https://wiki.hpc.rug.nl/peregrine/introduction/scientific_output

################################################################################
