

###############################################################################
Peregrine Cluster
Job 18029081 for user 's4278836'
Finished at: Tue Feb 16 22:20:03 CET 2021

Job details:
============

Job ID              : 18029081
Name                : Communism
User                : s4278836
Partition           : regular
Nodes               : pg-node114
Number of Nodes     : 1
Cores               : 1
State               : COMPLETED
Submit              : 2021-02-16T22:01:59
Start               : 2021-02-16T22:04:00
End                 : 2021-02-16T22:20:03
Reserved walltime   : 1-00:00:00
Used walltime       :   00:16:03
Used CPU time       :   00:16:00 (efficiency: 99.78%)
% User (Computation): 99.97%
% System (I/O)      :  0.03%
Mem reserved        : 4G/node
Max Mem used        : 110.71M (pg-node114)
Max Disk Write      : 0.00  (pg-node114)
Max Disk Read       : 61.44K (pg-node114)
Hints and tips      :
 1) You requested much more memory than your program used.
    Please reduce the requested amount of memory.
 *) For more information on these issues see:
    https://wiki.hpc.rug.nl/peregrine/additional_information/job_hints


Acknowledgements:
=================

Please see this page for information about acknowledging Peregrine in your publications:

https://wiki.hpc.rug.nl/peregrine/introduction/scientific_output

################################################################################
