

###############################################################################
Peregrine Cluster
Job 18029833 for user 's4278836'
Finished at: Tue Feb 16 23:25:20 CET 2021

Job details:
============

Job ID              : 18029833
Name                : Communism
User                : s4278836
Partition           : regular
Nodes               : pg-node151
Number of Nodes     : 1
Cores               : 1
State               : COMPLETED
Submit              : 2021-02-16T23:15:57
Start               : 2021-02-16T23:25:17
End                 : 2021-02-16T23:25:20
Reserved walltime   : 1-00:00:00
Used walltime       :   00:00:03
Used CPU time       : --
% User (Computation): 85.22%
% System (I/O)      : 14.78%
Mem reserved        : 4G/node
Max Mem used        : 0.00  (pg-node151)
Max Disk Write      : 0.00  (pg-node151)
Max Disk Read       : 0.00  (pg-node151)


Acknowledgements:
=================

Please see this page for information about acknowledging Peregrine in your publications:

https://wiki.hpc.rug.nl/peregrine/introduction/scientific_output

################################################################################
