CNC	distance
0.266073	0.126082
0.316228	0.121905
0.375837	0.117658
0.446684	0.109632
0.530884	0.104843
0.630957	0.0988375
0.749894	0.0888589
0.891251	0.0782255
1.05925	0.0679264
1.15478	0.0630659
1.25893	0.0574897
1.37246	0.0521179
1.49624	0.0446631
1.63117	0.0400425
1.77828	0.0323197
1.93865	0.0273769
2.11349	0.0220799
2.30409	0.0156162
2.40575	0.0138847
2.51189	0.0122407
2.62271	0.0095268
2.73842	0.00707967
2.76814	0.00666861
2.78312	0.00693262
2.79818	0.00844357
2.81332	0.00878739
2.82854	0.006938
2.84385	0.00968523
2.85924	0.00892678
2.87471	0.00756489
2.89026	0.00855875
2.9059	0.00757498
2.92163	0.0103314
2.95333	0.00908643
2.98538	0.010936
3.01778	0.0134138
3.05053	0.0118984
3.11709	0.0139559
3.18511	0.0144708
3.25462	0.0151566
3.32564	0.0179877
3.39821	0.0209004
inf	0.839317
inf	0.839318
inf	0.839317
inf	0.839317
inf	0.839317
inf	0.839318
inf	0.839317
inf	0.839317
inf	0.839318
inf	0.839317
inf	0.839318
inf	0.839318
inf	0.839317
inf	0.839318
inf	0.839317
inf	0.839317
inf	0.839317
inf	0.839317
inf	0.839317
inf	0.839317
inf	0.839317
inf	0.839317
inf	0.839317
inf	0.839317
inf	0.839317
inf	0.839317
inf	0.839317
inf	0.839317
inf	0.839317
inf	0.839317
inf	0.839317
inf	0.839317
inf	0.839317
inf	0.839317
inf	0.839317
inf	0.839317
inf	0.839317
inf	0.839317
inf	0.839317
inf	0.839317
0.01	0.141163
0.0141254	0.156776
0.0199526	0.155531
0.0281838	0.154068
0.0398107	0.151916
0.0562341	0.149263
0.0794328	0.145664
0.112202	0.141668
0.158489	0.13628
0.223872	0.130347
