CNC	distance
0.133352	0.011317
0.134074	0.0116091
0.134799	0.0119034
0.135529	0.0121538
0.136262	0.0123207
0.136999	0.0125366
0.137741	0.0128634
0.138486	0.0132366
0.139236	0.0133695
0.139989	0.013742
0.140746	0.0139273
0.142274	0.0146912
0.143818	0.0152849
0.145378	0.0160133
0.146956	0.0166317
0.148551	0.0174284
0.151792	0.0187765
0.155105	0.0204143
0.161948	0.0238625
0.165482	0.0256315
0.172783	0.0286759
0.180406	0.0314926
0.188365	0.0346161
0.196675	0.0370702
0.205353	0.0391211
0.244062	0.0442127
0.266073	0.0464539
0.290068	0.0538347
0.316228	0.0611069
0.375837	0.0764192
0.446684	0.0916996
0.530884	0.106549
inf	0.839347
inf	0.839347
inf	0.839317
inf	0.839317
inf	0.839317
inf	0.839347
inf	0.839317
inf	0.839317
inf	0.839317
inf	0.839317
inf	0.839317
inf	0.839317
inf	0.839317
inf	0.839317
inf	0.839317
inf	0.839347
inf	0.839317
inf	0.839317
inf	0.839317
inf	0.839317
inf	0.839317
inf	0.839317
inf	0.839317
inf	0.839318
inf	0.839317
inf	0.839318
inf	0.839317
inf	0.839318
inf	0.839317
inf	0.839317
inf	0.839317
inf	0.839317
inf	0.839317
inf	0.839317
inf	0.839317
inf	0.839317
inf	0.839317
inf	0.839317
inf	0.839317
inf	0.839317
0.01	0.130446
0.0141254	0.122068
0.0199526	0.110927
0.0281838	0.0978696
0.0398107	0.0815319
0.0562341	0.0618349
0.0794328	0.0388067
0.112202	0.0128368
0.158489	0.0220045
0.223872	0.0429113
