	index	compartment	charge	id	formula	name
1	917	c	+0	C_charge_balance	X	charge balance
2	918	c	+0	C_cytosol_crowding	X	cytosol molecular crowding
3	919	c	+0	C_membrane_crowding	X	membrane molecular crowding
4	0	c	-6	M_10fthf5glu__91__c__93__	C40H45N11O19	10-formyltetrahydrofolate-[Glu](5)
5	1	c	-2	M_10fthf__91__c__93__	C20H21N7O7	10-Formyltetrahydrofolate
6	2	c	-1	M_10m3hddcaACP__91__c__93__	C24H45N2O9PRS	10-methyl-3-hydroxy-dodecanoyl-ACP
7	3	c	-1	M_10m3hundecACP__91__c__93__	C23H43N2O9PRS	10-methyl-3-hydroxy-undecanoyl-ACP
8	4	c	-1	M_10m3oddcaACP__91__c__93__	C24H43N2O9PRS	10-methyl-3-oxo-dodecanoyl-ACP
9	5	c	-1	M_10m3oundecACP__91__c__93__	C23H41N2O9PRS	10-methyl-3-oxo-undecanoyl-ACP
10	6	c	-1	M_10mddcaACP__91__c__93__	C24H45N2O8PRS	10-methyl-dodecanoyl-ACP
11	7	c	-1	M_10mtddec2eACP__91__c__93__	C24H43N2O8PRS	10-methyl-trans-dodec-2-enoyl-ACP
12	8	c	-1	M_10mtundec2eACP__91__c__93__	C23H41N2O8PRS	10-methyl-trans-undec-2-enoyl-ACP
13	9	c	-1	M_10mundecACP__91__c__93__	C23H43N2O8PRS	10-methyl-undecanoyl-ACP
14	10	c	-1	M_11m3hddcaACP__91__c__93__	C24H45N2O9PRS	11-methyl-3-hydroxy-dodecanoyl-ACP
15	11	c	-1	M_11m3oddcaACP__91__c__93__	C24H43N2O9PRS	11-methyl-3-oxo-dodecanoyl-ACP
16	12	c	-1	M_11mddcaACP__91__c__93__	C24H45N2O8PRS	11-methyl-dodecanoyl-ACP
17	13	c	-1	M_11mtddec2eACP__91__c__93__	C24H43N2O8PRS	11-methyl-trans-dodec-2-enoyl-ACP
18	14	c	-1	M_12m3hmyrsACP__91__c__93__	C26H49N2O9PRS	12-methyl-3-hydroxy-tetra-decanoyl-ACP
19	15	c	-1	M_12m3htridecACP__91__c__93__	C25H47N2O9PRS	12-methyl-3-hydroxy-tridecanoyl-ACP
20	16	c	-1	M_12m3omyrsACP__91__c__93__	C26H47N2O9PRS	12-methyl-3-oxo-tetra-decanoyl-ACP
21	17	c	-1	M_12m3otridecACP__91__c__93__	C25H45N2O9PRS	12-methyl-3-oxo-tridecanoyl-ACP
22	18	c	-1	M_12mmyrsACP__91__c__93__	C26H49N2O8PRS	12-methyl-tetra-decanoyl-ACP
23	19	c	-1	M_12mtmrs2eACP__91__c__93__	C26H47N2O8PRS	12-methyl-trans-tetra-dec-2-enoyl-ACP
24	20	c	-1	M_12mtridecACP__91__c__93__	C25H47N2O8PRS	12-methyl-tridecanoyl-ACP
25	21	c	-1	M_12mttritec2eACP__91__c__93__	C25H45N2O8PRS	12-methyl-trans-tridec-2-enoyl-ACP
26	22	c	+0	M_12ppd_S__91__c__93__	C3H8O2	(S)-propane-1,2-diol
27	23	c	-4	M_13dpg__91__c__93__	C3H4O10P2	3-Phospho-D-glyceroyl phosphate
28	24	c	-1	M_13m3hmyrsACP__91__c__93__	C26H49N2O9PRS	13-methyl-3-hydroxy-tetra-decanoyl-ACP
29	25	c	-1	M_13m3omyrsACP__91__c__93__	C26H47N2O9PRS	13-methyl-3-oxo-tetra-decanoyl-ACP
30	26	c	-1	M_13mmyrsACP__91__c__93__	C26H49N2O8PRS	13-methyl-tetra-decanoyl-ACP
31	27	c	-1	M_13mtmrs2eACP__91__c__93__	C26H47N2O8PRS	13-methyl-trans-tetra-dec-2-enoyl-ACP
32	28	c	-1	M_14m3hpalmACP__91__c__93__	C28H53N2O9PRS	14-methyl-3-hydroxy-hexa-decanoyl-ACP
33	29	c	-1	M_14m3hpentdecACP__91__c__93__	C27H51N2O9PRS	14-methyl-3-hydroxy-pentadecanoyl-ACP
34	30	c	-1	M_14m3opalmACP__91__c__93__	C28H51N2O9PRS	14-methyl-3-oxo-hexa-decanoyl-ACP
35	31	c	-1	M_14m3opentdecACP__91__c__93__	C27H49N2O9PRS	14-methyl-3-oxo-pentadecanoyl-ACP
36	32	c	-1	M_14mpalmACP__91__c__93__	C28H53N2O8PRS	14-methyl-hexa-decanoyl-ACP
37	33	c	-1	M_14mpentdecACP__91__c__93__	C27H51N2O8PRS	14-methyl-pentadecanoyl-ACP
38	34	c	-1	M_14mtpalm2eACP__91__c__93__	C28H51N2O8PRS	14-methyl-trans-hexa-dec-2-enoyl-ACP
39	35	c	-1	M_14mtpentdec2eACP__91__c__93__	C27H49N2O8PRS	14-methyl-trans-pentadec-2-enoyl-ACP
40	36	c	-1	M_15m3hpalmACP__91__c__93__	C28H53N2O9PRS	15-methyl-3-hydroxy-hexa-decanoyl-ACP
41	37	c	-1	M_15m3opalmACP__91__c__93__	C28H51N2O9PRS	15-methyl-3-oxo-hexa-decanoyl-ACP
42	38	c	-1	M_15mpalmACP__91__c__93__	C28H53N2O8PRS	15-methyl-hexa-decanoyl-ACP
43	39	c	-1	M_15mtpalm2eACP__91__c__93__	C28H51N2O8PRS	15-methyl-trans-hexa-dec-2-enoyl-ACP
44	40	c	-2	M_1aihpdecg3p__91__c__93__	C20H39O7P	1-anteisoheptadecanoyl-sn-glycerol 3-phosphate (14-methyl-hexadecanoyl, anteiso-C17)
45	41	c	-1	M_1aipdecg3p__91__c__93__	C18H36O7P	1-anteisopentadecanoyl-sn-glycerol 3-phosphate (12-methyl-tetradecanoyl, anteiso-C15)
46	42	c	-2	M_1ddecg3p__91__c__93__	C15H29O7P1	1-acyl-sn-glycerol 3-phosphate(2-)
47	43	c	-2	M_1hdec9eg3p__91__c__93__	C19H35O7P1	1-hexadec-9-enoyl-sn-glycerol 3-phosphate
48	44	c	-2	M_1hdecg3p__91__c__93__	C19H37O7P1	1-hexadecanoyl-sn-glycerol 3-phosphate
49	45	c	-1	M_1ihdecg3p__91__c__93__	C19H38O7P	1-isohexadecanoyl-sn-glycerol 3-phosphate (14-methyl-pentadecanoyl, iso-C16)
50	46	c	-2	M_1ihpdecg3p__91__c__93__	C20H39O7P	1-isoheptadecanoyl-sn-glycerol 3-phosphate (15-methyl-hexadecanoyl, iso-C17)
51	47	c	-1	M_1ipdecg3p__91__c__93__	C18H36O7P	1-isopentadecanoyl-sn-glycerol 3-phosphate (13-methyl-tetradecanoyl, iso-C15)
52	48	c	-1	M_1itdecg3p__91__c__93__	C17H34O7P	1-isotetradecanoyl-sn-glycerol 3-phosphate (12-methyl-tridecanoyl, iso-C14)
53	49	c	-2	M_1odec11eg3p__91__c__93__	C21H39O7P1	1-octadec-11-enoyl-sn-glycerol 3-phosphate
54	50	c	-2	M_1odecg3p__91__c__93__	C21H41O7P1	1-octadecanoyl-sn-glycerol 3-phosphate
55	51	c	-1	M_1p3h5c__91__c__93__	C5H6NO3	L-1-Pyrroline-3-hydroxy-5-carboxylate
56	52	c	+0	M_1pipdn2c__91__c__93__	C6H9NO2	1-piperideine-2-carboxylate
57	53	c	-1	M_1pyr5c__91__c__93__	C5H6NO2	1-Pyrroline-5-carboxylate
58	54	c	-2	M_1tdec7eg3p__91__c__93__	C17H31O7P1	1-tetradec-7-enoyl-sn-glycerol 3-phosphate
59	55	c	-2	M_1tdecg3p__91__c__93__	C17H33O7P1	1-tetradecanoyl-sn-glycerol 3-phosphate
60	56	c	-1	M_23camp__91__c__93__	C10H11N5O6P	2,3-Cyclic AMP
61	57	c	-1	M_23ccmp__91__c__93__	C9H11N3O7P	2,3-Cyclic CMP
62	58	c	-1	M_23cgmp__91__c__93__	C10H11N5O7P	2,3-Cyclic GMP
63	59	c	-1	M_23cump__91__c__93__	C9H10N2O8P	2,3-cyclic UMP(1-)
64	60	c	-2	M_23dhdp__91__c__93__	C7H5NO4	2,3-Dihydrodipicolinate
65	61	c	-1	M_23dhmb__91__c__93__	C5H9O4	(R)-2,3-Dihydroxy-3-methylbutanoate
66	62	c	-1	M_23dhmp__91__c__93__	C6H11O4	(R)-2,3-Dihydroxy-3-methylpentanoate
67	63	c	-4	M_25aics__91__c__93__	C13H15N4O12P	(S)-2-[5-Amino-1-(5-phospho-D-ribosyl)imidazole-4-carboxamido]succinate
68	64	c	-2	M_25dhpp__91__c__93__	C9H14N5O8P	2,5-Diamino-6-hydroxy-4-(5-phosphoribosylamino)-pyrimidine
69	65	c	+0	M_26dap_LL__91__c__93__	C7H14N2O4	LL-2,6-Diaminoheptanedioate
70	66	c	+0	M_26dap_M__91__c__93__	C7H14N2O4	meso-2,6-Diaminoheptanedioate
71	67	c	-1	M_2ahbut__91__c__93__	C6H9O4	(S)-2-Aceto-2-hydroxybutanoate
72	68	c	-3	M_2ahhmd__91__c__93__	C7H8N5O8P2	2-Amino-4-hydroxy-6-hydroxymethyl-7,8-dihydropteridine diphosphate
73	69	c	+0	M_2ahhmp__91__c__93__	C7H9N5O2	2-Amino-4-hydroxy-6-hydroxymethyl-7,8-dihydropteridine
74	70	c	-1	M_2ameph__91__c__93__	C2H7NO3P	(2-Aminoethyl)phosphonate
75	71	c	+0	M_2aobut__91__c__93__	C4H7NO3	L-2-amino-3-oxobutanoic acid
76	72	c	-3	M_2cpr5p__91__c__93__	C12H13NO9P	1-(2-Carboxyphenylamino)-1-deoxy-D-ribulose 5-phosphate
77	73	c	-3	M_2dda7p__91__c__93__	C7H10O10P	2-Dehydro-3-deoxy-D-arabino-heptonate 7-phosphate
78	74	c	-3	M_2ddg6p__91__c__93__	C6H8O9P	2-Dehydro-3-deoxy-D-gluconate 6-phosphate
79	75	c	-1	M_2ddglcn__91__c__93__	C6H9O6	2-Dehydro-3-deoxy-D-gluconate
80	76	c	-1	M_2dhp__91__c__93__	C6H9O4	2-Dehydropantoate
81	77	c	+0	M_2dmmq8__91__c__93__	C50H70O2	2-Demethylmenaquinone 8
82	78	c	+0	M_2dmmql8__91__c__93__	C50H72O2	2-Demethylmenaquinol 8
83	79	c	-2	M_2dr1p__91__c__93__	C5H9O7P	2-Deoxy-D-ribose 1-phosphate
84	80	c	-2	M_2dr5p__91__c__93__	C5H9O7P	2-deoxy-D-ribose 5-phosphate(2-)
85	81	c	-1	M_2h3oppan__91__c__93__	C3H3O4	2-Hydroxy-3-oxopropanoate
86	82	c	+0	M_2hymeph__91__c__93__	C7H8O2	2-(Hydroxymethyl)phenol
87	83	c	+0	M_2ins__91__c__93__	C6H10O6	2-Inosose
88	84	c	-2	M_2ippm__91__c__93__	C7H8O4	2-Isopropylmaleate
89	85	c	-3	M_2mahmp__91__c__93__	C6H8N3O7P2	2-Methyl-4-amino-5-hydroxymethylpyrimidine diphosphate
90	86	c	-4	M_2mbcoa__91__c__93__	C26H40N7O17P3S	2-methylbutanoyl-CoA(4-)
91	87	c	-1	M_2mbutACP__91__c__93__	C16H29N2O8PRS	2-methylbutanoyl-ACP,2-methylbutyryl-ACP
92	88	c	-2	M_2me4p__91__c__93__	C5H11O7P	2-C-methyl-D-erythritol 4-phosphate
93	89	c	-2	M_2mecdp__91__c__93__	C5H10O9P2	2-C-methyl-D-erythritol 2,4-cyclodiphosphate
94	90	c	-2	M_2mmal__91__c__93__	C5H6O5	(R)-2-Methylmalate
95	91	c	-2	M_2mmale__91__c__93__	C5H4O4	2-Methylmaleate
96	92	c	-1	M_2mpropACP__91__c__93__	C15H27N2O8PRS	2-methylpropionyl-ACP,isobutyryl-ACP
97	93	c	-1	M_2obut__91__c__93__	C4H5O3	2-Oxobutanoate
98	94	c	+0	M_2ombz__91__c__93__	C47H70O3	2-Octaprenyl-6-methoxy-1,4-benzoquinone
99	95	c	+0	M_2ommb__91__c__93__	C48H72O3	2-Octaprenyl-3-methyl-6-methoxy-1,4-benzoquinone
100	96	c	-4	M_2p4c2me__91__c__93__	C14H22N3O17P3	2-phospho-4-(cytidine 5-diphospho)-2-C-methyl-D-erythritol
101	97	c	-3	M_2pg__91__c__93__	C3H4O7P	D-Glycerate 2-phosphate
102	98	c	-3	M_2pglyc__91__c__93__	C2H2O6P	2-phosphonatoglycolate(3-)
103	99	c	-3	M_2s5epchc__91__c__93__	C14H13O9	2-Succinyl-5-enolpyruvyl-6-hydroxy-3-cyclohexene-1-carboxylate
104	100	c	-2	M_2shchc__91__c__93__	C11H10O6	2-Succinyl-6-hydroxy-2,4-cyclohexadiene-1-carboxylate
105	101	c	-1	M_33hmeoxobut__91__c__93__	C5H7O4	2-Oxo-3-hydroxyisovalerate
106	102	c	-1	M_34hpp__91__c__93__	C9H7O4	3-(4-hydroxyphenyl)pyruvate
107	103	c	+1	M_36dahx__91__c__93__	C6H15N2O2	(3S)-3,6-Diaminohexanoate
108	104	c	-1	M_3a2opp__91__c__93__	C3H7NO5P	3-Amino-2-oxopropyl phosphate
109	105	c	-2	M_3amp__91__c__93__	C10H12N5O7P	3-AMP(2-)
110	106	c	-2	M_3c2hmp__91__c__93__	C7H10O5	3-Carboxy-2-hydroxy-4-methylpentanoate
111	107	c	-2	M_3c3hmp__91__c__93__	C7H10O5	3-Carboxy-3-hydroxy-4-methylpentanoate
112	108	c	-2	M_3c4mop__91__c__93__	C7H8O5	3-Carboxy-4-methyl-2-oxopentanoate
113	109	c	-2	M_3cmp__91__c__93__	C9H12N3O8P	3-cmp
114	110	c	-1	M_3dhq__91__c__93__	C7H9O6	3-Dehydroquinate
115	111	c	-1	M_3dhsk__91__c__93__	C7H7O5	3-Dehydroshikimate
116	112	c	-2	M_3gmp__91__c__93__	C10H12N5O8P	3-GMP
117	113	c	-1	M_3h3mop__91__c__93__	C6H9O4	(R)-3-Hydroxy-3-methyl-2-oxopentanoate
118	114	c	-1	M_3haACP__91__c__93__	C15H27N2O9PRS	(3R)-3-Hydroxyacyl-[acyl-carrier protein]
119	115	c	-1	M_3hddecACP__91__c__93__	C23H43N2O9PRS	(R)-3-Hydroxydodecanoyl-[acyl-carrier protein]
120	116	c	-1	M_3hdecACP__91__c__93__	C21H39N2O9PRS	(R)-3-Hydroxydecanoyl-[acyl-carrier protein]
121	117	c	-1	M_3hgACPm__91__c__93__	C17H29N2O11PRS	3-hydroxyglutaryl-ACP methyl ester
122	118	c	-1	M_3hhexACP__91__c__93__	C17H31N2O9PRS	(R)-3-Hydroxyhexanoyl-[acyl-carrier protein]
123	119	c	-1	M_3hmrsACP__91__c__93__	C25H47N2O9PRS	(R)-3-Hydroxytetradecanoyl-[acyl-carrier protein]
124	120	c	-1	M_3hoctACP__91__c__93__	C19H35N2O9PRS	(R)-3-Hydroxyoctanoyl-[acyl-carrier protein]
125	121	c	-1	M_3hoctaACP__91__c__93__	C29H55N2O9PRS	(R)-3-Hydroxyoctadecanoyl-[acyl-carrier protein]
126	122	c	-1	M_3hpACPm__91__c__93__	C19H33N2O11PRS	3-hydroxypimeloyl-ACP methyl ester
127	123	c	-1	M_3hpalmACP__91__c__93__	C27H51N2O9PRS	R-3-hydroxypalmitoyl-[acyl-carrier protein]
128	124	c	-2	M_3ig3p__91__c__93__	C11H12NO6P	C-(3-Indolyl)-glycerol 3-phosphate
129	125	c	-1	M_3mbutACP__91__c__93__	C16H29N2O8PRS	3-methylbutanoyl-ACP,isovaleryl-ACP
130	126	c	-1	M_3mob__91__c__93__	C5H7O3	3-methyl-2-oxobutanoate
131	127	c	-1	M_3mop__91__c__93__	C6H9O3	3-methyl-2-oxopentanoate
132	128	c	-1	M_3oddecACP__91__c__93__	C23H41N2O9PRS	3-Oxododecanoyl-[acyl-carrier protein]
133	129	c	-1	M_3odecACP__91__c__93__	C21H37N2O9PRS	3-Oxodecanoyl-[acyl-carrier protein]
134	130	c	-1	M_3ogACPm__91__c__93__	C17H27N2O11PRS	3-ketoglutaryl-ACP methyl ester
135	131	c	-1	M_3ohexACP__91__c__93__	C17H29N2O9PRS	3-Oxohexanoyl-[acyl-carrier protein]
136	132	c	-1	M_3omrsACP__91__c__93__	C25H45N2O9PRS	3-Oxotetradecanoyl-[acyl-carrier protein]
137	133	c	-1	M_3ooctACP__91__c__93__	C19H33N2O9PRS	3-Oxooctanoyl-[acyl-carrier protein]
138	134	c	-1	M_3ooctdACP__91__c__93__	C29H53N2O9PRS	3-Oxooctadecanoyl-[acyl-carrier protein]
139	135	c	-1	M_3opACPm__91__c__93__	C19H31N2O11PRS	3-ketopimeloyl-ACP methyl ester
140	136	c	-1	M_3opalmACP__91__c__93__	C27H49N2O9PRS	3-Oxohexadecanoyl-[acyl-carrier protein]
141	137	c	-4	M_3padsel__91__c__93__	C10H11N5O13P2Se	3-Phosphoadenylylselenate
142	138	c	-3	M_3pg__91__c__93__	C3H4O7P	3-Phospho-D-glycerate
143	139	c	-3	M_3php__91__c__93__	C3H2O7P	3-phosphonatooxypyruvate(3-)
144	140	c	-4	M_3psme__91__c__93__	C10H9O10P	5-O-(1-Carboxyvinyl)-3-phosphoshikimate
145	141	c	-2	M_3ump__91__c__93__	C9H11N2O9P	3-UMP(2-)
146	142	c	+0	M_4abut__91__c__93__	C4H9NO2	4-Aminobutanoate
147	143	c	-1	M_4abz__91__c__93__	C7H6NO2	4-Aminobenzoate
148	144	c	-1	M_4adcho__91__c__93__	C10H10NO5	4-amino-4-deoxychorismate
149	145	c	+0	M_4ahmmp__91__c__93__	C6H9N3O	4-Amino-5-hydroxymethyl-2-methylpyrimidine
150	146	c	-2	M_4ampm__91__c__93__	C6H8N3O4P	4-Amino-2-methyl-5-phosphomethylpyrimidine
151	147	c	-2	M_4c2me__91__c__93__	C14H23N3O14P2	4-(cytidine 5-diphospho)-2-C-methyl-D-erythritol
152	148	c	-2	M_4h2oglt__91__c__93__	C5H4O6	4-hydroxy-2-oxoglutarate(2-)
153	149	c	+0	M_4hba__91__c__93__	C7H8O2	4-Hydroxy-benzyl alcohol
154	150	c	-1	M_4hbz__91__c__93__	C7H5O3	4-hydroxybenzoate
155	151	c	+0	M_4hpro_LT__91__c__93__	C5H9NO3	trans-4-hydroxy-L-proline
156	152	c	+0	M_4hthr__91__c__93__	C4H9NO4	4-Hydroxy-L-threonine
157	153	c	-1	M_4m3hhexACP__91__c__93__	C18H33N2O9PRS	4-methyl-3-hydroxy-hexanoyl-ACP
158	154	c	-1	M_4m3hpentACP__91__c__93__	C17H31N2O9PRS	4-methyl-3-hydroxy-pentanoyl-ACP
159	155	c	-1	M_4m3ohexACP__91__c__93__	C18H31N2O9PRS	4-methyl-3-oxo-hexanoyl-ACP
160	156	c	-1	M_4m3opentACP__91__c__93__	C17H29N2O9PRS	4-methyl-3-oxo-pentanoyl-ACP
161	157	c	-1	M_4mhexACP__91__c__93__	C18H33N2O8PRS	4-methyl-hexanoyl-ACP
162	158	c	-1	M_4mop__91__c__93__	C6H9O3	4-methyl-2-oxopentanoate
163	159	c	-1	M_4mpentACP__91__c__93__	C17H31N2O8PRS	4-methyl-pentanoyl-ACP
164	160	c	-2	M_4mpetz__91__c__93__	C6H8NO4PS	4-Methyl-5-(2-phosphoethyl)-thiazole
165	161	c	-1	M_4mthex2eACP__91__c__93__	C18H31N2O8PRS	4-methyl-trans-hex-2-enoyl-ACP
166	162	c	-1	M_4mtpent2eACP__91__c__93__	C17H29N2O8PRS	4-methyl-trans-pent-2-enoyl-ACP
167	163	c	-2	M_4pasp__91__c__93__	C4H6NO7P	4-Phospho-L-aspartate
168	164	c	-3	M_4per__91__c__93__	C4H6O8P	4-Phospho-D-erythronate
169	165	c	-3	M_4ppan__91__c__93__	C9H15NO8P	D-4-Phosphopantothenate
170	166	c	-3	M_4ppcys__91__c__93__	C12H20N2O9PS	N-((R)-4-Phosphopantothenoyl)-L-cysteine
171	167	c	+0	M_4r5au__91__c__93__	C9H16N4O6	4-(1-D-Ribitylamino)-5-aminouracil
172	168	c	-3	M_5aizc__91__c__93__	C9H11N3O9P	5-amino-1-(5-phospho-D-ribosyl)imidazole-4-carboxylate
173	169	c	+0	M_5aop__91__c__93__	C5H9NO3	5-Amino-4-oxopentanoate
174	170	c	-2	M_5aprbu__91__c__93__	C9H15N4O9P	5-Amino-6-(5-phosphoribitylamino)uracil
175	171	c	-2	M_5apru__91__c__93__	C9H13N4O9P	5-Amino-6-(5-phosphoribosylamino)uracil
176	172	c	-2	M_5fthf__91__c__93__	C20H21N7O7	5-formyltetrahydrofolate(2-)
177	173	c	-1	M_5hxudidzcba__91__c__93__	C5H5N4O5	5-Hydroxy-2-oxo-4-ureido-2,5-dihydro-1H-imidazole-5-carboxylate
178	174	c	-1	M_5m3hhexACP__91__c__93__	C18H33N2O9PRS	5-methyl-3-hydroxy-hexanoyl-ACP
179	175	c	-1	M_5m3ohexACP__91__c__93__	C18H31N2O9PRS	5-methyl-3-oxo-hexanoyl-ACP
180	176	c	-1	M_5mhexACP__91__c__93__	C18H33N2O8PRS	5-methyl-hexanoyl-ACP
181	177	c	+0	M_5mta__91__c__93__	C11H15N5O3S	5-Methylthioadenosine
182	178	c	-1	M_5mthex2eACP__91__c__93__	C18H31N2O8PRS	5-methyl-trans-hex-2-enoyl-ACP
183	179	c	-1	M_5mthf__91__c__93__	C20H24N7O6	5-Methyltetrahydrofolate
184	180	c	+0	M_5mtr__91__c__93__	C6H12O4S	5-Methylthio-D-ribose
185	181	c	-6	M_5thf__91__c__93__	C39H45N11O18	pentaglutamyl folate (THF)
186	182	c	+0	M_6a2ohxnt__91__c__93__	C6H11NO3	6-amino-2-oxohexanoic acid
187	183	c	+0	M_6hmhpt__91__c__93__	C7H9N5O2	6-hydroxymethyl dihydropterin
188	184	c	-3	M_6hmhptpp__91__c__93__	C7H8N5O8P2	6-hydroxymethyl-dihydropterin pyrophosphate
189	185	c	-1	M_6m3hheptACP__91__c__93__	C19H35N2O9PRS	6-methyl-3-hydroxy-heptanoyl-ACP
190	186	c	-1	M_6m3hocACP__91__c__93__	C20H37N2O9PRS	6-methyl-3-hydroxy-octanoyl-ACP
191	187	c	-1	M_6m3oheptACP__91__c__93__	C19H33N2O9PRS	6-methyl-3-oxo-heptanoyl-ACP
192	188	c	-1	M_6m3oocACP__91__c__93__	C20H35N2O9PRS	6-methyl-3-oxo-octanoyl-ACP
193	189	c	-1	M_6mheptACP__91__c__93__	C19H35N2O8PRS	6-methyl-heptanoyl-ACP
194	190	c	-1	M_6mocACP__91__c__93__	C20H37N2O8PRS	6-methyl-octanoyl-ACP
195	191	c	-1	M_6mthept2eACP__91__c__93__	C19H33N2O8PRS	6-methyl-trans-hept-2-enoyl-ACP
196	192	c	-1	M_6mtoct2eACP__91__c__93__	C20H35N2O8PRS	6-methyl-trans-oct-2-enoyl-ACP
197	193	c	-3	M_6pgc__91__c__93__	C6H10O10P	6-Phospho-D-gluconate
198	194	c	-2	M_6pgl__91__c__93__	C6H9O9P	6-phospho-D-glucono-1,5-lactone
199	195	c	-1	M_7m3hocACP__91__c__93__	C20H37N2O9PRS	7-methyl-3-hydroxy-octanoyl-ACP
200	196	c	-1	M_7m3oocACP__91__c__93__	C20H35N2O9PRS	7-methyl-3-oxo-octanoyl-ACP
201	197	c	-1	M_7mocACP__91__c__93__	C20H37N2O8PRS	7-methyl-octanoyl-ACP
202	198	c	-1	M_7mtoct2eACP__91__c__93__	C20H35N2O8PRS	7-methyl-trans-oct-2-enoyl-ACP
203	199	c	+0	M_8aonn__91__c__93__	C9H17NO3	8-Amino-7-oxononanoate
204	200	c	-1	M_8m3hdcaACP__91__c__93__	C22H41N2O9PRS	8-methyl-3-hydroxy-decanoyl-ACP
205	201	c	-1	M_8m3hnonACP__91__c__93__	C21H39N2O9PRS	8-methyl-3-hydroxy-nonanoyl-ACP
206	202	c	-1	M_8m3odcaACP__91__c__93__	C22H39N2O9PRS	8-methyl-3-oxo-decanoyl-ACP
207	203	c	-1	M_8m3ononACP__91__c__93__	C21H37N2O9PRS	8-methyl-3-oxo-nonanoyl-ACP
208	204	c	-1	M_8mdcaACP__91__c__93__	C22H41N2O8PRS	8-methyl-decanoyl-ACP
209	205	c	-1	M_8mnonACP__91__c__93__	C21H39N2O8PRS	8-methyl-nonanoyl-ACP
210	206	c	-1	M_8mtdec2eACP__91__c__93__	C22H39N2O8PRS	8-methyl-trans-dec-2-enoyl-ACP
211	207	c	-1	M_8mtnon2eACP__91__c__93__	C21H37N2O8PRS	8-methyl-trans-non-2-enoyl-ACP
212	208	c	-1	M_9m3hdcaACP__91__c__93__	C22H41N2O9PRS	9-methyl-3-hydroxy-decanoyl-ACP
213	209	c	-1	M_9m3odcaACP__91__c__93__	C22H39N2O9PRS	9-methyl-3-oxo-decanoyl-ACP
214	210	c	-1	M_9mdcaACP__91__c__93__	C22H41N2O8PRS	9-methyl-decanoyl-ACP
215	211	c	-1	M_9mtdec2eACP__91__c__93__	C22H39N2O8PRS	9-methyl-trans-dec-2-enoyl-ACP
216	212	c	-1	M_ACP__91__c__93__	C11H21N2O7PRS	acyl carrier protein
217	213	c	+0	M_C11821__91__c__93__	C5H4N4O4	5-Hydroxyisourate
218	214	c	-1	M_CE5656__91__c__93__	C18H25N5O8PS2	lipoyl-AMP(1-)
219	215	c	-2	M_HC01104__91__c__93__	C6H4NO6P	4-nitrophenyl phosphate(2-)
220	216	c	-3	M_HC01434__91__c__93__	C6H3O7	oxalatosuccinate(3-)
221	217	c	-4	M_HC01651__91__c__93__	C10H14N5O15P3	Formamidopyrimidine nucleoside triphosphate
222	218	c	-4	M_HC01652__91__c__93__	C9H14N5O14P3	2,5-Diaminopyrimidine nucleoside triphosphate
223	219	c	-4	M_HC01710__91__c__93__	C9H14N5O14P3	2,5-Diamino-6-(5-triphosphoryl-3,4-trihydroxy-2-oxopentyl)- amino-4-oxopyrimidine
224	220	c	+0	M_L2aadp6sa__91__c__93__	C6H11NO3	L-allysine
225	221	c	-1	M_Largn__91__c__93__	C10H12NO5	L-Arogenate
226	222	c	+2	M_N1aspmd__91__c__93__	C9H23N3O	N(1)-acetylspermidinium(2+)
227	223	c	+0	M_Naccitr_L__91__c__93__	C8H15N3O4	N-Acetyl-L-citrulline
228	224	c	+0	M_PGP__91__c__93__	C39H64N8O19X	Peptidoglycan polymer (n subunits)
229	225	c	+0	M_PGPm1__91__c__93__	X	Peptidoglycan polymer (n-1 subunits)
230	226	c	+1	M_aact__91__c__93__	C3H8NO	ammonioacetone
231	227	c	-1	M_acACP__91__c__93__	C13H23N2O8PRS	Acetyl-ACP
232	228	c	-1	M_ac__91__c__93__	C2H3O2	acetate
233	229	c	+0	M_acald__91__c__93__	C2H4O	acetaldehyde
234	230	c	-4	M_accoa__91__c__93__	C23H34N7O17P3S	Acetyl-CoA
235	231	c	-3	M_acg5p__91__c__93__	C7H9NO8P	N-acetyl-L-gamma-glutamyl phosphate(3-)
236	232	c	-1	M_acg5sa__91__c__93__	C7H10NO4	2-acetamido-5-oxopentanoate
237	233	c	-2	M_acgal6p__91__c__93__	C8H14NO9P	N-Acetyl-D-galactosamine 6-phosphate
238	234	c	+0	M_acgal__91__c__93__	C8H15NO6	N-acetyl-D-galactosamine
239	235	c	-2	M_acgam1p__91__c__93__	C8H14NO9P	N-Acetyl-D-glucosamine 1-phosphate
240	236	c	-2	M_acgam6p__91__c__93__	C8H14NO9P	N-acetyl-D-glucosamine 6-phosphate(2-)
241	237	c	+0	M_acgam__91__c__93__	C8H15NO6	N-acetyl-D-glucosamine
242	238	c	-2	M_acglu__91__c__93__	C7H9NO5	N-acetyl-L-glutamate(2-)
243	239	c	+0	M_achms__91__c__93__	C6H11NO4	O-Acetyl-L-homoserine
244	240	c	+0	M_acmalt__91__c__93__	C14H24O12	Acetyl-maltose
245	241	c	-1	M_acmam__91__c__93__	C11H18NO8	N-Acetyl-D-muramoate
246	242	c	-1	M_acmama__91__c__93__	C14H23N2O9	N-Acetyl-D-muramoyl-L-alanine
247	243	c	+0	M_acmana__91__c__93__	C8H15NO6	N-acetyl-D-mannosamine
248	244	c	-2	M_acmanap__91__c__93__	C8H14NO9P	N-acetyl-D-mannosamine 6-phosphate(2-)
249	245	c	-1	M_acnam__91__c__93__	C11H18NO9	N-acetylneuraminate
250	246	c	-3	M_acon_C__91__c__93__	C6H3O6	cis-Aconitate
251	247	c	+0	M_acorn__91__c__93__	C7H14N2O3	N(2)-acetyl-L-ornithine
252	248	c	+0	M_acser__91__c__93__	C5H9NO4	O-Acetyl-L-serine
253	249	c	-1	M_actACP__91__c__93__	C15H25N2O9PRS	Acetoacetyl-ACP
254	250	c	+0	M_actn_R__91__c__93__	C4H8O2	(R)-Acetoin
255	251	c	-2	M_actp__91__c__93__	C2H3O5P	Acetyl phosphate
256	252	c	-4	M_adcobdam__91__c__93__	C55H68CoN11O15	Adenosyl cobyrinate diamide
257	253	c	+0	M_ade__91__c__93__	C5H5N5	Adenine
258	254	c	+0	M_adhlam__91__c__93__	C10H19NO2S2	S-Acetyldihydrolipoamide
259	255	c	+0	M_adn__91__c__93__	C10H13N5O4	Adenosine
260	256	c	+1	M_adocbi__91__c__93__	C58H84CoN16O11	Adenosyl cobinamide
261	257	c	+0	M_adocbl__91__c__93__	C72H100CoN18O17P	Adenosylcobalamin
262	258	c	-3	M_adp__91__c__93__	C10H12N5O10P2	ADP
263	259	c	-2	M_adphep_DD__91__c__93__	C17H25N5O16P2	ADP-D-glycero-D-manno-heptose
264	260	c	-2	M_adphep_LD__91__c__93__	C17H25N5O16P2	ADP-L-glycero-D-manno-heptose
265	261	c	-2	M_adprib__91__c__93__	C15H21N5O14P2	ADPribose
266	262	c	-2	M_adsel__91__c__93__	C10H12N5O10PSe	Adenylylselenate
267	263	c	+2	M_agm__91__c__93__	C5H16N4	agmatinium(2+)
268	264	c	+0	M_ahcys__91__c__93__	C14H20N6O5S	S-Adenosyl-L-homocysteine
269	265	c	-4	M_ahdt__91__c__93__	C9H12N5O13P3	7,8-dihydroneopterin 3-triphosphate(4-)
270	266	c	-24	M_ai15tca1__91__c__93__	C117H228O135P24	Anteisopentadecanoyllipoteichoic acid (n=24), linked, unsubstituted
271	267	c	-24	M_ai15tcaglc__91__c__93__	C261H468O255P24	Anteisopentadecanoyllipoteichoic acid (n=24), linked, glucose substituted
272	268	c	-24	M_ai17tca1__91__c__93__	C121H236O135P24	Anteisoheptadecanoyllipoteichoic acid (n=24), linked, unsubstituted
273	269	c	-24	M_ai17tcaglc__91__c__93__	C265H476O255P24	Anteisoheptadecanoyllipoteichoic acid (n=24), linked, glucose substituted
274	270	c	-2	M_aicar__91__c__93__	C9H13N4O8P	5-Amino-1-(5-Phospho-D-ribosyl)imidazole-4-carboxamide
275	271	c	-4	M_aihpdcoa__91__c__93__	C38H64N7O17P3S	fa12coa,Anteiso-C17:0 CoA   Anteisoheptadecanoyl-CoA
276	272	c	-4	M_aipdcoa__91__c__93__	C36H60N7O17P3S	fa4coa,Anteiso-C15:0 CoA   Anteisopentadecanoyl-CoA
277	273	c	-2	M_air__91__c__93__	C8H12N3O7P	5-amino-1-(5-phospho-D-ribosyl)imidazole
278	274	c	-2	M_akg__91__c__93__	C5H4O5	2-Oxoglutarate
279	275	c	+0	M_ala_B__91__c__93__	C3H7NO2	beta-alanine
280	276	c	+0	M_ala_D__91__c__93__	C3H7NO2	D-alanine
281	277	c	+0	M_ala_L__91__c__93__	C3H7NO2	L-alanine
282	278	c	+0	M_alaala__91__c__93__	C6H12N2O3	D-Alanyl-D-alanine
283	279	c	-1	M_alaasp__91__c__93__	C7H11N2O5	L-alanyl-L-aspartate
284	280	c	-1	M_alac_S__91__c__93__	C5H7O4	(S)-2-Acetolactate
285	281	c	+0	M_alagln__91__c__93__	C8H15N3O4	L-alanyl-L-glutamine
286	282	c	-1	M_alaglu__91__c__93__	C8H13N2O5	L-alanyl-L-glutamate
287	283	c	+0	M_alagly__91__c__93__	C5H10N2O3	L-alanylglycine
288	284	c	+0	M_alahis__91__c__93__	C9H14N4O3	L-alanyl-L-histidine
289	285	c	+0	M_alaleu__91__c__93__	C9H18N2O3	L-alanyl-L-leucine
290	286	c	+0	M_alathr__91__c__93__	C7H14N2O4	L-alanyl-L-threonine
291	288	c	+0	M_alltn_R__91__c__93__	C4H6N4O3	(R)-Allantoin
292	287	c	+0	M_alltn__91__c__93__	C4H6N4O3	Allantoin
293	289	c	+1	M_alpro__91__c__93__	CH6NS2X	S-Aminomethyldihydrolipoylprotein
294	290	c	-1	M_altrn__91__c__93__	C6H11O7	D-Altronate
295	291	c	+1	M_amet__91__c__93__	C15H23N6O5S	S-Adenosyl-L-methionine
296	292	c	+0	M_amob__91__c__93__	C15H19N5O6S	S-Adenosyl-4-methylthio-2-oxobutanoate
297	293	c	-2	M_amopbut_L__91__c__93__	C4H6NO7P	2-Amino-3-oxo-4-phosphonooxybutyrate
298	294	c	-2	M_amp__91__c__93__	C10H12N5O7P	AMP
299	295	c	-1	M_anth__91__c__93__	C7H6NO2	anthranilate
300	296	c	+0	M_apoACP__91__c__93__	RHO	apoprotein [acyl carrier protein]
301	297	c	+0	M_apoC_Lys_btn__91__c__93__	C16H27N4O3SX	Holocarboxylase (biotin covalent bound to Lys residue of apoC)
302	298	c	-2	M_aps__91__c__93__	C10H12N5O10PS	5-adenylyl sulfate(2-)
303	299	c	-2	M_ara5p__91__c__93__	C5H9O8P	D-Arabinose 5-phosphate
304	300	c	+0	M_arab_L__91__c__93__	C5H10O5	L-arabinose
305	301	c	+1	M_arg_L__91__c__93__	C6H15N4O2	L-argininium(1+)
306	302	c	-1	M_argsuc__91__c__93__	C10H17N4O6	N(omega)-(L-Arginino)succinate
307	303	c	+0	M_arsenb__91__c__93__	C5H12AsO2	Arsenobetaine
308	304	c	+0	M_asn_L__91__c__93__	C4H8N2O3	L-asparagine
309	305	c	-1	M_asp_L__91__c__93__	C4H6NO4	L-aspartate(1-)
310	306	c	+0	M_aspsa__91__c__93__	C4H7NO3	L-Aspartate 4-semialdehyde
311	307	c	-4	M_atp__91__c__93__	C10H12N5O13P3	ATP
312	308	c	+0	M_biomass__91__c__93__	X	Produced biomass
313	309	c	-1	M_btamp__91__c__93__	C20H27N7O9PS	Biotinyl-5-AMP
314	310	c	-4	M_btcoa__91__c__93__	C25H38N7O17P3S	Butanoyl-CoA
315	311	c	-1	M_btn__91__c__93__	C10H15N2O3S	Biotin
316	312	c	-1	M_btn_co2__91__c__93__	C17H26N4O5SX	Carboxybiotin-carboxyl-carrier protein
317	313	c	-1	M_but2eACP__91__c__93__	C15H25N2O8PRS	But-2-enoyl-[acyl-carrier protein]
318	314	c	-1	M_butACP__91__c__93__	C15H27N2O8PRS	Butyryl-ACP (n-C4:0ACP)
319	315	c	-1	M_but__91__c__93__	C4H7O2	butyrate
320	316	c	-2	M_butpi__91__c__93__	C4H7O5P	Butanoyl phosphate
321	317	c	+2	M_ca2__91__c__93__	Ca	calcium(2+)
322	318	c	-2	M_cbasp__91__c__93__	C5H6N2O5	N-Carbamoyl-L-aspartate
323	319	c	+0	M_cbi__91__c__93__	C48H72CoN11O8	Cobinamide
324	320	c	-1	M_cbl1__91__c__93__	C62H88CoN13O14P	Cob(I)alamin
325	321	c	+0	M_cbl2__91__c__93__	C62H92CoN13O14P	Cob(II)alamin
326	322	c	-1	M_cbmt__91__c__93__	CH2NO2	Carbamate
327	323	c	-2	M_cbp__91__c__93__	CH2NO5P	Carbamoyl phosphate
328	324	c	+2	M_cd2__91__c__93__	Cd	Cadmium
329	325	c	-3	M_cdp__91__c__93__	C9H12N3O11P2	CDP
330	326	c	-2	M_cdpdaihpdecg__91__c__93__	C46H83N3O15P2	CDP-1,2-dianteisoheptadecanoylglycerol (14-methyl-hexadecanoyl, anteiso-C17)
331	327	c	-2	M_cdpdaipdecg__91__c__93__	C42H75N3O15P2	CDP-1,2-dianteisopentadecanoylglycerol (12-methyl-tetradecanoyl, anteiso-C15)
332	328	c	-2	M_cdpdddecg__91__c__93__	C36H63N3O15P2	CDP-1,2-didodecanoylglycerol
333	329	c	-2	M_cdpddg__91__c__93__	C15H21N3O15P2	CDP-4-dehydro-6-deoxy-D-glucose
334	330	c	-2	M_cdpdhdec9eg__91__c__93__	C44H75N3O15P2	CDP-1,2-dihexadec-9-enoylglycerol
335	331	c	-2	M_cdpdhdecg__91__c__93__	C44H79N3O15P2	CDP-1,2-dihexadecanoylglycerol
336	332	c	-2	M_cdpdihdecg__91__c__93__	C44H79N3O15P2	CDP-1,2-diisohexadecanoylglycerol (14-methyl-pentadecanoyl, iso-C16)
337	333	c	-2	M_cdpdihpdecg__91__c__93__	C46H83N3O15P2	CDP-1,2-diisoheptadecanoylglycerol (15-methyl-hexadecanoyl, iso-C17)
338	334	c	-2	M_cdpdipdecg__91__c__93__	C42H75N3O15P2	CDP-1,2-diisopentadecanoylglycerol (13-methyl-tetradecanoyl, iso-C15)
339	335	c	-2	M_cdpditdecg__91__c__93__	C40H71N3O15P2	CDP-1,2-diisotetradecanoylglycerol (12-methyl-tridecanoyl, iso-C14)
340	336	c	-2	M_cdpdodec11eg__91__c__93__	C48H83N3O15P2	CDP-1,2-dioctadec-11-enoylglycerol
341	337	c	-2	M_cdpdodecg__91__c__93__	C48H87N3O15P2	CDP-1,2-dioctadecanoylglycerol
342	338	c	-2	M_cdpdtdec7eg__91__c__93__	C40H67N3O15P2	CDP-1,2-ditetradec-7-enoylglycerol
343	339	c	-2	M_cdpdtdecg__91__c__93__	C40H71N3O15P2	CDP-1,2-ditetradecanoylglycerol
344	340	c	-2	M_cdpglc__91__c__93__	C15H23N3O16P2	CDPglucose
345	341	c	+0	M_cellb__91__c__93__	C12H22O11	cellobiose
346	342	c	+0	M_cgly__91__c__93__	C5H10N2O3S	L-cysteinylglycine
347	343	c	+1	M_chol__91__c__93__	C5H14NO	Choline
348	344	c	+0	M_chols__91__c__93__	C5H13NO4S	Choline sulfate
349	345	c	-2	M_chor__91__c__93__	C10H8O6	chorismate
350	346	c	+0	M_chtbs__91__c__93__	C16H28N2O11	N,N-diacetylchitobiose
351	347	c	-3	M_cit__91__c__93__	C6H5O7	Citrate
352	348	c	+0	M_citr_L__91__c__93__	C6H13N3O3	L-citrulline
353	349	c	-2	M_ckdo__91__c__93__	C17H24N3O15P	CMP-3-deoxy-D-manno-octulosonate
354	350	c	-1	M_cl__91__c__93__	Cl	Chloride
355	351	c	-2	M_clpn140__91__c__93__	C65H124O17P2	cardiolipin (tetratetradecanoyl, n-C14:0)
356	352	c	-2	M_clpn160__91__c__93__	C73H140O17P2	cardiolipin (tetrahexadecanoyl, n-C16:0)
357	353	c	-2	M_clpn180__91__c__93__	C81H156O17P2	cardiolipin (tetraoctadecanoyl, n-C18:0)
358	354	c	-2	M_clpnai15__91__c__93__	C69H132O17P2	cardiolipin (12-methyl-tetradecanoyl, anteiso-C15)
359	355	c	-2	M_clpnai17__91__c__93__	C77H148O17P2	cardiolipin (14-methyl-hexadecanoyl, anteiso-C17)
360	356	c	-2	M_clpni14__91__c__93__	C65H124O17P2	cardiolipin (12-methyl-tridecanoyl, iso-C14)
361	357	c	-2	M_clpni15__91__c__93__	C69H132O17P2	cardiolipin (13-methyl-tetradecanoyl, iso-C15)
362	358	c	-2	M_clpni16__91__c__93__	C73H140O17P2	cardiolipin (14-methyl-pentadecanoyl, iso-C16)
363	359	c	-2	M_clpni17__91__c__93__	C77H148O17P2	cardiolipin (15-methyl-hexadecanoyl, iso-C17)
364	360	c	-2	M_cmp__91__c__93__	C9H12N3O8P	CMP
365	361	c	-2	M_cmpacna__91__c__93__	C20H29N4O16P	CMP-N-acetyl-beta-neuraminate(2-)
366	362	c	-5	M_co1dam__91__c__93__	C45H56CoN6O12	Cob(I)yrinate a,c diamide
367	363	c	+0	M_co2__91__c__93__	CO2	carbon dioxide
368	364	c	-4	M_coa__91__c__93__	C21H32N7O16P3S	Coenzyme A
369	365	c	+2	M_cobalt2__91__c__93__	Co	Co2+
370	366	c	-11	M_colipa__91__c__93__	C176H303N2O100P4	core oligosaccharide lipid A
371	367	c	-4	M_cpppg3__91__c__93__	C36H40N4O8	Coproporphyrinogen III
372	368	c	-2	M_cro4__91__c__93__	CrO4	chromate
373	369	c	+0	M_ctbt__91__c__93__	C7H13NO2	crotonobetaine
374	370	c	-4	M_ctp__91__c__93__	C9H12N3O14P3	CTP
375	371	c	+2	M_cu2__91__c__93__	Cu	Cu2+
376	372	c	+0	M_cys_L__91__c__93__	C3H7NO2S	L-cysteine
377	373	c	+0	M_cyst_L__91__c__93__	C7H14N2O4S	L-cystathionine
378	374	c	+0	M_cytd__91__c__93__	C9H13N3O5	Cytidine
379	375	c	+0	M_dad_2__91__c__93__	C10H13N5O3	2-deoxyadenosine
380	376	c	+0	M_dad_5__91__c__93__	C10H13N5O3	5-Deoxyadenosine
381	377	c	-3	M_dadp__91__c__93__	C10H12N5O9P2	dADP
382	378	c	-2	M_damp__91__c__93__	C10H12N5O6P	dAMP(2-)
383	379	c	+1	M_dann__91__c__93__	C9H21N2O2	7,8-Diaminononanoate
384	380	c	-4	M_datp__91__c__93__	C10H12N5O12P3	dATP
385	381	c	-2	M_db4p__91__c__93__	C4H7O6P	3,4-dihydroxy-2-butanone 4-phosphate
386	382	c	-1	M_dcaACP__91__c__93__	C21H39N2O8PRS	Decanoyl-ACP (n-C10:0ACP)
387	383	c	-4	M_dcamp__91__c__93__	C14H14N5O11P	N6-(1,2-Dicarboxyethyl)-AMP
388	384	c	-3	M_dcdp__91__c__93__	C9H12N3O10P2	dCDP
389	385	c	-2	M_dcmp__91__c__93__	C9H12N3O7P	dCMP
390	386	c	-4	M_dctp__91__c__93__	C9H12N3O13P3	dCTP
391	387	c	+0	M_dcyt__91__c__93__	C9H13N3O4	Deoxycytidine
392	388	c	-1	M_ddcaACP__91__c__93__	C23H43N2O8PRS	Dodecanoyl-ACP (n-C12:0ACP)
393	389	c	-1	M_ddca__91__c__93__	C12H23O2	laurate
394	390	c	-3	M_dgdp__91__c__93__	C10H12N5O10P2	dGDP
395	391	c	-2	M_dgmp__91__c__93__	C10H12N5O7P	dGMP
396	392	c	+0	M_dgsn__91__c__93__	C10H13N5O4	Deoxyguanosine
397	393	c	-4	M_dgtp__91__c__93__	C10H12N5O13P3	dGTP
398	394	c	+0	M_dha__91__c__93__	C3H6O3	glycerone
399	395	c	-2	M_dhap__91__c__93__	C3H5O6P	Dihydroxyacetone phosphate
400	396	c	-2	M_dhf__91__c__93__	C19H19N7O6	7,8-Dihydrofolate
401	397	c	+0	M_dhlam__91__c__93__	C8H17NOS2	dihydrolipoamide
402	398	c	+0	M_dhlpro__91__c__93__	H2S2X	Dihydrolipolprotein
403	399	c	-1	M_dhna__91__c__93__	C11H7O4	1,4-Dihydroxy-2-naphthoate
404	400	c	+0	M_dhnpt__91__c__93__	C9H13N5O4	Dihydroneopterin
405	401	c	-1	M_dhor_S__91__c__93__	C5H5N2O4	(S)-dihydroorotate
406	402	c	-1	M_dhpt__91__c__93__	C14H13N6O3	Dihydropteroate
407	403	c	+0	M_din__91__c__93__	C10H12N4O4	Deoxyinosine
408	404	c	+0	M_dmlz__91__c__93__	C13H18N4O6	6,7-Dimethyl-8-(1-D-ribityl)lumazine
409	405	c	+0	M_dmphqno__91__c__93__	C30H44O2	Demethylphylloquinone
410	406	c	-3	M_dmpp__91__c__93__	C5H9O7P2	Dimethylallyl diphosphate
411	407	c	-2	M_dnad__91__c__93__	C21H24N6O15P2	Deamino-NAD+
412	408	c	+0	M_dnarep__91__c__93__	X	DNA replication
413	409	c	-2	M_dpcoa__91__c__93__	C21H33N7O13P2S	Dephospho-CoA
414	410	c	+0	M_drib__91__c__93__	C5H10O4	2-deoxy-D-ribose
415	411	c	-1	M_dtbt__91__c__93__	C10H17N2O3	Dethiobiotin
416	412	c	-2	M_dtdp4d6dg__91__c__93__	C16H22N2O15P2	dTDP-4-dehydro-6-deoxy-alpha-D-glucose(2-)
417	413	c	-2	M_dtdp4d6dm__91__c__93__	C16H22N2O15P2	dTDP-4-dehydro-6-deoxy-L-mannose(2-)
418	414	c	-3	M_dtdp__91__c__93__	C10H13N2O11P2	dTDP
419	415	c	-2	M_dtdpglu__91__c__93__	C16H24N2O16P2	dTDP-glucose(2-)
420	416	c	-2	M_dtdprmn__91__c__93__	C16H24N2O15P2	dTDP-L-rhamnose
421	417	c	-2	M_dtmp__91__c__93__	C10H13N2O8P	dTMP
422	418	c	-4	M_dttp__91__c__93__	C10H13N2O14P3	dTTP
423	419	c	-3	M_dudp__91__c__93__	C9H11N2O11P2	dUDP
424	420	c	-2	M_dump__91__c__93__	C9H11N2O8P	dUMP
425	421	c	+0	M_duri__91__c__93__	C9H12N2O5	Deoxyuridine
426	422	c	-4	M_dutp__91__c__93__	C9H11N2O14P3	dUTP
427	423	c	-2	M_dxyl5p__91__c__93__	C5H9O7P	1-deoxy-D-xylulose 5-phosphate
428	424	c	-2	M_e3mmal__91__c__93__	C5H6O5	D-erythro-3-Methylmalate
429	425	c	-1	M_e4hglu__91__c__93__	C5H8NO5	erythro-4-hydroxy-L-glutamate(1-)
430	426	c	-2	M_e4p__91__c__93__	C4H7O7P	D-Erythrose 4-phosphate
431	427	c	-1	M_egACPm__91__c__93__	C17H27N2O10PRS	Enoylglutaryl-ACP methyl ester
432	428	c	-2	M_eig3p__91__c__93__	C6H9N2O6P	D-erythro-1-(Imidazol-4-yl)glycerol 3-phosphate
433	429	c	-1	M_epACPm__91__c__93__	C19H31N2O10PRS	Enoylpimeloyl-ACP methyl ester
434	430	c	+1	M_etha__91__c__93__	C2H8NO	etha[c]
435	431	c	-2	M_f1p__91__c__93__	C6H11O9P	D-Fructose 1-phosphate
436	432	c	-2	M_f6p__91__c__93__	C6H11O9P	D-Fructose 6-phosphate
437	433	c	-1	M_fa11__91__c__93__	C17H33O2	Fatty acid (Iso-C17:0)
438	434	c	-1	M_fa12__91__c__93__	C17H33O2	Fatty acid (Anteiso-C17:0)
439	435	c	-1	M_fa1__91__c__93__	C14H27O2	Fatty acid (Iso-C14:0)
440	436	c	-1	M_fa3__91__c__93__	C15H29O2	Fatty acid (Iso-C15:0)
441	437	c	-1	M_fa4__91__c__93__	C15H29O2	Fatty acid (Anteiso-C15:0)
442	438	c	-1	M_fa6__91__c__93__	C16H31O2	Fatty acid (iso-C16:0)
443	439	c	-2	M_fad__91__c__93__	C27H31N9O15P2	Flavin adenine dinucleotide oxidized
444	440	c	-2	M_fadh2__91__c__93__	C27H33N9O15P2	Flavin adenine dinucleotide reduced
445	441	c	+0	M_fald__91__c__93__	CH2O	formaldehyde
446	442	c	-2	M_fc1p__91__c__93__	C6H11O8P	L-Fuculose 1-phosphate
447	443	c	+0	M_fcl_L__91__c__93__	C6H12O5	L-fuculose
448	444	c	-4	M_fdp__91__c__93__	C6H10O12P2	D-Fructose 1,6-bisphosphate
449	445	c	+0	M_fdxox__91__c__93__	X	Oxidized ferredoxin
450	446	c	+0	M_fdxrd__91__c__93__	XH2	Reduced ferredoxin
451	447	c	+2	M_fe2__91__c__93__	Fe	Fe2+
452	448	c	+3	M_fe3__91__c__93__	Fe	Fe3+
453	449	c	-2	M_fgam__91__c__93__	C8H13N2O9P	N2-Formyl-N1-(5-phospho-D-ribosyl)glycinamide
454	450	c	+3	M_ficytC__91__c__93__	C42H54FeN8O6S2	Ferricytochrome c
455	451	c	-2	M_fmn__91__c__93__	C17H19N4O9P	FMN
456	452	c	-2	M_fmnh2__91__c__93__	C17H21N4O9P	Reduced FMN
457	453	c	+2	M_focytC__91__c__93__	C42H54FeN8O6S2	Ferrocytochrome C
458	454	c	-1	M_fol__91__c__93__	C19H18N7O6	Folate
459	455	c	-1	M_for__91__c__93__	CH1O2	Formate
460	456	c	-1	M_fpram__91__c__93__	C8H15N3O8P	2-(Formamido)-N1-(5-phospho-D-ribosyl)acetamidine
461	457	c	-2	M_fprica__91__c__93__	C10H13N4O9P	5-Formamido-1-(5-phospho-D-ribosyl)imidazole-4-carboxamide
462	458	c	-3	M_frdp__91__c__93__	C15H25O7P2	Farnesyl diphosphate
463	459	c	+0	M_fru__91__c__93__	C6H12O6	D-Fructose
464	460	c	-1	M_fruur__91__c__93__	C6H9O7	D-Fructuronate
465	461	c	+0	M_fuc_L__91__c__93__	C6H12O5	L-fucose
466	462	c	-2	M_fum__91__c__93__	C4H2O4	Fumarate
467	464	c	-2	M_g1p_B__91__c__93__	C6H11O9P	beta D-Glucose 1-phosphate
468	463	c	-2	M_g1p__91__c__93__	C6H11O9P	D-Glucose 1-phosphate
469	465	c	-2	M_g3p__91__c__93__	C3H5O6P	Glyceraldehyde 3-phosphate
470	466	c	+0	M_g3pc__91__c__93__	C8H20NO6P	sn-Glycero-3-phosphocholine
471	467	c	+0	M_g3pe__91__c__93__	C5H14NO6P	sn-Glycero-3-phosphoethanolamine
472	468	c	-1	M_g3pg__91__c__93__	C6H14O8P	Glycerophosphoglycerol
473	470	c	-2	M_g6p_B__91__c__93__	C6H11O9P	beta-D-glucose 6-phosphate
474	469	c	-2	M_g6p__91__c__93__	C6H11O9P	D-Glucose 6-phosphate
475	471	c	-1	M_gACPm__91__c__93__	C17H29N2O10PRS	Glutaryl-ACP methyl ester
476	472	c	-11	M_gagicolipa__91__c__93__	C157H271N2O84P4	galactosyl-glucosyl-inner core oligosaccharide lipid A
477	473	c	-2	M_gal1p__91__c__93__	C6H11O9P	(2R,3R,4S,5R,6R)-3,4,5-trihydroxy-6-(hydroxymethyl)oxan-2-yl phosphate
478	474	c	+0	M_gal__91__c__93__	C6H12O6	D-Galactose
479	475	c	-1	M_galam6p__91__c__93__	C6H13NO8P	D-galactosamine-6-phosphate
480	476	c	-2	M_galt1p__91__c__93__	C6H13O9P	Galactitol 1-phosphate
481	477	c	-1	M_galur__91__c__93__	C6H9O7	D-Galacturonate
482	478	c	-1	M_gam1p__91__c__93__	C6H13NO8P	D-Glucosamine 1-phosphate
483	479	c	-1	M_gam6p__91__c__93__	C6H13NO8P	D-Glucosamine 6-phosphate
484	480	c	+1	M_gam__91__c__93__	C6H14NO5	D-Glucosamine
485	481	c	-1	M_gar__91__c__93__	C7H14N2O8P	N1-(5-Phospho-D-ribosyl)glycinamide
486	482	c	+0	M_gbbtn__91__c__93__	C7H15NO2	gamma-butyrobetaine
487	483	c	+0	M_gcald__91__c__93__	C2H4O2	glycolaldehyde
488	484	c	-3	M_gdp__91__c__93__	C10H12N5O11P2	GDP
489	485	c	-2	M_gdpddman__91__c__93__	C16H21N5O15P2	GDP-4-dehydro-6-deoxy-alpha-D-mannose(2-)
490	486	c	-2	M_gdpfuc__91__c__93__	C16H23N5O15P2	GDP-L-fucose(2-)
491	487	c	-2	M_gdpmann__91__c__93__	C16H23N5O16P2	GDP-alpha-D-mannose(2-)
492	488	c	-7	M_gdptp__91__c__93__	C10H11N5O20P5	Guanosine 3-diphosphate 5-triphosphate
493	489	c	-11	M_ggagicolipa__91__c__93__	C163H281N2O89P4	glucosyl-galactosyl-glucosyl-inner core oligosaccharide lipid A
494	490	c	-11	M_gggagicolipa__91__c__93__	C169H291N2O94P4	glucosyl-glucosyl-galactosyl-glucosyl-inner core oligosaccharide lipid A
495	491	c	-11	M_gicolipa__91__c__93__	C151H261N2O79P4	glucosyl-inner core oligosaccharide lipid A
496	492	c	+0	M_glc_D__91__c__93__	C6H12O6	D-glucose
497	493	c	+0	M_glc_bD__91__c__93__	C6H12O6	beta D-glucose
498	494	c	-1	M_glcur__91__c__93__	C6H9O7	D-glucuronate
499	495	c	+0	M_gln_L__91__c__93__	C5H10N2O3	L-glutamine
500	496	c	+0	M_glu1sa__91__c__93__	C5H9NO3	L-Glutamate 1-semialdehyde
501	497	c	-2	M_glu5p__91__c__93__	C5H8NO7P	L-Glutamate 5-phosphate
502	498	c	+0	M_glu5sa__91__c__93__	C5H9NO3	L-Glutamate 5-semialdehyde
503	499	c	-1	M_glu_D__91__c__93__	C5H8NO4	D-Glutamate
504	500	c	-1	M_glu_L__91__c__93__	C5H8NO4	L-glutamate(1-)
505	501	c	+0	M_glutrna__91__c__93__	C5H7NO3R	L-Glutamyl-tRNA(Glu)
506	502	c	-1	M_glx__91__c__93__	C2H1O3	glyoxylate
507	503	c	+0	M_gly__91__c__93__	C2H5NO2	Glycine
508	504	c	+0	M_glyald__91__c__93__	C3H6O3	D-Glyceraldehyde
509	505	c	+0	M_glyasn__91__c__93__	C6H11N3O4	Glycyl-L-asparagine
510	506	c	-1	M_glyasp__91__c__93__	C6H9N2O5	Glycyl-L-aspartate
511	507	c	+0	M_glyb__91__c__93__	C5H11NO2	glycine betaine
512	508	c	-2	M_glyc3p__91__c__93__	C3H7O6P	Glycerol 3-phosphate
513	510	c	-1	M_glyc_R__91__c__93__	C3H5O4	D-glycerate
514	509	c	+0	M_glyc__91__c__93__	C3H8O3	Glycerol
515	511	c	-1	M_glyclt__91__c__93__	C2H3O3	glycolate
516	512	c	+0	M_glycogen__91__c__93__	C6H10O5	glycogen
517	513	c	+0	M_glycogenb__91__c__93__	X	glycogen(n-1)
518	514	c	+0	M_glycys__91__c__93__	C5H10N2O3S	Gly-Cys
519	515	c	+0	M_glygln__91__c__93__	C7H13N3O4	Glycyl-L-glutamine
520	516	c	-1	M_glyglu__91__c__93__	C7H11N2O5	Glycyl-L-glutamate
521	517	c	+0	M_glyleu__91__c__93__	C8H16N2O3	Glycylleucine
522	518	c	+0	M_glymet__91__c__93__	C7H14N2O3S	Glycyl-L-methionine
523	519	c	+0	M_glyphe__91__c__93__	C11H14N2O3	Glycylphenylalanine
524	520	c	+0	M_glypro__91__c__93__	C7H12N2O3	Glycylproline
525	521	c	+0	M_glytyr__91__c__93__	C11H14N2O4	Glycyl-L-tyrosine
526	522	c	-4	M_gmhep17bp__91__c__93__	C7H12O13P2	D-Glycero-D-manno-heptose 1,7-bisphosphate
527	523	c	-2	M_gmhep1p__91__c__93__	C7H13O10P	D-Glycero-D-manno-heptose 1-phosphate
528	524	c	-2	M_gmhep7p__91__c__93__	C7H13O10P	D-Glycero-D-manno-heptose 7-phosphate
529	525	c	-2	M_gmp__91__c__93__	C10H12N5O8P	GMP
530	526	c	-3	M_grdp__91__c__93__	C10H17O7P2	Geranyl diphosphate
531	527	c	+0	M_gsn__91__c__93__	C10H13N5O5	Guanosine
532	528	c	-1	M_gthrd__91__c__93__	C10H16N3O6S	Reduced glutathione
533	529	c	-4	M_gtp__91__c__93__	C10H12N5O14P3	GTP
534	530	c	+0	M_gua__91__c__93__	C5H5N5O	Guanine
535	531	c	+0	M_h2__91__c__93__	H2	Hydrogen
536	532	c	-3	M_h2mb4p__91__c__93__	C5H9O8P2	1-hydroxy-2-methyl-2-(E)-butenyl 4-diphosphate
537	533	c	+0	M_h2o2__91__c__93__	H2O2	Hydrogen peroxide
538	534	c	+0	M_h2s__91__c__93__	H2S	Hydrogen sulfide
539	535	c	+1	M_h__91__c__93__	H	proton
540	536	c	-1	M_hco3__91__c__93__	CHO3	Bicarbonate
541	537	c	+0	M_hcys_L__91__c__93__	C4H9NO2S	L-homocysteine
542	538	c	-1	M_hdca__91__c__93__	C16H31O2	Hexadecanoate (n-C16:0)
543	539	c	-1	M_hdcea__91__c__93__	C16H29O2	Hexadecenoate (n-C16:1)
544	540	c	-4	M_hdcoa__91__c__93__	C37H60N7O17P3S	Hexadecenoyl-CoA (n-C16:1CoA)
545	541	c	-1	M_hdeACP__91__c__93__	C27H49N2O8PRS	cis-hexadec-9-enoyl-[acyl-carrier protein] (n-C16:1)
546	542	c	-2	M_hethmpp__91__c__93__	C14H20N4O8P2S	Hydroxy ethyl Thiamin diphosphate
547	543	c	-1	M_hexACP__91__c__93__	C17H31N2O8PRS	Hexanoyl-ACP (n-C6:0ACP)
548	544	c	+2	M_hg2__91__c__93__	Hg	Hg2+
549	545	c	-6	M_hhlipa__91__c__93__	C124H220N2O51P2	heptosyl-heptosyl-kdo2-lipidA
550	546	c	+0	M_his_L__91__c__93__	C6H9N3O2	L-histidine
551	547	c	-1	M_hisp__91__c__93__	C6H11N3O4P	L-Histidinol phosphate
552	548	c	+1	M_histd__91__c__93__	C6H12N3O	L-Histidinol
553	549	c	+1	M_histl_L__91__c__93__	C6H10N3O	L-Histidinal
554	550	c	-6	M_hlipa__91__c__93__	C117H208N2O45P2	heptosyl-kdo2-lipidA
555	551	c	-8	M_hmbil__91__c__93__	C40H38N4O17	Hydroxymethylbilane
556	552	c	+0	M_hom_L__91__c__93__	C4H9NO3	L-homoserine
557	553	c	-8	M_hphhlipa__91__c__93__	C131H231N2O60P3	heptosyl-phospho-heptosyl-heptosyl-kdo2-lipidA
558	554	c	+0	M_hxan__91__c__93__	C5H4N4O	Hypoxanthine
559	555	c	-24	M_i14tca1__91__c__93__	C115H224O135P24	Isotetradecanoyllipoteichoic acid (n=24), linked, unsubstituted
560	556	c	-24	M_i14tcaglc__91__c__93__	C259H464O255P24	Isotetradecanoyllipoteichoic acid (n=24), linked, glucose substituted
561	557	c	-24	M_i15tca1__91__c__93__	C117H228O135P24	Isopentadecanoyllipoteichoic acid (n=24), linked, unsubstituted
562	558	c	-24	M_i15tcaglc__91__c__93__	C261H468O255P24	Isopentadecanoyllipoteichoic acid (n=24), linked, glucose substituted
563	559	c	-24	M_i16tca1__91__c__93__	C119H232O135P24	Isohexadecanoyllipoteichoic acid (n=24), linked, unsubstituted
564	560	c	-24	M_i16tcaglc__91__c__93__	C263H472O255P24	Isohexadecanoyllipoteichoic acid (n=24), linked, glucose substituted
565	561	c	-24	M_i17tca1__91__c__93__	C121H236O135P24	Isoheptadecanoyllipoteichoic acid (n=24), linked, unsubstituted
566	562	c	-24	M_i17tcaglc__91__c__93__	C265H476O255P24	Isoheptadecanoyllipoteichoic acid (n=24), linked, glucose substituted
567	563	c	-2	M_iasp__91__c__93__	C4H3NO4	Iminoaspartate
568	564	c	-4	M_ibcoa__91__c__93__	C25H38N7O17P3S	isobutyryl-CoA(4-)
569	565	c	-2	M_ichor__91__c__93__	C10H8O6	Isochorismate
570	566	c	-3	M_icit__91__c__93__	C6H5O7	Isocitrate
571	567	c	-11	M_icolipa__91__c__93__	C145H251N2O74P4	inner core oligosaccharide lipid A (E coli)
572	568	c	-3	M_idp__91__c__93__	C10H11N4O11P2	IDP(3-)
573	569	c	-4	M_ihdcoa__91__c__93__	C37H62N7O17P3S	fa6coa,Iso-C16:0 CoA   Isohexadecanoyl-CoA
574	570	c	-4	M_ihpdcoa__91__c__93__	C38H64N7O17P3S	fa11coa, Iso-C17:0 CoA   Isoheptadecanoyl-CoA
575	571	c	+0	M_ile_L__91__c__93__	C6H13NO2	L-isoleucine
576	572	c	-2	M_imacp__91__c__93__	C6H7N2O5P	3-(Imidazol-4-yl)-2-oxopropyl phosphate
577	573	c	-2	M_imp__91__c__93__	C10H11N4O8P	IMP
578	574	c	+0	M_indole__91__c__93__	C8H7N	Indole
579	575	c	-1	M_indpyr__91__c__93__	C11H8NO3	Indolepyruvate
580	576	c	+0	M_inost__91__c__93__	C6H12O6	myo-inositol
581	577	c	+0	M_ins__91__c__93__	C10H12N4O5	Inosine
582	578	c	+0	M_inulin__91__c__93__	C180H302O151	Chicory inulin, 30 monosaccharide units (29 fru, 1 glc) on average
583	579	c	-4	M_ipdcoa__91__c__93__	C36H60N7O17P3S	fa3coa,Iso-C15:0 CoA   Isopentadecanoyl-CoA
584	580	c	-3	M_ipdp__91__c__93__	C5H9O7P2	Isopentenyl diphosphate
585	581	c	-1	M_isocapr__91__c__93__	C6H11O2	Isocaproate
586	582	c	-1	M_isoval__91__c__93__	C5H9O2	Isovalerate, 3-Methylbutanoate
587	583	c	-4	M_itdcoa__91__c__93__	C35H58N7O17P3S	fa1coa,Iso-C14:0 CoA   Isotetradecanoyl-CoA
588	584	c	-4	M_itp__91__c__93__	C10H11N4O14P3	ITP(3-)
589	585	c	-4	M_ivcoa__91__c__93__	C26H40N7O17P3S	Isovaleryl-CoA
590	586	c	+1	M_k__91__c__93__	K	potassium
591	587	c	-6	M_kdo2lipid4L__91__c__93__	C96H170N2O38P2	KDO(2)-lipid IV(A) with laurate
592	588	c	-6	M_kdo2lipid4__91__c__93__	C84H148N2O37P2	KDO(2)-lipid IV(A)
593	589	c	-3	M_kdo8p__91__c__93__	C8H12O11P	3-Deoxy-D-manno-octulosonate 8-phosphate
594	590	c	-1	M_kdo__91__c__93__	C8H13O8	3-Deoxy-D-manno-2-octulosonate
595	591	c	-5	M_kdolipid4__91__c__93__	C76H137N2O30P2	KDO-lipid IV(A)
596	592	c	-11	M_kphphhlipa__91__c__93__	C139H241N2O70P4	kdo-phospho-heptosyl-phospho-heptosyl-heptosyl-kdo2-lipidA
597	593	c	-1	M_l2a6o__91__c__93__	C7H10NO5	L-2-Amino-6-oxopimelate
598	594	c	-1	M_lac_D__91__c__93__	C3H5O3	(R)-lactate
599	595	c	-1	M_lac_L__91__c__93__	C3H5O3	(S)-lactate
600	596	c	+0	M_lald_L__91__c__93__	C3H6O2	(S)-lactaldehyde
601	597	c	+0	M_lcts__91__c__93__	C12H22O11	Lactose
602	598	c	+0	M_leu_L__91__c__93__	C6H13NO2	L-leucine
603	599	c	-1	M_lgt_S__91__c__93__	C13H20N3O8S	(R)-S-lactoylglutathionate(1-)
604	600	c	-6	M_lipa__91__c__93__	C110H196N2O39P2	KDO(2)-lipid (A)
605	601	c	-4	M_lipidA__91__c__93__	C68H126N2O23P2	2,3,23-Tetrakis(beta-hydroxymyristoyl)-D-glucosaminyl-1,6-beta-D-glucosamine 1,4-bisphosphate
606	602	c	-2	M_lipidAds__91__c__93__	C68H127N2O20P	Lipid A Disaccharide
607	603	c	-2	M_lipidX__91__c__93__	C34H64NO12P	2,3-Bis(3-hydroxytetradecanoyl)-beta-D-glucosaminyl 1-phosphate
608	604	c	+0	M_lipoate__91__c__93__	C8H14O2S2	lipoate
609	605	c	+0	M_lpam__91__c__93__	C8H15NOS2	lipoamide
610	606	c	+0	M_lpro__91__c__93__	S2X	Lipoylprotein
611	607	c	+1	M_lys_L__91__c__93__	C6H15N2O2	L-lysinium(1+)
612	608	c	+0	M_madg__91__c__93__	C7H14O6	alpha-Methyl-D-glucoside
613	609	c	-2	M_malACP__91__c__93__	C14H22N2O10PRS	Malonyl-[acyl-carrier protein]
614	610	c	-2	M_mal_L__91__c__93__	C4H4O5	(S)-malate(2-)
615	611	c	-5	M_malcoa__91__c__93__	C24H33N7O19P3S	Malonyl-CoA
616	612	c	-4	M_malcoam__91__c__93__	C25H36N7O19P3S	Malonyl-CoA methyl ester
617	613	c	+0	M_malt__91__c__93__	C12H22O11	Maltose
618	614	c	+0	M_malthp__91__c__93__	C42H72O36	maltoheptaose
619	615	c	+0	M_malthx__91__c__93__	C36H62O31	Maltohexaose
620	616	c	+0	M_maltpt__91__c__93__	C30H52O26	maltopentaose
621	617	c	+0	M_malttr__91__c__93__	C18H32O16	maltotriose
622	618	c	+0	M_maltttr__91__c__93__	C24H42O21	Maltotetraose
623	619	c	-2	M_man1p__91__c__93__	C6H11O9P	D-Mannose 1-phosphate
624	620	c	-2	M_man6p__91__c__93__	C6H11O9P	D-Mannose 6-phosphate
625	621	c	+0	M_man__91__c__93__	C6H12O6	D-Mannose
626	622	c	-1	M_mana__91__c__93__	C6H11O7	D-Mannonate
627	623	c	+0	M_mantr__91__c__93__	C18H32O16	mannotriose (beta-1,4)
628	624	c	+0	M_mbdg__91__c__93__	C7H14O6	beta-Methylglucoside
629	625	c	+0	M_melib__91__c__93__	C12H22O11	Melibiose
630	626	c	+0	M_meoh__91__c__93__	CH4O1	methanol
631	627	c	+0	M_met_L__91__c__93__	C5H11NO2S	L-methionine
632	628	c	+0	M_metala__91__c__93__	C8H16N2O3S	L-methionyl-L-alanine
633	629	c	-1	M_methf__91__c__93__	C20H20N7O6	5,10-Methenyltetrahydrofolate
634	630	c	+0	M_metsox_S_L__91__c__93__	C5H11NO3S	L-Methionine Sulfoxide
635	631	c	+2	M_mg2__91__c__93__	Mg	magnesium
636	632	c	-2	M_mi1p_D__91__c__93__	C6H11O9P	1D-myo-inositol 1-phosphate(2-)
637	633	c	-2	M_mi3p_D__91__c__93__	C6H11O9P	1D-myo-inositol 3-phosphate(2-)
638	634	c	-2	M_mi4p_D__91__c__93__	C6H11O9P	1D-myo-inositol 4-phosphate(2-)
639	635	c	-2	M_mlthf__91__c__93__	C20H21N7O6	5,10-Methylenetetrahydrofolate
640	636	c	-5	M_mmcoa_R__91__c__93__	C25H35N7O19P3S	(R)-methylmalonyl-CoA(5-)
641	637	c	-5	M_mmcoa_S__91__c__93__	C25H35N7O19P3S	(S)-methylmalonyl-CoA(5-)
642	638	c	+2	M_mn2__91__c__93__	Mn	Mn2+
643	639	c	+0	M_mql8__91__c__93__	C51H74O2	Menaquinol 8
644	640	c	+0	M_mqn8__91__c__93__	C51H72O2	Menaquinone 8
645	641	c	+0	M_mthgxl__91__c__93__	C3H4O2	methylglyoxal
646	642	c	-1	M_myrsACP__91__c__93__	C25H47N2O8PRS	Myristoyl-ACP (n-C14:0ACP)
647	643	c	-24	M_myrstca1__91__c__93__	C115H224O135P24	Myristoyllipoteichoic acid (n=24), linked, unsubstituted
648	644	c	-24	M_myrstcaglc__91__c__93__	C259H464O255P24	Myristoyllipoteichoic acid (n=24), linked, glucose substituted
649	645	c	+2	M_n8aspmd__91__c__93__	C9H23N3O	N(8)-acetylspermidinium(2+)
650	646	c	+1	M_na1__91__c__93__	Na	Sodium
651	647	c	-1	M_nac__91__c__93__	C6H4NO2	Nicotinate
652	648	c	-1	M_nad__91__c__93__	C21H26N7O14P2	Nicotinamide adenine dinucleotide
653	649	c	-2	M_nadh__91__c__93__	C21H27N7O14P2	Nicotinamide adenine dinucleotide - reduced
654	650	c	-3	M_nadp__91__c__93__	C21H25N7O17P3	Nicotinamide adenine dinucleotide phosphate
655	651	c	-4	M_nadph__91__c__93__	C21H26N7O17P3	Nicotinamide adenine dinucleotide phosphate - reduced
656	652	c	+0	M_ncam__91__c__93__	C6H6N2O	Nicotinamide
657	653	c	+1	M_ncptrc__91__c__93__	C5H14N3O	N-Carbamoylputrescine
658	654	c	+1	M_nh4__91__c__93__	H4N	Ammonium
659	655	c	+0	M_nicrns__91__c__93__	C11H13NO6	Nicotinate D-ribonucleoside
660	656	c	-2	M_nicrnt__91__c__93__	C11H12NO9P	Nicotinate D-ribonucleotide
661	657	c	-1	M_nmn__91__c__93__	C11H14N2O8P	NMN
662	658	c	-1	M_no2__91__c__93__	NO2	Nitrite
663	659	c	+0	M_o2__91__c__93__	O2	O2
664	660	c	-1	M_o2s__91__c__93__	O2	superoxide
665	661	c	-2	M_oaa__91__c__93__	C4H2O5	Oxaloacetate
666	662	c	-1	M_ocACP__91__c__93__	C19H35N2O8PRS	Octanoyl-ACP (n-C8:0ACP)
667	663	c	-1	M_ocdcaACP__91__c__93__	C29H55N2O8PRS	Octadecanoyl-ACP (n-C18:0ACP)
668	664	c	-1	M_ocdca__91__c__93__	C18H35O2	octadecanoate (n-C18:0)
669	665	c	-1	M_ocdcea__91__c__93__	C18H33O2	octadecenoate (n-C18:1)
670	666	c	-3	M_octdp__91__c__93__	C40H65O7P2	all-trans-Octaprenyl diphosphate
671	667	c	-1	M_octeACP__91__c__93__	C29H53N2O8PRS	cis-octadec-11-enoyl-[acyl-carrier protein] (n-C18:1)
672	668	c	-4	M_odecoa__91__c__93__	C39H64N7O17P3S	Octadecenoyl-CoA (n-C18:1CoA)
673	669	c	-3	M_ohpb__91__c__93__	C4H4O8P	2-Oxo-3-hydroxy-4-phosphobutanoate
674	670	c	+1	M_orn__91__c__93__	C5H13N2O2	Ornithine
675	671	c	-3	M_orot5p__91__c__93__	C10H10N2O11P	Orotidine 5-phosphate
676	672	c	-1	M_orot__91__c__93__	C5H3N2O4	Orotate
677	673	c	-2	M_pa120__91__c__93__	C27H51O8P1	1,2-didodecanoyl-sn-glycerol 3-phosphate
678	674	c	-2	M_pa140__91__c__93__	C31H59O8P1	1,2-ditetradecanoyl-sn-glycerol 3-phosphate
679	675	c	-2	M_pa141__91__c__93__	C31H55O8P1	1,2-ditetradec-7-enoyl-sn-glycerol 3-phosphate
680	676	c	-2	M_pa160__91__c__93__	C35H67O8P1	1,2-dihexadecanoyl-sn-glycerol 3-phosphate
681	677	c	-2	M_pa161__91__c__93__	C35H63O8P1	1,2-dihexadec-9-enoyl-sn-glycerol 3-phosphate
682	678	c	-2	M_pa180__91__c__93__	C39H75O8P1	1,2-dioctadecanoyl-sn-glycerol 3-phosphate
683	679	c	-2	M_pa181__91__c__93__	C39H71O8P1	1,2-dioctadec-11-enoyl-sn-glycerol 3-phosphate
684	680	c	-2	M_paai15__91__c__93__	C33H63O8P	1,2-dianteisopentadecanoyl-sn-glycerol 3-phosphate (12-methyl-tetradecanoyl, anteiso-C15)
685	681	c	-2	M_paai17__91__c__93__	C37H71O8P	1,2-dianteisoheptadecanoyl-sn-glycerol 3-phosphate (14-methyl-hexadecanoyl, anteiso-C17)
686	682	c	-2	M_pai14__91__c__93__	C31H59O8P	1,2-diisotetradecanoyl-sn-glycerol 3-phosphate (12-methyl-tridecanoyl, iso-C14)
687	683	c	-2	M_pai15__91__c__93__	C33H63O8P	1,2-diisopentadecanoyl-sn-glycerol 3-phosphate (13-methyl-tetradecanoyl, iso-C15)
688	684	c	-2	M_pai16__91__c__93__	C35H67O8P	1,2-diisohexadecanoyl-sn-glycerol 3-phosphate (14-methyl-pentadecanoyl, iso-C16)
689	685	c	-2	M_pai17__91__c__93__	C37H71O8P	1,2-diisoheptadecanoyl-sn-glycerol 3-phosphate (15-methyl-hexadecanoyl, iso-C17)
690	686	c	-1	M_palmACP__91__c__93__	C27H51N2O8PRS	Palmitoyl-ACP (n-C16:0ACP)
691	687	c	-24	M_palmtca1__91__c__93__	C119H232O135P24	Palmitoyllipoteichoic acid (n=24), linked, unsubstituted
692	688	c	-24	M_palmtcaglc__91__c__93__	C263H472O255P24	Palmitoyllipoteichoic acid (n=24), linked, glucose substituted
693	689	c	-2	M_pan4p__91__c__93__	C11H21N2O7PS	Pantetheine 4-phosphate
694	690	c	-1	M_pant_R__91__c__93__	C6H11O4	(R)-Pantoate
695	691	c	-4	M_pap__91__c__93__	C10H11N5O10P2	adenosine 3,5-bismonophosphate(4-)
696	692	c	-4	M_paps__91__c__93__	C10H11N5O13P2S	Phosphoadenosine phosphosulfate
697	693	c	+2	M_pb__91__c__93__	Pb	Lead
698	694	c	-2	M_pdx5p__91__c__93__	C8H10NO6P	Pyridoxine 5-phosphate
699	695	c	+0	M_pe120__91__c__93__	C29H58N1O8P1	phosphatidylethanolamine (didodecanoyl, n-C12:0)
700	696	c	+0	M_pe140__91__c__93__	C33H66N1O8P1	phosphatidylethanolamine (ditetradecanoyl, n-C14:0)
701	697	c	+0	M_pe141__91__c__93__	C33H62N1O8P1	phosphatidylethanolamine (ditetradec-7-enoyl, n-C14:1)
702	698	c	+0	M_pe160__91__c__93__	C37H74N1O8P1	phosphatidylethanolamine (dihexadecanoyl, n-C16:0)
703	699	c	+0	M_pe161__91__c__93__	C37H70N1O8P1	phosphatidylethanolamine (dihexadec-9enoyl, n-C16:1)
704	700	c	+0	M_pe180__91__c__93__	C41H82N1O8P1	phosphatidylethanolamine (dioctadecanoyl, n-C18:0)
705	701	c	+0	M_pe181__91__c__93__	C41H78N1O8P1	phosphatidylethanolamine (dioctadec-11-enoyl, n-C18:1)
706	702	c	+0	M_peai15__91__c__93__	C35H70NO8P	Phosphatidylethanolamine (12-methyl-tetradecanoyl, anteiso-C15)
707	703	c	+0	M_peai17__91__c__93__	C39H78NO8P	Phosphatidylethanolamine (14-methyl-hexadecanoyl, anteiso-C17)
708	704	c	+0	M_pei14__91__c__93__	C33H66NO8P	Phosphatidylethanolamine (12-methyl-tridecanoyl, iso-C14)
709	705	c	+0	M_pei15__91__c__93__	C35H70NO8P	Phosphatidylethanolamine (13-methyl-tetradecanoyl, iso-C15)
710	706	c	+0	M_pei16__91__c__93__	C37H74NO8P	Phosphatidylethanolamine (14-methyl-pentadecanoyl, iso-C16)
711	707	c	+0	M_pei17__91__c__93__	C39H78NO8P	Phosphatidylethanolamine (15-methyl-hexadecanoyl, iso-C17)
712	708	c	-3	M_pep__91__c__93__	C3H2O6P	Phosphoenolpyruvate
713	709	c	+0	M_peptmet_L__91__c__93__	XC3H7S	Peptide-L-methionine
714	710	c	+0	M_peptmetox_L__91__c__93__	XC3H7OS	Peptide-L-methionine (R)-S-oxide
715	711	c	-1	M_pg120__91__c__93__	C30H58O10P1	Phosphatidylglycerol (didodecanoyl, n-C12:0)
716	712	c	-1	M_pg140__91__c__93__	C34H66O10P1	Phosphatidylglycerol (ditetradecanoyl, n-C14:0)
717	713	c	-1	M_pg141__91__c__93__	C34H62O10P1	Phosphatidylglycerol (ditetradec-7-enoyl, n-C14:1)
718	714	c	-1	M_pg160__91__c__93__	C38H74O10P1	Phosphatidylglycerol (dihexadecanoyl, n-C16:0)
719	715	c	-1	M_pg161__91__c__93__	C38H70O10P1	Phosphatidylglycerol (dihexadec-9-enoyl, n-C16:1)
720	716	c	-1	M_pg180__91__c__93__	C42H82O10P1	Phosphatidylglycerol (dioctadecanoyl, n-C18:0)
721	717	c	-1	M_pg181__91__c__93__	C42H78O10P1	Phosphatidylglycerol (dioctadec-11-enoyl, n-C18:1)
722	718	c	-1	M_pgai15__91__c__93__	C36H70O10P	Phosphatidylglycerol (12-methyl-tetradecanoyl, anteiso-C15)
723	719	c	-1	M_pgai17__91__c__93__	C40H78O10P	Phosphatidylglycerol (14-methyl-hexadecanoyl, anteiso-C17)
724	720	c	-1	M_pgi14__91__c__93__	C34H66O10P	Phosphatidylglycerol (12-methyltridecanoyl, iso-C14)
725	721	c	-1	M_pgi15__91__c__93__	C36H70O10P	Phosphatidylglycerol (13-methyltetradecanoyl, iso-C15)
726	722	c	-1	M_pgi16__91__c__93__	C38H74O10P	Phosphatidylglycerol (14-methylpentadecanoyl, iso-C16)
727	723	c	-1	M_pgi17__91__c__93__	C40H78O10P	Phosphatidylglycerol (15-methyl-hexadecanoyl, iso-C17)
728	724	c	-3	M_pgp120__91__c__93__	C30H57O13P2	Phosphatidylglycerophosphate (didodecanoyl, n-C12:0)
729	725	c	-3	M_pgp140__91__c__93__	C34H65O13P2	Phosphatidylglycerophosphate (ditetradecanoyl, n-C14:0)
730	726	c	-3	M_pgp141__91__c__93__	C34H61O13P2	Phosphatidylglycerophosphate (ditetradec-7-enoyl, n-C14:1)
731	727	c	-3	M_pgp160__91__c__93__	C38H73O13P2	Phosphatidylglycerophosphate (dihexadecanoyl, n-C16:0)
732	728	c	-3	M_pgp161__91__c__93__	C38H69O13P2	Phosphatidylglycerophosphate (dihexadec-9-enoyl, n-C16:1)
733	729	c	-3	M_pgp180__91__c__93__	C42H81O13P2	Phosphatidylglycerophosphate (dioctadecanoyl, n-C18:0)
734	730	c	-3	M_pgp181__91__c__93__	C42H77O13P2	Phosphatidylglycerophosphate (dioctadec-11-enoyl, n-C18:1)
735	731	c	-3	M_pgpai15__91__c__93__	C36H69O13P2	Phosphatidylglycerophosphate (12-methyl-tetradecanoyl, anteiso-C15)
736	732	c	-3	M_pgpai17__91__c__93__	C40H77O13P2	Phosphatidylglycerophosphate (14-methyl-hexadecanoyl, anteiso-C17)
737	733	c	-3	M_pgpi14__91__c__93__	C34H65O13P2	Phosphatidylglycerophosphate (12-methyltridecanoyl, iso-C14)
738	734	c	-3	M_pgpi15__91__c__93__	C36H69O13P2	Phosphatidylglycerophosphate (13-methyltetradecanoyl, iso-C15)
739	735	c	-3	M_pgpi16__91__c__93__	C38H73O13P2	Phosphatidylglycerophosphate (14-methylpentadecanoyl, iso-C16)
740	736	c	-3	M_pgpi17__91__c__93__	C40H77O13P2	Phosphatidylglycerophosphate (15-methyl-hexadecanoyl, iso-C17)
741	737	c	+0	M_phe_L__91__c__93__	C9H11NO2	L-phenylalanine
742	738	c	-2	M_pheme__91__c__93__	C34H30FeN4O4	Protoheme
743	739	c	-8	M_phhlipa__91__c__93__	C124H219N2O54P3	phospho-heptosyl-heptosyl-kdo2-lipidA
744	740	c	-2	M_phom__91__c__93__	C4H8NO6P	O-phosphonato-L-homoserine(2-)
745	741	c	-10	M_phphhlipa__91__c__93__	C131H230N2O63P4	phospho-heptosyl-phospho-heptosyl-heptosyl-kdo2-lipidA
746	742	c	-1	M_phpyr__91__c__93__	C9H7O3	keto-phenylpyruvate
747	743	c	-2	M_phthr__91__c__93__	C4H8NO7P	O-Phospho-4-hydroxy-L-threonine
748	744	c	+0	M_phyQ__91__c__93__	C31H46O2	phylloquinone
749	745	c	-3	M_phyldpp__91__c__93__	C20H39O7P2	Phytyl diphosphate
750	746	c	-2	M_pi__91__c__93__	HO4P	hydrogenphosphate
751	747	c	-2	M_pmACP__91__c__93__	C18H30N2O10PRS	Pimeloyl-ACP
752	748	c	-1	M_pmACPm__91__c__93__	C19H33N2O10PRS	Pimeloyl-ACP methyl ester
753	749	c	-5	M_pmcoa__91__c__93__	C28H41N7O19P3S	Pimeloyl-CoA
754	750	c	-4	M_pmtcoa__91__c__93__	C37H62N7O17P3S	Palmitoyl-CoA (n-C16:0CoA)
755	751	c	-1	M_pnp__91__c__93__	C6H4NO3	4-Hydroxynitrobenzene, p-Nitrophenol
756	752	c	-1	M_pnto_R__91__c__93__	C9H16NO5	(R)-Pantothenate
757	753	c	-1	M_ppa__91__c__93__	C3H5O2	propionate
758	754	c	-2	M_ppaca__91__c__93__	C2H3O4P	Phosphonoacetaldehyde
759	755	c	-2	M_ppap__91__c__93__	C3H5O5P	Propanoyl phosphate
760	756	c	-1	M_ppbng__91__c__93__	C10H13N2O4	Porphobilinogen
761	757	c	-4	M_ppcoa__91__c__93__	C24H36N7O17P3S	Propanoyl-CoA
762	758	c	-6	M_ppgpp__91__c__93__	C10H11N5O17P4	Guanosine 3,5-bis(diphosphate)
763	759	c	-2	M_pphn__91__c__93__	C10H8O6	Prephenate
764	760	c	-3	M_ppi__91__c__93__	HO7P2	Diphosphate
765	761	c	-2	M_ppp9__91__c__93__	C34H32N4O4	Protoporphyrin
766	762	c	-2	M_pppg9__91__c__93__	C34H38N4O4	Protoporphyrinogen IX
767	763	c	-4	M_pppi__91__c__93__	HO10P3	triphosphate(5-)
768	764	c	-1	M_pram__91__c__93__	C5H11NO7P	5-Phospho-beta-D-ribosylamine
769	765	c	-3	M_pran__91__c__93__	C12H13NO9P	N-(5-Phospho-D-ribosyl)anthranilate
770	766	c	-4	M_prbamp__91__c__93__	C15H19N5O14P2	1-(5-Phosphoribosyl)-AMP
771	767	c	-6	M_prbatp__91__c__93__	C15H19N5O20P4	1-(5-Phosphoribosyl)-ATP
772	768	c	-4	M_prfp__91__c__93__	C15H21N5O15P2	1-(5-Phosphoribosyl)-5-[(5-phosphoribosylamino)methylideneamino]imidazole-4-carboxamide
773	769	c	-47	M_prl45tca__91__c__93__	C206H386N2O242P47	Prenol-45n teichoic acid
774	770	c	-47	M_prl45tcaglc__91__c__93__	C476H836N2O467P47	Prenol-45n teichoic acid-glucose substituted
775	771	c	-4	M_prlp__91__c__93__	C15H21N5O15P2	5-[(5-phospho-1-deoxyribulos-1-ylamino)methylideneamino]-1-(5-phosphoribosyl)imidazole-4-carboxamide
776	772	c	+0	M_pro_L__91__c__93__	C5H9NO2	L-proline
777	773	c	+0	M_prodslfd__91__c__93__	XS2	Protein disulfide
778	774	c	+0	M_prodthl__91__c__93__	XS2H2	Protein dithiol
779	775	c	+0	M_proteinsynth__91__c__93__	X	Protein biosynthesis
780	776	c	-5	M_prpp__91__c__93__	C5H8O14P3	5-Phospho-alpha-D-ribose 1-diphosphate
781	777	c	-1	M_ps120__91__c__93__	C30H57N1O10P1	phosphatidylserine (didodecanoyl, n-C12:0)
782	778	c	-1	M_ps140__91__c__93__	C34H65N1O10P1	phosphatidylserine (ditetradecanoyl, n-C14:0)
783	779	c	-1	M_ps141__91__c__93__	C34H61N1O10P1	phosphatidylserine (ditetradec-7-enoyl, n-C14:1)
784	780	c	-1	M_ps160__91__c__93__	C38H73N1O10P1	phosphatidylserine (dihexadecanoyl, n-C16:0)
785	781	c	-1	M_ps161__91__c__93__	C38H69N1O10P1	phosphatidylserine (dihexadec-9-enoyl, n-C16:1)
786	782	c	-1	M_ps180__91__c__93__	C42H81N1O10P1	phosphatidylserine (dioctadecanoyl, n-C18:0)
787	783	c	-1	M_ps181__91__c__93__	C42H77N1O10P1	phosphatidylserine (dioctadec-11-enoyl, n-C18:1)
788	784	c	-1	M_psai15__91__c__93__	C36H69NO10P	Phosphatidylserine (12-methyl-tetradecanoyl, anteiso-C15)
789	785	c	-1	M_psai17__91__c__93__	C40H77NO10P	Phosphatidylserine (14-methyl-hexadecanoyl, anteiso-C17)
790	786	c	-2	M_psd5p__91__c__93__	C9H11N2O9P	Pseudouridine 5-phosphate
791	787	c	-2	M_pser_L__91__c__93__	C3H6NO6P	O-Phospho-L-serine
792	788	c	-1	M_psi14__91__c__93__	C34H65NO10P	Phosphatidylserine (12-methyl-tridecanoyl, iso-C14)
793	789	c	-1	M_psi15__91__c__93__	C36H69NO10P	Phosphatidylserine (13-methyl-tetradecanoyl, iso-C15)
794	790	c	-1	M_psi16__91__c__93__	C38H73NO10P	Phosphatidylserine (14-methyl-pentadecanoyl, iso-C16)
795	791	c	-1	M_psi17__91__c__93__	C40H77NO10P	Phosphatidylserine (15-methyl-hexadecanoyl, iso-C17)
796	792	c	+2	M_ptrc__91__c__93__	C4H14N2	Putrescine
797	793	c	-1	M_pyam5p__91__c__93__	C8H12N2O5P	Pyridoxamine 5-phosphate
798	794	c	+1	M_pydam__91__c__93__	C8H13N2O2	Pyridoxamine
799	795	c	-2	M_pydx5p__91__c__93__	C8H8NO6P	Pyridoxal 5-phosphate
800	796	c	+0	M_pydx__91__c__93__	C8H9NO3	Pyridoxal
801	797	c	+0	M_pydxn__91__c__93__	C8H11NO3	Pyridoxine
802	798	c	-1	M_pyr__91__c__93__	C3H3O3	pyruvate
803	799	c	+0	M_q8__91__c__93__	C49H74O4	Ubiquinone-8
804	800	c	+0	M_q8h2__91__c__93__	C49H76O4	Ubiquinol-8
805	801	c	-2	M_quln__91__c__93__	C7H3NO4	quinolinate(2-)
806	802	c	-2	M_r1p__91__c__93__	C5H9O8P	alpha-D-Ribose 1-phosphate
807	803	c	-2	M_r5p__91__c__93__	C5H9O8P	alpha-D-Ribose 5-phosphate
808	804	c	+0	M_raffin__91__c__93__	C18H32O16	Raffinose
809	805	c	+0	M_rbl_D__91__c__93__	C5H10O5	D-ribulose
810	806	c	+0	M_rbl_L__91__c__93__	C5H10O5	L-Ribulose
811	807	c	+0	M_rhcys__91__c__93__	C9H17NO6S	S-Ribosyl-L-homocysteine
812	808	c	+0	M_rib_D__91__c__93__	C5H10O5	D-ribose
813	809	c	+0	M_ribflv__91__c__93__	C17H20N4O6	Riboflavin
814	810	c	-2	M_rml1p__91__c__93__	C6H11O8P	L-Rhamnulose 1-phosphate
815	811	c	+0	M_rml__91__c__93__	C6H12O5	L-Rhamnulose
816	812	c	+0	M_rmn__91__c__93__	C6H12O5	L-Rhamnose
817	813	c	+1	M_rnam__91__c__93__	C11H15N2O5	N-Ribosylnicotinamide
818	814	c	+0	M_rnatrans__91__c__93__	X	RNA transcription
819	815	c	-2	M_ru5p_D__91__c__93__	C5H9O8P	D-ribulose 5-phosphate(2-)
820	816	c	-2	M_ru5p_L__91__c__93__	C5H9O8P	L-Ribulose 5-phosphate
821	817	c	-4	M_s17bp__91__c__93__	C7H12O13P2	Sedoheptulose 1,7-bisphosphate
822	818	c	-2	M_s7p__91__c__93__	C7H13O10P	Sedoheptulose 7-phosphate
823	819	c	+0	M_s__91__c__93__	S	Sulfur
824	820	c	-2	M_salc6p__91__c__93__	C13H17O10P	Salicin 6-phosphate
825	821	c	-5	M_sbzcoa__91__c__93__	C32H39N7O20P3S	O-Succinylbenzoyl-CoA
826	822	c	+0	M_ser_L__91__c__93__	C3H7NO3	L-serine
827	823	c	-3	M_skm5p__91__c__93__	C7H8O8P	Shikimate 5-phosphate
828	824	c	-1	M_skm__91__c__93__	C7H9O5	Shikimate
829	825	c	-2	M_so3__91__c__93__	O3S	Sulfite
830	826	c	-2	M_so4__91__c__93__	O4S	sulfate
831	827	c	+3	M_spmd__91__c__93__	C7H22N3	Spermidine
832	828	c	-4	M_stcoa__91__c__93__	C39H66N7O17P3S	Stearoyl-CoA (n-C18:0CoA)
833	829	c	-24	M_sttca1__91__c__93__	C123H240O135P24	Stearoyllipoteichoic acid (n=24), linked, unsubstituted
834	830	c	-24	M_sttcaglc__91__c__93__	C267H480O255P24	Stearoyllipoteichoic acid (n=24), linked, glucose substituted
835	831	c	+0	M_stys__91__c__93__	C24H42O21	Stachyose
836	832	c	-2	M_suc6p__91__c__93__	C12H21O14P	Sucrose 6-phosphate
837	833	c	-2	M_sucbz__91__c__93__	C11H8O5	o-Succinylbenzoate
838	834	c	-2	M_succ__91__c__93__	C4H4O4	Succinate
839	835	c	-1	M_succitr_L__91__c__93__	C10H16N3O6	N-succinyl-L-citrulline 
840	836	c	-5	M_succoa__91__c__93__	C25H35N7O19P3S	Succinyl-CoA
841	837	c	-1	M_suchms__91__c__93__	C8H12NO6	O-Succinyl-L-homoserine
842	838	c	-1	M_sucorn__91__c__93__	C9H15N2O5	N2-Succinyl-L-ornithine
843	839	c	+0	M_sucr__91__c__93__	C12H22O11	Sucrose
844	840	c	-2	M_tag6p_D__91__c__93__	C6H11O9P	D-Tagatose 6-phosphate
845	841	c	-4	M_tagdp_D__91__c__93__	C6H10O12P2	D-Tagatose 1,6-biphosphate
846	842	c	-1	M_tagur__91__c__93__	C6H9O7	D-Tagaturonate
847	843	c	-4	M_tdcoa__91__c__93__	C35H58N7O17P3S	Tetradecanoyl-CoA (n-C14:0CoA)
848	844	c	-1	M_tddec2eACP__91__c__93__	C23H41N2O8PRS	trans-Dodec-2-enoyl-[acyl-carrier protein]
849	845	c	-1	M_tdeACP__91__c__93__	C25H45N2O8PRS	cis-tetradec-7-enoyl-[acyl-carrier protein] (n-C14:1)
850	846	c	-1	M_tdec2eACP__91__c__93__	C21H37N2O8PRS	trans-Dec-2-enoyl-[acyl-carrier protein]
851	847	c	+0	M_teich_45_BS__91__c__93__	X	teichuronic acid (GlcA + GalNac, 45 repeating unit)
852	848	c	-2	M_thdp__91__c__93__	C7H7NO4	2,3,4,5-Tetrahydrodipicolinate
853	849	c	-1	M_thex2eACP__91__c__93__	C17H29N2O8PRS	trans-Hex-2-enoyl-[acyl-carrier protein]
854	850	c	-2	M_thf__91__c__93__	C19H21N7O6	5,6,7,8-Tetrahydrofolate
855	851	c	-3	M_thfglu__91__c__93__	C24H27N8O9	Tetrahydrofolyl-[Glu](2)
856	852	c	+1	M_thm__91__c__93__	C12H17N4OS	Thiamin
857	853	c	-1	M_thmmp__91__c__93__	C12H16N4O4PS	Thiamin monophosphate
858	854	c	-2	M_thmpp__91__c__93__	C12H16N4O7P2S	Thiamine diphosphate
859	855	c	-1	M_thp2c__91__c__93__	C6H8NO2	1-piperideine-6-carboxylate
860	856	c	+0	M_thr_L__91__c__93__	C4H9NO3	L-threonine
861	857	c	+0	M_thymd__91__c__93__	C10H14N2O5	Thymidine
862	858	c	-1	M_tmrs2eACP__91__c__93__	C25H45N2O8PRS	trans-Tetradec-2-enoyl-[acyl-carrier protein]
863	859	c	-1	M_toct2eACP__91__c__93__	C19H33N2O8PRS	trans-Oct-2-enoyl-[acyl-carrier protein]
864	860	c	-1	M_toctd2eACP__91__c__93__	C29H53N2O8PRS	trans-octadec-2-enoyl-[acyl-carrier protein]
865	861	c	-1	M_tpalm2eACP__91__c__93__	C27H49N2O8PRS	trans-Hexadec-2-enoyl-[acyl-carrier protein]
866	862	c	+0	M_trdox__91__c__93__	X	Oxidized thioredoxin
867	863	c	+0	M_trdrd__91__c__93__	XH2	Reduced thioredoxin
868	864	c	-2	M_tre6p__91__c__93__	C12H21O14P	alpha,alpha-Trehalose 6-phosphate
869	865	c	+0	M_tre__91__c__93__	C12H22O11	Trehalose
870	866	c	+0	M_trnaglu__91__c__93__	R	tRNA (Glu)
871	867	c	+0	M_trp_L__91__c__93__	C11H12N2O2	L-tryptophan
872	868	c	-2	M_tsul__91__c__93__	O3S2	thiosulfate(2-)
873	869	c	-1	M_ttdca__91__c__93__	C14H27O2	tetradecanoate (n-C14:0)
874	870	c	+0	M_tyr_L__91__c__93__	C9H11NO3	L-tyrosine
875	871	c	-2	M_u23ga__91__c__93__	C43H75N3O20P2	UDP-2,3-bis(3-hydroxytetradecanoyl)glucosamine
876	872	c	-2	M_u3aga__91__c__93__	C31H51N3O19P2	UDP-3-O-(3-hydroxytetradecanoyl)-N-acetylglucosamine
877	873	c	-1	M_u3hga__91__c__93__	C29H50N3O18P2	UDP-3-O-(3-hydroxytetradecanoyl)-D-glucosamine
878	874	c	-3	M_uGgla__91__c__93__	C40H62N9O26P2	UDP-N-acetylmuramoyl-L-alanyl-gamma-D-glutamyl-L-lysyl-D-alanyl-D-alanine
879	875	c	-3	M_uaGgla__91__c__93__	C86H140N7O21P2	Undecaprenyl-diphospho-N-acetylmuramoyl-L-alanyl-gamma-D-glutamyl-L-lysyl-D-alanyl-D-alanine
880	876	c	-3	M_uaaAgla__91__c__93__	C94H153N8O26P2	Undecaprenyl-diphospho-N-acetylmuramoyl-(N-acetylglucosamine)-L-alanyl-D-glutamyl-L-lysyl-D-alanyl-D-alanine
881	877	c	-2	M_uaaAgtla__91__c__93__	C94H155N9O25P2	Undecaprenyl-diphospho-N-acetylmuramoyl-(N-acetylglucosamine)-L-alanyl-D-glutaminyl-L-lysyl-D-alanyl-D-alanine
882	878	c	-3	M_uaaGgla__91__c__93__	C94H153N8O26P2	Undecaprenyl-diphospho-N-acetylmuramoyl-(N-acetylglucosamine)-L-alanyl-gamma-D-glutamyl-L-lysyl-D-alanyl-D-alanine
883	879	c	-2	M_uaaGgtla__91__c__93__	C94H155N9O25P2	Undecaprenyl-diphospho-N-acetylmuramoyl-(N-acetylglucosamine)-L-alanyl-D-isoglutaminyl-L-lysyl-D-alanyl-D-alanine
884	880	c	-4	M_uaagmda__91__c__93__	C95H152N8O28P2	Undecaprenyl-diphospho-N-acetylmuramoyl-(N-acetylglucosamine)-L-ala-D-glu-meso-2,6-diaminopimeloyl-D-ala-D-ala
885	881	c	-3	M_uaagtmda__91__c__93__	C95H154N9O27P2	Undecaprenyl-diphospho-N-acetylmuramoyl-(N-acetylglucosamine)-L-alanyl-D-glutaminyl-meso-2,6-diaminopimeloyl-D-alanyl-D-alanine
886	882	c	-3	M_uaccg__91__c__93__	C20H26N3O19P2	UDP-N-acetyl-3-O-(1-carboxyvinyl)-D-glucosamine
887	883	c	-2	M_uacgam__91__c__93__	C17H25N3O17P2	UDP-N-acetyl-alpha-D-glucosamine(2-)
888	884	c	-2	M_uacmam__91__c__93__	C17H25N3O17P2	UDP-N-acetyl-D-mannosamine
889	885	c	-4	M_uagmda__91__c__93__	C87H139N7O23P2	Undecaprenyl-diphospho-N-acetylmuramoyl-L-alanyl-D-glutamyl-meso-2,6-diaminopimeloyl-D-alanyl-D-alanine
890	886	c	-3	M_uama__91__c__93__	C23H33N4O20P2	UDP-N-acetylmuramoyl-L-alanine
891	887	c	-4	M_uamag__91__c__93__	C28H39N5O23P2	UDP-N-acetylmuramoyl-L-alanyl-D-glutamate
892	888	c	-3	M_uamr__91__c__93__	C20H28N3O19P2	UDP-N-acetylmuramate
893	889	c	-3	M_udcpdp__91__c__93__	C55H89O7P2	Undecaprenyl diphosphate
894	890	c	-2	M_udcpp__91__c__93__	C55H89O4P	Undecaprenyl phosphate
895	891	c	-3	M_udp__91__c__93__	C9H11N2O12P2	UDP
896	892	c	-2	M_udpacgal__91__c__93__	C17H25N3O17P2	UDP-N-acetyl-D-galactosamine(2-)
897	893	c	-2	M_udpg__91__c__93__	C15H22N2O17P2	UDPglucose
898	894	c	-2	M_udpgal__91__c__93__	C15H22N2O17P2	UDP-D-galactose(2-)
899	895	c	-2	M_udpgalfur__91__c__93__	C15H22N2O17P2	UDP-D-galacto-1,4-furanose
900	896	c	-3	M_udpglcur__91__c__93__	C15H19N2O18P2	UDP-D-glucuronate
901	897	c	-4	M_ugmd__91__c__93__	C35H51N7O26P2	UDP-N-acetylmuramoyl-L-alanyl-D-gamma-glutamyl-meso-2,6-diaminopimelate
902	898	c	-4	M_ugmda__91__c__93__	C41H61N9O28P2	UDP-N-acetylmuramoyl-L-alanyl-D-glutamyl-meso-2,6-diaminopimeloyl-D-alanyl-D-alanine
903	899	c	-2	M_ump__91__c__93__	C9H11N2O9P	UMP
904	900	c	-8	M_uppg3__91__c__93__	C40H36N4O16	Uroporphyrinogen III
905	901	c	+0	M_ura__91__c__93__	C4H4N2O2	uracil
906	902	c	-1	M_urcan__91__c__93__	C6H5N2O2	Urocanate
907	903	c	+0	M_urea__91__c__93__	CH4N2O	Urea
908	904	c	+0	M_uri__91__c__93__	C9H12N2O6	Uridine
909	905	c	-4	M_utp__91__c__93__	C9H11N2O15P3	UTP
910	906	c	+0	M_val_L__91__c__93__	C5H11NO2	L-valine
911	907	c	+0	M_xan__91__c__93__	C5H4N4O2	Xanthine
912	908	c	-2	M_xmp__91__c__93__	C10H11N4O9P	Xanthosine 5-phosphate
913	909	c	+0	M_xtsn__91__c__93__	C10H12N4O6	xanthosine
914	910	c	-2	M_xu1p_L__91__c__93__	C5H9O8P	L-Xylulose 1-phosphate
915	911	c	-2	M_xu5p_D__91__c__93__	C5H9O8P	D-xylulose 5-phosphate(2-)
916	912	c	-2	M_xu5p_L__91__c__93__	C5H9O8P	L-Xylulose 5-phosphate
917	913	c	+0	M_xyl_D__91__c__93__	C5H10O5	aldehydo-D-xylose
918	914	c	+0	M_xylu_D__91__c__93__	C5H10O5	D-xylulose
919	915	c	+0	M_xylu_L__91__c__93__	C5H10O5	L-xylulose
920	916	c	+2	M_zn2__91__c__93__	Zn	Zinc
