CNC	distance
0.11465	0.100853
0.117152	0.100393
0.119709	0.0899673
0.122321	0.0952126
0.12499	0.0834788
0.125666	0.085733
0.126346	0.136257
0.12703	0.0977952
0.127717	0.108146
0.128408	0.0977975
0.129103	0.0888075
0.129802	0.0849862
0.130504	0.0918454
0.131211	0.0892793
0.131921	0.0843258
0.133352	0.108636
0.134799	0.103653
0.136262	0.0848267
0.137741	0.0840012
0.139236	5.38319e+303
0.145378	0.0972638
0.151792	0.108342
0.165482	0.100547
0.172783	0.131174
0.188365	0.136475
0.205353	0.133373
0.244062	0.140565
0.266073	0.137603
0.316228	0.140675
0.375837	0.151226
0.446684	0.150415
0.530884	0.108525
inf	0.839317
inf	0.839317
inf	0.839317
inf	0.839317
inf	0.839317
inf	0.839317
inf	0.839317
inf	0.839317
inf	0.839317
inf	0.839317
inf	0.839317
inf	0.839317
inf	0.839317
inf	0.839317
inf	0.839317
inf	0.839317
inf	0.839317
inf	0.839317
inf	0.839317
inf	0.839317
inf	0.839317
inf	0.839317
inf	0.839317
inf	0.839317
inf	0.839317
inf	0.839317
inf	0.839317
inf	0.839317
inf	0.839317
inf	0.839317
inf	0.839317
inf	0.839317
inf	0.839317
inf	0.839317
inf	0.839317
inf	0.839317
inf	0.839317
inf	0.839317
inf	0.839317
inf	0.839317
0.01	0.136539
0.0141254	0.149651
0.0199526	5.38319e+303
0.0281838	0.128558
0.0398107	5.38319e+303
0.0562341	0.136614
0.0794328	0.101675
0.112202	0.0927338
0.158489	0.0985517
0.223872	0.109404
