CNC	distance
0.188365	0.135499
0.266073	0.122428
0.316228	0.114333
0.375837	0.132379
0.446684	0.128938
0.530884	0.139591
0.630957	0.141323
0.749894	0.110184
0.817523	0.13855
0.891251	0.138742
0.971628	0.13981
1.05925	0.137673
1.15478	0.13611
1.25893	0.135291
1.37246	0.0972731
1.49624	0.121975
1.63117	0.0943812
1.64	0.115143
1.64887	0.132413
1.6578	0.132328
1.66677	0.105093
1.67579	0.094119
1.68485	0.109572
1.69397	0.13351
1.70314	0.131827
1.71235	0.131373
1.72162	0.127636
1.7403	0.130892
1.75919	0.119371
1.77828	0.0988373
1.79758	0.115388
1.81708	0.112103
1.85674	0.125557
1.89725	0.125281
1.93865	0.107196
1.98096	0.10197
2.02418	0.12446
2.11349	0.124921
2.20673	0.117355
2.30409	0.117769
2.40575	0.099123
inf	0.839318
inf	0.839318
inf	0.839318
inf	0.839318
inf	0.839318
inf	0.839318
inf	0.839318
inf	0.839318
inf	0.839318
inf	0.839318
inf	0.839317
inf	0.839318
inf	0.839318
inf	0.839318
inf	0.839318
inf	0.839318
inf	0.839318
inf	0.839317
inf	0.839318
inf	0.839318
inf	0.839318
inf	0.839318
inf	0.839318
inf	0.839318
inf	0.839318
inf	0.839317
inf	0.839317
inf	0.839317
inf	0.839317
inf	0.839317
inf	0.839317
inf	0.839317
inf	0.839317
inf	0.839317
inf	0.839317
inf	0.839317
inf	0.839317
inf	0.839317
inf	0.839317
inf	0.839317
0.01	0.159988
0.0141254	0.138474
0.0199526	0.136752
0.0281838	0.159402
0.0398107	3.35476e+238
0.0562341	0.1583
0.0794328	0.157439
0.112202	0.156014
0.158489	0.133954
0.223872	0.138923
