CNC	distance
0.159347	0.00630054
0.160209	0.00670606
0.161076	0.00648635
0.161948	0.00713546
0.162824	0.00702968
0.163705	0.00784162
0.164591	0.00666108
0.165482	0.0072057
0.166377	0.0080205
0.167277	0.0080112
0.169093	0.00846926
0.170928	0.00896737
0.172783	0.00890626
0.174658	0.0102209
0.176553	0.010927
0.180406	0.0118234
0.184342	0.0140461
0.188365	0.0153218
0.192475	0.0171992
0.196675	0.0188013
0.205353	0.0221502
0.214412	0.0262045
0.233749	0.0344705
0.244062	0.0375137
0.266073	0.044925
0.290068	0.0497103
0.316228	0.0562238
0.344747	0.0624375
0.375837	0.0706728
0.446684	0.0890369
0.530884	0.105877
0.630957	0.121217
0.749894	0.135577
inf	0.839347
inf	0.839347
inf	0.839347
inf	0.839347
inf	0.839347
inf	0.839317
inf	0.839347
inf	0.839347
inf	0.839347
inf	0.839347
inf	0.839347
inf	0.839347
inf	0.839347
inf	0.839347
inf	0.839347
inf	0.839347
inf	0.839347
inf	0.839347
inf	0.839347
inf	0.839347
inf	0.839347
inf	0.839347
inf	0.839347
inf	0.839347
inf	0.839347
inf	0.839317
inf	0.839317
inf	0.839317
inf	0.839317
inf	0.839317
inf	0.839317
inf	0.839317
inf	0.839317
inf	0.839317
inf	0.839317
inf	0.839317
inf	0.839317
inf	0.839317
inf	0.839317
inf	0.839317
0.01	0.13399
0.0141254	0.126394
0.0199526	0.117363
0.0281838	0.104891
0.0398107	0.0912651
0.0562341	0.0736983
0.0794328	0.0539896
0.112202	0.0297931
0.158489	0.00637829
0.223872	0.0308989
