CNC	distance
0.0829373	0.00598758
0.0838373	0.00595152
0.084291	0.00594745
0.0847471	0.00602756
0.0852057	0.00614672
0.0856668	0.00667752
0.0861304	0.00690087
0.0865964	0.00689032
0.087065	0.00657469
0.0875362	0.00717196
0.0880098	0.00747653
0.0884861	0.00760354
0.0894463	0.00775723
0.090417	0.00878922
0.0913982	0.00971891
0.09239	0.0103158
0.0944061	0.0112883
0.0964662	0.0124805
0.0985712	0.013962
0.100722	0.0153645
0.10292	0.0173938
0.107461	0.0211073
0.117152	0.0275959
0.122321	0.0316859
0.133352	0.0391804
0.145378	0.0473836
0.172783	0.063987
0.188365	0.0726791
0.266073	0.101987
0.316228	0.116185
0.375837	0.12943
inf	0.839317
inf	0.839317
inf	0.839317
inf	0.839317
inf	0.839317
inf	0.839317
inf	0.839317
inf	0.839317
inf	0.839317
inf	0.839317
inf	0.839317
inf	0.839317
inf	0.839317
inf	0.839317
inf	0.839317
inf	0.839317
inf	0.839317
inf	0.839317
inf	0.839317
inf	0.839317
inf	0.839317
inf	0.839317
inf	0.839317
inf	0.839317
inf	0.839317
inf	0.839317
inf	0.839317
inf	0.839317
inf	0.839317
inf	0.839317
inf	0.839317
inf	0.839317
inf	0.839317
inf	0.839317
inf	0.839317
inf	0.839317
inf	0.839317
inf	0.839317
inf	0.839317
inf	0.839317
0.01	0.117127
0.0141254	0.10552
0.0199526	0.0913838
0.0281838	0.0756773
0.0398107	0.0551023
0.0562341	0.0323939
0.0794328	0.00686608
0.112202	0.0243047
0.158489	0.0552477
0.223872	0.087456
