	index	compartment	charge	id	formula	name
1	836	c	+0	C_charge_balance	X	charge balance
2	837	c	+0	C_cytosol_crowding	X	cytosol molecular crowding
3	838	c	+0	C_membrane_crowding	X	membrane molecular crowding
4	0	c	-6	M_10fthf5glu__91__c__93__	C40H45N11O19	10-formyltetrahydrofolate-[Glu](5)
5	1	c	-2	M_10fthf__91__c__93__	C20H21N7O7	10-Formyltetrahydrofolate
6	2	c	-1	M_10m3hddcaACP__91__c__93__	C24H45N2O9PRS	10-methyl-3-hydroxy-dodecanoyl-ACP
7	3	c	-1	M_10m3hundecACP__91__c__93__	C23H43N2O9PRS	10-methyl-3-hydroxy-undecanoyl-ACP
8	4	c	-1	M_10m3oddcaACP__91__c__93__	C24H43N2O9PRS	10-methyl-3-oxo-dodecanoyl-ACP
9	5	c	-1	M_10m3oundecACP__91__c__93__	C23H41N2O9PRS	10-methyl-3-oxo-undecanoyl-ACP
10	6	c	-1	M_10mddcaACP__91__c__93__	C24H45N2O8PRS	10-methyl-dodecanoyl-ACP
11	7	c	-1	M_10mtddec2eACP__91__c__93__	C24H43N2O8PRS	10-methyl-trans-dodec-2-enoyl-ACP
12	8	c	-1	M_10mundecACP__91__c__93__	C23H43N2O8PRS	10-methyl-undecanoyl-ACP
13	9	c	-1	M_11m3hddcaACP__91__c__93__	C24H45N2O9PRS	11-methyl-3-hydroxy-dodecanoyl-ACP
14	10	c	-1	M_11m3oddcaACP__91__c__93__	C24H43N2O9PRS	11-methyl-3-oxo-dodecanoyl-ACP
15	11	c	-1	M_11mddcaACP__91__c__93__	C24H45N2O8PRS	11-methyl-dodecanoyl-ACP
16	12	c	-1	M_11mtddec2eACP__91__c__93__	C24H43N2O8PRS	11-methyl-trans-dodec-2-enoyl-ACP
17	13	c	+0	M_12daihdglyc__91__c__93__	C37H72O5	1,2-Dianteisoheptadecanoyl-sn-glycerol
18	14	c	+0	M_12daipdglyc__91__c__93__	C33H64O5	1,2-Dianteisopentadecanoyl-sn-glycerol
19	15	c	+0	M_12dgr120__91__c__93__	C27H52O5	1,2-Diacyl-sn-glycerol (didodecanoyl, n-C12:0)
20	16	c	+0	M_12dgr140__91__c__93__	C31H60O5	1,2-Diacyl-sn-glycerol (ditetradecanoyl, n-C14:0)
21	17	c	+0	M_12dgr141__91__c__93__	C31H56O5	1,2-Diacyl-sn-glycerol (ditetradec-7-enoyl, n-C14:1)
22	18	c	+0	M_12dgr160__91__c__93__	C35H68O5	1,2-Diacyl-sn-glycerol (dihexadecanoyl, n-C16:0)
23	19	c	+0	M_12dgr161__91__c__93__	C35H64O5	1,2-Diacyl-sn-glycerol (dihexadec-9-enoyl, n-C16:1)
24	20	c	+0	M_12dgr180__91__c__93__	C39H76O5	1,2-Diacyl-sn-glycerol (dioctadecanoyl, n-C18:0)
25	21	c	+0	M_12dgr181__91__c__93__	C39H72O5	1,2-Diacyl-sn-glycerol (dioctadec-11-enoyl, n-C18:1)
26	22	c	+0	M_12dihdglyc__91__c__93__	C37H72O5	1,2-Diisoheptadecanoyl-sn-glycerol
27	23	c	+0	M_12dipdglyc__91__c__93__	C33H64O5	1,2-Diisopentadecanoyl-sn-glycerol
28	24	c	+0	M_12ditdglyc__91__c__93__	C31H60O5	1,2-Diisotetradecanoyl-sn-glycerol
29	25	c	+0	M_12dixdglyc__91__c__93__	C35H68O5	1,2-Diisohexadecanoyl-sn-glycerol
30	26	c	-1	M_12m3hmyrsACP__91__c__93__	C26H49N2O9PRS	12-methyl-3-hydroxy-tetra-decanoyl-ACP
31	27	c	-1	M_12m3htridecACP__91__c__93__	C25H47N2O9PRS	12-methyl-3-hydroxy-tridecanoyl-ACP
32	28	c	-1	M_12m3omyrsACP__91__c__93__	C26H47N2O9PRS	12-methyl-3-oxo-tetra-decanoyl-ACP
33	29	c	-1	M_12m3otridecACP__91__c__93__	C25H45N2O9PRS	12-methyl-3-oxo-tridecanoyl-ACP
34	30	c	-1	M_12mmyrsACP__91__c__93__	C26H49N2O8PRS	12-methyl-tetra-decanoyl-ACP
35	31	c	-1	M_12mtmrs2eACP__91__c__93__	C26H47N2O8PRS	12-methyl-trans-tetra-dec-2-enoyl-ACP
36	32	c	-1	M_12mtridecACP__91__c__93__	C25H47N2O8PRS	12-methyl-tridecanoyl-ACP
37	33	c	-4	M_13dpg__91__c__93__	C3H4O10P2	3-Phospho-D-glyceroyl phosphate
38	34	c	-1	M_13m3hmyrsACP__91__c__93__	C26H49N2O9PRS	13-methyl-3-hydroxy-tetra-decanoyl-ACP
39	35	c	-1	M_13m3omyrsACP__91__c__93__	C26H47N2O9PRS	13-methyl-3-oxo-tetra-decanoyl-ACP
40	36	c	-1	M_13mmyrsACP__91__c__93__	C26H49N2O8PRS	13-methyl-tetra-decanoyl-ACP
41	37	c	-1	M_13mtmrs2eACP__91__c__93__	C26H47N2O8PRS	13-methyl-trans-tetra-dec-2-enoyl-ACP
42	38	c	-1	M_14m3hpalmACP__91__c__93__	C28H53N2O9PRS	14-methyl-3-hydroxy-hexa-decanoyl-ACP
43	39	c	-1	M_14m3hpentdecACP__91__c__93__	C27H51N2O9PRS	14-methyl-3-hydroxy-pentadecanoyl-ACP
44	40	c	-1	M_14m3opalmACP__91__c__93__	C28H51N2O9PRS	14-methyl-3-oxo-hexa-decanoyl-ACP
45	41	c	-1	M_14m3opentdecACP__91__c__93__	C27H49N2O9PRS	14-methyl-3-oxo-pentadecanoyl-ACP
46	42	c	-1	M_14mpalmACP__91__c__93__	C28H53N2O8PRS	14-methyl-hexa-decanoyl-ACP
47	43	c	-1	M_14mpentdecACP__91__c__93__	C27H51N2O8PRS	14-methyl-pentadecanoyl-ACP
48	44	c	-1	M_14mtpalm2eACP__91__c__93__	C28H51N2O8PRS	14-methyl-trans-hexa-dec-2-enoyl-ACP
49	45	c	-1	M_15m3hpalmACP__91__c__93__	C28H53N2O9PRS	15-methyl-3-hydroxy-hexa-decanoyl-ACP
50	46	c	-1	M_15m3opalmACP__91__c__93__	C28H51N2O9PRS	15-methyl-3-oxo-hexa-decanoyl-ACP
51	47	c	-1	M_15mpalmACP__91__c__93__	C28H53N2O8PRS	15-methyl-hexa-decanoyl-ACP
52	48	c	-1	M_15mtpalm2eACP__91__c__93__	C28H51N2O8PRS	15-methyl-trans-hexa-dec-2-enoyl-ACP
53	49	c	-2	M_1aihpdecg3p__91__c__93__	C20H39O7P	1-anteisoheptadecanoyl-sn-glycerol 3-phosphate (14-methyl-hexadecanoyl, anteiso-C17)
54	50	c	-1	M_1aipdecg3p__91__c__93__	C18H36O7P	1-anteisopentadecanoyl-sn-glycerol 3-phosphate (12-methyl-tetradecanoyl, anteiso-C15)
55	51	c	-2	M_1ddecg3p__91__c__93__	C15H29O7P1	1-acyl-sn-glycerol 3-phosphate(2-)
56	52	c	-2	M_1hdec9eg3p__91__c__93__	C19H35O7P1	1-hexadec-9-enoyl-sn-glycerol 3-phosphate
57	53	c	-2	M_1hdecg3p__91__c__93__	C19H37O7P1	1-hexadecanoyl-sn-glycerol 3-phosphate
58	54	c	-1	M_1ihdecg3p__91__c__93__	C19H38O7P	1-isohexadecanoyl-sn-glycerol 3-phosphate (14-methyl-pentadecanoyl, iso-C16)
59	55	c	-2	M_1ihpdecg3p__91__c__93__	C20H39O7P	1-isoheptadecanoyl-sn-glycerol 3-phosphate (15-methyl-hexadecanoyl, iso-C17)
60	56	c	-1	M_1ipdecg3p__91__c__93__	C18H36O7P	1-isopentadecanoyl-sn-glycerol 3-phosphate (13-methyl-tetradecanoyl, iso-C15)
61	57	c	-1	M_1itdecg3p__91__c__93__	C17H34O7P	1-isotetradecanoyl-sn-glycerol 3-phosphate (12-methyl-tridecanoyl, iso-C14)
62	58	c	-2	M_1odec11eg3p__91__c__93__	C21H39O7P1	1-octadec-11-enoyl-sn-glycerol 3-phosphate
63	59	c	-2	M_1odecg3p__91__c__93__	C21H41O7P1	1-octadecanoyl-sn-glycerol 3-phosphate
64	60	c	-1	M_1p4h2cbxl__91__c__93__	C5H6NO3	1-Pyrroline-4-hydroxy-2-carboxylate
65	61	c	-1	M_1pyr5c__91__c__93__	C5H6NO2	1-Pyrroline-5-carboxylate
66	62	c	-2	M_1tdec7eg3p__91__c__93__	C17H31O7P1	1-tetradec-7-enoyl-sn-glycerol 3-phosphate
67	63	c	-2	M_1tdecg3p__91__c__93__	C17H33O7P1	1-tetradecanoyl-sn-glycerol 3-phosphate
68	64	c	-1	M_23camp__91__c__93__	C10H11N5O6P	2,3-Cyclic AMP
69	65	c	-1	M_23ccmp__91__c__93__	C9H11N3O7P	2,3-Cyclic CMP
70	66	c	-1	M_23cgmp__91__c__93__	C10H11N5O7P	2,3-Cyclic GMP
71	67	c	-1	M_23cump__91__c__93__	C9H10N2O8P	2,3-cyclic UMP(1-)
72	68	c	-2	M_23dhdp__91__c__93__	C7H5NO4	2,3-Dihydrodipicolinate
73	69	c	-5	M_23dpg__91__c__93__	C3H3O10P2	2,3-bisphosphonato-D-glycerate(5-)
74	70	c	-4	M_25aics__91__c__93__	C13H15N4O12P	(S)-2-[5-Amino-1-(5-phospho-D-ribosyl)imidazole-4-carboxamido]succinate
75	71	c	-2	M_25dhpp__91__c__93__	C9H14N5O8P	2,5-Diamino-6-hydroxy-4-(5-phosphoribosylamino)-pyrimidine
76	72	c	-1	M_25dop__91__c__93__	C5H5O4	2,5-Dioxopentanoate
77	73	c	-2	M_25drapp__91__c__93__	C9H14N5O8P	2,5-Diamino-6-(ribosylamino)-4-(3H)-pyrimidinone 5-phosphate
78	74	c	+0	M_26dap_LL__91__c__93__	C7H14N2O4	LL-2,6-Diaminoheptanedioate
79	75	c	+0	M_26dap_M__91__c__93__	C7H14N2O4	meso-2,6-Diaminoheptanedioate
80	76	c	-1	M_2ahbut__91__c__93__	C6H9O4	(S)-2-Aceto-2-hydroxybutanoate
81	77	c	-2	M_2c25dho__91__c__93__	C7H4O6	2-Carboxy-2,5-dihydro-5-oxofuran-2-acetate
82	78	c	-3	M_2dda7p__91__c__93__	C7H10O10P	2-Dehydro-3-deoxy-D-arabino-heptonate 7-phosphate
83	79	c	-3	M_2ddg6p__91__c__93__	C6H8O9P	2-Dehydro-3-deoxy-D-gluconate 6-phosphate
84	80	c	-1	M_2ddglcn__91__c__93__	C6H9O6	2-Dehydro-3-deoxy-D-gluconate
85	81	c	-1	M_2dhp__91__c__93__	C6H9O4	2-Dehydropantoate
86	82	c	+0	M_2dmmq8__91__c__93__	C50H70O2	2-Demethylmenaquinone 8
87	83	c	+0	M_2dmmql8__91__c__93__	C50H72O2	2-Demethylmenaquinol 8
88	84	c	-2	M_2dr5p__91__c__93__	C5H9O7P	2-deoxy-D-ribose 5-phosphate(2-)
89	85	c	-1	M_2h3oppan__91__c__93__	C3H3O4	2-Hydroxy-3-oxopropanoate
90	86	c	-1	M_2hb__91__c__93__	C4H7O3	2-Hydroxybutyrate
91	87	c	-2	M_2hmc__91__c__93__	C6H4O5	2-Hydroxymuconate
92	88	c	+0	M_2hymeph__91__c__93__	C7H8O2	2-(Hydroxymethyl)phenol
93	89	c	-4	M_2maacoa__91__c__93__	C26H38N7O18P3S	2-methylacetoacetyl-CoA(4-)
94	90	c	-3	M_2mahmp__91__c__93__	C6H8N3O7P2	2-Methyl-4-amino-5-hydroxymethylpyrimidine diphosphate
95	91	c	-4	M_2mbcoa__91__c__93__	C26H40N7O17P3S	2-methylbutanoyl-CoA(4-)
96	92	c	-1	M_2mbutACP__91__c__93__	C16H29N2O8PRS	2-methylbutanoyl-ACP,2-methylbutyryl-ACP
97	93	c	-2	M_2me4p__91__c__93__	C5H11O7P	2-C-methyl-D-erythritol 4-phosphate
98	94	c	-2	M_2mecdp__91__c__93__	C5H10O9P2	2-C-methyl-D-erythritol 2,4-cyclodiphosphate
99	95	c	-1	M_2mop__91__c__93__	C4H5O3	2-methyl-3-oxopropanoate
100	96	c	-1	M_2mpropACP__91__c__93__	C15H27N2O8PRS	2-methylpropionyl-ACP,isobutyryl-ACP
101	97	c	-1	M_2obut__91__c__93__	C4H5O3	2-Oxobutanoate
102	98	c	+0	M_2ohph__91__c__93__	C46H70O2	2-Octaprenyl-6-hydroxyphenol
103	99	c	+0	M_2ombz__91__c__93__	C47H70O3	2-Octaprenyl-6-methoxy-1,4-benzoquinone
104	100	c	+0	M_2ombzl__91__c__93__	C47H72O3	2-Octaprenyl-6-methoxy-1,4-benzoquinol
105	101	c	+0	M_2omhmbl__91__c__93__	C48H74O4	2-Octaprenyl-3-methyl-5-hydroxy-6-methoxy-1,4-benzoquinol
106	102	c	+0	M_2ommb__91__c__93__	C48H72O3	2-Octaprenyl-3-methyl-6-methoxy-1,4-benzoquinone
107	103	c	+0	M_2ommbl__91__c__93__	C48H74O3	2-Octaprenyl-3-methyl-6-methoxy- 1,4-benzoquinol
108	104	c	+0	M_2omph__91__c__93__	C47H72O2	2-Octaprenyl-6-methoxyphenol
109	105	c	+0	M_2oph__91__c__93__	C46H70O	2-Octaprenylphenol
110	106	c	-4	M_2p4c2me__91__c__93__	C14H22N3O17P3	2-phospho-4-(cytidine 5-diphospho)-2-C-methyl-D-erythritol
111	107	c	-3	M_2pg__91__c__93__	C3H4O7P	D-Glycerate 2-phosphate
112	108	c	-3	M_2s5epchc__91__c__93__	C14H13O9	2-Succinyl-5-enolpyruvyl-6-hydroxy-3-cyclohexene-1-carboxylate
113	109	c	-2	M_2shchc__91__c__93__	C11H10O6	2-Succinyl-6-hydroxy-2,4-cyclohexadiene-1-carboxylate
114	110	c	+0	M_34dhmald__91__c__93__	C8H8O4	3,4-Dihydroxymandelaldehyde
115	111	c	+0	M_34dhoxpeg__91__c__93__	C8H10O4	3,4-Dihydroxyphenylethyleneglycol
116	112	c	-1	M_34hpp__91__c__93__	C9H7O4	3-(4-hydroxyphenyl)pyruvate
117	113	c	-2	M_3amp__91__c__93__	C10H12N5O7P	3-AMP(2-)
118	114	c	-2	M_3cmp__91__c__93__	C9H12N3O8P	3-cmp
119	115	c	-1	M_3dhq__91__c__93__	C7H9O6	3-Dehydroquinate
120	116	c	-1	M_3dhsk__91__c__93__	C7H7O5	3-Dehydroshikimate
121	117	c	-2	M_3gmp__91__c__93__	C10H12N5O8P	3-GMP
122	118	c	-1	M_3haACP__91__c__93__	C15H27N2O9PRS	(3R)-3-Hydroxyacyl-[acyl-carrier protein]
123	119	c	-5	M_3hadpcoa__91__c__93__	C27H39N7O20P3S	(3S)-3-Hydroxyadipyl-CoA
124	120	c	-4	M_3hbcoa__91__c__93__	C25H38N7O18P3S	(S)-3-hydroxybutanoyl-CoA(4-)
125	121	c	-4	M_3hdcoa__91__c__93__	C31H50N7O18P3S	(S)-3-Hydroxydecanoyl-CoA
126	122	c	-4	M_3hddcoa__91__c__93__	C33H54N7O18P3S	(S)-3-Hydroxydodecanoyl-CoA
127	123	c	-1	M_3hddecACP__91__c__93__	C23H43N2O9PRS	(R)-3-Hydroxydodecanoyl-[acyl-carrier protein]
128	124	c	-1	M_3hdecACP__91__c__93__	C21H39N2O9PRS	(R)-3-Hydroxydecanoyl-[acyl-carrier protein]
129	125	c	-4	M_3hhcoa__91__c__93__	C27H42N7O18P3S	(S)-3-Hydroxyhexanoyl-CoA
130	126	c	-4	M_3hhdcoa__91__c__93__	C37H62N7O18P3S	(S)-3-Hydroxyhexadecanoyl-CoA
131	127	c	-1	M_3hhexACP__91__c__93__	C17H31N2O9PRS	(R)-3-Hydroxyhexanoyl-[acyl-carrier protein]
132	128	c	-4	M_3hmbcoa__91__c__93__	C26H40N7O18P3S	(2S,3S)-3-hydroxy-2-methylbutanoyl-CoA(4-)
133	129	c	-1	M_3hmp__91__c__93__	C4H7O3	3-hydroxy-2-methylpropanoate
134	130	c	-1	M_3hmrsACP__91__c__93__	C25H47N2O9PRS	(R)-3-Hydroxytetradecanoyl-[acyl-carrier protein]
135	131	c	-4	M_3hocoa__91__c__93__	C29H46N7O18P3S	(S)-3-Hydroxyoctanoyl-CoA
136	132	c	-1	M_3hoctACP__91__c__93__	C19H35N2O9PRS	(R)-3-Hydroxyoctanoyl-[acyl-carrier protein]
137	133	c	-1	M_3hoctaACP__91__c__93__	C29H55N2O9PRS	(R)-3-Hydroxyoctadecanoyl-[acyl-carrier protein]
138	134	c	-1	M_3hpalmACP__91__c__93__	C27H51N2O9PRS	R-3-hydroxypalmitoyl-[acyl-carrier protein]
139	135	c	-4	M_3htdcoa__91__c__93__	C35H58N7O18P3S	(S)-3-Hydroxytetradecanoyl-CoA
140	136	c	-1	M_3mbutACP__91__c__93__	C16H29N2O8PRS	3-methylbutanoyl-ACP,isovaleryl-ACP
141	137	c	-1	M_3mob__91__c__93__	C5H7O3	3-methyl-2-oxobutanoate
142	138	c	-1	M_3mop__91__c__93__	C6H9O3	3-methyl-2-oxopentanoate
143	139	c	-4	M_3odcoa__91__c__93__	C31H48N7O18P3S	3-Oxodecanoyl-CoA
144	140	c	-4	M_3oddcoa__91__c__93__	C33H52N7O18P3S	3-Oxododecanoyl-CoA
145	141	c	-1	M_3oddecACP__91__c__93__	C23H41N2O9PRS	3-Oxododecanoyl-[acyl-carrier protein]
146	142	c	-1	M_3odecACP__91__c__93__	C21H37N2O9PRS	3-Oxodecanoyl-[acyl-carrier protein]
147	143	c	-4	M_3ohcoa__91__c__93__	C27H40N7O18P3S	3-Oxohexanoyl-CoA
148	144	c	-4	M_3ohdcoa__91__c__93__	C37H60N7O18P3S	3-oxopalmitoyl-CoA(4-)
149	145	c	-1	M_3ohexACP__91__c__93__	C17H29N2O9PRS	3-Oxohexanoyl-[acyl-carrier protein]
150	146	c	-1	M_3omrsACP__91__c__93__	C25H45N2O9PRS	3-Oxotetradecanoyl-[acyl-carrier protein]
151	147	c	-4	M_3oocoa__91__c__93__	C29H44N7O18P3S	3-Oxooctanoyl-CoA
152	148	c	-1	M_3ooctACP__91__c__93__	C19H33N2O9PRS	3-Oxooctanoyl-[acyl-carrier protein]
153	149	c	-1	M_3ooctdACP__91__c__93__	C29H53N2O9PRS	3-Oxooctadecanoyl-[acyl-carrier protein]
154	150	c	-1	M_3opalmACP__91__c__93__	C27H49N2O9PRS	3-Oxohexadecanoyl-[acyl-carrier protein]
155	151	c	-4	M_3otdcoa__91__c__93__	C35H56N7O18P3S	3-Oxotetradecanoyl-CoA
156	152	c	-3	M_3pg__91__c__93__	C3H4O7P	3-Phospho-D-glycerate
157	153	c	-3	M_3php__91__c__93__	C3H2O7P	3-phosphonatooxypyruvate(3-)
158	154	c	-4	M_3psme__91__c__93__	C10H9O10P	5-O-(1-Carboxyvinyl)-3-phosphoshikimate
159	155	c	-2	M_3ump__91__c__93__	C9H11N2O9P	3-UMP(2-)
160	156	c	+0	M_4abut__91__c__93__	C4H9NO2	4-Aminobutanoate
161	157	c	+1	M_4abutn__91__c__93__	C4H10NO	4-Aminobutanal
162	158	c	-1	M_4abz__91__c__93__	C7H6NO2	4-Aminobenzoate
163	159	c	+0	M_4ahmmp__91__c__93__	C6H9N3O	4-Amino-5-hydroxymethyl-2-methylpyrimidine
164	160	c	-2	M_4ampm__91__c__93__	C6H8N3O4P	4-Amino-2-methyl-5-phosphomethylpyrimidine
165	161	c	-2	M_4c2me__91__c__93__	C14H23N3O14P2	4-(cytidine 5-diphospho)-2-C-methyl-D-erythritol
166	162	c	-2	M_4h2oglt__91__c__93__	C5H4O6	4-hydroxy-2-oxoglutarate(2-)
167	163	c	-1	M_4hbz__91__c__93__	C7H5O3	4-hydroxybenzoate
168	164	c	-1	M_4m3hhexACP__91__c__93__	C18H33N2O9PRS	4-methyl-3-hydroxy-hexanoyl-ACP
169	165	c	-1	M_4m3hpentACP__91__c__93__	C17H31N2O9PRS	4-methyl-3-hydroxy-pentanoyl-ACP
170	166	c	-1	M_4m3ohexACP__91__c__93__	C18H31N2O9PRS	4-methyl-3-oxo-hexanoyl-ACP
171	167	c	-1	M_4m3opentACP__91__c__93__	C17H29N2O9PRS	4-methyl-3-oxo-pentanoyl-ACP
172	168	c	+0	M_4mhetz__91__c__93__	C6H9NOS	4-Methyl-5-(2-hydroxyethyl)-thiazole
173	169	c	-1	M_4mhexACP__91__c__93__	C18H33N2O8PRS	4-methyl-hexanoyl-ACP
174	170	c	-1	M_4mop__91__c__93__	C6H9O3	4-methyl-2-oxopentanoate
175	171	c	-1	M_4mpentACP__91__c__93__	C17H31N2O8PRS	4-methyl-pentanoyl-ACP
176	172	c	-2	M_4mpetz__91__c__93__	C6H8NO4PS	4-Methyl-5-(2-phosphoethyl)-thiazole
177	173	c	-1	M_4mthex2eACP__91__c__93__	C18H31N2O8PRS	4-methyl-trans-hex-2-enoyl-ACP
178	174	c	-2	M_4pasp__91__c__93__	C4H6NO7P	4-Phospho-L-aspartate
179	175	c	-3	M_4per__91__c__93__	C4H6O8P	4-Phospho-D-erythronate
180	176	c	-3	M_4ppan__91__c__93__	C9H15NO8P	D-4-Phosphopantothenate
181	177	c	-3	M_4ppcys__91__c__93__	C12H20N2O9PS	N-((R)-4-Phosphopantothenoyl)-L-cysteine
182	178	c	+0	M_4r5au__91__c__93__	C9H16N4O6	4-(1-D-Ribitylamino)-5-aminouracil
183	179	c	-3	M_5aizc__91__c__93__	C9H11N3O9P	5-amino-1-(5-phospho-D-ribosyl)imidazole-4-carboxylate
184	180	c	-2	M_5aprbu__91__c__93__	C9H15N4O9P	5-Amino-6-(5-phosphoribitylamino)uracil
185	181	c	-2	M_5apru__91__c__93__	C9H13N4O9P	5-Amino-6-(5-phosphoribosylamino)uracil
186	182	c	-2	M_5dh4dglc__91__c__93__	C6H6O7	5-Dehydro-4-deoxy-D-glucarate
187	183	c	-4	M_5dpmev__91__c__93__	C6H10O10P2	(R)-5-Diphosphomevalonate
188	184	c	-2	M_5forthf__91__c__93__	C20H22N8O6	5-Formiminotetrahydrofolate
189	185	c	-2	M_5fthf__91__c__93__	C20H21N7O7	5-formyltetrahydrofolate(2-)
190	186	c	-1	M_5m3hhexACP__91__c__93__	C18H33N2O9PRS	5-methyl-3-hydroxy-hexanoyl-ACP
191	187	c	-1	M_5m3ohexACP__91__c__93__	C18H31N2O9PRS	5-methyl-3-oxo-hexanoyl-ACP
192	188	c	-1	M_5mhexACP__91__c__93__	C18H33N2O8PRS	5-methyl-hexanoyl-ACP
193	189	c	+0	M_5mta__91__c__93__	C11H15N5O3S	5-Methylthioadenosine
194	190	c	+0	M_5mtc__91__c__93__	C5H7N3O	5-Methylcytosine
195	191	c	-1	M_5mthex2eACP__91__c__93__	C18H31N2O8PRS	5-methyl-trans-hex-2-enoyl-ACP
196	192	c	-1	M_5mthf__91__c__93__	C20H24N7O6	5-Methyltetrahydrofolate
197	193	c	+0	M_5mthglu__91__c__93__	C25H34N8O12	5_Methyltetrahydropteroyltri_L_glutamate
198	194	c	+0	M_5mtr__91__c__93__	C6H12O4S	5-Methylthio-D-ribose
199	195	c	-1	M_5odhf2a__91__c__93__	C6H5O4	5-Oxo-4,5-dihydrofuran-2-acetate
200	196	c	-3	M_5pmev__91__c__93__	C6H10O7P	(R)-5-phosphonatomevalonate(3-)
201	197	c	-2	M_5prdmbz__91__c__93__	C14H17N2O7P	N1-(5-Phospho-alpha-D-ribosyl)-5,6-dimethylbenzimidazole
202	198	c	-6	M_5thf__91__c__93__	C39H45N11O18	pentaglutamyl folate (THF)
203	199	c	-1	M_6m3hheptACP__91__c__93__	C19H35N2O9PRS	6-methyl-3-hydroxy-heptanoyl-ACP
204	200	c	-1	M_6m3hocACP__91__c__93__	C20H37N2O9PRS	6-methyl-3-hydroxy-octanoyl-ACP
205	201	c	-1	M_6m3oheptACP__91__c__93__	C19H33N2O9PRS	6-methyl-3-oxo-heptanoyl-ACP
206	202	c	-1	M_6m3oocACP__91__c__93__	C20H35N2O9PRS	6-methyl-3-oxo-octanoyl-ACP
207	203	c	-1	M_6mheptACP__91__c__93__	C19H35N2O8PRS	6-methyl-heptanoyl-ACP
208	204	c	-1	M_6mocACP__91__c__93__	C20H37N2O8PRS	6-methyl-octanoyl-ACP
209	205	c	-1	M_6mtoct2eACP__91__c__93__	C20H35N2O8PRS	6-methyl-trans-oct-2-enoyl-ACP
210	206	c	-3	M_6pgc__91__c__93__	C6H10O10P	6-Phospho-D-gluconate
211	207	c	-2	M_6pgg__91__c__93__	C12H21O14P	6-Phospho-beta-D-glucosyl-(1,4)-D-glucose
212	208	c	-2	M_6pgl__91__c__93__	C6H9O9P	6-phospho-D-glucono-1,5-lactone
213	209	c	-1	M_7m3hocACP__91__c__93__	C20H37N2O9PRS	7-methyl-3-hydroxy-octanoyl-ACP
214	210	c	-1	M_7m3oocACP__91__c__93__	C20H35N2O9PRS	7-methyl-3-oxo-octanoyl-ACP
215	211	c	-1	M_7mocACP__91__c__93__	C20H37N2O8PRS	7-methyl-octanoyl-ACP
216	212	c	-1	M_7mtoct2eACP__91__c__93__	C20H35N2O8PRS	7-methyl-trans-oct-2-enoyl-ACP
217	213	c	-1	M_8m3hdcaACP__91__c__93__	C22H41N2O9PRS	8-methyl-3-hydroxy-decanoyl-ACP
218	214	c	-1	M_8m3hnonACP__91__c__93__	C21H39N2O9PRS	8-methyl-3-hydroxy-nonanoyl-ACP
219	215	c	-1	M_8m3odcaACP__91__c__93__	C22H39N2O9PRS	8-methyl-3-oxo-decanoyl-ACP
220	216	c	-1	M_8m3ononACP__91__c__93__	C21H37N2O9PRS	8-methyl-3-oxo-nonanoyl-ACP
221	217	c	-1	M_8mdcaACP__91__c__93__	C22H41N2O8PRS	8-methyl-decanoyl-ACP
222	218	c	-1	M_8mnonACP__91__c__93__	C21H39N2O8PRS	8-methyl-nonanoyl-ACP
223	219	c	-1	M_8mtdec2eACP__91__c__93__	C22H39N2O8PRS	8-methyl-trans-dec-2-enoyl-ACP
224	220	c	-1	M_9m3hdcaACP__91__c__93__	C22H41N2O9PRS	9-methyl-3-hydroxy-decanoyl-ACP
225	221	c	-1	M_9m3odcaACP__91__c__93__	C22H39N2O9PRS	9-methyl-3-oxo-decanoyl-ACP
226	222	c	-1	M_9mdcaACP__91__c__93__	C22H41N2O8PRS	9-methyl-decanoyl-ACP
227	223	c	-1	M_9mtdec2eACP__91__c__93__	C22H39N2O8PRS	9-methyl-trans-dec-2-enoyl-ACP
228	224	c	-1	M_ACP__91__c__93__	C11H21N2O7PRS	acyl carrier protein
229	225	c	-1	M_HC01231__91__c__93__	C12H21N2O6S	N-[(R)-pantothenoyl]-L-cysteinate
230	226	c	-4	M_HC01651__91__c__93__	C10H14N5O15P3	Formamidopyrimidine nucleoside triphosphate
231	227	c	-4	M_HC01652__91__c__93__	C9H14N5O14P3	2,5-Diaminopyrimidine nucleoside triphosphate
232	228	c	-4	M_HC01710__91__c__93__	C9H14N5O14P3	2,5-Diamino-6-(5-triphosphoryl-3,4-trihydroxy-2-oxopentyl)- amino-4-oxopyrimidine
233	229	c	-1	M_Largn__91__c__93__	C10H12NO5	L-Arogenate
234	230	c	+0	M_M00512__91__c__93__	C6H8O4R2	1-Alkenyl-2-acylglycerol
235	231	c	+2	M_N1aspmd__91__c__93__	C9H23N3O	N(1)-acetylspermidinium(2+)
236	232	c	-2	M_Nacasp__91__c__93__	C6H7NO5	N-acetyl-L-aspartate(2-)
237	233	c	+0	M_Naccitr_L__91__c__93__	C8H15N3O4	N-Acetyl-L-citrulline
238	234	c	+0	M_PGP__91__c__93__	C39H64N8O19X	Peptidoglycan polymer (n subunits)
239	235	c	+0	M_PGPm1__91__c__93__	X	Peptidoglycan polymer (n-1 subunits)
240	236	c	-4	M_aacoa__91__c__93__	C25H36N7O18P3S	Acetoacetyl-CoA
241	237	c	-2	M_ab6p3hxl__91__c__93__	C6H11O9P	D-arabino-6-Phospho-hex-3-ulose
242	238	c	+0	M_abt__91__c__93__	C5H12O5	L-arabinitol
243	239	c	-1	M_acACP__91__c__93__	C13H23N2O8PRS	Acetyl-ACP
244	240	c	-1	M_ac__91__c__93__	C2H3O2	acetate
245	241	c	-2	M_acaadpdp__91__c__93__	C8H12NO8P	N2-Acetyl-L-aminoadipyl-delta-phosphate
246	242	c	-1	M_acaadpsal__91__c__93__	C8H12NO4	N2-Acetyl-L-aminoadipate semialdehyde
247	243	c	+0	M_acald__91__c__93__	C2H4O	acetaldehyde
248	244	c	-2	M_acamoxm__91__c__93__	C9H11NO6	N_Acetyl_L_2_amino_6_oxopimelate
249	245	c	-2	M_acbdma14gapuc__91__c__93__	C71H116N2O17P2	N-Acetyl-beta-D-mannosaminyl-1,4-N-acetyl-D- glucosaminyldiphosphoundecaprenol
250	246	c	-4	M_accoa__91__c__93__	C23H34N7O17P3S	Acetyl-CoA
251	247	c	-2	M_acgam1p__91__c__93__	C8H14NO9P	N-Acetyl-D-glucosamine 1-phosphate
252	248	c	-2	M_acgam6p__91__c__93__	C8H14NO9P	N-acetyl-D-glucosamine 6-phosphate(2-)
253	249	c	-2	M_acglu__91__c__93__	C7H9NO5	N-acetyl-L-glutamate(2-)
254	250	c	+0	M_achms__91__c__93__	C6H11NO4	O-Acetyl-L-homoserine
255	251	c	+0	M_acmana__91__c__93__	C8H15NO6	N-acetyl-D-mannosamine
256	252	c	-1	M_acnam__91__c__93__	C11H18NO9	N-acetylneuraminate
257	253	c	+0	M_acorn__91__c__93__	C7H14N2O3	N(2)-acetyl-L-ornithine
258	254	c	-1	M_actACP__91__c__93__	C15H25N2O9PRS	Acetoacetyl-ACP
259	255	c	+0	M_actn_R__91__c__93__	C4H8O2	(R)-Acetoin
260	256	c	-2	M_actp__91__c__93__	C2H3O5P	Acetyl phosphate
261	257	c	+0	M_ade__91__c__93__	C5H5N5	Adenine
262	258	c	+0	M_adn__91__c__93__	C10H13N5O4	Adenosine
263	259	c	+1	M_adocbi__91__c__93__	C58H84CoN16O11	Adenosyl cobinamide
264	260	c	-1	M_adocbip__91__c__93__	C58H83CoN16O14P	Adenosyl cobinamide phosphate
265	261	c	+0	M_adocbl__91__c__93__	C72H100CoN18O17P	Adenosylcobalamin
266	262	c	-3	M_adp__91__c__93__	C10H12N5O10P2	ADP
267	263	c	-2	M_adpglc__91__c__93__	C16H23N5O15P2	ADP alpha-D-glucoside(2-)
268	264	c	-2	M_adprib__91__c__93__	C15H21N5O14P2	ADPribose
269	265	c	-1	M_agdpcbi__91__c__93__	C68H95CoN21O21P2	Adenosine-GDP-cobinamide
270	266	c	+0	M_ahcys__91__c__93__	C14H20N6O5S	S-Adenosyl-L-homocysteine
271	267	c	-4	M_ahdt__91__c__93__	C9H12N5O13P3	7,8-dihydroneopterin 3-triphosphate(4-)
272	268	c	-24	M_ai15tca1__91__c__93__	C117H228O135P24	Anteisopentadecanoyllipoteichoic acid (n=24), linked, unsubstituted
273	269	c	+0	M_ai15tcaala_D__91__c__93__	C189H324N24O135P24	Anteisopentadecanoyllipoteichoic acid (n=24), linked, D-alanine substituted
274	270	c	-24	M_ai15tcaglc__91__c__93__	C261H468O255P24	Anteisopentadecanoyllipoteichoic acid (n=24), linked, glucose substituted
275	271	c	-24	M_ai17tca1__91__c__93__	C121H236O135P24	Anteisoheptadecanoyllipoteichoic acid (n=24), linked, unsubstituted
276	272	c	-24	M_ai17tcaacgam__91__c__93__	C313H548N24O255P24	Anteisoheptadecanoyllipoteichoic acid (n=24), linked, N-acetyl-D-glucosamine
277	273	c	+0	M_ai17tcaala_D__91__c__93__	C193H332N24O135P24	Anteisoheptadecanoyllipoteichoic acid (n=24), linked, D-alanine substituted
278	274	c	-24	M_ai17tcaglc__91__c__93__	C265H476O255P24	Anteisoheptadecanoyllipoteichoic acid (n=24), linked, glucose substituted
279	275	c	-2	M_aicar__91__c__93__	C9H13N4O8P	5-Amino-1-(5-Phospho-D-ribosyl)imidazole-4-carboxamide
280	276	c	-4	M_aihpdcoa__91__c__93__	C38H64N7O17P3S	fa12coa,Anteiso-C17:0 CoA   Anteisoheptadecanoyl-CoA
281	277	c	-4	M_aipdcoa__91__c__93__	C36H60N7O17P3S	fa4coa,Anteiso-C15:0 CoA   Anteisopentadecanoyl-CoA
282	278	c	-2	M_air__91__c__93__	C8H12N3O7P	5-amino-1-(5-phospho-D-ribosyl)imidazole
283	279	c	-2	M_akg__91__c__93__	C5H4O5	2-Oxoglutarate
284	280	c	+0	M_ala_D__91__c__93__	C3H7NO2	D-alanine
285	281	c	+0	M_ala_L__91__c__93__	C3H7NO2	L-alanine
286	282	c	+0	M_alaala__91__c__93__	C6H12N2O3	D-Alanyl-D-alanine
287	283	c	-1	M_alaasp__91__c__93__	C7H11N2O5	L-alanyl-L-aspartate
288	284	c	-1	M_alac_S__91__c__93__	C5H7O4	(S)-2-Acetolactate
289	285	c	+0	M_alagln__91__c__93__	C8H15N3O4	L-alanyl-L-glutamine
290	286	c	-1	M_alaglu__91__c__93__	C8H13N2O5	L-alanyl-L-glutamate
291	287	c	+0	M_alagly__91__c__93__	C5H10N2O3	L-alanylglycine
292	288	c	+0	M_alahis__91__c__93__	C9H14N4O3	L-alanyl-L-histidine
293	289	c	+0	M_alaleu__91__c__93__	C9H18N2O3	L-alanyl-L-leucine
294	290	c	+0	M_alathr__91__c__93__	C7H14N2O4	L-alanyl-L-threonine
295	291	c	+0	M_alltn__91__c__93__	C4H6N4O3	Allantoin
296	292	c	+1	M_alpro__91__c__93__	CH6NS2X	S-Aminomethyldihydrolipoylprotein
297	293	c	+1	M_amet__91__c__93__	C15H23N6O5S	S-Adenosyl-L-methionine
298	294	c	-2	M_amp__91__c__93__	C10H12N5O7P	AMP
299	295	c	+0	M_apoACP__91__c__93__	RHO	apoprotein [acyl carrier protein]
300	296	c	+0	M_apoC_Lys_btn__91__c__93__	C16H27N4O3SX	Holocarboxylase (biotin covalent bound to Lys residue of apoC)
301	297	c	+0	M_arab_L__91__c__93__	C5H10O5	L-arabinose
302	298	c	-2	M_arbt6p__91__c__93__	C12H15O10P	Arbutin 6-phosphate
303	299	c	+1	M_arg_L__91__c__93__	C6H15N4O2	L-argininium(1+)
304	300	c	+0	M_arsenb__91__c__93__	C5H12AsO2	Arsenobetaine
305	301	c	+0	M_asn_L__91__c__93__	C4H8N2O3	L-asparagine
306	302	c	-1	M_asp_L__91__c__93__	C4H6NO4	L-aspartate(1-)
307	303	c	+0	M_aspsa__91__c__93__	C4H7NO3	L-Aspartate 4-semialdehyde
308	304	c	-4	M_atp__91__c__93__	C10H12N5O13P3	ATP
309	305	c	+1	M_betald__91__c__93__	C5H12NO	betaine aldehyde
310	306	c	+0	M_biocyt__91__c__93__	C16H28N4O4S	Biocytin
311	307	c	+0	M_biomass__91__c__93__	X	Produced biomass
312	308	c	+0	M_btal__91__c__93__	C4H8O	Butanal
313	309	c	+0	M_btd_RR__91__c__93__	C4H10O2	R_R__2_3_Butanediol
314	310	c	-1	M_btn__91__c__93__	C10H15N2O3S	Biotin
315	311	c	-1	M_btn_co2__91__c__93__	C17H26N4O5SX	Carboxybiotin-carboxyl-carrier protein
316	312	c	+0	M_btoh__91__c__93__	C4H10O	butanol
317	313	c	-1	M_but2eACP__91__c__93__	C15H25N2O8PRS	But-2-enoyl-[acyl-carrier protein]
318	314	c	-1	M_butACP__91__c__93__	C15H27N2O8PRS	Butyryl-ACP (n-C4:0ACP)
319	315	c	+2	M_ca2__91__c__93__	Ca	calcium(2+)
320	316	c	-2	M_cbasp__91__c__93__	C5H6N2O5	N-Carbamoyl-L-aspartate
321	317	c	+0	M_cbi__91__c__93__	C48H72CoN11O8	Cobinamide
322	318	c	-2	M_cbp__91__c__93__	CH2NO5P	Carbamoyl phosphate
323	319	c	+2	M_cd2__91__c__93__	Cd	Cadmium
324	320	c	-1	M_cddec5eACP__91__c__93__	C23H41N2O8PRS	cis-dodec-5-enoyl-[acyl-carrier protein] (n-C12:1)
325	321	c	-3	M_cdp__91__c__93__	C9H12N3O11P2	CDP
326	322	c	-2	M_cdpdaihpdecg__91__c__93__	C46H83N3O15P2	CDP-1,2-dianteisoheptadecanoylglycerol (14-methyl-hexadecanoyl, anteiso-C17)
327	323	c	-2	M_cdpdaipdecg__91__c__93__	C42H75N3O15P2	CDP-1,2-dianteisopentadecanoylglycerol (12-methyl-tetradecanoyl, anteiso-C15)
328	324	c	-2	M_cdpdddecg__91__c__93__	C36H63N3O15P2	CDP-1,2-didodecanoylglycerol
329	325	c	-2	M_cdpdhdec9eg__91__c__93__	C44H75N3O15P2	CDP-1,2-dihexadec-9-enoylglycerol
330	326	c	-2	M_cdpdhdecg__91__c__93__	C44H79N3O15P2	CDP-1,2-dihexadecanoylglycerol
331	327	c	-2	M_cdpdihdecg__91__c__93__	C44H79N3O15P2	CDP-1,2-diisohexadecanoylglycerol (14-methyl-pentadecanoyl, iso-C16)
332	328	c	-2	M_cdpdihpdecg__91__c__93__	C46H83N3O15P2	CDP-1,2-diisoheptadecanoylglycerol (15-methyl-hexadecanoyl, iso-C17)
333	329	c	-2	M_cdpdipdecg__91__c__93__	C42H75N3O15P2	CDP-1,2-diisopentadecanoylglycerol (13-methyl-tetradecanoyl, iso-C15)
334	330	c	-2	M_cdpditdecg__91__c__93__	C40H71N3O15P2	CDP-1,2-diisotetradecanoylglycerol (12-methyl-tridecanoyl, iso-C14)
335	331	c	-2	M_cdpdodec11eg__91__c__93__	C48H83N3O15P2	CDP-1,2-dioctadec-11-enoylglycerol
336	332	c	-2	M_cdpdodecg__91__c__93__	C48H87N3O15P2	CDP-1,2-dioctadecanoylglycerol
337	333	c	-2	M_cdpdtdec7eg__91__c__93__	C40H67N3O15P2	CDP-1,2-ditetradec-7-enoylglycerol
338	334	c	-2	M_cdpdtdecg__91__c__93__	C40H71N3O15P2	CDP-1,2-ditetradecanoylglycerol
339	335	c	-1	M_cdpea__91__c__93__	C11H19N4O11P2	CDP-ethanolamine(1-)
340	336	c	-2	M_cdpglyc__91__c__93__	C12H19N3O13P2	CDPglycerol
341	337	c	+0	M_cellb__91__c__93__	C12H22O11	cellobiose
342	338	c	+0	M_cgly__91__c__93__	C5H10N2O3S	L-cysteinylglycine
343	339	c	+1	M_chol__91__c__93__	C5H14NO	Choline
344	340	c	-1	M_cholp__91__c__93__	C5H13NO4P	choline phosphate(1-)
345	341	c	-2	M_chor__91__c__93__	C10H8O6	chorismate
346	342	c	-3	M_cit__91__c__93__	C6H5O7	Citrate
347	343	c	+0	M_citr_L__91__c__93__	C6H13N3O3	L-citrulline
348	344	c	-2	M_ckdo__91__c__93__	C17H24N3O15P	CMP-3-deoxy-D-manno-octulosonate
349	345	c	-1	M_cl__91__c__93__	Cl	Chloride
350	346	c	-2	M_clpn140__91__c__93__	C65H124O17P2	cardiolipin (tetratetradecanoyl, n-C14:0)
351	347	c	-2	M_clpn160__91__c__93__	C73H140O17P2	cardiolipin (tetrahexadecanoyl, n-C16:0)
352	348	c	-2	M_clpn180__91__c__93__	C81H156O17P2	cardiolipin (tetraoctadecanoyl, n-C18:0)
353	349	c	-2	M_clpnai15__91__c__93__	C69H132O17P2	cardiolipin (12-methyl-tetradecanoyl, anteiso-C15)
354	350	c	-2	M_clpnai17__91__c__93__	C77H148O17P2	cardiolipin (14-methyl-hexadecanoyl, anteiso-C17)
355	351	c	-2	M_clpni14__91__c__93__	C65H124O17P2	cardiolipin (12-methyl-tridecanoyl, iso-C14)
356	352	c	-2	M_clpni15__91__c__93__	C69H132O17P2	cardiolipin (13-methyl-tetradecanoyl, iso-C15)
357	353	c	-2	M_clpni16__91__c__93__	C73H140O17P2	cardiolipin (14-methyl-pentadecanoyl, iso-C16)
358	354	c	-2	M_clpni17__91__c__93__	C77H148O17P2	cardiolipin (15-methyl-hexadecanoyl, iso-C17)
359	355	c	-2	M_cmp__91__c__93__	C9H12N3O8P	CMP
360	356	c	+0	M_co2__91__c__93__	CO2	carbon dioxide
361	357	c	-4	M_coa__91__c__93__	C21H32N7O16P3S	Coenzyme A
362	358	c	+2	M_cobalt2__91__c__93__	Co	Co2+
363	359	c	+0	M_csn__91__c__93__	C4H5N3O	cytosine
364	360	c	+0	M_ctbt__91__c__93__	C7H13NO2	crotonobetaine
365	361	c	-4	M_ctp__91__c__93__	C9H12N3O14P3	CTP
366	362	c	+2	M_cu2__91__c__93__	Cu	Cu2+
367	363	c	+0	M_cys_L__91__c__93__	C3H7NO2S	L-cysteine
368	364	c	+0	M_cyst_L__91__c__93__	C7H14N2O4S	L-cystathionine
369	365	c	+0	M_cytd__91__c__93__	C9H13N3O5	Cytidine
370	366	c	+0	M_dad_2__91__c__93__	C10H13N5O3	2-deoxyadenosine
371	367	c	-3	M_dadp__91__c__93__	C10H12N5O9P2	dADP
372	368	c	-2	M_damp__91__c__93__	C10H12N5O6P	dAMP(2-)
373	369	c	-4	M_datp__91__c__93__	C10H12N5O12P3	dATP
374	370	c	-2	M_db4p__91__c__93__	C4H7O6P	3,4-dihydroxy-2-butanone 4-phosphate
375	371	c	-1	M_dcaACP__91__c__93__	C21H39N2O8PRS	Decanoyl-ACP (n-C10:0ACP)
376	372	c	-4	M_dcamp__91__c__93__	C14H14N5O11P	N6-(1,2-Dicarboxyethyl)-AMP
377	373	c	-3	M_dcdp__91__c__93__	C9H12N3O10P2	dCDP
378	374	c	-2	M_dcmp__91__c__93__	C9H12N3O7P	dCMP
379	375	c	-4	M_dctp__91__c__93__	C9H12N3O13P3	dCTP
380	376	c	+0	M_dcyt__91__c__93__	C9H13N3O4	Deoxycytidine
381	377	c	-1	M_ddcaACP__91__c__93__	C23H43N2O8PRS	Dodecanoyl-ACP (n-C12:0ACP)
382	378	c	-1	M_ddca__91__c__93__	C12H23O2	laurate
383	379	c	-3	M_dgdp__91__c__93__	C10H12N5O10P2	dGDP
384	380	c	-2	M_dgmp__91__c__93__	C10H12N5O7P	dGMP
385	381	c	+0	M_dgsn__91__c__93__	C10H13N5O4	Deoxyguanosine
386	382	c	-4	M_dgtp__91__c__93__	C10H12N5O13P3	dGTP
387	383	c	-2	M_dhap__91__c__93__	C3H5O6P	Dihydroxyacetone phosphate
388	384	c	-2	M_dhf__91__c__93__	C19H19N7O6	7,8-Dihydrofolate
389	385	c	+0	M_dhlpro__91__c__93__	H2S2X	Dihydrolipolprotein
390	386	c	-1	M_dhna__91__c__93__	C11H7O4	1,4-Dihydroxy-2-naphthoate
391	387	c	-4	M_dhnacoa__91__c__93__	C32H38N7O19P3S	1,4-Dihydroxy-2-naphthoyl-CoA
392	388	c	-1	M_dhor_S__91__c__93__	C5H5N2O4	(S)-dihydroorotate
393	389	c	-1	M_dhpt__91__c__93__	C14H13N6O3	Dihydropteroate
394	390	c	+0	M_dhptd__91__c__93__	C5H8O4	4,5-dihydroxy-2,3-pentanedione
395	391	c	+0	M_diact__91__c__93__	C4H6O2	Diacetyl
396	392	c	+0	M_diglcpg180__91__c__93__	C51H96O15	Diglucosyl-1,2 distearoylglycerol
397	393	c	+0	M_diglcpgai17__91__c__93__	C49H92O15	Diglucosyl-1,2 dianteisoheptadecanoylglycerol
398	394	c	+0	M_diglcpgi17__91__c__93__	C49H92O15	Diglucosyl-1,2 diisoheptadecanoylglycerol
399	395	c	+0	M_dmbzid__91__c__93__	C9H10N2	5,6-Dimethylbenzimidazole
400	396	c	+0	M_dmlz__91__c__93__	C13H18N4O6	6,7-Dimethyl-8-(1-D-ribityl)lumazine
401	397	c	+0	M_dmphqno__91__c__93__	C30H44O2	Demethylphylloquinone
402	398	c	-3	M_dmpp__91__c__93__	C5H9O7P2	Dimethylallyl diphosphate
403	399	c	-2	M_dnad__91__c__93__	C21H24N6O15P2	Deamino-NAD+
404	400	c	+0	M_dnarep__91__c__93__	X	DNA replication
405	401	c	-2	M_dpcoa__91__c__93__	C21H33N7O13P2S	Dephospho-CoA
406	402	c	+0	M_drib__91__c__93__	C5H10O4	2-deoxy-D-ribose
407	403	c	-2	M_dtdp4d6dg__91__c__93__	C16H22N2O15P2	dTDP-4-dehydro-6-deoxy-alpha-D-glucose(2-)
408	404	c	-3	M_dtdp__91__c__93__	C10H13N2O11P2	dTDP
409	405	c	-2	M_dtdpglu__91__c__93__	C16H24N2O16P2	dTDP-glucose(2-)
410	406	c	-2	M_dtmp__91__c__93__	C10H13N2O8P	dTMP
411	407	c	-4	M_dttp__91__c__93__	C10H13N2O14P3	dTTP
412	408	c	-3	M_dudp__91__c__93__	C9H11N2O11P2	dUDP
413	409	c	-2	M_dump__91__c__93__	C9H11N2O8P	dUMP
414	410	c	+0	M_duri__91__c__93__	C9H12N2O5	Deoxyuridine
415	411	c	-4	M_dutp__91__c__93__	C9H11N2O14P3	dUTP
416	412	c	-2	M_dxyl5p__91__c__93__	C5H9O7P	1-deoxy-D-xylulose 5-phosphate
417	413	c	-1	M_e4hglu__91__c__93__	C5H8NO5	erythro-4-hydroxy-L-glutamate(1-)
418	414	c	-2	M_e4p__91__c__93__	C4H7O7P	D-Erythrose 4-phosphate
419	415	c	+1	M_etha__91__c__93__	C2H8NO	etha[c]
420	416	c	-1	M_ethamp__91__c__93__	C2H7NO4P	O-phosphonatoethanaminium(1-)
421	417	c	+0	M_etoh__91__c__93__	C2H6O	ethanol
422	418	c	-2	M_f1p__91__c__93__	C6H11O9P	D-Fructose 1-phosphate
423	419	c	-2	M_f6p__91__c__93__	C6H11O9P	D-Fructose 6-phosphate
424	420	c	-2	M_fad__91__c__93__	C27H31N9O15P2	Flavin adenine dinucleotide oxidized
425	421	c	+0	M_fald__91__c__93__	CH2O	formaldehyde
426	422	c	-4	M_fdp__91__c__93__	C6H10O12P2	D-Fructose 1,6-bisphosphate
427	423	c	+2	M_fe2__91__c__93__	Fe	Fe2+
428	424	c	+3	M_fe3__91__c__93__	Fe	Fe3+
429	425	c	-2	M_fgam__91__c__93__	C8H13N2O9P	N2-Formyl-N1-(5-phospho-D-ribosyl)glycinamide
430	426	c	+3	M_ficytC__91__c__93__	C42H54FeN8O6S2	Ferricytochrome c
431	427	c	-2	M_fmn__91__c__93__	C17H19N4O9P	FMN
432	428	c	+2	M_focytC__91__c__93__	C42H54FeN8O6S2	Ferrocytochrome C
433	429	c	-1	M_fol__91__c__93__	C19H18N7O6	Folate
434	430	c	-1	M_for__91__c__93__	CH1O2	Formate
435	431	c	-2	M_forglu__91__c__93__	C6H8N2O4	N-Formimidoyl-L-glutamate
436	432	c	-1	M_fpram__91__c__93__	C8H15N3O8P	2-(Formamido)-N1-(5-phospho-D-ribosyl)acetamidine
437	433	c	-2	M_fprica__91__c__93__	C10H13N4O9P	5-Formamido-1-(5-phospho-D-ribosyl)imidazole-4-carboxamide
438	434	c	-3	M_frdp__91__c__93__	C15H25O7P2	Farnesyl diphosphate
439	435	c	+0	M_frmd__91__c__93__	CH3NO	Formamide
440	436	c	+0	M_fru__91__c__93__	C6H12O6	D-Fructose
441	437	c	-2	M_fuc1p_L__91__c__93__	C6H11O8P	L-Fucose 1-phosphate
442	438	c	+0	M_fuc_L__91__c__93__	C6H12O5	L-fucose
443	439	c	-2	M_fum__91__c__93__	C4H2O4	Fumarate
444	440	c	+0	M_g15lac__91__c__93__	C6H10O6	Gluconolactone
445	442	c	-2	M_g1p_B__91__c__93__	C6H11O9P	beta D-Glucose 1-phosphate
446	441	c	-2	M_g1p__91__c__93__	C6H11O9P	D-Glucose 1-phosphate
447	443	c	-2	M_g3p__91__c__93__	C3H5O6P	Glyceraldehyde 3-phosphate
448	444	c	+0	M_g3pc__91__c__93__	C8H20NO6P	sn-Glycero-3-phosphocholine
449	445	c	+0	M_g3pe__91__c__93__	C5H14NO6P	sn-Glycero-3-phosphoethanolamine
450	446	c	-1	M_g3pg__91__c__93__	C6H14O8P	Glycerophosphoglycerol
451	448	c	-2	M_g6p_B__91__c__93__	C6H11O9P	beta-D-glucose 6-phosphate
452	447	c	-2	M_g6p__91__c__93__	C6H11O9P	D-Glucose 6-phosphate
453	449	c	-2	M_gal1p__91__c__93__	C6H11O9P	(2R,3R,4S,5R,6R)-3,4,5-trihydroxy-6-(hydroxymethyl)oxan-2-yl phosphate
454	450	c	+0	M_gal__91__c__93__	C6H12O6	D-Galactose
455	451	c	-2	M_galct_D__91__c__93__	C6H8O8	D-Galactarate
456	452	c	-2	M_galt1p__91__c__93__	C6H13O9P	Galactitol 1-phosphate
457	453	c	-1	M_gam1p__91__c__93__	C6H13NO8P	D-Glucosamine 1-phosphate
458	454	c	-1	M_gam6p__91__c__93__	C6H13NO8P	D-Glucosamine 6-phosphate
459	455	c	-1	M_gar__91__c__93__	C7H14N2O8P	N1-(5-Phospho-D-ribosyl)glycinamide
460	456	c	+0	M_gbbtn__91__c__93__	C7H15NO2	gamma-butyrobetaine
461	457	c	+0	M_gcald__91__c__93__	C2H4O2	glycolaldehyde
462	458	c	-2	M_gd1b_hs__91__c__93__	C66H111N4O38FULLRCO	GD1b
463	459	c	-3	M_gdp__91__c__93__	C10H12N5O11P2	GDP
464	460	c	-7	M_gdptp__91__c__93__	C10H11N5O20P5	Guanosine 3-diphosphate 5-triphosphate
465	461	c	-1	M_gg4abut__91__c__93__	C9H15O5N2	gamma-glutamyl-gamma aminobutyric acid
466	462	c	+0	M_ggbutal__91__c__93__	C9H16O4N2	gamma-glutamyl-gamma-butyraldehyde
467	463	c	-3	M_ggdp__91__c__93__	C20H33O7P2	2-trans,6-trans,10-trans-geranylgeranyl diphosphate(3-)
468	464	c	+0	M_glc_D__91__c__93__	C6H12O6	D-glucose
469	465	c	+0	M_glc_bD__91__c__93__	C6H12O6	beta D-glucose
470	466	c	-1	M_glcn__91__c__93__	C6H11O7	D-gluconate
471	467	c	+0	M_gln_L__91__c__93__	C5H10N2O3	L-glutamine
472	468	c	+0	M_glu5sa__91__c__93__	C5H9NO3	L-Glutamate 5-semialdehyde
473	469	c	-1	M_glu_D__91__c__93__	C5H8NO4	D-Glutamate
474	470	c	-1	M_glu_L__91__c__93__	C5H8NO4	L-glutamate(1-)
475	471	c	-1	M_glucys__91__c__93__	C8H13N2O5S	gamma-L-Glutamyl-L-cysteine
476	472	c	+0	M_glutrna__91__c__93__	C5H7NO3R	L-Glutamyl-tRNA(Glu)
477	473	c	+0	M_gly__91__c__93__	C2H5NO2	Glycine
478	474	c	+0	M_glyald__91__c__93__	C3H6O3	D-Glyceraldehyde
479	475	c	+0	M_glyasn__91__c__93__	C6H11N3O4	Glycyl-L-asparagine
480	476	c	-1	M_glyasp__91__c__93__	C6H9N2O5	Glycyl-L-aspartate
481	477	c	+0	M_glyb__91__c__93__	C5H11NO2	glycine betaine
482	478	c	-2	M_glyc3p__91__c__93__	C3H7O6P	Glycerol 3-phosphate
483	479	c	+0	M_glyc45tca__91__c__93__	X	glycerol teichoic acid (n=45), linked, unsubstituted
484	480	c	+0	M_glyc45tcaala_D__91__c__93__	X	glycerol teichoic acid (n=45), linked, D-ala substituted
485	481	c	+0	M_glyc45tcaglc__91__c__93__	X	glycerol teichoic acid (n=45), linked, glucose substituted
486	483	c	-1	M_glyc_R__91__c__93__	C3H5O4	D-glycerate
487	482	c	+0	M_glyc__91__c__93__	C3H8O3	Glycerol
488	484	c	+0	M_glycogen__91__c__93__	C6H10O5	glycogen
489	485	c	+0	M_glycys__91__c__93__	C5H10N2O3S	Gly-Cys
490	486	c	+0	M_glygln__91__c__93__	C7H13N3O4	Glycyl-L-glutamine
491	487	c	-1	M_glyglu__91__c__93__	C7H11N2O5	Glycyl-L-glutamate
492	488	c	+0	M_glyleu__91__c__93__	C8H16N2O3	Glycylleucine
493	489	c	+0	M_glymet__91__c__93__	C7H14N2O3S	Glycyl-L-methionine
494	490	c	+0	M_glyphe__91__c__93__	C11H14N2O3	Glycylphenylalanine
495	491	c	+0	M_glypro__91__c__93__	C7H12N2O3	Glycylproline
496	492	c	+0	M_glytyr__91__c__93__	C11H14N2O4	Glycyl-L-tyrosine
497	493	c	-2	M_gmp__91__c__93__	C10H12N5O8P	GMP
498	494	c	-3	M_grdp__91__c__93__	C10H17O7P2	Geranyl diphosphate
499	495	c	+0	M_gsn__91__c__93__	C10H13N5O5	Guanosine
500	496	c	-3	M_gt1b_hs__91__c__93__	C77H127N5O46FULLRCO	GT1b
501	497	c	-2	M_gthox__91__c__93__	C20H30N6O12S2	Oxidized glutathione
502	498	c	-1	M_gthrd__91__c__93__	C10H16N3O6S	Reduced glutathione
503	499	c	-4	M_gtp__91__c__93__	C10H12N5O14P3	GTP
504	500	c	+0	M_gua__91__c__93__	C5H5N5O	Guanine
505	501	c	+0	M_h2__91__c__93__	H2	Hydrogen
506	502	c	-3	M_h2mb4p__91__c__93__	C5H9O8P2	1-hydroxy-2-methyl-2-(E)-butenyl 4-diphosphate
507	503	c	+0	M_h2o2__91__c__93__	H2O2	Hydrogen peroxide
508	504	c	+0	M_h2s__91__c__93__	H2S	Hydrogen sulfide
509	505	c	+1	M_h__91__c__93__	H	proton
510	506	c	-1	M_hco3__91__c__93__	CHO3	Bicarbonate
511	507	c	+0	M_hcys_L__91__c__93__	C4H9NO2S	L-homocysteine
512	508	c	-1	M_hdeACP__91__c__93__	C27H49N2O8PRS	cis-hexadec-9-enoyl-[acyl-carrier protein] (n-C16:1)
513	509	c	-3	M_hepdp__91__c__93__	C35H57O7P2	all-trans-Heptaprenyl diphosphate
514	510	c	-2	M_hethmpp__91__c__93__	C14H20N4O8P2S	Hydroxy ethyl Thiamin diphosphate
515	511	c	-1	M_hexACP__91__c__93__	C17H31N2O8PRS	Hexanoyl-ACP (n-C6:0ACP)
516	512	c	-3	M_hexdp__91__c__93__	C30H49O7P2	all-trans-Hexaprenyl diphosphate
517	513	c	+2	M_hg2__91__c__93__	Hg	Hg2+
518	514	c	+0	M_his_L__91__c__93__	C6H9N3O2	L-histidine
519	515	c	-5	M_hmgcoa__91__c__93__	C27H39N7O20P3S	Hydroxymethylglutaryl-CoA
520	516	c	+0	M_hom_L__91__c__93__	C4H9NO3	L-homoserine
521	517	c	-1	M_hpyr__91__c__93__	C3H3O4	3-hydroxypyruvate
522	518	c	+0	M_hqn__91__c__93__	C6H6O2	Hydroquinone
523	519	c	+0	M_hxan__91__c__93__	C5H4N4O	Hypoxanthine
524	520	c	-24	M_i14tca1__91__c__93__	C115H224O135P24	Isotetradecanoyllipoteichoic acid (n=24), linked, unsubstituted
525	521	c	+0	M_i14tcaala_D__91__c__93__	C187H320O135N24P24	Isotetradecanoyllipoteichoic acid (n=24), linked, D-alanine substituted
526	522	c	-24	M_i14tcaglc__91__c__93__	C259H464O255P24	Isotetradecanoyllipoteichoic acid (n=24), linked, glucose substituted
527	523	c	-24	M_i15tca1__91__c__93__	C117H228O135P24	Isopentadecanoyllipoteichoic acid (n=24), linked, unsubstituted
528	524	c	+0	M_i15tcaala_D__91__c__93__	C189H324O135N24P24	Isopentadecanoyllipoteichoic acid (n=24), linked, D-alanine substituted
529	525	c	-24	M_i15tcaglc__91__c__93__	C261H468O255P24	Isopentadecanoyllipoteichoic acid (n=24), linked, glucose substituted
530	526	c	-24	M_i16tca1__91__c__93__	C119H232O135P24	Isohexadecanoyllipoteichoic acid (n=24), linked, unsubstituted
531	527	c	+0	M_i16tcaala_D__91__c__93__	C191H328O135N24P24	Isohexadecanoyllipoteichoic acid (n=24), linked, D-alanine substituted
532	528	c	-24	M_i16tcaglc__91__c__93__	C263H472O255P24	Isohexadecanoyllipoteichoic acid (n=24), linked, glucose substituted
533	529	c	-24	M_i17tca1__91__c__93__	C121H236O135P24	Isoheptadecanoyllipoteichoic acid (n=24), linked, unsubstituted
534	530	c	-24	M_i17tcaacgam__91__c__93__	C313H548N24O255P24	Isoheptadecanoyllipoteichoic acid (n=24), linked, N-acetyl-D-glucosamine
535	531	c	+0	M_i17tcaala_D__91__c__93__	C193H332O135N24P24	Isoheptadecanoyllipoteichoic acid (n=24), linked, D-alanine substituted
536	532	c	-24	M_i17tcaglc__91__c__93__	C265H476O255P24	Isoheptadecanoyllipoteichoic acid (n=24), linked, glucose substituted
537	533	c	-4	M_ibcoa__91__c__93__	C25H38N7O17P3S	isobutyryl-CoA(4-)
538	534	c	-2	M_ichor__91__c__93__	C10H8O6	Isochorismate
539	535	c	-3	M_idp__91__c__93__	C10H11N4O11P2	IDP(3-)
540	536	c	-4	M_ihdcoa__91__c__93__	C37H62N7O17P3S	fa6coa,Iso-C16:0 CoA   Isohexadecanoyl-CoA
541	537	c	-4	M_ihpdcoa__91__c__93__	C38H64N7O17P3S	fa11coa, Iso-C17:0 CoA   Isoheptadecanoyl-CoA
542	538	c	+0	M_ile_L__91__c__93__	C6H13NO2	L-isoleucine
543	539	c	-2	M_imp__91__c__93__	C10H11N4O8P	IMP
544	540	c	+0	M_inost__91__c__93__	C6H12O6	myo-inositol
545	541	c	+0	M_ins__91__c__93__	C10H12N4O5	Inosine
546	542	c	-4	M_ipdcoa__91__c__93__	C36H60N7O17P3S	fa3coa,Iso-C15:0 CoA   Isopentadecanoyl-CoA
547	543	c	-3	M_ipdp__91__c__93__	C5H9O7P2	Isopentenyl diphosphate
548	544	c	-4	M_itdcoa__91__c__93__	C35H58N7O17P3S	fa1coa,Iso-C14:0 CoA   Isotetradecanoyl-CoA
549	545	c	-4	M_itp__91__c__93__	C10H11N4O14P3	ITP(3-)
550	546	c	-4	M_ivcoa__91__c__93__	C26H40N7O17P3S	Isovaleryl-CoA
551	547	c	+1	M_k__91__c__93__	K	potassium
552	548	c	-1	M_kdo__91__c__93__	C8H13O8	3-Deoxy-D-manno-2-octulosonate
553	549	c	-1	M_l2a6o__91__c__93__	C7H10NO5	L-2-Amino-6-oxopimelate
554	550	c	-1	M_lac_D__91__c__93__	C3H5O3	(R)-lactate
555	551	c	-1	M_lac_L__91__c__93__	C3H5O3	(S)-lactate
556	552	c	+0	M_lald_L__91__c__93__	C3H6O2	(S)-lactaldehyde
557	553	c	+0	M_lcts__91__c__93__	C12H22O11	Lactose
558	554	c	+0	M_leu_L__91__c__93__	C6H13NO2	L-leucine
559	555	c	+1	M_lys_L__91__c__93__	C6H15N2O2	L-lysinium(1+)
560	556	c	+0	M_m12dahglyc__91__c__93__	C43H82O10	Monoglucosyl-1,2 dianteisoheptadecanoylglycerol
561	557	c	+0	M_m12dihglyc__91__c__93__	C43H82O10	Monoglucosyl-1,2 diisoheptadecanoylglycerol
562	558	c	+0	M_m12dsglyc__91__c__93__	C45H86O10	Monoglucosyl-1,2 distearoylglycerol
563	559	c	+0	M_madg__91__c__93__	C7H14O6	alpha-Methyl-D-glucoside
564	560	c	-2	M_malACP__91__c__93__	C14H22N2O10PRS	Malonyl-[acyl-carrier protein]
565	561	c	-2	M_mal_L__91__c__93__	C4H4O5	(S)-malate(2-)
566	562	c	-5	M_malcoa__91__c__93__	C24H33N7O19P3S	Malonyl-CoA
567	563	c	-2	M_malt6p__91__c__93__	C12H21O14P	Maltose 6-phosphate
568	564	c	+0	M_malt__91__c__93__	C12H22O11	Maltose
569	565	c	+0	M_malthx__91__c__93__	C36H62O31	Maltohexaose
570	566	c	+0	M_malttr__91__c__93__	C18H32O16	maltotriose
571	567	c	-2	M_man1p__91__c__93__	C6H11O9P	D-Mannose 1-phosphate
572	568	c	-2	M_man6p__91__c__93__	C6H11O9P	D-Mannose 6-phosphate
573	569	c	+0	M_mbdg__91__c__93__	C7H14O6	beta-Methylglucoside
574	570	c	+0	M_melib__91__c__93__	C12H22O11	Melibiose
575	571	c	+0	M_meoh__91__c__93__	CH4O1	methanol
576	572	c	-1	M_mercplac__91__c__93__	C3H5O3S	3-Mercaptolactate
577	573	c	-1	M_mercppyr__91__c__93__	C3H3O3S	3-mercaptopyruvate
578	574	c	+0	M_met_D__91__c__93__	C5H10NO2S	D-Methionine
579	575	c	+0	M_met_L__91__c__93__	C5H11NO2S	L-methionine
580	576	c	+0	M_metala__91__c__93__	C8H16N2O3S	L-methionyl-L-alanine
581	577	c	-1	M_methf__91__c__93__	C20H20N7O6	5,10-Methenyltetrahydrofolate
582	578	c	+0	M_metsox_R_L__91__c__93__	C5H11NO3S	L-methionine-R-sulfoxide
583	579	c	+0	M_metsox_S_L__91__c__93__	C5H11NO3S	L-Methionine Sulfoxide
584	580	c	-1	M_mev_R__91__c__93__	C6H11O4	(R)-mevalonate
585	581	c	+2	M_mg2__91__c__93__	Mg	magnesium
586	582	c	-2	M_mi1p_D__91__c__93__	C6H11O9P	1D-myo-inositol 1-phosphate(2-)
587	583	c	-2	M_mi3p_D__91__c__93__	C6H11O9P	1D-myo-inositol 3-phosphate(2-)
588	584	c	-2	M_mi4p_D__91__c__93__	C6H11O9P	1D-myo-inositol 4-phosphate(2-)
589	585	c	-2	M_mlthf__91__c__93__	C20H21N7O6	5,10-Methylenetetrahydrofolate
590	586	c	-5	M_mmcoa_S__91__c__93__	C25H35N7O19P3S	(S)-methylmalonyl-CoA(5-)
591	587	c	+2	M_mn2__91__c__93__	Mn	Mn2+
592	588	c	-2	M_mnl1p__91__c__93__	C6H13O9P	D-Mannitol 1-phosphate
593	589	c	+0	M_mql8__91__c__93__	C51H74O2	Menaquinol 8
594	590	c	+0	M_mqn8__91__c__93__	C51H72O2	Menaquinone 8
595	591	c	-1	M_msa__91__c__93__	C3H3O3	3-oxopropanoate
596	592	c	-1	M_myrsACP__91__c__93__	C25H47N2O8PRS	Myristoyl-ACP (n-C14:0ACP)
597	593	c	-24	M_myrstca1__91__c__93__	C115H224O135P24	Myristoyllipoteichoic acid (n=24), linked, unsubstituted
598	594	c	+0	M_myrstcaala_D__91__c__93__	C187H320N24O135P24	Myristoyllipoteichoic acid (n=24), linked, D-alanine substituted
599	595	c	-24	M_myrstcaglc__91__c__93__	C259H464O255P24	Myristoyllipoteichoic acid (n=24), linked, glucose substituted
600	596	c	-1	M_n6all26d__91__c__93__	C9H15N2O5	N6-Acetyl-LL-2,6-diaminoheptanedioate
601	597	c	+2	M_n8aspmd__91__c__93__	C9H23N3O	N(8)-acetylspermidinium(2+)
602	598	c	+1	M_na1__91__c__93__	Na	Sodium
603	599	c	-1	M_nac__91__c__93__	C6H4NO2	Nicotinate
604	600	c	-1	M_nad__91__c__93__	C21H26N7O14P2	Nicotinamide adenine dinucleotide
605	601	c	-2	M_nadh__91__c__93__	C21H27N7O14P2	Nicotinamide adenine dinucleotide - reduced
606	602	c	-3	M_nadp__91__c__93__	C21H25N7O17P3	Nicotinamide adenine dinucleotide phosphate
607	603	c	-4	M_nadph__91__c__93__	C21H26N7O17P3	Nicotinamide adenine dinucleotide phosphate - reduced
608	604	c	+0	M_ncam__91__c__93__	C6H6N2O	Nicotinamide
609	605	c	+1	M_nh4__91__c__93__	H4N	Ammonium
610	606	c	-2	M_nicrnt__91__c__93__	C11H12NO9P	Nicotinate D-ribonucleotide
611	607	c	-1	M_nmn__91__c__93__	C11H14N2O8P	NMN
612	608	c	-1	M_no2__91__c__93__	NO2	Nitrite
613	609	c	-1	M_no3__91__c__93__	NO3	Nitrate
614	610	c	+0	M_o2__91__c__93__	O2	O2
615	611	c	-2	M_oaa__91__c__93__	C4H2O5	Oxaloacetate
616	612	c	-1	M_ocACP__91__c__93__	C19H35N2O8PRS	Octanoyl-ACP (n-C8:0ACP)
617	613	c	-1	M_ocdcaACP__91__c__93__	C29H55N2O8PRS	Octadecanoyl-ACP (n-C18:0ACP)
618	614	c	-1	M_ocdca__91__c__93__	C18H35O2	octadecanoate (n-C18:0)
619	615	c	-3	M_octdp__91__c__93__	C40H65O7P2	all-trans-Octaprenyl diphosphate
620	616	c	-1	M_octeACP__91__c__93__	C29H53N2O8PRS	cis-octadec-11-enoyl-[acyl-carrier protein] (n-C18:1)
621	617	c	-3	M_ohpb__91__c__93__	C4H4O8P	2-Oxo-3-hydroxy-4-phosphobutanoate
622	618	c	+1	M_orn__91__c__93__	C5H13N2O2	Ornithine
623	619	c	-3	M_orot5p__91__c__93__	C10H10N2O11P	Orotidine 5-phosphate
624	620	c	-1	M_orot__91__c__93__	C5H3N2O4	Orotate
625	621	c	-5	M_oxadpcoa__91__c__93__	C27H37N7O20P3S	3-Oxoadipyl-CoA
626	622	c	-2	M_oxalc__91__c__93__	C6H4O5	4-Oxalocrotonate
627	623	c	-2	M_pa120__91__c__93__	C27H51O8P1	1,2-didodecanoyl-sn-glycerol 3-phosphate
628	624	c	-2	M_pa140__91__c__93__	C31H59O8P1	1,2-ditetradecanoyl-sn-glycerol 3-phosphate
629	625	c	-2	M_pa141__91__c__93__	C31H55O8P1	1,2-ditetradec-7-enoyl-sn-glycerol 3-phosphate
630	626	c	-2	M_pa160__91__c__93__	C35H67O8P1	1,2-dihexadecanoyl-sn-glycerol 3-phosphate
631	627	c	-2	M_pa161__91__c__93__	C35H63O8P1	1,2-dihexadec-9-enoyl-sn-glycerol 3-phosphate
632	628	c	-2	M_pa180__91__c__93__	C39H75O8P1	1,2-dioctadecanoyl-sn-glycerol 3-phosphate
633	629	c	-2	M_pa181__91__c__93__	C39H71O8P1	1,2-dioctadec-11-enoyl-sn-glycerol 3-phosphate
634	630	c	-2	M_paai15__91__c__93__	C33H63O8P	1,2-dianteisopentadecanoyl-sn-glycerol 3-phosphate (12-methyl-tetradecanoyl, anteiso-C15)
635	631	c	-2	M_paai17__91__c__93__	C37H71O8P	1,2-dianteisoheptadecanoyl-sn-glycerol 3-phosphate (14-methyl-hexadecanoyl, anteiso-C17)
636	632	c	-2	M_pai14__91__c__93__	C31H59O8P	1,2-diisotetradecanoyl-sn-glycerol 3-phosphate (12-methyl-tridecanoyl, iso-C14)
637	633	c	-2	M_pai15__91__c__93__	C33H63O8P	1,2-diisopentadecanoyl-sn-glycerol 3-phosphate (13-methyl-tetradecanoyl, iso-C15)
638	634	c	-2	M_pai16__91__c__93__	C35H67O8P	1,2-diisohexadecanoyl-sn-glycerol 3-phosphate (14-methyl-pentadecanoyl, iso-C16)
639	635	c	-2	M_pai17__91__c__93__	C37H71O8P	1,2-diisoheptadecanoyl-sn-glycerol 3-phosphate (15-methyl-hexadecanoyl, iso-C17)
640	636	c	-1	M_palmACP__91__c__93__	C27H51N2O8PRS	Palmitoyl-ACP (n-C16:0ACP)
641	637	c	-24	M_palmtca1__91__c__93__	C119H232O135P24	Palmitoyllipoteichoic acid (n=24), linked, unsubstituted
642	638	c	+0	M_palmtcaala_D__91__c__93__	C191H328O135N24P24	Palmitoyllipoteichoic acid (n=24), linked, D-alanine substituted
643	639	c	-24	M_palmtcaglc__91__c__93__	C263H472O255P24	Palmitoyllipoteichoic acid (n=24), linked, glucose substituted
644	640	c	-2	M_pan4p__91__c__93__	C11H21N2O7PS	Pantetheine 4-phosphate
645	641	c	-4	M_pap__91__c__93__	C10H11N5O10P2	adenosine 3,5-bismonophosphate(4-)
646	642	c	+2	M_pb__91__c__93__	Pb	Lead
647	643	c	-2	M_pdx5p__91__c__93__	C8H10NO6P	Pyridoxine 5-phosphate
648	644	c	+0	M_pe120__91__c__93__	C29H58N1O8P1	phosphatidylethanolamine (didodecanoyl, n-C12:0)
649	645	c	+0	M_pe140__91__c__93__	C33H66N1O8P1	phosphatidylethanolamine (ditetradecanoyl, n-C14:0)
650	646	c	+0	M_pe160__91__c__93__	C37H74N1O8P1	phosphatidylethanolamine (dihexadecanoyl, n-C16:0)
651	647	c	+0	M_pe180__91__c__93__	C41H82N1O8P1	phosphatidylethanolamine (dioctadecanoyl, n-C18:0)
652	648	c	+0	M_pe181__91__c__93__	C41H78N1O8P1	phosphatidylethanolamine (dioctadec-11-enoyl, n-C18:1)
653	649	c	+0	M_peai17__91__c__93__	C39H78NO8P	Phosphatidylethanolamine (14-methyl-hexadecanoyl, anteiso-C17)
654	650	c	+0	M_pei17__91__c__93__	C39H78NO8P	Phosphatidylethanolamine (15-methyl-hexadecanoyl, iso-C17)
655	651	c	-3	M_pendp__91__c__93__	C25H41O7P2	all-trans-Pentaprenyl diphosphate
656	652	c	-3	M_pep__91__c__93__	C3H2O6P	Phosphoenolpyruvate
657	653	c	+0	M_peptmet_L__91__c__93__	XC3H7S	Peptide-L-methionine
658	654	c	+0	M_peptmetox_L__91__c__93__	XC3H7OS	Peptide-L-methionine (R)-S-oxide
659	655	c	-1	M_pg140__91__c__93__	C34H66O10P1	Phosphatidylglycerol (ditetradecanoyl, n-C14:0)
660	656	c	-1	M_pg160__91__c__93__	C38H74O10P1	Phosphatidylglycerol (dihexadecanoyl, n-C16:0)
661	657	c	-1	M_pg180__91__c__93__	C42H82O10P1	Phosphatidylglycerol (dioctadecanoyl, n-C18:0)
662	658	c	-1	M_pgai15__91__c__93__	C36H70O10P	Phosphatidylglycerol (12-methyl-tetradecanoyl, anteiso-C15)
663	659	c	-1	M_pgai17__91__c__93__	C40H78O10P	Phosphatidylglycerol (14-methyl-hexadecanoyl, anteiso-C17)
664	660	c	-1	M_pgi14__91__c__93__	C34H66O10P	Phosphatidylglycerol (12-methyltridecanoyl, iso-C14)
665	661	c	-1	M_pgi15__91__c__93__	C36H70O10P	Phosphatidylglycerol (13-methyltetradecanoyl, iso-C15)
666	662	c	-1	M_pgi16__91__c__93__	C38H74O10P	Phosphatidylglycerol (14-methylpentadecanoyl, iso-C16)
667	663	c	-1	M_pgi17__91__c__93__	C40H78O10P	Phosphatidylglycerol (15-methyl-hexadecanoyl, iso-C17)
668	664	c	-3	M_pgp120__91__c__93__	C30H57O13P2	Phosphatidylglycerophosphate (didodecanoyl, n-C12:0)
669	665	c	-3	M_pgp140__91__c__93__	C34H65O13P2	Phosphatidylglycerophosphate (ditetradecanoyl, n-C14:0)
670	666	c	-3	M_pgp141__91__c__93__	C34H61O13P2	Phosphatidylglycerophosphate (ditetradec-7-enoyl, n-C14:1)
671	667	c	-3	M_pgp160__91__c__93__	C38H73O13P2	Phosphatidylglycerophosphate (dihexadecanoyl, n-C16:0)
672	668	c	-3	M_pgp161__91__c__93__	C38H69O13P2	Phosphatidylglycerophosphate (dihexadec-9-enoyl, n-C16:1)
673	669	c	-3	M_pgp180__91__c__93__	C42H81O13P2	Phosphatidylglycerophosphate (dioctadecanoyl, n-C18:0)
674	670	c	-3	M_pgp181__91__c__93__	C42H77O13P2	Phosphatidylglycerophosphate (dioctadec-11-enoyl, n-C18:1)
675	671	c	-3	M_pgpai15__91__c__93__	C36H69O13P2	Phosphatidylglycerophosphate (12-methyl-tetradecanoyl, anteiso-C15)
676	672	c	-3	M_pgpai17__91__c__93__	C40H77O13P2	Phosphatidylglycerophosphate (14-methyl-hexadecanoyl, anteiso-C17)
677	673	c	-3	M_pgpi14__91__c__93__	C34H65O13P2	Phosphatidylglycerophosphate (12-methyltridecanoyl, iso-C14)
678	674	c	-3	M_pgpi15__91__c__93__	C36H69O13P2	Phosphatidylglycerophosphate (13-methyltetradecanoyl, iso-C15)
679	675	c	-3	M_pgpi16__91__c__93__	C38H73O13P2	Phosphatidylglycerophosphate (14-methylpentadecanoyl, iso-C16)
680	676	c	-3	M_pgpi17__91__c__93__	C40H77O13P2	Phosphatidylglycerophosphate (15-methyl-hexadecanoyl, iso-C17)
681	677	c	+0	M_phe_L__91__c__93__	C9H11NO2	L-phenylalanine
682	678	c	-2	M_pheme__91__c__93__	C34H30FeN4O4	Protoheme
683	679	c	-2	M_phom__91__c__93__	C4H8NO6P	O-phosphonato-L-homoserine(2-)
684	680	c	+0	M_phyQ__91__c__93__	C31H46O2	phylloquinone
685	681	c	-2	M_pi__91__c__93__	HO4P	hydrogenphosphate
686	682	c	-1	M_plasmetha__91__c__93__	C8H13NO7PR2	Plasmenylethanolamine
687	683	c	-4	M_pmtcoa__91__c__93__	C37H62N7O17P3S	Palmitoyl-CoA (n-C16:0CoA)
688	684	c	-1	M_pnto_R__91__c__93__	C9H16NO5	(R)-Pantothenate
689	685	c	-1	M_ppa__91__c__93__	C3H5O2	propionate
690	686	c	-2	M_ppap__91__c__93__	C3H5O5P	Propanoyl phosphate
691	687	c	-4	M_ppcoa__91__c__93__	C24H36N7O17P3S	Propanoyl-CoA
692	688	c	-2	M_pphn__91__c__93__	C10H8O6	Prephenate
693	689	c	-3	M_ppi__91__c__93__	HO7P2	Diphosphate
694	690	c	-2	M_ppp9__91__c__93__	C34H32N4O4	Protoporphyrin
695	691	c	-4	M_pppi__91__c__93__	HO10P3	triphosphate(5-)
696	692	c	-1	M_pram__91__c__93__	C5H11NO7P	5-Phospho-beta-D-ribosylamine
697	693	c	-47	M_prl45tca__91__c__93__	C206H386N2O242P47	Prenol-45n teichoic acid
698	694	c	-2	M_prl45tcaala__91__c__93__	C341H566N47O242P47	Prenol-45n teichoic acid-alanine substituted
699	695	c	-47	M_prl45tcaglc__91__c__93__	C476H836N2O467P47	Prenol-45n teichoic acid-glucose substituted
700	696	c	+0	M_pro_L__91__c__93__	C5H9NO2	L-proline
701	697	c	+0	M_proteinsynth__91__c__93__	X	Protein biosynthesis
702	698	c	-5	M_prpp__91__c__93__	C5H8O14P3	5-Phospho-alpha-D-ribose 1-diphosphate
703	699	c	-1	M_ps120__91__c__93__	C30H57N1O10P1	phosphatidylserine (didodecanoyl, n-C12:0)
704	700	c	-1	M_ps140__91__c__93__	C34H65N1O10P1	phosphatidylserine (ditetradecanoyl, n-C14:0)
705	701	c	-1	M_ps160__91__c__93__	C38H73N1O10P1	phosphatidylserine (dihexadecanoyl, n-C16:0)
706	702	c	-1	M_ps180__91__c__93__	C42H81N1O10P1	phosphatidylserine (dioctadecanoyl, n-C18:0)
707	703	c	-1	M_ps181__91__c__93__	C42H77N1O10P1	phosphatidylserine (dioctadec-11-enoyl, n-C18:1)
708	704	c	-1	M_psai17__91__c__93__	C40H77NO10P	Phosphatidylserine (14-methyl-hexadecanoyl, anteiso-C17)
709	705	c	-2	M_psd5p__91__c__93__	C9H11N2O9P	Pseudouridine 5-phosphate
710	706	c	-1	M_psi17__91__c__93__	C40H77NO10P	Phosphatidylserine (15-methyl-hexadecanoyl, iso-C17)
711	707	c	+2	M_ptrc__91__c__93__	C4H14N2	Putrescine
712	708	c	+0	M_ptth__91__c__93__	C11H22N2O4S	pantetheine
713	709	c	-1	M_pyam5p__91__c__93__	C8H12N2O5P	Pyridoxamine 5-phosphate
714	710	c	+1	M_pydam__91__c__93__	C8H13N2O2	Pyridoxamine
715	711	c	-2	M_pydx5p__91__c__93__	C8H8NO6P	Pyridoxal 5-phosphate
716	712	c	+0	M_pydx__91__c__93__	C8H9NO3	Pyridoxal
717	713	c	+0	M_pydxn__91__c__93__	C8H11NO3	Pyridoxine
718	714	c	-1	M_pyr__91__c__93__	C3H3O3	pyruvate
719	715	c	+0	M_q8__91__c__93__	C49H74O4	Ubiquinone-8
720	716	c	+0	M_q8h2__91__c__93__	C49H76O4	Ubiquinol-8
721	717	c	-2	M_quln__91__c__93__	C7H3NO4	quinolinate(2-)
722	718	c	-2	M_r1p__91__c__93__	C5H9O8P	alpha-D-Ribose 1-phosphate
723	719	c	-2	M_r5p__91__c__93__	C5H9O8P	alpha-D-Ribose 5-phosphate
724	720	c	+0	M_raffin__91__c__93__	C18H32O16	Raffinose
725	721	c	+0	M_rbflvrd__91__c__93__	C17H22N4O6	Reduced riboflavin
726	722	c	+0	M_rbl_D__91__c__93__	C5H10O5	D-ribulose
727	723	c	+0	M_rbl_L__91__c__93__	C5H10O5	L-Ribulose
728	724	c	+0	M_rdmbzi__91__c__93__	C14H18N2O4	N1-(alpha-D-ribosyl)-5,6-dimethylbenzimidazole
729	725	c	+0	M_retinal__91__c__93__	C20H28O	retinal
730	726	c	+0	M_retinol__91__c__93__	C20H30O	retinol
731	727	c	+0	M_rhcys__91__c__93__	C9H17NO6S	S-Ribosyl-L-homocysteine
732	728	c	+0	M_rib_D__91__c__93__	C5H10O5	D-ribose
733	729	c	+0	M_ribflv__91__c__93__	C17H20N4O6	Riboflavin
734	730	c	-2	M_rml1p__91__c__93__	C6H11O8P	L-Rhamnulose 1-phosphate
735	731	c	+1	M_rnam__91__c__93__	C11H15N2O5	N-Ribosylnicotinamide
736	732	c	+0	M_rnatrans__91__c__93__	X	RNA transcription
737	733	c	-2	M_ru5p_D__91__c__93__	C5H9O8P	D-ribulose 5-phosphate(2-)
738	734	c	-2	M_ru5p_L__91__c__93__	C5H9O8P	L-Ribulose 5-phosphate
739	735	c	-4	M_s17bp__91__c__93__	C7H12O13P2	Sedoheptulose 1,7-bisphosphate
740	736	c	-2	M_s7p__91__c__93__	C7H13O10P	Sedoheptulose 7-phosphate
741	737	c	-2	M_salc6p__91__c__93__	C13H17O10P	Salicin 6-phosphate
742	738	c	-2	M_sbt6p__91__c__93__	C6H13O9P	D-Sorbitol 6-phosphate
743	739	c	-5	M_sbzcoa__91__c__93__	C32H39N7O20P3S	O-Succinylbenzoyl-CoA
744	740	c	+0	M_ser_D__91__c__93__	C3H7NO3	D-serine
745	741	c	+0	M_ser_L__91__c__93__	C3H7NO3	L-serine
746	742	c	-8	M_sheme__91__c__93__	C42H36FeN4O16	Siroheme
747	743	c	-3	M_skm5p__91__c__93__	C7H8O8P	Shikimate 5-phosphate
748	744	c	-1	M_skm__91__c__93__	C7H9O5	Shikimate
749	745	c	-2	M_so3__91__c__93__	O3S	Sulfite
750	746	c	-2	M_so4__91__c__93__	O4S	sulfate
751	747	c	+3	M_spmd__91__c__93__	C7H22N3	Spermidine
752	748	c	-4	M_stcoa__91__c__93__	C39H66N7O17P3S	Stearoyl-CoA (n-C18:0CoA)
753	749	c	-24	M_sttca1__91__c__93__	C123H240O135P24	Stearoyllipoteichoic acid (n=24), linked, unsubstituted
754	750	c	-24	M_sttcaacgam__91__c__93__	C315H552N24O255P24	Stearoyllipoteichoic acid (n=24), linked, N-acetyl-D-glucosamine
755	751	c	+0	M_sttcaala_D__91__c__93__	C195H336N24O135P24	Stearoyllipoteichoic acid (n=24), linked, D-alanine substituted
756	752	c	-24	M_sttcaglc__91__c__93__	C267H480O255P24	Stearoyllipoteichoic acid (n=24), linked, glucose substituted
757	753	c	-2	M_suc6p__91__c__93__	C12H21O14P	Sucrose 6-phosphate
758	754	c	-1	M_sucarg__91__c__93__	C10H17N4O5	N2-Succinyl-L-arginine
759	755	c	-2	M_sucbz__91__c__93__	C11H8O5	o-Succinylbenzoate
760	756	c	-2	M_succ__91__c__93__	C4H4O4	Succinate
761	757	c	-1	M_suchms__91__c__93__	C8H12NO6	O-Succinyl-L-homoserine
762	758	c	-1	M_sucorn__91__c__93__	C9H15N2O5	N2-Succinyl-L-ornithine
763	759	c	-1	M_t3c11vaceACP__91__c__93__	C29H51N2O8PRS	trans-3-cis-11-vacceoyl-[acyl-carrier protein]
764	760	c	-1	M_t3c5ddeceACP__91__c__93__	C23H39N2O8PRS	trans-3-cis-5-dodecenoyl-[acyl-carrier protein]
765	761	c	-1	M_t3c7mrseACP__91__c__93__	C25H43N2O8PRS	trans-3-cis-7-myristoleoyl-[acyl-carrier protein]
766	762	c	-1	M_t3c9palmeACP__91__c__93__	C27H47N2O8PRS	trans-3-cis-9-palmitoleoyl-[acyl-carrier protein]
767	763	c	-2	M_tag6p_D__91__c__93__	C6H11O9P	D-Tagatose 6-phosphate
768	764	c	-4	M_tagdp_D__91__c__93__	C6H10O12P2	D-Tagatose 1,6-biphosphate
769	765	c	+0	M_tcam__91__c__93__	X	minor teichoic acid (acetylgalactosamine glucose phosphate, n=30)
770	766	c	-4	M_tdcoa__91__c__93__	C35H58N7O17P3S	Tetradecanoyl-CoA (n-C14:0CoA)
771	767	c	-1	M_tddec2eACP__91__c__93__	C23H41N2O8PRS	trans-Dodec-2-enoyl-[acyl-carrier protein]
772	768	c	-1	M_tdeACP__91__c__93__	C25H45N2O8PRS	cis-tetradec-7-enoyl-[acyl-carrier protein] (n-C14:1)
773	769	c	-1	M_tdec2eACP__91__c__93__	C21H37N2O8PRS	trans-Dec-2-enoyl-[acyl-carrier protein]
774	770	c	-2	M_thdp__91__c__93__	C7H7NO4	2,3,4,5-Tetrahydrodipicolinate
775	771	c	-1	M_thex2eACP__91__c__93__	C17H29N2O8PRS	trans-Hex-2-enoyl-[acyl-carrier protein]
776	772	c	-2	M_thf__91__c__93__	C19H21N7O6	5,6,7,8-Tetrahydrofolate
777	773	c	-3	M_thfglu__91__c__93__	C24H27N8O9	Tetrahydrofolyl-[Glu](2)
778	774	c	+0	M_thglu__91__c__93__	C24H32N8O12	Tetrahydropteroyltri_L_glutamate
779	775	c	+1	M_thm__91__c__93__	C12H17N4OS	Thiamin
780	776	c	-1	M_thmmp__91__c__93__	C12H16N4O4PS	Thiamin monophosphate
781	777	c	-2	M_thmpp__91__c__93__	C12H16N4O7P2S	Thiamine diphosphate
782	778	c	+0	M_thr_L__91__c__93__	C4H9NO3	L-threonine
783	779	c	+0	M_thym__91__c__93__	C5H6N2O2	Thymine
784	780	c	+0	M_thymd__91__c__93__	C10H14N2O5	Thymidine
785	781	c	-1	M_tmrs2eACP__91__c__93__	C25H45N2O8PRS	trans-Tetradec-2-enoyl-[acyl-carrier protein]
786	782	c	-1	M_toct2eACP__91__c__93__	C19H33N2O8PRS	trans-Oct-2-enoyl-[acyl-carrier protein]
787	783	c	-1	M_toctd2eACP__91__c__93__	C29H53N2O8PRS	trans-octadec-2-enoyl-[acyl-carrier protein]
788	784	c	-1	M_tpalm2eACP__91__c__93__	C27H49N2O8PRS	trans-Hexadec-2-enoyl-[acyl-carrier protein]
789	785	c	+0	M_trdox__91__c__93__	X	Oxidized thioredoxin
790	786	c	+0	M_trdrd__91__c__93__	XH2	Reduced thioredoxin
791	787	c	-2	M_tre6p__91__c__93__	C12H21O14P	alpha,alpha-Trehalose 6-phosphate
792	788	c	+0	M_tre__91__c__93__	C12H22O11	Trehalose
793	789	c	+0	M_trnaglu__91__c__93__	R	tRNA (Glu)
794	790	c	+0	M_trp_L__91__c__93__	C11H12N2O2	L-tryptophan
795	791	c	-2	M_tsul__91__c__93__	O3S2	thiosulfate(2-)
796	792	c	-3	M_ttc_ggdp__91__c__93__	C20H33O7P2	trans,trans,cis-Geranylgeranyl diphosphate
797	793	c	+0	M_tyr_L__91__c__93__	C9H11NO3	L-tyrosine
798	794	c	-3	M_uGgla__91__c__93__	C40H62N9O26P2	UDP-N-acetylmuramoyl-L-alanyl-gamma-D-glutamyl-L-lysyl-D-alanyl-D-alanine
799	795	c	-3	M_uaGgla__91__c__93__	C86H140N7O21P2	Undecaprenyl-diphospho-N-acetylmuramoyl-L-alanyl-gamma-D-glutamyl-L-lysyl-D-alanyl-D-alanine
800	796	c	-3	M_uaaAgla__91__c__93__	C94H153N8O26P2	Undecaprenyl-diphospho-N-acetylmuramoyl-(N-acetylglucosamine)-L-alanyl-D-glutamyl-L-lysyl-D-alanyl-D-alanine
801	797	c	-2	M_uaaAgtla__91__c__93__	C94H155N9O25P2	Undecaprenyl-diphospho-N-acetylmuramoyl-(N-acetylglucosamine)-L-alanyl-D-glutaminyl-L-lysyl-D-alanyl-D-alanine
802	798	c	-3	M_uaaGgla__91__c__93__	C94H153N8O26P2	Undecaprenyl-diphospho-N-acetylmuramoyl-(N-acetylglucosamine)-L-alanyl-gamma-D-glutamyl-L-lysyl-D-alanyl-D-alanine
803	799	c	-2	M_uaaGgtla__91__c__93__	C94H155N9O25P2	Undecaprenyl-diphospho-N-acetylmuramoyl-(N-acetylglucosamine)-L-alanyl-D-isoglutaminyl-L-lysyl-D-alanyl-D-alanine
804	800	c	-4	M_uaagmda__91__c__93__	C95H152N8O28P2	Undecaprenyl-diphospho-N-acetylmuramoyl-(N-acetylglucosamine)-L-ala-D-glu-meso-2,6-diaminopimeloyl-D-ala-D-ala
805	801	c	-3	M_uaagtmda__91__c__93__	C95H154N9O27P2	Undecaprenyl-diphospho-N-acetylmuramoyl-(N-acetylglucosamine)-L-alanyl-D-glutaminyl-meso-2,6-diaminopimeloyl-D-alanyl-D-alanine
806	802	c	-3	M_uaccg__91__c__93__	C20H26N3O19P2	UDP-N-acetyl-3-O-(1-carboxyvinyl)-D-glucosamine
807	803	c	-2	M_uacgam__91__c__93__	C17H25N3O17P2	UDP-N-acetyl-alpha-D-glucosamine(2-)
808	804	c	-2	M_uacmam__91__c__93__	C17H25N3O17P2	UDP-N-acetyl-D-mannosamine
809	805	c	-4	M_uagmda__91__c__93__	C87H139N7O23P2	Undecaprenyl-diphospho-N-acetylmuramoyl-L-alanyl-D-glutamyl-meso-2,6-diaminopimeloyl-D-alanyl-D-alanine
810	806	c	-3	M_uama__91__c__93__	C23H33N4O20P2	UDP-N-acetylmuramoyl-L-alanine
811	807	c	-4	M_uamag__91__c__93__	C28H39N5O23P2	UDP-N-acetylmuramoyl-L-alanyl-D-glutamate
812	808	c	-3	M_uamr__91__c__93__	C20H28N3O19P2	UDP-N-acetylmuramate
813	809	c	-3	M_udcpdp__91__c__93__	C55H89O7P2	Undecaprenyl diphosphate
814	810	c	-2	M_udcpp__91__c__93__	C55H89O4P	Undecaprenyl phosphate
815	811	c	-3	M_udp__91__c__93__	C9H11N2O12P2	UDP
816	812	c	-2	M_udpacgal__91__c__93__	C17H25N3O17P2	UDP-N-acetyl-D-galactosamine(2-)
817	813	c	-2	M_udpg__91__c__93__	C15H22N2O17P2	UDPglucose
818	814	c	-2	M_udpgal__91__c__93__	C15H22N2O17P2	UDP-D-galactose(2-)
819	815	c	-2	M_udpgalfur__91__c__93__	C15H22N2O17P2	UDP-D-galacto-1,4-furanose
820	816	c	-3	M_udpglcur__91__c__93__	C15H19N2O18P2	UDP-D-glucuronate
821	817	c	-4	M_ugmd__91__c__93__	C35H51N7O26P2	UDP-N-acetylmuramoyl-L-alanyl-D-gamma-glutamyl-meso-2,6-diaminopimelate
822	818	c	-4	M_ugmda__91__c__93__	C41H61N9O28P2	UDP-N-acetylmuramoyl-L-alanyl-D-glutamyl-meso-2,6-diaminopimeloyl-D-alanyl-D-alanine
823	819	c	-2	M_ump__91__c__93__	C9H11N2O9P	UMP
824	820	c	-2	M_unaga__91__c__93__	C63H103NO12P2	Undecaprenyl diphospho N-acetyl-glucosamine
825	821	c	+0	M_ura__91__c__93__	C4H4N2O2	uracil
826	822	c	+0	M_uri__91__c__93__	C9H12N2O6	Uridine
827	823	c	-4	M_utp__91__c__93__	C9H11N2O15P3	UTP
828	824	c	+0	M_val_L__91__c__93__	C5H11NO2	L-valine
829	825	c	+0	M_xan__91__c__93__	C5H4N4O2	Xanthine
830	826	c	-2	M_xmp__91__c__93__	C10H11N4O9P	Xanthosine 5-phosphate
831	827	c	+0	M_xol7ah2al__91__c__93__	C27H46O3	3alpha,7alpha-dihydroxy-5beta-cholestan-26-al
832	828	c	+0	M_xol7ah3__91__c__93__	C27H48O3	5beta-cholestane-3alpha,7alpha,26-triol
833	829	c	+0	M_xtsn__91__c__93__	C10H12N4O6	xanthosine
834	830	c	-2	M_xu1p_L__91__c__93__	C5H9O8P	L-Xylulose 1-phosphate
835	831	c	-2	M_xu5p_D__91__c__93__	C5H9O8P	D-xylulose 5-phosphate(2-)
836	832	c	-2	M_xu5p_L__91__c__93__	C5H9O8P	L-Xylulose 5-phosphate
837	833	c	+0	M_xyl_D__91__c__93__	C5H10O5	aldehydo-D-xylose
838	834	c	+0	M_xylu_D__91__c__93__	C5H10O5	D-xylulose
839	835	c	+2	M_zn2__91__c__93__	Zn	Zinc
