CNC	distance
0.0613056	0.106217
0.0668344	0.0950596
0.0728618	0.0883842
0.0760764	0.101348
0.0829373	0.088021
0.0838373	0.222667
0.0847471	5.38319e+303
0.0856668	5.38319e+303
0.0865964	0.222459
0.0875362	0.0970873
0.0884861	0.0897328
0.0894463	0.222654
0.090417	0.223298
0.0913982	0.0845501
0.0918928	0.221726
0.09239	0.222511
0.09239	0.222721
0.09289	0.0839276
0.0933926	0.22333
0.093898	0.223737
0.0944061	0.0953328
0.0944061	0.223357
0.0949169	0.221947
0.0954306	0.0919083
0.095947	0.222444
0.0964662	0.0937108
0.0985712	0.222333
0.100722	0.221735
0.10292	0.221628
0.107461	0.220518
0.122321	0.221484
0.133352	0.218959
0.188365	0.215138
0.266073	0.20936
inf	0.839317
inf	0.839317
inf	0.839317
inf	0.839317
inf	0.839317
inf	0.839317
inf	0.839317
inf	0.839317
inf	0.839317
inf	0.839317
inf	0.839317
inf	0.839317
inf	0.839317
inf	0.839317
inf	0.839317
inf	0.839317
inf	0.839317
inf	0.839317
inf	0.839317
inf	0.839317
inf	0.839317
inf	0.839317
inf	0.839317
inf	0.839317
inf	0.839317
inf	0.839317
inf	0.839317
inf	0.839317
inf	0.839317
inf	0.839317
inf	0.839317
inf	0.839317
inf	0.839317
inf	0.839317
inf	0.839317
inf	0.839317
inf	0.839317
inf	0.839317
inf	0.839317
inf	0.839317
0.01	0.147405
0.0141254	0.143356
0.0199526	0.138932
0.0281838	0.101559
0.0398107	0.0964454
0.0562341	0.089758
0.0794328	0.175155
0.112202	5.38319e+303
0.158489	4.59702e+166
0.223872	0.210541
