CNC	distance
0.0798627	0.00759126
0.0802948	0.00666554
0.0807293	0.00899354
0.0811662	0.00744505
0.0816054	0.0109157
0.082047	0.00796245
0.0824909	0.00805361
0.0829373	0.0100418
0.0833861	0.00917565
0.0838373	0.011296
0.0847471	0.0100695
0.0856668	0.0128432
0.0865964	0.0115209
0.0875362	0.00922844
0.0884861	0.0140614
0.090417	0.0156733
0.09239	0.0194943
0.0944061	0.0204147
0.0964662	0.0196979
0.0985712	0.0220624
0.10292	0.0276931
0.107461	0.0344773
0.117152	0.0418906
0.122321	0.0450542
0.133352	0.0537302
0.145378	0.060739
0.172783	0.0799945
0.188365	0.0898749
0.266073	0.130297
0.316228	0.15337
0.375837	0.165237
inf	0.839317
inf	0.839347
inf	0.839317
inf	0.839347
inf	0.839317
inf	0.839318
inf	0.839318
inf	0.839317
inf	0.839318
inf	0.839347
inf	0.839317
inf	0.839318
inf	0.839317
inf	0.839317
inf	0.839317
inf	0.839317
inf	0.839317
inf	0.839317
inf	0.839317
inf	0.839318
inf	0.839317
inf	0.839317
inf	0.839317
inf	0.839317
inf	0.839317
inf	0.839317
inf	0.839317
inf	0.839318
inf	0.839317
inf	0.839318
inf	0.839317
inf	0.839317
inf	0.839317
inf	0.839317
inf	0.839317
inf	0.839317
inf	0.839317
inf	0.839317
inf	0.839317
inf	0.839317
0.01	0.113224
0.0141254	0.101319
0.0199526	0.0864468
0.0281838	0.0684962
0.0398107	0.0489951
0.0562341	0.0240311
0.0794328	0.00554312
0.112202	0.0321543
0.158489	0.0738187
0.223872	0.108994
