CNC	distance
0.112809	0.00643766
0.113419	0.00631531
0.114033	0.00688573
0.11465	0.0066508
0.115271	0.00740525
0.115894	0.00687775
0.116522	0.00749726
0.117152	0.00759719
0.117786	0.00718242
0.118423	0.00791426
0.119709	0.00816071
0.121008	0.00948082
0.122321	0.00988724
0.123648	0.0110016
0.12499	0.0109599
0.127717	0.0129192
0.130504	0.0133186
0.133352	0.0154431
0.136262	0.0177423
0.139236	0.0190424
0.145378	0.0224451
0.151792	0.0266015
0.165482	0.0343589
0.172783	0.0387233
0.188365	0.0471572
0.205353	0.0558886
0.244062	0.0713711
0.266073	0.0789032
0.316228	0.0931331
0.375837	0.107306
0.446684	0.120906
0.530884	0.134328
inf	0.839317
inf	0.839318
inf	0.839318
inf	0.839318
inf	0.839318
inf	0.839318
inf	0.839318
inf	0.839318
inf	0.839318
inf	0.839347
inf	0.839318
inf	0.839318
inf	0.839318
inf	0.839347
inf	0.839318
inf	0.839317
inf	0.839318
inf	0.839318
inf	0.839318
inf	0.839318
inf	0.839318
inf	0.839317
inf	0.839317
inf	0.839317
inf	0.839318
inf	0.839317
inf	0.839317
inf	0.839317
inf	0.839317
inf	0.839317
inf	0.839317
inf	0.839317
inf	0.839317
inf	0.839317
inf	0.839317
inf	0.839317
inf	0.839317
inf	0.839317
inf	0.839317
inf	0.839317
0.01	0.126792
0.0141254	0.117422
0.0199526	0.105536
0.0281838	0.091148
0.0398107	0.0742841
0.0562341	0.0528801
0.0794328	0.0298176
0.112202	0.00594062
0.158489	0.0306058
0.223872	0.0637746
