CNC	distance
0.266073	0.100507
0.316228	0.0917722
0.375837	0.0843953
0.446684	0.0732927
0.530884	0.0647457
0.630957	0.0486484
0.749894	0.0399683
0.891251	0.0272437
1.05925	0.0130669
1.15478	0.00781579
1.25893	0.0046872
1.26574	0.00686952
1.27259	0.00891861
1.27947	0.00516657
1.2864	0.0069172
1.29336	0.00687213
1.30036	0.0072525
1.30739	0.00669746
1.31447	0.00764347
1.32158	0.00758036
1.32873	0.0106307
1.34315	0.00919622
1.35773	0.0112276
1.37246	0.0119425
1.38735	0.00748348
1.40241	0.00989854
1.43301	0.0140526
1.46428	0.0146223
1.49624	0.0176508
1.52889	0.0219508
1.56225	0.0199755
1.63117	0.0237551
1.70314	0.0271258
1.77828	0.0304965
1.85674	0.0354121
1.93865	0.0382062
2.11349	0.049851
2.30409	0.055158
inf	0.839317
inf	0.839317
inf	0.839317
inf	0.839317
inf	0.839317
inf	0.839317
inf	0.839317
inf	0.839317
inf	0.839317
inf	0.839317
inf	0.839317
inf	0.839317
inf	0.839317
inf	0.839317
inf	0.839317
inf	0.839318
inf	0.839318
inf	0.839317
inf	0.839317
inf	0.839318
inf	0.839317
inf	0.839317
inf	0.839317
inf	0.839318
inf	0.839317
inf	0.839317
inf	0.839317
inf	0.839317
inf	0.839317
inf	0.839317
inf	0.839317
inf	0.839317
inf	0.839317
inf	0.839317
inf	0.839317
inf	0.839317
inf	0.839317
inf	0.839317
inf	0.839317
inf	0.839317
0.01	5.38319e+303
0.0141254	5.38319e+303
0.0199526	5.38319e+303
0.0281838	5.38319e+303
0.0398107	0.144891
0.0562341	0.140215
0.0794328	0.134644
0.112202	5.38319e+303
0.158489	5.38319e+303
0.223872	0.107164
