CNC	distance
0.266073	0.0249553
0.316228	0.0143876
0.375837	0.0138498
0.377871	0.0140081
0.379916	0.0141375
0.381972	0.0143177
0.384039	0.0144693
0.386117	0.0146782
0.388206	0.0147958
0.390307	0.0150068
0.392419	0.0151836
0.394542	0.0153685
0.396677	0.0156086
0.400982	0.0160281
0.405334	0.0164901
0.409732	0.0169621
0.414178	0.0174839
0.418673	0.0179906
0.427809	0.0190804
0.437144	0.0202596
0.446684	0.0215594
0.456431	0.0228678
0.466391	0.0242718
0.486968	0.0272211
0.508452	0.0303407
0.530884	0.0335886
0.554307	0.03697
0.578762	0.0403773
0.630957	0.0474438
0.68786	0.0547294
0.749894	0.0620531
0.817523	0.0694933
0.891251	0.076901
1.05925	0.0916369
inf	0.839318
inf	0.839317
inf	0.839317
inf	0.839317
inf	0.839317
inf	0.839317
inf	0.839317
inf	0.839317
inf	0.839317
inf	0.839317
inf	0.839318
inf	0.839317
inf	0.839317
inf	0.839317
inf	0.839317
inf	0.839317
inf	0.839317
inf	0.839317
inf	0.839317
inf	0.839317
inf	0.839317
inf	0.839317
inf	0.839317
inf	0.839317
inf	0.839317
inf	0.839317
inf	0.839317
inf	0.839317
inf	0.839317
inf	0.839317
inf	0.839317
inf	0.839317
inf	0.839317
inf	0.839317
inf	0.839317
inf	0.839317
inf	0.839317
inf	0.839317
inf	0.839317
inf	0.839317
0.01	0.147125
0.0141254	0.142828
0.0199526	0.137359
0.0281838	0.130324
0.0398107	0.121463
0.0562341	0.110361
0.0794328	0.0966557
0.112202	0.0800609
0.158489	0.0603581
0.223872	0.037501
