	metabolite_index	reaction_index	stoichiometry	metabolite_id	reaction_id
1	0	1	-1	M_12dgr180__91__e__93__	R_12DGR180ti
2	1	10	-1	M_26dap_M__91__e__93__	R_1P4H2CBXLAH
3	1	11	+1	M_26dap_M__91__e__93__	R_23DHMPO
4	2	19	-1	M_2hyoxplac__91__e__93__	R_23PDE2
5	2	20	+1	M_2hyoxplac__91__e__93__	R_23PDE4
6	4	25	-1	M_3hphac__91__e__93__	R_23PDE7
7	4	26	+1	M_3hphac__91__e__93__	R_23PDE9
8	3	29	-1	M_34dhpha__91__e__93__	R_26DAPt2r
9	3	30	+1	M_34dhpha__91__e__93__	R_2AHBUTI
10	5	53	-1	M_3mop__91__e__93__	R_2DDPENTHL
11	5	54	+1	M_3mop__91__e__93__	R_2DHPL
12	6	136	-1	M_4abz__91__e__93__	R_2HBO
13	9	184	-1	M_acac__91__e__93__	R_2HYOXPLACt2r
14	9	185	+1	M_acac__91__e__93__	R_2MBCOATA
15	10	188	-1	M_acald__91__e__93__	R_2MEBCOADH
16	10	189	+1	M_acald__91__e__93__	R_33HPHACt2r
17	11	198	-1	M_acgam__91__e__93__	R_34DHOXPEGOX
18	11	199	+1	M_acgam__91__e__93__	R_34DHPHAt2r
19	11	200	-1	M_acgam__91__e__93__	R_34HPPOR
20	8	242	-1	M_ac__91__e__93__	R_3ABUTCOAL
21	8	243	+1	M_ac__91__e__93__	R_3HAD10M12
22	12	270	-1	M_adn__91__e__93__	R_3HAD11M12
23	12	271	+1	M_adn__91__e__93__	R_3HAD12M14
24	13	278	-1	M_adocbl__91__e__93__	R_3HAD13M14
25	14	323	-1	M_akg__91__e__93__	R_3HAD14M16
26	14	324	+1	M_akg__91__e__93__	R_3HAD15M16
27	17	329	-1	M_alaasp__91__e__93__	R_3HAD4M6
28	18	336	-1	M_alagln__91__e__93__	R_3HAD5M6
29	19	339	-1	M_alaglu__91__e__93__	R_3HAD6M8
30	20	342	-1	M_alagly__91__e__93__	R_3HAD7M8
31	21	345	-1	M_alahis__91__e__93__	R_3HAD8M10
32	22	348	-1	M_alaleu__91__e__93__	R_3HAD9M10
33	23	358	-1	M_alathr__91__e__93__	R_3HAO
34	16	359	-1	M_ala_L__91__e__93__	R_3HPHACOX
35	16	360	+1	M_ala_L__91__e__93__	R_3MEBCOADH
36	24	369	-1	M_alltn__91__e__93__	R_3MOBDC2
37	24	370	+1	M_alltn__91__e__93__	R_3MOBS
38	25	382	-1	M_amp__91__e__93__	R_3MOPDC2
39	27	396	-1	M_arbt__91__e__93__	R_3MOPt2r
40	26	397	-1	M_arab_L__91__e__93__	R_3OAR100
41	28	404	-1	M_arg_L__91__e__93__	R_3OAR10M11
42	29	406	-1	M_arsenb__91__e__93__	R_3OAR10M12
43	29	407	-1	M_arsenb__91__e__93__	R_3OAR11M12
44	29	408	+1	M_arsenb__91__e__93__	R_3OAR120
45	30	412	-1	M_asn_L__91__e__93__	R_3OAR12M13
46	30	413	+1	M_asn_L__91__e__93__	R_3OAR12M14
47	31	414	-1	M_aso3__91__e__93__	R_3OAR13M14
48	31	415	+1	M_aso3__91__e__93__	R_3OAR140
49	32	416	-1	M_aso4__91__e__93__	R_3OAR14M15
50	32	417	+1	M_aso4__91__e__93__	R_3OAR14M16
51	33	428	-1	M_asp_L__91__e__93__	R_3OAR15M16
52	33	429	+1	M_asp_L__91__e__93__	R_3OAR160
53	34	436	-1	M_bhb__91__e__93__	R_3OAR180
54	34	437	+1	M_bhb__91__e__93__	R_3OAR40
55	35	443	-1	M_btn__91__e__93__	R_3OAR4M5
56	36	447	-1	M_but__91__e__93__	R_3OAR4M6
57	37	448	-1	M_ca2__91__e__93__	R_3OAR5M6
58	38	451	-1	M_cbl1__91__e__93__	R_3OAR60
59	39	452	-1	M_cbl2__91__e__93__	R_3OAR6M7
60	40	456	+1	M_cd2__91__e__93__	R_3OAR6M8
61	95	457	-1	M_k__91__e__93__	R_3OAR7M8
62	40	457	+1	M_cd2__91__e__93__	R_3OAR7M8
63	95	458	+1	M_k__91__e__93__	R_3OAR80
64	40	458	-1	M_cd2__91__e__93__	R_3OAR80
65	41	465	-1	M_cellb__91__e__93__	R_3OAR8M10
66	42	466	-1	M_cgly__91__e__93__	R_3OAR8M9
67	45	494	-1	M_co2__91__e__93__	R_3OAR9M10
68	45	495	+1	M_co2__91__e__93__	R_3OAS100
69	46	496	+1	M_cobalt2__91__e__93__	R_3OAS10M11
70	46	497	-1	M_cobalt2__91__e__93__	R_3OAS10M12
71	47	510	-1	M_csn__91__e__93__	R_3OAS11M12
72	48	511	-1	M_ctbt__91__e__93__	R_3OAS120
73	50	533	-1	M_cys_L__91__e__93__	R_3OAS121
74	50	534	+1	M_cys_L__91__e__93__	R_3OAS12M13
75	51	543	-1	M_cytd__91__e__93__	R_3OAS12M14
76	51	544	+1	M_cytd__91__e__93__	R_3OAS13M14
77	46	549	-1	M_cobalt2__91__e__93__	R_3OAS140
78	49	550	-1	M_cu2__91__e__93__	R_3OAS141
79	49	551	+1	M_cu2__91__e__93__	R_3OAS160
80	52	555	-1	M_dad_2__91__e__93__	R_3OAS161
81	52	556	+1	M_dad_2__91__e__93__	R_3OAS180
82	15	564	-1	M_ala_D__91__e__93__	R_3OAS181
83	15	565	+1	M_ala_D__91__e__93__	R_3OAS2M3
84	53	588	-1	M_dcyt__91__e__93__	R_3OAS3M4
85	53	589	+1	M_dcyt__91__e__93__	R_3OAS4M3O6
86	54	596	-1	M_dgsn__91__e__93__	R_3OAS4M5
87	55	624	-1	M_din__91__e__93__	R_3OAS4M6
88	56	648	-1	M_drib__91__e__93__	R_3OAS5M6
89	137	651	-1	M_ser_D__91__e__93__	R_3OAS60
90	137	652	+1	M_ser_D__91__e__93__	R_3OAS6M7
91	57	657	-1	M_duri__91__e__93__	R_3OAS6M8
92	96	662	-1	M_lac_D__91__e__93__	R_3OAS7M8
93	96	663	+1	M_lac_D__91__e__93__	R_3OAS80
94	58	747	-1	M_etha__91__e__93__	R_3OAS8M10
95	59	748	-1	M_etoh__91__e__93__	R_3OAS8M9
96	59	749	+1	M_etoh__91__e__93__	R_3OAS9M10
97	60	785	-1	M_fe2__91__e__93__	R_4ABZt2
98	61	786	-1	M_fe3__91__e__93__	R_4C2HM6SADH
99	61	787	-1	M_fe3__91__e__93__	R_4HBZCL
100	62	788	-1	M_fecrm__91__e__93__	R_4HP34DHPD
101	43	789	-2	M_cit__91__e__93__	R_4HPROI
102	61	789	-1	M_fe3__91__e__93__	R_4HPROI
103	63	808	-1	M_fru__91__e__93__	R_4HPROOX
104	64	816	-1	M_fum__91__e__93__	R_4HTHRS
105	64	817	+1	M_fum__91__e__93__	R_4MOPDC2
106	66	863	-1	M_galt__91__e__93__	R_4NTPPH2
107	65	865	-1	M_gal__91__e__93__	R_5GLUP5T1
108	67	866	-1	M_gam__91__e__93__	R_5GLUP5T2
109	68	870	-1	M_gbbtn__91__e__93__	R_5MTHCYST
110	69	872	-1	M_gcald__91__e__93__	R_6PHBG
111	69	873	+1	M_gcald__91__e__93__	R_6PHBG2
112	70	889	-1	M_glc_D__91__e__93__	R_AACGLYDH
113	71	889	+1	M_glcn__91__e__93__	R_AACGLYDH
114	71	890	-1	M_glcn__91__e__93__	R_AACOAT
115	71	891	+1	M_glcn__91__e__93__	R_AACPS7
116	70	892	-1	M_glc_D__91__e__93__	R_AB6PGH
117	70	893	-1	M_glc_D__91__e__93__	R_AB6PGH2
118	72	900	-1	M_gln_L__91__e__93__	R_ABTAr
119	72	901	-1	M_gln_L__91__e__93__	R_ABTOXy
120	72	902	+1	M_gln_L__91__e__93__	R_ABUTD
121	72	903	-1	M_gln_L__91__e__93__	R_ABUTR
122	115	903	-1	M_na1__91__e__93__	R_ABUTR
123	73	920	-1	M_glu_L__91__e__93__	R_AC2DHOR
124	73	921	+1	M_glu_L__91__e__93__	R_ACACCTr
125	75	927	-1	M_glyasn__91__e__93__	R_ACACT1r
126	76	930	-1	M_glyasp__91__e__93__	R_ACACT2r
127	77	933	-1	M_glyb__91__e__93__	R_ACACT3r
128	77	934	-1	M_glyb__91__e__93__	R_ACACT4r
129	77	935	+1	M_glyb__91__e__93__	R_ACACT5r
130	78	936	-1	M_glyc3p__91__e__93__	R_ACACT6r
131	78	937	-1	M_glyc3p__91__e__93__	R_ACACT7r
132	78	938	+1	M_glyc3p__91__e__93__	R_ACACt2
133	80	946	-1	M_glycys__91__e__93__	R_ACALD
134	79	947	+1	M_glyc__91__e__93__	R_ACALDt
135	79	948	-1	M_glyc__91__e__93__	R_ACBIPGT
136	81	955	-1	M_glygln__91__e__93__	R_ACCOACL
137	82	958	-1	M_glyglu__91__e__93__	R_ACCOAL
138	83	962	-1	M_glyleu__91__e__93__	R_ACCOALYS2
139	84	965	-1	M_glymet__91__e__93__	R_ACGAMK
140	85	971	-1	M_glyphe__91__e__93__	R_ACGAMPM
141	86	974	-1	M_glypro__91__e__93__	R_ACGAMT
142	87	977	-1	M_glytyr__91__e__93__	R_ACGAMtr2
143	74	978	-1	M_gly__91__e__93__	R_ACGApts
144	74	979	+1	M_gly__91__e__93__	R_ACGK
145	88	996	-1	M_gua__91__e__93__	R_ACGS
146	89	1002	-1	M_h2s__91__e__93__	R_ACHBPL
147	89	1003	+1	M_h2s__91__e__93__	R_ACKr
148	125	1027	-1	M_pheme__91__e__93__	R_ACLDC
149	90	1036	+1	M_hg2__91__e__93__	R_ACLS_a
150	91	1045	-1	M_his_L__91__e__93__	R_ACLS_b
151	91	1046	+1	M_his_L__91__e__93__	R_ACNAMS
152	95	1051	-1	M_k__91__e__93__	R_ACOAAGPAT140
153	92	1071	-1	M_hxan__91__e__93__	R_ACOAAGPAT160
154	93	1094	-1	M_ile_L__91__e__93__	R_ACOAAGPAT180
155	93	1095	-1	M_ile_L__91__e__93__	R_ACOAAGPATAI15
156	93	1096	+1	M_ile_L__91__e__93__	R_ACOAAGPATAI17
157	94	1102	-1	M_ins__91__e__93__	R_ACOAAGPATI14
158	94	1103	+1	M_ins__91__e__93__	R_ACOAAGPATI15
159	95	1133	-1	M_k__91__e__93__	R_ACOAAGPATI16
160	95	1134	+1	M_k__91__e__93__	R_ACOAAGPATI17
161	95	1135	+1	M_k__91__e__93__	R_ACOAD1
162	98	1147	-1	M_leu_L__91__e__93__	R_ACOAD20
163	98	1148	-1	M_leu_L__91__e__93__	R_ACOADH2
164	98	1149	+1	M_leu_L__91__e__93__	R_ACOATA
165	7	1151	-1	M_Lkynr__91__e__93__	R_ACOCT
166	7	1152	+1	M_Lkynr__91__e__93__	R_ACODAr
167	99	1207	-1	M_lys_L__91__e__93__	R_ACONT
168	99	1208	+1	M_lys_L__91__e__93__	R_ACONTa
169	99	1209	+1	M_lys_L__91__e__93__	R_ACONTb
170	97	1216	-1	M_lac_L__91__e__93__	R_ACOTA
171	97	1217	+1	M_lac_L__91__e__93__	R_ACPS1
172	102	1231	-1	M_malthx__91__e__93__	R_ACS
173	103	1232	-1	M_malttr__91__e__93__	R_ACTNDH
174	101	1233	-1	M_malt__91__e__93__	R_ACtr
175	101	1234	-1	M_malt__91__e__93__	R_ADCL
176	100	1235	-1	M_mal_L__91__e__93__	R_ADCPS1
177	100	1236	+1	M_mal_L__91__e__93__	R_ADCPS2
178	104	1242	-1	M_man__91__e__93__	R_ADCS
179	107	1269	-1	M_metala__91__e__93__	R_ADCYRS
180	105	1272	-1	M_met_D__91__e__93__	R_ADD
181	109	1277	-1	M_metsox_S_L__91__e__93__	R_ADK1
182	108	1278	-1	M_metsox_R_L__91__e__93__	R_ADK10
183	106	1281	-1	M_met_L__91__e__93__	R_ADK11
184	106	1282	-1	M_met_L__91__e__93__	R_ADK2
185	106	1283	+1	M_met_L__91__e__93__	R_ADK3
186	110	1285	-1	M_mg2__91__e__93__	R_ADK5
187	110	1289	+1	M_mg2__91__e__93__	R_ADK7
188	110	1290	-1	M_mg2__91__e__93__	R_ADK8
189	114	1295	-1	M_mqn7__91__e__93__	R_ADK9
190	112	1305	-1	M_mnl__91__e__93__	R_ADMDCr
191	111	1306	-1	M_mn2__91__e__93__	R_ADNCNT3tc
192	113	1307	-1	M_mobd__91__e__93__	R_ADNCYC
193	116	1321	+1	M_nac__91__e__93__	R_ADNK1
194	116	1322	-1	M_nac__91__e__93__	R_ADNUC
195	115	1332	+1	M_na1__91__e__93__	R_ADOCBIK
196	115	1333	-1	M_na1__91__e__93__	R_ADOCBIK2
197	117	1352	-1	M_nh4__91__e__93__	R_ADOCBLS
198	117	1353	+1	M_nh4__91__e__93__	R_ADOCBLabc
199	118	1355	-1	M_nmn__91__e__93__	R_ADPRDP
200	119	1361	-1	M_no2__91__e__93__	R_ADPT
201	119	1362	+1	M_no2__91__e__93__	R_ADSELK
202	120	1365	-1	M_no3__91__e__93__	R_ADSK
203	121	1392	-1	M_o2__91__e__93__	R_ADSL1r
204	121	1393	+1	M_o2__91__e__93__	R_ADSL2r
205	123	1434	+1	M_pb__91__e__93__	R_ADSS
206	124	1484	-1	M_phe_L__91__e__93__	R_ADXFTSNT
207	124	1485	+1	M_phe_L__91__e__93__	R_AEPPT
208	126	1487	-1	M_pi__91__e__93__	R_AGDC
209	126	1488	-1	M_pi__91__e__93__	R_AGMT
210	126	1489	+1	M_pi__91__e__93__	R_AGPAT120
211	115	1490	-3	M_na1__91__e__93__	R_AGPAT140
212	126	1490	-1	M_pi__91__e__93__	R_AGPAT140
213	127	1506	+1	M_ppa__91__e__93__	R_AGPAT141
214	127	1507	-1	M_ppa__91__e__93__	R_AGPAT160
215	127	1508	+1	M_ppa__91__e__93__	R_AGPAT161
216	127	1509	-1	M_ppa__91__e__93__	R_AGPAT180
217	128	1515	+1	M_ppi__91__e__93__	R_AGPAT181
218	129	1524	-1	M_pppn__91__e__93__	R_AGPR
219	129	1525	+1	M_pppn__91__e__93__	R_AGTi
220	130	1547	-1	M_pro_L__91__e__93__	R_AHC
221	130	1548	+1	M_pro_L__91__e__93__	R_AHCYSNS_r
222	131	1600	-1	M_pydam__91__e__93__	R_AHEXASE3
223	133	1603	-1	M_pydxn__91__e__93__	R_AHMMPS
224	132	1604	-1	M_pydx__91__e__93__	R_AHSERL2
225	134	1631	+1	M_rib_D__91__e__93__	R_AHSERL3
226	134	1632	-1	M_rib_D__91__e__93__	R_AICART
227	135	1645	-1	M_salcn__91__e__93__	R_AIHDUDPMG
228	136	1649	-1	M_sbt_D__91__e__93__	R_AIHDUPDG
229	138	1656	-1	M_ser_L__91__e__93__	R_AIHPDCOATA
230	138	1657	+1	M_ser_L__91__e__93__	R_AIPDCOATA
231	139	1660	-1	M_sheme__91__e__93__	R_AIRC4
232	140	1671	-1	M_so4__91__e__93__	R_AKGt2r
233	140	1672	+1	M_so4__91__e__93__	R_AKP1
234	141	1683	-1	M_succ__91__e__93__	R_ALAALA
235	141	1684	+1	M_succ__91__e__93__	R_ALAASP1c
236	142	1694	-1	M_sucr__91__e__93__	R_ALAASPabc
237	140	1699	-1	M_so4__91__e__93__	R_ALACI
238	145	1753	-1	M_thymd__91__e__93__	R_ALAD_R
239	145	1754	+1	M_thymd__91__e__93__	R_ALAGLN1c
240	143	1755	-1	M_thm__91__e__93__	R_ALAGLNabc
241	143	1756	+1	M_thm__91__e__93__	R_ALAGLU1c
242	144	1763	-1	M_thr_L__91__e__93__	R_ALAGLUabc
243	144	1764	+1	M_thr_L__91__e__93__	R_ALAGLY1c
244	146	1783	-1	M_tre__91__e__93__	R_ALAGLYabc
245	147	1796	-1	M_tsul__91__e__93__	R_ALAHIS1c
246	148	1797	-1	M_tym__91__e__93__	R_ALAHISabc
247	148	1798	+1	M_tym__91__e__93__	R_ALALEU1c
248	149	1802	-1	M_tyr_L__91__e__93__	R_ALALEUabc
249	149	1803	+1	M_tyr_L__91__e__93__	R_ALAPGPL
250	150	1837	-1	M_ura__91__e__93__	R_ALAR
251	151	1856	-1	M_uri__91__e__93__	R_ALATA_D
252	151	1857	+1	M_uri__91__e__93__	R_ALATA_L
253	152	1862	-1	M_val_L__91__e__93__	R_ALATHR1c
254	152	1863	-1	M_val_L__91__e__93__	R_ALATHRabc
255	152	1864	+1	M_val_L__91__e__93__	R_ALAt2r
256	153	1865	-1	M_xan__91__e__93__	R_ALCD19
257	95	1874	-1	M_k__91__e__93__	R_ALCD2x
258	154	1874	+1	M_zn2__91__e__93__	R_ALCD2x
259	95	1875	+1	M_k__91__e__93__	R_ALCD4
260	154	1875	-1	M_zn2__91__e__93__	R_ALCD4
261	154	1876	-1	M_zn2__91__e__93__	R_ALDD2x
262	43	1916	-1	M_cit__91__e__93__	R_ALKP
263	43	1917	+1	M_cit__91__e__93__	R_ALLTNt2r
264	73	1918	-1	M_glu_L__91__e__93__	R_ALPHNH
265	115	1918	-1	M_na1__91__e__93__	R_ALPHNH
266	28	1922	-1	M_arg_L__91__e__93__	R_AMANAPEr
267	122	1922	+1	M_orn__91__e__93__	R_AMANAPEr
268	28	1923	+1	M_arg_L__91__e__93__	R_AMANK
269	122	1923	-1	M_orn__91__e__93__	R_AMANK
270	44	1924	-1	M_cl__91__e__93__	R_AMAOTr
271	44	1925	+1	M_cl__91__e__93__	R_AMMQLT8
