	metabolite_index	reaction_index	stoichiometry	metabolite_id	reaction_id
1	0	9	-1	M_26dap_M__91__e__93__	R_23DHMPO
2	0	10	+1	M_26dap_M__91__e__93__	R_23PDE2
3	1	15	-1	M_2dmmq8__91__e__93__	R_23PDE4
4	2	18	-1	M_2obut__91__e__93__	R_23PDE7
5	2	19	+1	M_2obut__91__e__93__	R_23PDE9
6	6	124	-1	M_acald__91__e__93__	R_26DAPLLAT
7	6	125	+1	M_acald__91__e__93__	R_26DAPt2r
8	7	132	-1	M_acgam__91__e__93__	R_2AHBUTI
9	5	159	-1	M_ac__91__e__93__	R_2DHPL
10	5	160	+1	M_ac__91__e__93__	R_2DMMQ8abc
11	8	163	-1	M_ade__91__e__93__	R_2MBCOATA
12	8	164	+1	M_ade__91__e__93__	R_2OBUTt2r
13	9	183	-1	M_adn__91__e__93__	R_3HAD10M12
14	9	184	+1	M_adn__91__e__93__	R_3HAD11M12
15	10	190	-1	M_adocbl__91__e__93__	R_3HAD12M14
16	12	227	-1	M_alaasp__91__e__93__	R_3HAD13M14
17	13	234	-1	M_alagln__91__e__93__	R_3HAD14M16
18	14	237	-1	M_alaglu__91__e__93__	R_3HAD15M16
19	15	240	-1	M_alagly__91__e__93__	R_3HAD4M6
20	16	243	-1	M_alahis__91__e__93__	R_3HAD5M6
21	17	246	-1	M_alaleu__91__e__93__	R_3HAD6M8
22	18	251	-1	M_alathr__91__e__93__	R_3HAD7M8
23	11	252	-1	M_ala_L__91__e__93__	R_3HAD8M10
24	11	253	+1	M_ala_L__91__e__93__	R_3HAD9M10
25	20	269	-1	M_arbt__91__e__93__	R_3MOBS
26	19	270	-1	M_arab_L__91__e__93__	R_3OAR100
27	19	271	+1	M_arab_L__91__e__93__	R_3OAR10M11
28	21	280	-1	M_asn_L__91__e__93__	R_3OAR10M12
29	21	281	+1	M_asn_L__91__e__93__	R_3OAR11M12
30	22	292	-1	M_asp_L__91__e__93__	R_3OAR120
31	22	293	+1	M_asp_L__91__e__93__	R_3OAR12M13
32	23	304	-1	M_ca2__91__e__93__	R_3OAR12M14
33	24	307	-1	M_cbl1__91__e__93__	R_3OAR13M14
34	25	308	-1	M_cbl2__91__e__93__	R_3OAR140
35	26	310	+1	M_cd2__91__e__93__	R_3OAR14M15
36	78	311	-1	M_k__91__e__93__	R_3OAR14M16
37	26	311	+1	M_cd2__91__e__93__	R_3OAR14M16
38	78	312	+1	M_k__91__e__93__	R_3OAR15M16
39	26	312	-1	M_cd2__91__e__93__	R_3OAR15M16
40	27	321	-1	M_cgly__91__e__93__	R_3OAR160
41	30	348	-1	M_co2__91__e__93__	R_3OAR180
42	30	349	+1	M_co2__91__e__93__	R_3OAR40
43	31	350	+1	M_cobalt2__91__e__93__	R_3OAR4M5
44	31	351	-1	M_cobalt2__91__e__93__	R_3OAR4M6
45	32	354	+1	M_cro4__91__e__93__	R_3OAR5M6
46	32	355	-1	M_cro4__91__e__93__	R_3OAR60
47	33	356	-1	M_csn__91__e__93__	R_3OAR6M7
48	33	357	+1	M_csn__91__e__93__	R_3OAR6M8
49	35	368	-1	M_cys_L__91__e__93__	R_3OAR7M8
50	35	369	+1	M_cys_L__91__e__93__	R_3OAR80
51	36	377	-1	M_cytd__91__e__93__	R_3OAR8M10
52	36	378	+1	M_cytd__91__e__93__	R_3OAR8M9
53	34	383	-1	M_cu2__91__e__93__	R_3OAR9M10
54	34	384	+1	M_cu2__91__e__93__	R_3OAS100
55	37	386	-1	M_dad_2__91__e__93__	R_3OAS10M11
56	37	387	+1	M_dad_2__91__e__93__	R_3OAS10M12
57	38	411	-1	M_dcyt__91__e__93__	R_3OAS11M12
58	38	412	+1	M_dcyt__91__e__93__	R_3OAS120
59	40	418	-1	M_dgsn__91__e__93__	R_3OAS12M13
60	41	444	-1	M_din__91__e__93__	R_3OAS12M14
61	42	466	-1	M_duri__91__e__93__	R_3OAS13M14
62	79	472	-1	M_lac_D__91__e__93__	R_3OAS140
63	79	473	+1	M_lac_D__91__e__93__	R_3OAS160
64	43	540	-1	M_fe2__91__e__93__	R_3OAS180
65	44	541	-1	M_fe3__91__e__93__	R_3OAS2M3
66	45	546	-1	M_fol__91__e__93__	R_3OAS3M4
67	45	547	+1	M_fol__91__e__93__	R_3OAS4M3O6
68	46	550	-1	M_for__91__e__93__	R_3OAS4M5
69	46	551	+1	M_for__91__e__93__	R_3OAS4M6
70	47	560	-1	M_fru__91__e__93__	R_3OAS5M6
71	49	603	-1	M_galt__91__e__93__	R_3OAS60
72	50	606	+1	M_galur__91__e__93__	R_3OAS6M7
73	50	607	-1	M_galur__91__e__93__	R_3OAS6M8
74	48	608	-1	M_gal__91__e__93__	R_3OAS7M8
75	48	609	+1	M_gal__91__e__93__	R_3OAS80
76	51	610	-1	M_gam__91__e__93__	R_3OAS8M10
77	52	616	-1	M_gcald__91__e__93__	R_3OAS8M9
78	52	617	+1	M_gcald__91__e__93__	R_3OAS9M10
79	55	638	-1	M_glcur__91__e__93__	R_4HBZCL
80	55	639	+1	M_glcur__91__e__93__	R_4HTHRS
81	54	640	-1	M_glc_D__91__e__93__	R_4NTPPH2
82	54	641	-1	M_glc_D__91__e__93__	R_5AIZCDC
83	56	643	-1	M_gln_L__91__e__93__	R_6P3HXI
84	56	644	+1	M_gln_L__91__e__93__	R_A5PISO
85	57	646	-1	M_glu_L__91__e__93__	R_AACOAT
86	3	646	+1	M_4abut__91__e__93__	R_AACOAT
87	57	647	+1	M_glu_L__91__e__93__	R_AACPS6
88	3	647	-1	M_4abut__91__e__93__	R_AACPS6
89	57	661	-1	M_glu_L__91__e__93__	R_AACPS7
90	57	662	+1	M_glu_L__91__e__93__	R_ABUTD
91	59	665	-1	M_glyasn__91__e__93__	R_ACALDt
92	60	668	-1	M_glyasp__91__e__93__	R_ACBIPGT
93	61	671	-1	M_glyc3p__91__e__93__	R_ACCOALYS2
94	61	672	+1	M_glyc3p__91__e__93__	R_ACGAM2E
95	63	674	-1	M_glycys__91__e__93__	R_ACGAMH
96	62	675	+1	M_glyc__91__e__93__	R_ACGAMT
97	62	676	-1	M_glyc__91__e__93__	R_ACGApts
98	64	679	-1	M_glygln__91__e__93__	R_ACGK
99	65	682	-1	M_glyglu__91__e__93__	R_ACGS
100	66	685	-1	M_glyleu__91__e__93__	R_ACHBPL
101	67	688	-1	M_glymet__91__e__93__	R_ACKr
102	68	692	-1	M_glyphe__91__e__93__	R_ACLS_a
103	69	695	-1	M_glypro__91__e__93__	R_ACLS_b
104	70	698	-1	M_glytyr__91__e__93__	R_ACOAAGPAT140
105	58	699	-1	M_gly__91__e__93__	R_ACOAAGPAT160
106	58	700	+1	M_gly__91__e__93__	R_ACOAAGPAT180
107	71	710	-1	M_gsn__91__e__93__	R_ACOAAGPATAI15
108	71	711	+1	M_gsn__91__e__93__	R_ACOAAGPATAI17
109	72	717	-1	M_gua__91__e__93__	R_ACOAAGPATI14
110	72	718	+1	M_gua__91__e__93__	R_ACOAAGPATI15
111	72	719	-1	M_gua__91__e__93__	R_ACOAAGPATI16
112	73	724	-1	M_hdca__91__e__93__	R_ACOAAGPATI17
113	100	727	-1	M_pheme__91__e__93__	R_ACOATA
114	74	739	+1	M_hg2__91__e__93__	R_ACOCT
115	75	746	-1	M_his_L__91__e__93__	R_ACODAr
116	75	747	+1	M_his_L__91__e__93__	R_ACOTA
117	76	775	-1	M_indole__91__e__93__	R_ACPS1
118	76	776	+1	M_indole__91__e__93__	R_ACt2r
119	77	778	-1	M_ins__91__e__93__	R_ADAD
120	77	779	+1	M_ins__91__e__93__	R_ADEt2r
121	78	809	-1	M_k__91__e__93__	R_ADK1
122	78	810	+1	M_k__91__e__93__	R_ADK10
123	78	811	+1	M_k__91__e__93__	R_ADK11
124	80	822	-1	M_leu_L__91__e__93__	R_ADK2
125	80	823	+1	M_leu_L__91__e__93__	R_ADK3
126	81	828	+1	M_lys_L__91__e__93__	R_ADK5
127	81	829	-1	M_lys_L__91__e__93__	R_ADK7
128	82	839	-1	M_malt__91__e__93__	R_ADK8
129	84	845	-1	M_mantr__91__e__93__	R_ADK9
130	83	846	-1	M_man__91__e__93__	R_ADNCNT3tc
131	86	859	-1	M_metala__91__e__93__	R_ADNK1
132	85	866	-1	M_met_L__91__e__93__	R_ADNUC
133	85	867	+1	M_met_L__91__e__93__	R_ADOCBIK
134	87	869	-1	M_mg2__91__e__93__	R_ADOCBIK2
135	87	871	+1	M_mg2__91__e__93__	R_ADOCBLS
136	87	872	-1	M_mg2__91__e__93__	R_ADOCBLabc
137	90	878	+1	M_mqn8__91__e__93__	R_ADPRDP
138	90	879	-1	M_mqn8__91__e__93__	R_ADSL1r
139	89	889	-1	M_mnl__91__e__93__	R_ADSL2r
140	88	890	-1	M_mn2__91__e__93__	R_ADSS
141	92	902	+1	M_nac__91__e__93__	R_AGMHE
142	92	903	-1	M_nac__91__e__93__	R_AGMT
143	91	910	+1	M_na1__91__e__93__	R_AGPAT120
144	91	911	-1	M_na1__91__e__93__	R_AGPAT140
145	93	931	-1	M_nh4__91__e__93__	R_AGPAT141
146	93	932	+1	M_nh4__91__e__93__	R_AGPAT160
147	94	956	-1	M_o2__91__e__93__	R_AGPAT161
148	94	957	+1	M_o2__91__e__93__	R_AGPAT180
149	95	963	-1	M_ocdca__91__e__93__	R_AGPAT181
150	96	964	-1	M_ocdcea__91__e__93__	R_AGPR
151	96	965	+1	M_ocdcea__91__e__93__	R_AHC
152	97	986	-1	M_orn__91__e__93__	R_AHCYSNS
153	97	987	+1	M_orn__91__e__93__	R_AHEXASE3
154	98	997	+1	M_pb__91__e__93__	R_AHSERL2
155	99	1034	-1	M_phe_L__91__e__93__	R_AHSERL3
156	99	1035	+1	M_phe_L__91__e__93__	R_AICART
157	101	1038	-1	M_pi__91__e__93__	R_AIHPDCOATA
158	101	1039	-1	M_pi__91__e__93__	R_AIPDCOATA
159	101	1040	+1	M_pi__91__e__93__	R_AIRC4
160	102	1054	+1	M_ppa__91__e__93__	R_AKP1
161	103	1061	+1	M_ppi__91__e__93__	R_ALAALA
162	104	1081	-1	M_pro_L__91__e__93__	R_ALAASP1c
163	104	1082	+1	M_pro_L__91__e__93__	R_ALAASPabc
164	105	1134	-1	M_pydam__91__e__93__	R_ALACI
165	107	1137	-1	M_pydxn__91__e__93__	R_ALAD_R
166	106	1138	-1	M_pydx__91__e__93__	R_ALAGLN1c
167	108	1142	-1	M_q8__91__e__93__	R_ALAGLNabc
168	109	1158	-1	M_rmn__91__e__93__	R_ALAGLU1c
169	109	1159	+1	M_rmn__91__e__93__	R_ALAGLUabc
170	110	1172	-1	M_salcn__91__e__93__	R_ALAGLY1c
171	111	1173	-1	M_sbt_D__91__e__93__	R_ALAGLYabc
172	112	1175	-1	M_ser_L__91__e__93__	R_ALAHIS1c
173	112	1176	+1	M_ser_L__91__e__93__	R_ALAHISabc
174	113	1178	-1	M_sheme__91__e__93__	R_ALALEU1c
175	114	1183	-1	M_so4__91__e__93__	R_ALALEUabc
176	114	1184	+1	M_so4__91__e__93__	R_ALAR
177	115	1185	-1	M_spmd__91__e__93__	R_ALATHR1c
178	116	1192	-1	M_stys__91__e__93__	R_ALATHRabc
179	117	1194	-1	M_succ__91__e__93__	R_ALAt2r
180	117	1195	+1	M_succ__91__e__93__	R_ALCD4
181	118	1204	-1	M_sucr__91__e__93__	R_ALKP
182	124	1254	-1	M_thymd__91__e__93__	R_AMALT1
183	124	1255	+1	M_thymd__91__e__93__	R_AMALT2
184	122	1256	-1	M_thm__91__e__93__	R_AMALT3
185	123	1260	-1	M_thr_L__91__e__93__	R_AMALT4
186	123	1261	+1	M_thr_L__91__e__93__	R_AMOPBHL
187	125	1281	-1	M_tre__91__e__93__	R_AMPTASECG
188	126	1285	-1	M_trp_L__91__e__93__	R_AMPTASEGC
189	126	1286	+1	M_trp_L__91__e__93__	R_APAT
190	127	1287	-1	M_ttdca__91__e__93__	R_APRAUR
191	128	1290	-1	M_tyr_L__91__e__93__	R_ARAI
192	128	1291	+1	M_tyr_L__91__e__93__	R_ARBTpts
193	129	1317	-1	M_ura__91__e__93__	R_ARBt2r
194	130	1320	-1	M_urea__91__e__93__	R_ARGDC
195	130	1321	+1	M_urea__91__e__93__	R_ARGSL
196	131	1338	-1	M_uri__91__e__93__	R_ARGSSr
197	131	1339	+1	M_uri__91__e__93__	R_ASAD
198	132	1345	-1	M_val_L__91__e__93__	R_ASNS1
199	132	1346	+1	M_val_L__91__e__93__	R_ASNt2r
200	133	1355	-1	M_xyl_D__91__e__93__	R_ASP1DC
201	133	1356	+1	M_xyl_D__91__e__93__	R_ASPCT
202	78	1359	-1	M_k__91__e__93__	R_ASPKi
203	134	1359	+1	M_zn2__91__e__93__	R_ASPKi
204	78	1360	+1	M_k__91__e__93__	R_ASPO1
205	134	1360	-1	M_zn2__91__e__93__	R_ASPO1
206	134	1361	-1	M_zn2__91__e__93__	R_ASPO5
207	57	1380	-1	M_glu_L__91__e__93__	R_ASPO6
208	91	1380	-1	M_na1__91__e__93__	R_ASPO6
209	29	1383	-1	M_cl__91__e__93__	R_ASPO7
210	29	1384	+1	M_cl__91__e__93__	R_ASPT
