	metabolite_index	reaction_index	stoichiometry	metabolite_id	reaction_id
1	0	143	-1	M_acac__91__e__93__	R_23DHMPO
2	0	144	+1	M_acac__91__e__93__	R_23PDE2
3	1	191	-1	M_adn__91__e__93__	R_23PDE4
4	1	192	+1	M_adn__91__e__93__	R_23PDE7
5	2	217	-1	M_akg__91__e__93__	R_23PDE9
6	2	218	+1	M_akg__91__e__93__	R_2AHBUTI
7	4	223	-1	M_alaasp__91__e__93__	R_2HMCOXT
8	5	229	-1	M_alagln__91__e__93__	R_2MBCOATA
9	6	232	-1	M_alaglu__91__e__93__	R_3HACPR1
10	7	235	-1	M_alagly__91__e__93__	R_3HACPR2
11	8	238	-1	M_alahis__91__e__93__	R_3HAD100
12	9	241	-1	M_alaleu__91__e__93__	R_3HAD10M11
13	10	246	-1	M_alathr__91__e__93__	R_3HAD10M12
14	3	247	-1	M_ala_L__91__e__93__	R_3HAD11M12
15	3	248	+1	M_ala_L__91__e__93__	R_3HAD120
16	11	287	-1	M_arg_L__91__e__93__	R_3HAD12M13
17	11	288	+1	M_arg_L__91__e__93__	R_3HAD12M14
18	12	293	-1	M_asn_L__91__e__93__	R_3HAD13M14
19	12	294	+1	M_asn_L__91__e__93__	R_3HAD140
20	13	303	-1	M_asp_L__91__e__93__	R_3HAD14M15
21	13	304	+1	M_asp_L__91__e__93__	R_3HAD14M16
22	14	311	-1	M_btn__91__e__93__	R_3HAD15M16
23	15	313	-1	M_but__91__e__93__	R_3HAD160
24	16	315	-1	M_ca2__91__e__93__	R_3HAD180
25	17	320	+1	M_cd2__91__e__93__	R_3HAD40
26	18	331	-1	M_cgly__91__e__93__	R_3HAD4M5
27	20	353	-1	M_co2__91__e__93__	R_3HAD4M6
28	20	354	+1	M_co2__91__e__93__	R_3HAD5M6
29	21	355	+1	M_cobalt2__91__e__93__	R_3HAD60
30	21	356	-1	M_cobalt2__91__e__93__	R_3HAD6M7
31	23	369	-1	M_cys_L__91__e__93__	R_3HAD6M8
32	23	370	+1	M_cys_L__91__e__93__	R_3HAD7M8
33	24	373	-1	M_cytd__91__e__93__	R_3HAD80
34	24	374	+1	M_cytd__91__e__93__	R_3HAD8M10
35	22	377	-1	M_cu2__91__e__93__	R_3HAD8M9
36	22	378	+1	M_cu2__91__e__93__	R_3HAD9M10
37	25	380	-1	M_dad_2__91__e__93__	R_3OAACPR1
38	25	381	+1	M_dad_2__91__e__93__	R_3OAACPR2
39	26	409	-1	M_dcyt__91__e__93__	R_3OAR100
40	26	410	+1	M_dcyt__91__e__93__	R_3OAR10M11
41	27	411	-1	M_ddca__91__e__93__	R_3OAR10M12
42	27	412	+1	M_ddca__91__e__93__	R_3OAR11M12
43	28	418	-1	M_dgsn__91__e__93__	R_3OAR120
44	29	440	-1	M_din__91__e__93__	R_3OAR12M13
45	30	460	-1	M_duri__91__e__93__	R_3OAR12M14
46	31	512	-1	M_fe2__91__e__93__	R_3OAR13M14
47	32	513	-1	M_fe3__91__e__93__	R_3OAR140
48	33	517	-1	M_for__91__e__93__	R_3OAR14M15
49	33	518	+1	M_for__91__e__93__	R_3OAR14M16
50	34	531	-1	M_fum__91__e__93__	R_3OAR15M16
51	34	532	+1	M_fum__91__e__93__	R_3OAR160
52	35	565	-1	M_gal__91__e__93__	R_3OAR180
53	35	566	+1	M_gal__91__e__93__	R_3OAR40
54	36	571	-1	M_gcald__91__e__93__	R_3OAR4M5
55	36	572	+1	M_gcald__91__e__93__	R_3OAR4M6
56	37	582	-1	M_glc_D__91__e__93__	R_3OAR5M6
57	38	582	+1	M_glcn__91__e__93__	R_3OAR5M6
58	38	583	-1	M_glcn__91__e__93__	R_3OAR60
59	38	584	+1	M_glcn__91__e__93__	R_3OAR6M7
60	37	585	-1	M_glc_D__91__e__93__	R_3OAR6M8
61	39	590	-1	M_gln_L__91__e__93__	R_3OAR7M8
62	39	591	+1	M_gln_L__91__e__93__	R_3OAR80
63	40	599	-1	M_glu_L__91__e__93__	R_3OAR8M10
64	72	599	-1	M_na1__91__e__93__	R_3OAR8M10
65	40	600	+1	M_glu_L__91__e__93__	R_3OAR8M9
66	72	600	+1	M_na1__91__e__93__	R_3OAR8M9
67	42	604	-1	M_glyasn__91__e__93__	R_3OAR9M10
68	43	607	-1	M_glyasp__91__e__93__	R_3OAS100
69	44	608	-1	M_glyb__91__e__93__	R_3OAS10M11
70	45	611	-1	M_glycys__91__e__93__	R_3OAS10M12
71	46	614	-1	M_glygln__91__e__93__	R_3OAS11M12
72	47	617	-1	M_glyglu__91__e__93__	R_3OAS120
73	48	620	-1	M_glyleu__91__e__93__	R_3OAS12M13
74	49	623	-1	M_glymet__91__e__93__	R_3OAS12M14
75	50	626	-1	M_glyphe__91__e__93__	R_3OAS13M14
76	51	629	-1	M_glypro__91__e__93__	R_3OAS140
77	52	632	-1	M_glytyr__91__e__93__	R_3OAS160
78	41	633	-1	M_gly__91__e__93__	R_3OAS180
79	41	634	+1	M_gly__91__e__93__	R_3OAS2M3
80	53	652	-1	M_hdca__91__e__93__	R_3OAS3M4
81	53	653	+1	M_hdca__91__e__93__	R_3OAS4M3O6
82	54	663	+1	M_hg2__91__e__93__	R_3OAS4M5
83	55	664	-1	M_his_L__91__e__93__	R_3OAS4M6
84	55	665	+1	M_his_L__91__e__93__	R_3OAS5M6
85	56	675	-1	M_hxan__91__e__93__	R_3OAS60
86	57	692	-1	M_ile_L__91__e__93__	R_3OAS6M7
87	57	693	+1	M_ile_L__91__e__93__	R_3OAS6M8
88	58	697	-1	M_ind3ac__91__e__93__	R_3OAS7M8
89	58	698	+1	M_ind3ac__91__e__93__	R_3OAS80
90	59	700	-1	M_ins__91__e__93__	R_3OAS8M10
91	59	701	+1	M_ins__91__e__93__	R_3OAS8M9
92	60	723	-1	M_k__91__e__93__	R_3OAS9M10
93	60	724	+1	M_k__91__e__93__	R_4HTHRS
94	62	728	-1	M_leu_L__91__e__93__	R_5DOAN
95	62	729	+1	M_leu_L__91__e__93__	R_5GLUP5T1
96	63	732	-1	M_lys_L__91__e__93__	R_5GLUP5T2
97	63	733	+1	M_lys_L__91__e__93__	R_A5PISO
98	63	734	+1	M_lys_L__91__e__93__	R_AACPS7
99	61	735	-1	M_lac_L__91__e__93__	R_AADSACYCL
100	61	736	+1	M_lac_L__91__e__93__	R_ACACT1r
101	64	742	-1	M_mal_L__91__e__93__	R_ACACT2r
102	72	742	-1	M_na1__91__e__93__	R_ACACT2r
103	64	743	+1	M_mal_L__91__e__93__	R_ACACT3r
104	72	743	+1	M_na1__91__e__93__	R_ACACT3r
105	64	744	-1	M_mal_L__91__e__93__	R_ACACT4r
106	67	757	-1	M_metala__91__e__93__	R_ACACT5r
107	65	759	-1	M_met_D__91__e__93__	R_ACACT6r
108	69	760	-1	M_metsox_S_L__91__e__93__	R_ACACT7r
109	68	761	-1	M_metsox_R_L__91__e__93__	R_ACACt2
110	66	764	-1	M_met_L__91__e__93__	R_ACCOAC
111	70	765	-1	M_mg2__91__e__93__	R_ACCOACL
112	70	766	+1	M_mg2__91__e__93__	R_ACCOAL
113	70	767	-1	M_mg2__91__e__93__	R_ACGAMT
114	71	768	-1	M_mn2__91__e__93__	R_ACKr
115	73	775	+1	M_nac__91__e__93__	R_ACOAAGPAT140
116	73	776	-1	M_nac__91__e__93__	R_ACOAAGPAT160
117	76	783	+1	M_no2__91__e__93__	R_ACOAAGPAT180
118	72	784	+1	M_na1__91__e__93__	R_ACOAAGPATAI15
119	74	804	-1	M_nh4__91__e__93__	R_ACOAAGPATAI17
120	74	805	+1	M_nh4__91__e__93__	R_ACOAAGPATI14
121	75	806	-1	M_ni2__91__e__93__	R_ACOAAGPATI15
122	77	821	-1	M_o2__91__e__93__	R_ACOAAGPATI16
123	77	822	+1	M_o2__91__e__93__	R_ACOAAGPATI17
124	78	825	-1	M_ocdca__91__e__93__	R_ACOATA
125	78	826	+1	M_ocdca__91__e__93__	R_ACOCT
126	79	839	-1	M_orn__91__e__93__	R_ACONT
127	79	840	+1	M_orn__91__e__93__	R_ACONTa
128	80	849	+1	M_pb__91__e__93__	R_ACONTb
129	81	897	-1	M_phe_L__91__e__93__	R_ACPS1
130	81	898	+1	M_phe_L__91__e__93__	R_ACS
131	83	903	-1	M_pime__91__e__93__	R_ADCL
132	83	904	+1	M_pime__91__e__93__	R_ADCS
133	82	905	-1	M_pi__91__e__93__	R_ADK1
134	82	906	+1	M_pi__91__e__93__	R_ADK10
135	84	967	+1	M_ppi__91__e__93__	R_ADK11
136	85	985	-1	M_pro_L__91__e__93__	R_ADK2
137	85	986	-1	M_pro_L__91__e__93__	R_ADK3
138	85	987	+1	M_pro_L__91__e__93__	R_ADK5
139	72	988	-1	M_na1__91__e__93__	R_ADK7
140	85	988	-1	M_pro_L__91__e__93__	R_ADK7
141	87	1042	-1	M_pydxn__91__e__93__	R_ADK8
142	87	1043	+1	M_pydxn__91__e__93__	R_ADK9
143	86	1044	-1	M_pydx__91__e__93__	R_ADNCNT3tc
144	86	1045	+1	M_pydx__91__e__93__	R_ADNK1
145	88	1046	-1	M_pyr__91__e__93__	R_ADPT
146	88	1047	+1	M_pyr__91__e__93__	R_ADSL1r
147	89	1061	-1	M_ribflv__91__e__93__	R_ADSL2r
148	89	1062	+1	M_ribflv__91__e__93__	R_ADSS
149	90	1077	-1	M_ser_L__91__e__93__	R_AGMD
150	90	1078	+1	M_ser_L__91__e__93__	R_AGMHE
151	91	1083	-1	M_so4__91__e__93__	R_AGPAT120
152	91	1084	+1	M_so4__91__e__93__	R_AGPAT140
153	92	1089	-1	M_succ__91__e__93__	R_AGPAT141
154	92	1090	+1	M_succ__91__e__93__	R_AGPAT160
155	95	1120	-1	M_thymd__91__e__93__	R_AGPAT161
156	95	1121	+1	M_thymd__91__e__93__	R_AGPAT180
157	93	1122	-1	M_thm__91__e__93__	R_AGPAT181
158	94	1124	-1	M_thr_L__91__e__93__	R_AHCYSNS
159	94	1125	+1	M_thr_L__91__e__93__	R_AICART
160	96	1146	-1	M_ttdca__91__e__93__	R_AIHPDCOATA
161	96	1147	+1	M_ttdca__91__e__93__	R_AIPDCOATA
162	97	1150	-1	M_tyr_L__91__e__93__	R_AIRC4
163	97	1151	+1	M_tyr_L__91__e__93__	R_AKGt2r
164	98	1177	-1	M_urea__91__e__93__	R_AKP1
165	98	1178	+1	M_urea__91__e__93__	R_ALAALA
166	99	1182	-1	M_uri__91__e__93__	R_ALAASP1c
167	99	1183	+1	M_uri__91__e__93__	R_ALAASPabc
168	100	1188	-1	M_val_L__91__e__93__	R_ALACI
169	100	1189	+1	M_val_L__91__e__93__	R_ALAD_L
170	101	1194	-1	M_zn2__91__e__93__	R_ALAGLN1c
171	19	1217	-1	M_cl__91__e__93__	R_ALAGLNabc
172	19	1218	+1	M_cl__91__e__93__	R_ALAGLU1c
