	metabolite_index	reaction_index	stoichiometry	metabolite_id	reaction_id
1	1	18	-1	M_2hyoxplac__91__e__93__	R_13DAMPPOX
2	1	19	+1	M_2hyoxplac__91__e__93__	R_1P4H2CBXLAH
3	2	32	-1	M_34dhphe__91__e__93__	R_23DHMPO
4	3	77	-1	M_3mop__91__e__93__	R_25DOPOX
5	3	78	+1	M_3mop__91__e__93__	R_25K5O2AI
6	4	161	-1	M_4abz__91__e__93__	R_2AHBUTI
7	5	164	-1	M_4hoxpacd__91__e__93__	R_2DHPL
8	5	165	+1	M_4hoxpacd__91__e__93__	R_2HBO
9	6	182	-1	M_5htrp__91__e__93__	R_2HMCOXT
10	9	213	-1	M_acac__91__e__93__	R_2HYOXPLACt2r
11	9	214	+1	M_acac__91__e__93__	R_2MBCOATA
12	10	217	-1	M_acald__91__e__93__	R_2MEBCOADH
13	10	218	+1	M_acald__91__e__93__	R_2MECOAOX
14	11	226	-1	M_acgam__91__e__93__	R_2OMMBOX
15	11	227	+1	M_acgam__91__e__93__	R_2OMPHH
16	11	228	-1	M_acgam__91__e__93__	R_34DCCBR
17	8	278	-1	M_ac__91__e__93__	R_34DHOXPEGOX
18	8	279	+1	M_ac__91__e__93__	R_34DHPHEt2
19	12	298	-1	M_adocbl__91__e__93__	R_34HPPOR
20	13	336	-1	M_akg__91__e__93__	R_3CARLPDH
21	13	337	+1	M_akg__91__e__93__	R_3HAD100
22	16	342	-1	M_alaasp__91__e__93__	R_3HAD10M11
23	17	347	-1	M_alagln__91__e__93__	R_3HAD10M12
24	18	350	-1	M_alaglu__91__e__93__	R_3HAD11M12
25	19	353	-1	M_alagly__91__e__93__	R_3HAD120
26	20	356	-1	M_alahis__91__e__93__	R_3HAD121
27	21	359	-1	M_alaleu__91__e__93__	R_3HAD12M13
28	22	366	-1	M_alathr__91__e__93__	R_3HAD12M14
29	15	367	-1	M_ala_L__91__e__93__	R_3HAD13M14
30	15	368	+1	M_ala_L__91__e__93__	R_3HAD140
31	23	378	-1	M_alltn__91__e__93__	R_3HAD141
32	23	379	+1	M_alltn__91__e__93__	R_3HAD14M15
33	24	414	-1	M_arbt__91__e__93__	R_3HAD14M16
34	25	420	-1	M_arg_L__91__e__93__	R_3HAD15M16
35	25	421	-1	M_arg_L__91__e__93__	R_3HAD160
36	26	425	-1	M_asn_L__91__e__93__	R_3HAD161
37	26	426	+1	M_asn_L__91__e__93__	R_3HAD180
38	27	427	-1	M_aso3__91__e__93__	R_3HAD181
39	27	428	+1	M_aso3__91__e__93__	R_3HAD40
40	28	429	-1	M_aso4__91__e__93__	R_3HAD4M5
41	28	430	+1	M_aso4__91__e__93__	R_3HAD4M6
42	29	440	-1	M_asp_L__91__e__93__	R_3HAD5M6
43	29	441	-1	M_asp_L__91__e__93__	R_3HAD60
44	29	442	+1	M_asp_L__91__e__93__	R_3HAD6M7
45	30	454	-1	M_bhb__91__e__93__	R_3HAD6M8
46	30	455	+1	M_bhb__91__e__93__	R_3HAD7M8
47	32	461	-1	M_butso3__91__e__93__	R_3HAD80
48	31	462	-1	M_but__91__e__93__	R_3HAD8M10
49	96	467	-1	M_lys_L__91__e__93__	R_3HAD8M9
50	0	467	+1	M_15dap__91__e__93__	R_3HAD8M9
51	96	468	+1	M_lys_L__91__e__93__	R_3HAD9M10
52	0	468	-1	M_15dap__91__e__93__	R_3HAD9M10
53	33	470	-1	M_ca2__91__e__93__	R_3HBCOAE
54	34	473	-1	M_cbl1__91__e__93__	R_3HBCOAHL
55	35	474	-1	M_cbl2__91__e__93__	R_3HLYTCL
56	36	478	+1	M_cd2__91__e__93__	R_3HPCOAHYD
57	92	479	-1	M_k__91__e__93__	R_3MEBCOADH
58	36	479	+1	M_cd2__91__e__93__	R_3MEBCOADH
59	92	480	+1	M_k__91__e__93__	R_3MOBDC2
60	36	480	-1	M_cd2__91__e__93__	R_3MOBDC2
61	37	487	-1	M_cgly__91__e__93__	R_3MOBS
62	38	488	-1	M_chol__91__e__93__	R_3MOPDC2
63	38	489	+1	M_chol__91__e__93__	R_3MOPt2r
64	41	514	-1	M_co2__91__e__93__	R_3OAR100
65	41	515	+1	M_co2__91__e__93__	R_3OAR10M11
66	42	516	+1	M_cobalt2__91__e__93__	R_3OAR10M12
67	42	517	-1	M_cobalt2__91__e__93__	R_3OAR11M12
68	43	531	-1	M_csn__91__e__93__	R_3OAR120
69	45	534	-1	M_cynt__91__e__93__	R_3OAR12M13
70	46	548	-1	M_cys_L__91__e__93__	R_3OAR12M14
71	46	549	+1	M_cys_L__91__e__93__	R_3OAR13M14
72	44	558	-1	M_cu2__91__e__93__	R_3OAR140
73	44	559	+1	M_cu2__91__e__93__	R_3OAR14M15
74	14	569	-1	M_ala_D__91__e__93__	R_3OAR14M16
75	14	570	+1	M_ala_D__91__e__93__	R_3OAR15M16
76	47	641	+1	M_dopa__91__e__93__	R_3OAR160
77	48	649	-1	M_drib__91__e__93__	R_3OAR180
78	139	652	-1	M_ser_D__91__e__93__	R_3OAR40
79	139	653	+1	M_ser_D__91__e__93__	R_3OAR4M5
80	93	662	-1	M_lac_D__91__e__93__	R_3OAR4M6
81	93	663	+1	M_lac_D__91__e__93__	R_3OAR5M6
82	49	721	-1	M_etha__91__e__93__	R_3OAR60
83	50	722	-1	M_ethso3__91__e__93__	R_3OAR6M7
84	51	723	-1	M_etoh__91__e__93__	R_3OAR6M8
85	51	724	+1	M_etoh__91__e__93__	R_3OAR7M8
86	52	771	-1	M_fe2__91__e__93__	R_3OAR80
87	53	772	-1	M_fe3__91__e__93__	R_3OAR8M10
88	54	773	-1	M_fecrm__91__e__93__	R_3OAR8M9
89	55	793	-1	M_fru__91__e__93__	R_3OAR9M10
90	56	799	-1	M_fum__91__e__93__	R_3OAS100
91	56	800	+1	M_fum__91__e__93__	R_3OAS10M11
92	57	842	-1	M_galt__91__e__93__	R_3OAS10M12
93	58	845	+1	M_galur__91__e__93__	R_3OAS11M12
94	58	846	-1	M_galur__91__e__93__	R_3OAS120
95	59	847	-1	M_gam__91__e__93__	R_3OAS121
96	60	855	-1	M_gcald__91__e__93__	R_3OAS12M13
97	60	856	+1	M_gcald__91__e__93__	R_3OAS12M14
98	61	873	-1	M_glc_D__91__e__93__	R_3OAS13M14
99	62	873	+1	M_glcn__91__e__93__	R_3OAS13M14
100	62	874	-1	M_glcn__91__e__93__	R_3OAS140
101	62	875	+1	M_glcn__91__e__93__	R_3OAS141
102	63	881	-1	M_glcur__91__e__93__	R_3OAS160
103	63	882	+1	M_glcur__91__e__93__	R_3OAS161
104	61	883	-1	M_glc_D__91__e__93__	R_3OAS180
105	61	884	-1	M_glc_D__91__e__93__	R_3OAS181
106	64	891	-1	M_gln_L__91__e__93__	R_3OAS2M3
107	64	892	+1	M_gln_L__91__e__93__	R_3OAS3M4
108	65	910	-1	M_glu_L__91__e__93__	R_3OAS4M3O6
109	65	911	-1	M_glu_L__91__e__93__	R_3OAS4M5
110	65	912	+1	M_glu_L__91__e__93__	R_3OAS4M6
111	67	919	-1	M_glyasn__91__e__93__	R_3OAS5M6
112	68	922	-1	M_glyasp__91__e__93__	R_3OAS60
113	69	923	-1	M_glyb__91__e__93__	R_3OAS6M7
114	69	924	-1	M_glyb__91__e__93__	R_3OAS6M8
115	69	925	+1	M_glyb__91__e__93__	R_3OAS7M8
116	70	926	-1	M_glyc3p__91__e__93__	R_3OAS80
117	70	927	+1	M_glyc3p__91__e__93__	R_3OAS8M10
118	72	937	-1	M_glycys__91__e__93__	R_3OAS8M9
119	71	938	+1	M_glyc__91__e__93__	R_3OAS9M10
120	71	939	-1	M_glyc__91__e__93__	R_42A12BOOX
121	73	946	-1	M_glygln__91__e__93__	R_4ABZt2
122	74	949	-1	M_glyglu__91__e__93__	R_4HBZCL
123	75	953	-1	M_glyleu__91__e__93__	R_4HOXPACDt2r
124	76	956	-1	M_glymet__91__e__93__	R_4HPROI
125	77	962	-1	M_glyphe__91__e__93__	R_4HPROOX
126	78	965	-1	M_glypro__91__e__93__	R_4HTHRS
127	79	968	-1	M_glytyr__91__e__93__	R_4MOPDC2
128	66	969	-1	M_gly__91__e__93__	R_4NTPPH2
129	66	970	+1	M_gly__91__e__93__	R_5AIZCDC
130	80	983	-1	M_gthrd__91__e__93__	R_5CM2HMUDI
131	81	990	-1	M_gua__91__e__93__	R_5DGLCNR
132	82	993	-1	M_h2s__91__e__93__	R_5DOAN
133	82	994	+1	M_h2s__91__e__93__	R_5GLUP5T1
134	83	1013	-1	M_hdca__91__e__93__	R_5GLUP5T2
135	126	1017	-1	M_pheme__91__e__93__	R_5HLTDL
136	84	1027	-1	M_hexs__91__e__93__	R_5HTRPt2
137	85	1030	+1	M_hg2__91__e__93__	R_5HXKYNDCL
138	87	1036	+1	M_hista__91__e__93__	R_5MTHCYST
139	86	1042	-1	M_his_L__91__e__93__	R_A5PISO
140	86	1043	-1	M_his_L__91__e__93__	R_AACGLYDH
141	86	1044	+1	M_his_L__91__e__93__	R_AACOAT
142	92	1046	-1	M_k__91__e__93__	R_AACPS7
143	88	1068	-1	M_hxan__91__e__93__	R_AACTOOR
144	88	1069	+1	M_hxan__91__e__93__	R_ABTAr
145	89	1090	-1	M_ile_L__91__e__93__	R_ABUTD
146	89	1091	-1	M_ile_L__91__e__93__	R_ABUTR
147	89	1092	+1	M_ile_L__91__e__93__	R_AC2DHOR
148	90	1097	-1	M_ind3ac__91__e__93__	R_ACACT1r
149	90	1098	+1	M_ind3ac__91__e__93__	R_ACACT2r
150	91	1113	-1	M_isetac__91__e__93__	R_ACACT3r
151	92	1130	-1	M_k__91__e__93__	R_ACACT4r
152	92	1131	+1	M_k__91__e__93__	R_ACACT5r
153	92	1132	+1	M_k__91__e__93__	R_ACACT6r
154	7	1138	-1	M_Lcyst__91__e__93__	R_ACACT7r
155	95	1146	-1	M_leu_L__91__e__93__	R_ACACt2
156	95	1147	-1	M_leu_L__91__e__93__	R_ACALD
157	95	1148	+1	M_leu_L__91__e__93__	R_ACALDt
158	96	1208	-1	M_lys_L__91__e__93__	R_ACBIPGT
159	96	1209	+1	M_lys_L__91__e__93__	R_ACCOAC
160	96	1210	+1	M_lys_L__91__e__93__	R_ACCOACL
161	94	1218	-1	M_lac_L__91__e__93__	R_ACCOAL
162	94	1219	+1	M_lac_L__91__e__93__	R_ACCOALYS2
163	98	1227	-1	M_malt__91__e__93__	R_ACGAMK
164	97	1228	-1	M_mal_L__91__e__93__	R_ACGAMT
165	97	1229	+1	M_mal_L__91__e__93__	R_ACGAMtr2
166	99	1233	-1	M_man__91__e__93__	R_ACGApts
167	102	1261	-1	M_metala__91__e__93__	R_ACGK
168	100	1264	-1	M_met_D__91__e__93__	R_ACGS
169	104	1269	-1	M_metsox_S_L__91__e__93__	R_ACHBPL
170	103	1270	-1	M_metsox_R_L__91__e__93__	R_ACKr
171	101	1273	-1	M_met_L__91__e__93__	R_ACLS_a
172	101	1274	-1	M_met_L__91__e__93__	R_ACLS_b
173	101	1275	+1	M_met_L__91__e__93__	R_ACOAAGPAT140
174	105	1276	-1	M_mg2__91__e__93__	R_ACOAAGPAT160
175	105	1279	+1	M_mg2__91__e__93__	R_ACOAAGPAT180
176	105	1280	-1	M_mg2__91__e__93__	R_ACOAAGPATAI15
177	109	1285	-1	M_mqn7__91__e__93__	R_ACOAAGPATAI17
178	107	1293	-1	M_mnl__91__e__93__	R_ACOAAGPATI14
179	106	1294	-1	M_mn2__91__e__93__	R_ACOAAGPATI15
180	108	1298	-1	M_mops__91__e__93__	R_ACOAAGPATI16
181	110	1299	-1	M_mso3__91__e__93__	R_ACOAAGPATI17
182	112	1313	-1	M_n2o__91__e__93__	R_ACOAD1
183	112	1314	+1	M_n2o__91__e__93__	R_ACOAD1fi
184	111	1315	-1	M_n2__91__e__93__	R_ACOAD2
185	111	1316	+1	M_n2__91__e__93__	R_ACOAD20
186	114	1318	+1	M_nac__91__e__93__	R_ACOAD3rev
187	114	1319	-1	M_nac__91__e__93__	R_ACOAD4rev
188	113	1329	+1	M_na1__91__e__93__	R_ACOAD5rev
189	113	1330	-1	M_na1__91__e__93__	R_ACOAD6rev
190	115	1354	-1	M_nh4__91__e__93__	R_ACOAD7i
191	115	1355	+1	M_nh4__91__e__93__	R_ACOAD8
192	116	1358	-1	M_ni2__91__e__93__	R_ACOADH2
193	117	1360	-1	M_nmn__91__e__93__	R_ACOATA
194	118	1367	-1	M_no2__91__e__93__	R_ACOCT
195	118	1368	+1	M_no2__91__e__93__	R_ACODAr
196	119	1371	-1	M_no3__91__e__93__	R_ACONT
197	119	1372	-1	M_no3__91__e__93__	R_ACONTa
198	120	1375	-1	M_no__91__e__93__	R_ACONTb
199	120	1376	+1	M_no__91__e__93__	R_ACPS1
200	121	1395	-1	M_o2__91__e__93__	R_ACPpds
201	121	1396	+1	M_o2__91__e__93__	R_ACS
202	122	1404	-1	M_ocdca__91__e__93__	R_ACS2
203	123	1426	-1	M_orn__91__e__93__	R_ACYP
204	123	1427	+1	M_orn__91__e__93__	R_ACYP_2
205	124	1443	+1	M_pb__91__e__93__	R_ACt2r
206	125	1513	-1	M_phe_L__91__e__93__	R_ADA
207	125	1514	+1	M_phe_L__91__e__93__	R_ADCL
208	127	1521	-1	M_pi__91__e__93__	R_ADCPS1
209	127	1522	-1	M_pi__91__e__93__	R_ADCPS2
210	127	1523	+1	M_pi__91__e__93__	R_ADCS
211	113	1524	-3	M_na1__91__e__93__	R_ADCYRS
212	127	1524	-1	M_pi__91__e__93__	R_ADCYRS
213	128	1538	+1	M_ppa__91__e__93__	R_ADK1
214	128	1539	-1	M_ppa__91__e__93__	R_ADK2
215	128	1540	+1	M_ppa__91__e__93__	R_ADMDCr
216	128	1541	-1	M_ppa__91__e__93__	R_ADNCYC
217	129	1548	+1	M_ppi__91__e__93__	R_ADNK1
218	130	1575	-1	M_pro_L__91__e__93__	R_ADNUC
219	130	1576	+1	M_pro_L__91__e__93__	R_ADOCBIK
220	130	1577	-1	M_pro_L__91__e__93__	R_ADOCBIK2
221	130	1578	-1	M_pro_L__91__e__93__	R_ADOCBLS
222	113	1579	-1	M_na1__91__e__93__	R_ADOCBLabc
223	130	1579	-1	M_pro_L__91__e__93__	R_ADOCBLabc
224	131	1616	-1	M_ptrc__91__e__93__	R_ADPRDP
225	131	1617	-1	M_ptrc__91__e__93__	R_ADPT
226	131	1618	+1	M_ptrc__91__e__93__	R_ADSK
227	132	1636	-1	M_pydam__91__e__93__	R_ADSL1r
228	134	1639	-1	M_pydxn__91__e__93__	R_ADSL2r
229	133	1640	-1	M_pydx__91__e__93__	R_ADSS
230	135	1644	-1	M_pyr__91__e__93__	R_AEPPT
231	135	1645	+1	M_pyr__91__e__93__	R_AGDC
232	136	1665	+1	M_rib_D__91__e__93__	R_AGMD
233	136	1666	-1	M_rib_D__91__e__93__	R_AGMHE
234	137	1689	-1	M_salcn__91__e__93__	R_AGMT
235	138	1693	-1	M_sbt_D__91__e__93__	R_AGPAT120
236	140	1701	-1	M_ser_L__91__e__93__	R_AGPAT140
237	140	1702	+1	M_ser_L__91__e__93__	R_AGPAT141
238	141	1718	-1	M_so4__91__e__93__	R_AGPAT160
239	141	1719	+1	M_so4__91__e__93__	R_AGPAT161
240	142	1721	-1	M_spmd__91__e__93__	R_AGPAT180
241	143	1724	+1	M_srtn__91__e__93__	R_AGPAT181
242	144	1734	-1	M_succ__91__e__93__	R_AGPR
243	144	1735	+1	M_succ__91__e__93__	R_AHC
244	145	1744	-1	M_sucr__91__e__93__	R_AHCYSNS
245	146	1745	-1	M_sulfac__91__e__93__	R_AHMMPS
246	141	1748	-1	M_so4__91__e__93__	R_AHSERL2
247	147	1758	-1	M_taur__91__e__93__	R_AHSERL3
248	148	1800	-1	M_thm__91__e__93__	R_AICART
249	148	1801	-1	M_thm__91__e__93__	R_AIHPDCOATA
250	148	1802	+1	M_thm__91__e__93__	R_AIPDCOATA
251	149	1808	-1	M_thr_L__91__e__93__	R_AIRC4
252	149	1809	+1	M_thr_L__91__e__93__	R_AKGS
253	150	1833	-1	M_tre__91__e__93__	R_AKGt2r
254	151	1838	-1	M_trp_L__91__e__93__	R_AKP1
255	151	1839	+1	M_trp_L__91__e__93__	R_ALAALA
256	152	1843	+1	M_trypta__91__e__93__	R_ALAASP1c
257	153	1846	-1	M_tsul__91__e__93__	R_ALAASPabc
258	154	1847	-1	M_ttdca__91__e__93__	R_ALACI
259	155	1848	-1	M_tym__91__e__93__	R_ALAGLN1c
260	155	1849	+1	M_tym__91__e__93__	R_ALAGLNabc
261	156	1854	-1	M_tyr_L__91__e__93__	R_ALAGLU1c
262	156	1855	+1	M_tyr_L__91__e__93__	R_ALAGLUabc
263	157	1893	-1	M_ura__91__e__93__	R_ALAGLY1c
264	158	1898	-1	M_urea__91__e__93__	R_ALAGLYabc
265	158	1899	+1	M_urea__91__e__93__	R_ALAHIS1c
266	159	1907	-1	M_val_L__91__e__93__	R_ALAHISabc
267	159	1908	-1	M_val_L__91__e__93__	R_ALALEU1c
268	159	1909	+1	M_val_L__91__e__93__	R_ALALEUabc
269	160	1912	-1	M_xan__91__e__93__	R_ALAR
270	92	1921	-1	M_k__91__e__93__	R_ALATA_L
271	161	1921	+1	M_zn2__91__e__93__	R_ALATA_L
272	92	1922	+1	M_k__91__e__93__	R_ALATHR1c
273	161	1922	-1	M_zn2__91__e__93__	R_ALATHR1c
274	161	1923	-1	M_zn2__91__e__93__	R_ALATHRabc
275	39	1951	-1	M_cit__91__e__93__	R_ALAt2r
276	39	1952	+1	M_cit__91__e__93__	R_ALCD19
277	25	1955	-1	M_arg_L__91__e__93__	R_ALCD2x
278	123	1955	+1	M_orn__91__e__93__	R_ALCD2x
279	25	1956	+1	M_arg_L__91__e__93__	R_ALDD2x
280	123	1956	-1	M_orn__91__e__93__	R_ALDD2x
281	40	1957	-1	M_cl__91__e__93__	R_ALDD8x
282	40	1958	+1	M_cl__91__e__93__	R_ALGD
