Species_ID	Species_name
setA_3	Alistipes_finegoldii_DSM_17242
setA_4	Bacteroides_caccae_ATCC_43185
setA_6	Brevibacillus_brevis_NBRC_100599
setA_8	Clostridium_difficile_NAP07
setA_9	Corynebacterium_ulcerans_809
setA_11	Eggerthella_lenta_DSM_2243
setA_13	Escherichia_coli_str_K_12_substr_MG1655
setA_14	Faecalibacterium_cf_prausnitzii_KLE1255
setA_15	Helicobacter_pylori_26695
setA_16	Lactobacillus_gastricus_PS3
setA_17	Methyloversatilis_universalis_Fam50001
setA_18	Microbacterium_oleivorans_NBRC_103075
setA_19	Odoribacter_laneus_YIT_12061
setA_20	Peptoniphilus_timonensis_JC401
setA_21	Pseudomonas_nitroreducens_HBP1
setA_22	Prevotella_ruminicola_23
setA_24	Ruminococcus_lactaris_ATCC_29176
setA_26	Vibrio_mimicus_MB_451
