CNC	distance
0.159347	0.00650543
0.160209	0.00673065
0.161076	0.00690134
0.161948	0.00667097
0.162824	0.00682119
0.163705	0.00729686
0.164591	0.00716219
0.165482	0.00750291
0.166377	0.008021
0.167277	0.00798261
0.169093	0.00799354
0.170928	0.0094859
0.172783	0.0102953
0.174658	0.0109015
0.176553	0.0114907
0.180406	0.0125236
0.184342	0.0137516
0.188365	0.0150867
0.192475	0.0164597
0.196675	0.0185164
0.205353	0.022428
0.214412	0.026642
0.233749	0.0341883
0.244062	0.0367761
0.266073	0.0447306
0.290068	0.0498809
0.316228	0.0555305
0.344747	0.0625049
0.375837	0.0699952
0.446684	0.0889048
0.530884	0.105683
0.630957	0.120816
0.749894	0.135157
inf	0.839317
inf	0.839317
inf	0.839317
inf	0.839317
inf	0.839317
inf	0.839317
inf	0.839347
inf	0.839347
inf	0.839317
inf	0.839347
inf	0.839317
inf	0.839347
inf	0.839347
inf	0.839347
inf	0.839347
inf	0.839317
inf	0.839347
inf	0.839317
inf	0.839347
inf	0.839347
inf	0.839317
inf	0.839347
inf	0.839347
inf	0.839317
inf	0.839317
inf	0.839317
inf	0.839347
inf	0.839317
inf	0.839317
inf	0.839317
inf	0.839317
inf	0.839317
inf	0.839317
inf	0.839317
inf	0.839317
inf	0.839317
inf	0.839317
inf	0.839317
inf	0.839317
inf	0.839317
0.01	0.134064
0.0141254	0.126475
0.0199526	0.116757
0.0281838	0.105076
0.0398107	0.0907198
0.0562341	0.0735397
0.0794328	0.0537751
0.112202	0.0297889
0.158489	0.00613077
0.223872	0.0295517
