CNC	distance
0.0284897	0.013084
0.0286438	0.0144712
0.0287988	0.0168432
0.0289547	0.018531
0.0291114	0.0173741
0.0292689	0.0182854
0.0294273	0.0198874
0.0295865	0.0195285
0.0297466	0.0196735
0.0299076	0.02001
0.0300694	0.0188265
0.0303957	0.0212089
0.0307256	0.0215978
0.031059	0.0214134
0.031396	0.026612
0.0320812	0.0278662
0.0327812	0.0263396
0.0334965	0.0299811
0.0342275	0.0299063
0.0349744	0.0317092
0.0365174	0.038848
0.0381285	0.0422971
0.0415671	0.0519095
0.043401	0.0533287
0.0473151	0.0617586
0.0515822	0.068314
0.0613056	0.0929419
0.0668344	0.102372
0.0944061	0.1429
0.133352	0.178246
inf	0.839347
inf	0.839317
inf	0.839317
inf	0.839317
inf	0.839317
inf	0.839318
inf	0.839317
inf	0.839317
inf	0.839317
inf	0.839347
inf	0.839317
inf	0.839318
inf	0.839318
inf	0.839317
inf	0.839317
inf	0.839317
inf	0.839317
inf	0.839347
inf	0.839318
inf	0.839318
inf	0.839317
inf	0.839317
inf	0.839347
inf	0.839317
inf	0.839347
inf	0.839317
inf	0.839317
inf	0.839318
inf	0.839317
inf	0.839318
inf	0.839317
inf	0.839317
inf	0.839317
inf	0.839317
inf	0.839317
inf	0.839317
inf	0.839317
inf	0.839317
inf	0.839317
inf	0.839317
0.01	0.0649877
0.0141254	0.0413016
0.0199526	0.0198012
0.0281838	0.0154193
0.0398107	0.0471116
0.0562341	0.0823619
0.0794328	0.124303
0.112202	0.16544
0.158489	0.188833
0.223872	0.208655
