[1;35m[LOGGING SYSTEM]:[0m Hello World!
[1;35m[LOGGING SYSTEM]:[0m set to lvl 3
[1;33m[WARNING]:[0m 
You are running CALIBRATION-ONLY mode.
No culturing simulation will be run.

********************************
*** Detecting program directory ***
********************************
*****************************************
*** Finished detecting program directory ***
*****************************************

********************************
*** Fetching parameter files ***
********************************
Loading parameters from arguments...
Simulation setA_26_vegan in CALIBRATION-ONLY mode.
Calibrate 1 species,
in environment: vegan.
*****************************************
*** Finished fetching parameter files ***
*****************************************

*************************************
*** Initialising folder structure ***
*************************************
**********************************************
*** Finished initialising folder structure ***
**********************************************

*******************************
*** Loading SBML model data ***
*******************************
Loading species (1/1)
Parsing of SBML file: ../materials/sbml_files/agora_1.03/Vibrio_mimicus_MB_451.xml complete
Species ID		: Vibrio_mimicus_MB_451
Amount of metabolites	: 1092
Stoichiometric matrix	: 5790 non-zero metabolite-reaction pairs
Amount of reactions	: 1830	: 100.0%
---------------------------------------
	# forward 	: 1392	: 76.0656%
	# reverse 	: 438	: 23.9344%
	-----------------------------------
	# internal	: 1585	: 86.612%
	# exchange	: 245	: 13.388%

Flux objective(s): 
	1 x R_biomass314

Done!

****************************************
*** Finished loading SBML model data ***
****************************************

*******************************************
*** Calibrating species growth curve(s) ***
*******************************************
Set new seed: 266484525
total metabolites env/read/known: 153/423/147
[1;33m[WARNING]:[0m At setSpeciesOD, flux mode #0 is computed by FBA...
No parameter file found for species (1/1), calibrating growth curve now...
Set new seed: 322827665
total metabolites env/read/known: 153/423/147
[1;33m[WARNING]:[0m At setSpeciesOD, flux mode #0 is computed by FBA...
[1;33m[WARNING]:[0m At setSpeciesOD, flux mode #0 is computed by FBA...
Set new seed: 368937756
total metabolites env/read/known: 153/423/147
[1;33m[WARNING]:[0m At setSpeciesOD, flux mode #0 is computed by FBA...
[1;33m[WARNING]:[0m At setSpeciesOD, flux mode #0 is computed by FBA...
Set new seed: 414931249
total metabolites env/read/known: 153/423/147
[1;33m[WARNING]:[0m At setSpeciesOD, flux mode #0 is computed by FBA...
[1;33m[WARNING]:[0m At setSpeciesOD, flux mode #0 is computed by FBA...
Set new seed: 460510904
total metabolites env/read/known: 153/423/147
[1;33m[WARNING]:[0m At setSpeciesOD, flux mode #0 is computed by FBA...
[1;33m[WARNING]:[0m At setSpeciesOD, flux mode #0 is computed by FBA...
Set new seed: 505882758
total metabolites env/read/known: 153/423/147
[1;33m[WARNING]:[0m At setSpeciesOD, flux mode #0 is computed by FBA...
[1;33m[WARNING]:[0m At setSpeciesOD, flux mode #0 is computed by FBA...
Set new seed: 551480468
total metabolites env/read/known: 153/423/147
[1;33m[WARNING]:[0m At setSpeciesOD, flux mode #0 is computed by FBA...
[1;33m[WARNING]:[0m At setSpeciesOD, flux mode #0 is computed by FBA...
Set new seed: 596991920
total metabolites env/read/known: 153/423/147
[1;33m[WARNING]:[0m At setSpeciesOD, flux mode #0 is computed by FBA...
[1;33m[WARNING]:[0m At setSpeciesOD, flux mode #0 is computed by FBA...
Set new seed: 642783146
total metabolites env/read/known: 153/423/147
[1;33m[WARNING]:[0m At setSpeciesOD, flux mode #0 is computed by FBA...
[1;33m[WARNING]:[0m At setSpeciesOD, flux mode #0 is computed by FBA...
Set new seed: 687871587
total metabolites env/read/known: 153/423/147
[1;33m[WARNING]:[0m At setSpeciesOD, flux mode #0 is computed by FBA...
[1;33m[WARNING]:[0m At setSpeciesOD, flux mode #0 is computed by FBA...
Set new seed: 732809811
total metabolites env/read/known: 153/423/147
[1;33m[WARNING]:[0m At setSpeciesOD, flux mode #0 is computed by FBA...
[1;33m[WARNING]:[0m At setSpeciesOD, flux mode #0 is computed by FBA...
Set new seed: 778268624
total metabolites env/read/known: 153/423/147
[1;33m[WARNING]:[0m At setSpeciesOD, flux mode #0 is computed by FBA...
[1;33m[WARNING]:[0m At setSpeciesOD, flux mode #0 is computed by FBA...
Set new seed: 1361339139
total metabolites env/read/known: 153/423/147
[1;33m[WARNING]:[0m At setSpeciesOD, flux mode #0 is computed by FBA...
[1;33m[WARNING]:[0m At setSpeciesOD, flux mode #0 is computed by FBA...
Set new seed: 1961038916
total metabolites env/read/known: 153/423/147
[1;33m[WARNING]:[0m At setSpeciesOD, flux mode #0 is computed by FBA...
[1;33m[WARNING]:[0m At setSpeciesOD, flux mode #0 is computed by FBA...
Set new seed: 2536426727
total metabolites env/read/known: 153/423/147
[1;33m[WARNING]:[0m At setSpeciesOD, flux mode #0 is computed by FBA...
[1;33m[WARNING]:[0m At setSpeciesOD, flux mode #0 is computed by FBA...
Set new seed: 3156462929
total metabolites env/read/known: 153/423/147
[1;33m[WARNING]:[0m At setSpeciesOD, flux mode #0 is computed by FBA...
[1;33m[WARNING]:[0m At setSpeciesOD, flux mode #0 is computed by FBA...
Set new seed: 3779970183
total metabolites env/read/known: 153/423/147
[1;33m[WARNING]:[0m At setSpeciesOD, flux mode #0 is computed by FBA...
[1;33m[WARNING]:[0m At setSpeciesOD, flux mode #0 is computed by FBA...
Set new seed: 123474835
total metabolites env/read/known: 153/423/147
[1;33m[WARNING]:[0m At setSpeciesOD, flux mode #0 is computed by FBA...
[1;33m[WARNING]:[0m At setSpeciesOD, flux mode #0 is computed by FBA...
Set new seed: 761884821
total metabolites env/read/known: 153/423/147
[1;33m[WARNING]:[0m At setSpeciesOD, flux mode #0 is computed by FBA...
[1;33m[WARNING]:[0m At setSpeciesOD, flux mode #0 is computed by FBA...
Set new seed: 1408488932
total metabolites env/read/known: 153/423/147
[1;33m[WARNING]:[0m At setSpeciesOD, flux mode #0 is computed by FBA...
[1;33m[WARNING]:[0m At setSpeciesOD, flux mode #0 is computed by FBA...
Set new seed: 2021466684
total metabolites env/read/known: 153/423/147
[1;33m[WARNING]:[0m At setSpeciesOD, flux mode #0 is computed by FBA...
[1;33m[WARNING]:[0m At setSpeciesOD, flux mode #0 is computed by FBA...
Set new seed: 2645357413
total metabolites env/read/known: 153/423/147
[1;33m[WARNING]:[0m At setSpeciesOD, flux mode #0 is computed by FBA...
[1;33m[WARNING]:[0m At setSpeciesOD, flux mode #0 is computed by FBA...
Set new seed: 2692067995
total metabolites env/read/known: 153/423/147
[1;33m[WARNING]:[0m At setSpeciesOD, flux mode #0 is computed by FBA...
[1;33m[WARNING]:[0m At setSpeciesOD, flux mode #0 is computed by FBA...
Set new seed: 2738677691
total metabolites env/read/known: 153/423/147
[1;33m[WARNING]:[0m At setSpeciesOD, flux mode #0 is computed by FBA...
[1;33m[WARNING]:[0m At setSpeciesOD, flux mode #0 is computed by FBA...
Set new seed: 2784095890
total metabolites env/read/known: 153/423/147
[1;33m[WARNING]:[0m At setSpeciesOD, flux mode #0 is computed by FBA...
[1;33m[WARNING]:[0m At setSpeciesOD, flux mode #0 is computed by FBA...
Set new seed: 2829070157
total metabolites env/read/known: 153/423/147
[1;33m[WARNING]:[0m At setSpeciesOD, flux mode #0 is computed by FBA...
[1;33m[WARNING]:[0m At setSpeciesOD, flux mode #0 is computed by FBA...
Set new seed: 2874248891
total metabolites env/read/known: 153/423/147
[1;33m[WARNING]:[0m At setSpeciesOD, flux mode #0 is computed by FBA...
[1;33m[WARNING]:[0m At setSpeciesOD, flux mode #0 is computed by FBA...
Set new seed: 3513411332
total metabolites env/read/known: 153/423/147
[1;33m[WARNING]:[0m At setSpeciesOD, flux mode #0 is computed by FBA...
[1;33m[WARNING]:[0m At setSpeciesOD, flux mode #0 is computed by FBA...
Set new seed: 4160451144
total metabolites env/read/known: 153/423/147
[1;33m[WARNING]:[0m At setSpeciesOD, flux mode #0 is computed by FBA...
[1;33m[WARNING]:[0m At setSpeciesOD, flux mode #0 is computed by FBA...
Set new seed: 554289170
total metabolites env/read/known: 153/423/147
[1;33m[WARNING]:[0m At setSpeciesOD, flux mode #0 is computed by FBA...
[1;33m[WARNING]:[0m At setSpeciesOD, flux mode #0 is computed by FBA...
Set new seed: 1322432912
total metabolites env/read/known: 153/423/147
[1;33m[WARNING]:[0m At setSpeciesOD, flux mode #0 is computed by FBA...
[1;33m[WARNING]:[0m At setSpeciesOD, flux mode #0 is computed by FBA...
Set new seed: 2565069282
total metabolites env/read/known: 153/423/147
[1;33m[WARNING]:[0m At setSpeciesOD, flux mode #0 is computed by FBA...
[1;33m[WARNING]:[0m At setSpeciesOD, flux mode #0 is computed by FBA...
Set new seed: 3434604178
total metabolites env/read/known: 153/423/147
[1;33m[WARNING]:[0m At setSpeciesOD, flux mode #0 is computed by FBA...
[1;33m[WARNING]:[0m At setSpeciesOD, flux mode #0 is computed by FBA...
Set new seed: 97734139
total metabolites env/read/known: 153/423/147
[1;33m[WARNING]:[0m At setSpeciesOD, flux mode #0 is computed by FBA...
[1;33m[WARNING]:[0m At setSpeciesOD, flux mode #0 is computed by FBA...
Set new seed: 1114478541
total metabolites env/read/known: 153/423/147
[1;33m[WARNING]:[0m At setSpeciesOD, flux mode #0 is computed by FBA...
[1;33m[WARNING]:[0m At setSpeciesOD, flux mode #0 is computed by FBA...
Set new seed: 2320281223
total metabolites env/read/known: 153/423/147
[1;33m[WARNING]:[0m At setSpeciesOD, flux mode #0 is computed by FBA...
[1;33m[WARNING]:[0m At setSpeciesOD, flux mode #0 is computed by FBA...
Set new seed: 2367593186
total metabolites env/read/known: 153/423/147
[1;33m[WARNING]:[0m At setSpeciesOD, flux mode #0 is computed by FBA...
[1;33m[WARNING]:[0m At setSpeciesOD, flux mode #0 is computed by FBA...
Set new seed: 2414721053
total metabolites env/read/known: 153/423/147
[1;33m[WARNING]:[0m At setSpeciesOD, flux mode #0 is computed by FBA...
[1;33m[WARNING]:[0m At setSpeciesOD, flux mode #0 is computed by FBA...
Set new seed: 2461518146
total metabolites env/read/known: 153/423/147
[1;33m[WARNING]:[0m At setSpeciesOD, flux mode #0 is computed by FBA...
[1;33m[WARNING]:[0m At setSpeciesOD, flux mode #0 is computed by FBA...
Set new seed: 2508908956
total metabolites env/read/known: 153/423/147
[1;33m[WARNING]:[0m At setSpeciesOD, flux mode #0 is computed by FBA...
[1;33m[WARNING]:[0m At setSpeciesOD, flux mode #0 is computed by FBA...
Set new seed: 2555924248
total metabolites env/read/known: 153/423/147
[1;33m[WARNING]:[0m At setSpeciesOD, flux mode #0 is computed by FBA...
[1;33m[WARNING]:[0m At setSpeciesOD, flux mode #0 is computed by FBA...
Set new seed: 3212260777
total metabolites env/read/known: 153/423/147
[1;33m[WARNING]:[0m At setSpeciesOD, flux mode #0 is computed by FBA...
[1;33m[WARNING]:[0m At setSpeciesOD, flux mode #0 is computed by FBA...
Set new seed: 3859392498
total metabolites env/read/known: 153/423/147
[1;33m[WARNING]:[0m At setSpeciesOD, flux mode #0 is computed by FBA...
[1;33m[WARNING]:[0m At setSpeciesOD, flux mode #0 is computed by FBA...
Set new seed: 205891884
total metabolites env/read/known: 153/423/147
[1;33m[WARNING]:[0m At setSpeciesOD, flux mode #0 is computed by FBA...
[1;33m[WARNING]:[0m At setSpeciesOD, flux mode #0 is computed by FBA...
Set new seed: 938070863
total metabolites env/read/known: 153/423/147
[1;33m[WARNING]:[0m At setSpeciesOD, flux mode #0 is computed by FBA...
[1;33m[WARNING]:[0m At setSpeciesOD, flux mode #0 is computed by FBA...
Set new seed: 1720260331
total metabolites env/read/known: 153/423/147
[1;33m[WARNING]:[0m At setSpeciesOD, flux mode #0 is computed by FBA...
[1;33m[WARNING]:[0m At setSpeciesOD, flux mode #0 is computed by FBA...
Set new seed: 1766764240
total metabolites env/read/known: 153/423/147
[1;33m[WARNING]:[0m At setSpeciesOD, flux mode #0 is computed by FBA...
[1;33m[WARNING]:[0m At setSpeciesOD, flux mode #0 is computed by FBA...
Set new seed: 1813610708
total metabolites env/read/known: 153/423/147
[1;33m[WARNING]:[0m At setSpeciesOD, flux mode #0 is computed by FBA...
[1;33m[WARNING]:[0m At setSpeciesOD, flux mode #0 is computed by FBA...
Set new seed: 1860503739
total metabolites env/read/known: 153/423/147
[1;33m[WARNING]:[0m At setSpeciesOD, flux mode #0 is computed by FBA...
[1;33m[WARNING]:[0m At setSpeciesOD, flux mode #0 is computed by FBA...
Set new seed: 1907351415
total metabolites env/read/known: 153/423/147
[1;33m[WARNING]:[0m At setSpeciesOD, flux mode #0 is computed by FBA...
[1;33m[WARNING]:[0m At setSpeciesOD, flux mode #0 is computed by FBA...
Set new seed: 1954413530
total metabolites env/read/known: 153/423/147
[1;33m[WARNING]:[0m At setSpeciesOD, flux mode #0 is computed by FBA...
[1;33m[WARNING]:[0m At setSpeciesOD, flux mode #0 is computed by FBA...
Set new seed: 2575190153
total metabolites env/read/known: 153/423/147
[1;33m[WARNING]:[0m At setSpeciesOD, flux mode #0 is computed by FBA...
[1;33m[WARNING]:[0m At setSpeciesOD, flux mode #0 is computed by FBA...
Set new seed: 3226515269
total metabolites env/read/known: 153/423/147
[1;33m[WARNING]:[0m At setSpeciesOD, flux mode #0 is computed by FBA...
[1;33m[WARNING]:[0m At setSpeciesOD, flux mode #0 is computed by FBA...
Set new seed: 3890057229
total metabolites env/read/known: 153/423/147
[1;33m[WARNING]:[0m At setSpeciesOD, flux mode #0 is computed by FBA...
[1;33m[WARNING]:[0m At setSpeciesOD, flux mode #0 is computed by FBA...
Set new seed: 272000406
total metabolites env/read/known: 153/423/147
[1;33m[WARNING]:[0m At setSpeciesOD, flux mode #0 is computed by FBA...
[1;33m[WARNING]:[0m At setSpeciesOD, flux mode #0 is computed by FBA...
Set new seed: 930175289
total metabolites env/read/known: 153/423/147
[1;33m[WARNING]:[0m At setSpeciesOD, flux mode #0 is computed by FBA...
[1;33m[WARNING]:[0m At setSpeciesOD, flux mode #0 is computed by FBA...
Set new seed: 976926735
total metabolites env/read/known: 153/423/147
[1;33m[WARNING]:[0m At setSpeciesOD, flux mode #0 is computed by FBA...
[1;33m[WARNING]:[0m At setSpeciesOD, flux mode #0 is computed by FBA...
Set new seed: 1023954971
total metabolites env/read/known: 153/423/147
[1;33m[WARNING]:[0m At setSpeciesOD, flux mode #0 is computed by FBA...
[1;33m[WARNING]:[0m At setSpeciesOD, flux mode #0 is computed by FBA...
Set new seed: 1071024015
total metabolites env/read/known: 153/423/147
[1;33m[WARNING]:[0m At setSpeciesOD, flux mode #0 is computed by FBA...
[1;33m[WARNING]:[0m At setSpeciesOD, flux mode #0 is computed by FBA...
Set new seed: 1118060058
total metabolites env/read/known: 153/423/147
[1;33m[WARNING]:[0m At setSpeciesOD, flux mode #0 is computed by FBA...
[1;33m[WARNING]:[0m At setSpeciesOD, flux mode #0 is computed by FBA...
Set new seed: 1164878214
total metabolites env/read/known: 153/423/147
[1;33m[WARNING]:[0m At setSpeciesOD, flux mode #0 is computed by FBA...
[1;33m[WARNING]:[0m At setSpeciesOD, flux mode #0 is computed by FBA...
Set new seed: 1784604146
total metabolites env/read/known: 153/423/147
[1;33m[WARNING]:[0m At setSpeciesOD, flux mode #0 is computed by FBA...
[1;33m[WARNING]:[0m At setSpeciesOD, flux mode #0 is computed by FBA...
Set new seed: 2443528212
total metabolites env/read/known: 153/423/147
[1;33m[WARNING]:[0m At setSpeciesOD, flux mode #0 is computed by FBA...
[1;33m[WARNING]:[0m At setSpeciesOD, flux mode #0 is computed by FBA...
Set new seed: 3112874261
total metabolites env/read/known: 153/423/147
[1;33m[WARNING]:[0m At setSpeciesOD, flux mode #0 is computed by FBA...
[1;33m[WARNING]:[0m At setSpeciesOD, flux mode #0 is computed by FBA...
Set new seed: 3748798565
total metabolites env/read/known: 153/423/147
[1;33m[WARNING]:[0m At setSpeciesOD, flux mode #0 is computed by FBA...
[1;33m[WARNING]:[0m At setSpeciesOD, flux mode #0 is computed by FBA...
Set new seed: 119395777
total metabolites env/read/known: 153/423/147
[1;33m[WARNING]:[0m At setSpeciesOD, flux mode #0 is computed by FBA...
[1;33m[WARNING]:[0m At setSpeciesOD, flux mode #0 is computed by FBA...
Set new seed: 164743562
total metabolites env/read/known: 153/423/147
[1;33m[WARNING]:[0m At setSpeciesOD, flux mode #0 is computed by FBA...
[1;33m[WARNING]:[0m At setSpeciesOD, flux mode #0 is computed by FBA...
Set new seed: 210425904
total metabolites env/read/known: 153/423/147
[1;33m[WARNING]:[0m At setSpeciesOD, flux mode #0 is computed by FBA...
[1;33m[WARNING]:[0m At setSpeciesOD, flux mode #0 is computed by FBA...
Set new seed: 255999081
total metabolites env/read/known: 153/423/147
[1;33m[WARNING]:[0m At setSpeciesOD, flux mode #0 is computed by FBA...
[1;33m[WARNING]:[0m At setSpeciesOD, flux mode #0 is computed by FBA...
Set new seed: 301270335
total metabolites env/read/known: 153/423/147
[1;33m[WARNING]:[0m At setSpeciesOD, flux mode #0 is computed by FBA...
[1;33m[WARNING]:[0m At setSpeciesOD, flux mode #0 is computed by FBA...
Set new seed: 346519456
total metabolites env/read/known: 153/423/147
[1;33m[WARNING]:[0m At setSpeciesOD, flux mode #0 is computed by FBA...
[1;33m[WARNING]:[0m At setSpeciesOD, flux mode #0 is computed by FBA...
Set new seed: 976309309
total metabolites env/read/known: 153/423/147
[1;33m[WARNING]:[0m At setSpeciesOD, flux mode #0 is computed by FBA...
[1;33m[WARNING]:[0m At setSpeciesOD, flux mode #0 is computed by FBA...
Set new seed: 1589475655
total metabolites env/read/known: 153/423/147
[1;33m[WARNING]:[0m At setSpeciesOD, flux mode #0 is computed by FBA...
[1;33m[WARNING]:[0m At setSpeciesOD, flux mode #0 is computed by FBA...
Set new seed: 2280555004
total metabolites env/read/known: 153/423/147
[1;33m[WARNING]:[0m At setSpeciesOD, flux mode #0 is computed by FBA...
[1;33m[WARNING]:[0m At setSpeciesOD, flux mode #0 is computed by FBA...
Set new seed: 2956992012
total metabolites env/read/known: 153/423/147
[1;33m[WARNING]:[0m At setSpeciesOD, flux mode #0 is computed by FBA...
[1;33m[WARNING]:[0m At setSpeciesOD, flux mode #0 is computed by FBA...
Set new seed: 3601304089
total metabolites env/read/known: 153/423/147
[1;33m[WARNING]:[0m At setSpeciesOD, flux mode #0 is computed by FBA...
[1;33m[WARNING]:[0m At setSpeciesOD, flux mode #0 is computed by FBA...
Set new seed: 3648280983
total metabolites env/read/known: 153/423/147
[1;33m[WARNING]:[0m At setSpeciesOD, flux mode #0 is computed by FBA...
[1;33m[WARNING]:[0m At setSpeciesOD, flux mode #0 is computed by FBA...
Set new seed: 3695312700
total metabolites env/read/known: 153/423/147
[1;33m[WARNING]:[0m At setSpeciesOD, flux mode #0 is computed by FBA...
[1;33m[WARNING]:[0m At setSpeciesOD, flux mode #0 is computed by FBA...
Set new seed: 3742440886
total metabolites env/read/known: 153/423/147
[1;33m[WARNING]:[0m At setSpeciesOD, flux mode #0 is computed by FBA...
[1;33m[WARNING]:[0m At setSpeciesOD, flux mode #0 is computed by FBA...
Set new seed: 3789434745
total metabolites env/read/known: 153/423/147
[1;33m[WARNING]:[0m At setSpeciesOD, flux mode #0 is computed by FBA...
[1;33m[WARNING]:[0m At setSpeciesOD, flux mode #0 is computed by FBA...
Set new seed: 3836679349
total metabolites env/read/known: 153/423/147
[1;33m[WARNING]:[0m At setSpeciesOD, flux mode #0 is computed by FBA...
[1;33m[WARNING]:[0m At setSpeciesOD, flux mode #0 is computed by FBA...
Set new seed: 188761262
total metabolites env/read/known: 153/423/147
[1;33m[WARNING]:[0m At setSpeciesOD, flux mode #0 is computed by FBA...
[1;33m[WARNING]:[0m At setSpeciesOD, flux mode #0 is computed by FBA...
Set new seed: 829537682
total metabolites env/read/known: 153/423/147
[1;33m[WARNING]:[0m At setSpeciesOD, flux mode #0 is computed by FBA...
[1;33m[WARNING]:[0m At setSpeciesOD, flux mode #0 is computed by FBA...
Set new seed: 1465676607
total metabolites env/read/known: 153/423/147
[1;33m[WARNING]:[0m At setSpeciesOD, flux mode #0 is computed by FBA...
[1;33m[WARNING]:[0m At setSpeciesOD, flux mode #0 is computed by FBA...
Set new seed: 2100382019
total metabolites env/read/known: 153/423/147
[1;33m[WARNING]:[0m At setSpeciesOD, flux mode #0 is computed by FBA...
[1;33m[WARNING]:[0m At setSpeciesOD, flux mode #0 is computed by FBA...
Set new seed: 2765624290
total metabolites env/read/known: 153/423/147
[1;33m[WARNING]:[0m At setSpeciesOD, flux mode #0 is computed by FBA...
[1;33m[WARNING]:[0m At setSpeciesOD, flux mode #0 is computed by FBA...
[1;33m[WARNING]:[0m At setSpeciesOD, flux mode #0 is computed by FBA...
[1;33m[WARNING]:[0m At setSpeciesOD, flux mode #0 is computed by FBA...
[1;33m[WARNING]:[0m No (further) growth detected, stopping simulation...
Simulating trajectory complete
calibrateGrowthCurve with  diet
final point:
	t = 12.6498h
	OD[0] = 1.38724;	r[0] = -0.1

Set param (FLX)   : 499.416
Set param (YLD)   : 0.0978524
Set param (CRW)   : 0.213601
Set param (CNC)   : 0.225084
Set param (maxR)  : 1.109
Set param (maxOD) : 1.38724

****************************************************
*** Finished calibrating species growth curve(s) ***
****************************************************

[1;35m[LOGGING SYSTEM]:[0m Goodbye World!
