[1;35m[LOGGING SYSTEM]:[0m Hello World!
[1;35m[LOGGING SYSTEM]:[0m set to lvl 3
[1;33m[WARNING]:[0m 
You are running CALIBRATION-ONLY mode.
No culturing simulation will be run.

********************************
*** Detecting program directory ***
********************************
*****************************************
*** Finished detecting program directory ***
*****************************************

********************************
*** Fetching parameter files ***
********************************
Loading parameters from arguments...
Simulation setA_16_vegetarian in CALIBRATION-ONLY mode.
Calibrate 1 species,
in environment: vegetarian.
*****************************************
*** Finished fetching parameter files ***
*****************************************

*************************************
*** Initialising folder structure ***
*************************************
**********************************************
*** Finished initialising folder structure ***
**********************************************

*******************************
*** Loading SBML model data ***
*******************************
Loading species (1/1)
Parsing of SBML file: ../materials/sbml_files/agora_1.03/Lactobacillus_gastricus_PS3.xml complete
Species ID		: Lactobacillus_gastricus_PS3
Amount of metabolites	: 955
Stoichiometric matrix	: 4624 non-zero metabolite-reaction pairs
Amount of reactions	: 1471	: 100.0%
---------------------------------------
	# forward 	: 1088	: 73.9633%
	# reverse 	: 383	: 26.0367%
	-----------------------------------
	# internal	: 1281	: 87.0836%
	# exchange	: 190	: 12.9164%

Flux objective(s): 
	1 x R_biomass151

Done!

****************************************
*** Finished loading SBML model data ***
****************************************

*******************************************
*** Calibrating species growth curve(s) ***
*******************************************
Set new seed: 432453919
total metabolites env/read/known: 122/423/122
[1;33m[WARNING]:[0m At setSpeciesOD, flux mode #0 is computed by FBA...
No parameter file found for species (1/1), calibrating growth curve now...
Set new seed: 478600550
total metabolites env/read/known: 122/423/122
[1;33m[WARNING]:[0m At setSpeciesOD, flux mode #0 is computed by FBA...
[1;33m[WARNING]:[0m At setSpeciesOD, flux mode #0 is computed by FBA...
Set new seed: 513075193
total metabolites env/read/known: 122/423/122
[1;33m[WARNING]:[0m At setSpeciesOD, flux mode #0 is computed by FBA...
[1;33m[WARNING]:[0m At setSpeciesOD, flux mode #0 is computed by FBA...
Set new seed: 548648227
total metabolites env/read/known: 122/423/122
[1;33m[WARNING]:[0m At setSpeciesOD, flux mode #0 is computed by FBA...
[1;33m[WARNING]:[0m At setSpeciesOD, flux mode #0 is computed by FBA...
Set new seed: 582849978
total metabolites env/read/known: 122/423/122
[1;33m[WARNING]:[0m At setSpeciesOD, flux mode #0 is computed by FBA...
[1;33m[WARNING]:[0m At setSpeciesOD, flux mode #0 is computed by FBA...
Set new seed: 617089049
total metabolites env/read/known: 122/423/122
[1;33m[WARNING]:[0m At setSpeciesOD, flux mode #0 is computed by FBA...
[1;33m[WARNING]:[0m At setSpeciesOD, flux mode #0 is computed by FBA...
Set new seed: 651007719
total metabolites env/read/known: 122/423/122
[1;33m[WARNING]:[0m At setSpeciesOD, flux mode #0 is computed by FBA...
[1;33m[WARNING]:[0m At setSpeciesOD, flux mode #0 is computed by FBA...
Set new seed: 685842485
total metabolites env/read/known: 122/423/122
[1;33m[WARNING]:[0m At setSpeciesOD, flux mode #0 is computed by FBA...
[1;33m[WARNING]:[0m At setSpeciesOD, flux mode #0 is computed by FBA...
Set new seed: 723018665
total metabolites env/read/known: 122/423/122
[1;33m[WARNING]:[0m At setSpeciesOD, flux mode #0 is computed by FBA...
[1;33m[WARNING]:[0m At setSpeciesOD, flux mode #0 is computed by FBA...
Set new seed: 758498764
total metabolites env/read/known: 122/423/122
[1;33m[WARNING]:[0m At setSpeciesOD, flux mode #0 is computed by FBA...
[1;33m[WARNING]:[0m At setSpeciesOD, flux mode #0 is computed by FBA...
Set new seed: 792864419
total metabolites env/read/known: 122/423/122
[1;33m[WARNING]:[0m At setSpeciesOD, flux mode #0 is computed by FBA...
[1;33m[WARNING]:[0m At setSpeciesOD, flux mode #0 is computed by FBA...
Set new seed: 826876867
total metabolites env/read/known: 122/423/122
[1;33m[WARNING]:[0m At setSpeciesOD, flux mode #0 is computed by FBA...
[1;33m[WARNING]:[0m At setSpeciesOD, flux mode #0 is computed by FBA...
Set new seed: 1124571938
total metabolites env/read/known: 122/423/122
[1;33m[WARNING]:[0m At setSpeciesOD, flux mode #0 is computed by FBA...
[1;33m[WARNING]:[0m At setSpeciesOD, flux mode #0 is computed by FBA...
Set new seed: 1439722909
total metabolites env/read/known: 122/423/122
[1;33m[WARNING]:[0m At setSpeciesOD, flux mode #0 is computed by FBA...
[1;33m[WARNING]:[0m At setSpeciesOD, flux mode #0 is computed by FBA...
Set new seed: 1765199312
total metabolites env/read/known: 122/423/122
[1;33m[WARNING]:[0m At setSpeciesOD, flux mode #0 is computed by FBA...
[1;33m[WARNING]:[0m At setSpeciesOD, flux mode #0 is computed by FBA...
Set new seed: 2098337358
total metabolites env/read/known: 122/423/122
[1;33m[WARNING]:[0m At setSpeciesOD, flux mode #0 is computed by FBA...
[1;33m[WARNING]:[0m At setSpeciesOD, flux mode #0 is computed by FBA...
Set new seed: 2411859512
total metabolites env/read/known: 122/423/122
[1;33m[WARNING]:[0m At setSpeciesOD, flux mode #0 is computed by FBA...
[1;33m[WARNING]:[0m At setSpeciesOD, flux mode #0 is computed by FBA...
Set new seed: 2865421785
total metabolites env/read/known: 122/423/122
[1;33m[WARNING]:[0m At setSpeciesOD, flux mode #0 is computed by FBA...
[1;33m[WARNING]:[0m At setSpeciesOD, flux mode #0 is computed by FBA...
Set new seed: 3325729897
total metabolites env/read/known: 122/423/122
[1;33m[WARNING]:[0m At setSpeciesOD, flux mode #0 is computed by FBA...
[1;33m[WARNING]:[0m At setSpeciesOD, flux mode #0 is computed by FBA...
Set new seed: 3820969706
total metabolites env/read/known: 122/423/122
[1;33m[WARNING]:[0m At setSpeciesOD, flux mode #0 is computed by FBA...
[1;33m[WARNING]:[0m At setSpeciesOD, flux mode #0 is computed by FBA...
Set new seed: 134682023
total metabolites env/read/known: 122/423/122
[1;33m[WARNING]:[0m At setSpeciesOD, flux mode #0 is computed by FBA...
[1;33m[WARNING]:[0m At setSpeciesOD, flux mode #0 is computed by FBA...
Set new seed: 774963361
total metabolites env/read/known: 122/423/122
[1;33m[WARNING]:[0m At setSpeciesOD, flux mode #0 is computed by FBA...
[1;33m[WARNING]:[0m At setSpeciesOD, flux mode #0 is computed by FBA...
Set new seed: 808987125
total metabolites env/read/known: 122/423/122
[1;33m[WARNING]:[0m At setSpeciesOD, flux mode #0 is computed by FBA...
[1;33m[WARNING]:[0m At setSpeciesOD, flux mode #0 is computed by FBA...
Set new seed: 842945609
total metabolites env/read/known: 122/423/122
[1;33m[WARNING]:[0m At setSpeciesOD, flux mode #0 is computed by FBA...
[1;33m[WARNING]:[0m At setSpeciesOD, flux mode #0 is computed by FBA...
Set new seed: 876719212
total metabolites env/read/known: 122/423/122
[1;33m[WARNING]:[0m At setSpeciesOD, flux mode #0 is computed by FBA...
[1;33m[WARNING]:[0m At setSpeciesOD, flux mode #0 is computed by FBA...
Set new seed: 910943637
total metabolites env/read/known: 122/423/122
[1;33m[WARNING]:[0m At setSpeciesOD, flux mode #0 is computed by FBA...
[1;33m[WARNING]:[0m At setSpeciesOD, flux mode #0 is computed by FBA...
Set new seed: 945295289
total metabolites env/read/known: 122/423/122
[1;33m[WARNING]:[0m At setSpeciesOD, flux mode #0 is computed by FBA...
[1;33m[WARNING]:[0m At setSpeciesOD, flux mode #0 is computed by FBA...
Set new seed: 1334936061
total metabolites env/read/known: 122/423/122
[1;33m[WARNING]:[0m At setSpeciesOD, flux mode #0 is computed by FBA...
[1;33m[WARNING]:[0m At setSpeciesOD, flux mode #0 is computed by FBA...
Set new seed: 1773290074
total metabolites env/read/known: 122/423/122
[1;33m[WARNING]:[0m At setSpeciesOD, flux mode #0 is computed by FBA...
[1;33m[WARNING]:[0m At setSpeciesOD, flux mode #0 is computed by FBA...
Set new seed: 2311949048
total metabolites env/read/known: 122/423/122
[1;33m[WARNING]:[0m At setSpeciesOD, flux mode #0 is computed by FBA...
[1;33m[WARNING]:[0m At setSpeciesOD, flux mode #0 is computed by FBA...
Set new seed: 3071364369
total metabolites env/read/known: 122/423/122
[1;33m[WARNING]:[0m At setSpeciesOD, flux mode #0 is computed by FBA...
[1;33m[WARNING]:[0m At setSpeciesOD, flux mode #0 is computed by FBA...
Set new seed: 3865097266
total metabolites env/read/known: 122/423/122
[1;33m[WARNING]:[0m At setSpeciesOD, flux mode #0 is computed by FBA...
[1;33m[WARNING]:[0m At setSpeciesOD, flux mode #0 is computed by FBA...
Set new seed: 3899972359
total metabolites env/read/known: 122/423/122
[1;33m[WARNING]:[0m At setSpeciesOD, flux mode #0 is computed by FBA...
[1;33m[WARNING]:[0m At setSpeciesOD, flux mode #0 is computed by FBA...
Set new seed: 3935572103
total metabolites env/read/known: 122/423/122
[1;33m[WARNING]:[0m At setSpeciesOD, flux mode #0 is computed by FBA...
[1;33m[WARNING]:[0m At setSpeciesOD, flux mode #0 is computed by FBA...
Set new seed: 3970524428
total metabolites env/read/known: 122/423/122
[1;33m[WARNING]:[0m At setSpeciesOD, flux mode #0 is computed by FBA...
[1;33m[WARNING]:[0m At setSpeciesOD, flux mode #0 is computed by FBA...
Set new seed: 4006070150
total metabolites env/read/known: 122/423/122
[1;33m[WARNING]:[0m At setSpeciesOD, flux mode #0 is computed by FBA...
[1;33m[WARNING]:[0m At setSpeciesOD, flux mode #0 is computed by FBA...
Set new seed: 4041744772
total metabolites env/read/known: 122/423/122
[1;33m[WARNING]:[0m At setSpeciesOD, flux mode #0 is computed by FBA...
[1;33m[WARNING]:[0m At setSpeciesOD, flux mode #0 is computed by FBA...
Set new seed: 92178032
total metabolites env/read/known: 122/423/122
[1;33m[WARNING]:[0m At setSpeciesOD, flux mode #0 is computed by FBA...
[1;33m[WARNING]:[0m At setSpeciesOD, flux mode #0 is computed by FBA...
Set new seed: 446714693
total metabolites env/read/known: 122/423/122
[1;33m[WARNING]:[0m At setSpeciesOD, flux mode #0 is computed by FBA...
[1;33m[WARNING]:[0m At setSpeciesOD, flux mode #0 is computed by FBA...
Set new seed: 1001829353
total metabolites env/read/known: 122/423/122
[1;33m[WARNING]:[0m At setSpeciesOD, flux mode #0 is computed by FBA...
[1;33m[WARNING]:[0m At setSpeciesOD, flux mode #0 is computed by FBA...
Set new seed: 1668258777
total metabolites env/read/known: 122/423/122
[1;33m[WARNING]:[0m At setSpeciesOD, flux mode #0 is computed by FBA...
[1;33m[WARNING]:[0m At setSpeciesOD, flux mode #0 is computed by FBA...
Set new seed: 2868413597
total metabolites env/read/known: 122/423/122
[1;33m[WARNING]:[0m At setSpeciesOD, flux mode #0 is computed by FBA...
[1;33m[WARNING]:[0m At setSpeciesOD, flux mode #0 is computed by FBA...
Set new seed: 2902953839
total metabolites env/read/known: 122/423/122
[1;33m[WARNING]:[0m At setSpeciesOD, flux mode #0 is computed by FBA...
[1;33m[WARNING]:[0m At setSpeciesOD, flux mode #0 is computed by FBA...
Set new seed: 2938518456
total metabolites env/read/known: 122/423/122
[1;33m[WARNING]:[0m At setSpeciesOD, flux mode #0 is computed by FBA...
[1;33m[WARNING]:[0m At setSpeciesOD, flux mode #0 is computed by FBA...
Set new seed: 2973865033
total metabolites env/read/known: 122/423/122
[1;33m[WARNING]:[0m At setSpeciesOD, flux mode #0 is computed by FBA...
[1;33m[WARNING]:[0m At setSpeciesOD, flux mode #0 is computed by FBA...
Set new seed: 3009562281
total metabolites env/read/known: 122/423/122
[1;33m[WARNING]:[0m At setSpeciesOD, flux mode #0 is computed by FBA...
[1;33m[WARNING]:[0m At setSpeciesOD, flux mode #0 is computed by FBA...
Set new seed: 3045341089
total metabolites env/read/known: 122/423/122
[1;33m[WARNING]:[0m At setSpeciesOD, flux mode #0 is computed by FBA...
[1;33m[WARNING]:[0m At setSpeciesOD, flux mode #0 is computed by FBA...
Set new seed: 3388237935
total metabolites env/read/known: 122/423/122
[1;33m[WARNING]:[0m At setSpeciesOD, flux mode #0 is computed by FBA...
[1;33m[WARNING]:[0m At setSpeciesOD, flux mode #0 is computed by FBA...
Set new seed: 3759348783
total metabolites env/read/known: 122/423/122
[1;33m[WARNING]:[0m At setSpeciesOD, flux mode #0 is computed by FBA...
[1;33m[WARNING]:[0m At setSpeciesOD, flux mode #0 is computed by FBA...
Set new seed: 4161055294
total metabolites env/read/known: 122/423/122
[1;33m[WARNING]:[0m At setSpeciesOD, flux mode #0 is computed by FBA...
[1;33m[WARNING]:[0m At setSpeciesOD, flux mode #0 is computed by FBA...
Set new seed: 250099550
total metabolites env/read/known: 122/423/122
[1;33m[WARNING]:[0m At setSpeciesOD, flux mode #0 is computed by FBA...
[1;33m[WARNING]:[0m At setSpeciesOD, flux mode #0 is computed by FBA...
Set new seed: 722051004
total metabolites env/read/known: 122/423/122
[1;33m[WARNING]:[0m At setSpeciesOD, flux mode #0 is computed by FBA...
[1;33m[WARNING]:[0m At setSpeciesOD, flux mode #0 is computed by FBA...
Set new seed: 757087870
total metabolites env/read/known: 122/423/122
[1;33m[WARNING]:[0m At setSpeciesOD, flux mode #0 is computed by FBA...
[1;33m[WARNING]:[0m At setSpeciesOD, flux mode #0 is computed by FBA...
Set new seed: 792677646
total metabolites env/read/known: 122/423/122
[1;33m[WARNING]:[0m At setSpeciesOD, flux mode #0 is computed by FBA...
[1;33m[WARNING]:[0m At setSpeciesOD, flux mode #0 is computed by FBA...
Set new seed: 828163529
total metabolites env/read/known: 122/423/122
[1;33m[WARNING]:[0m At setSpeciesOD, flux mode #0 is computed by FBA...
[1;33m[WARNING]:[0m At setSpeciesOD, flux mode #0 is computed by FBA...
Set new seed: 864092295
total metabolites env/read/known: 122/423/122
[1;33m[WARNING]:[0m At setSpeciesOD, flux mode #0 is computed by FBA...
[1;33m[WARNING]:[0m At setSpeciesOD, flux mode #0 is computed by FBA...
Set new seed: 900319865
total metabolites env/read/known: 122/423/122
[1;33m[WARNING]:[0m At setSpeciesOD, flux mode #0 is computed by FBA...
[1;33m[WARNING]:[0m At setSpeciesOD, flux mode #0 is computed by FBA...
Set new seed: 1305952961
total metabolites env/read/known: 122/423/122
[1;33m[WARNING]:[0m At setSpeciesOD, flux mode #0 is computed by FBA...
[1;33m[WARNING]:[0m At setSpeciesOD, flux mode #0 is computed by FBA...
Set new seed: 1635093242
total metabolites env/read/known: 122/423/122
[1;33m[WARNING]:[0m At setSpeciesOD, flux mode #0 is computed by FBA...
[1;33m[WARNING]:[0m At setSpeciesOD, flux mode #0 is computed by FBA...
Set new seed: 2047266915
total metabolites env/read/known: 122/423/122
[1;33m[WARNING]:[0m At setSpeciesOD, flux mode #0 is computed by FBA...
[1;33m[WARNING]:[0m At setSpeciesOD, flux mode #0 is computed by FBA...
Set new seed: 2397503834
total metabolites env/read/known: 122/423/122
[1;33m[WARNING]:[0m At setSpeciesOD, flux mode #0 is computed by FBA...
[1;33m[WARNING]:[0m At setSpeciesOD, flux mode #0 is computed by FBA...
Set new seed: 2823311519
total metabolites env/read/known: 122/423/122
[1;33m[WARNING]:[0m At setSpeciesOD, flux mode #0 is computed by FBA...
[1;33m[WARNING]:[0m At setSpeciesOD, flux mode #0 is computed by FBA...
Set new seed: 2858226562
total metabolites env/read/known: 122/423/122
[1;33m[WARNING]:[0m At setSpeciesOD, flux mode #0 is computed by FBA...
[1;33m[WARNING]:[0m At setSpeciesOD, flux mode #0 is computed by FBA...
Set new seed: 2894163815
total metabolites env/read/known: 122/423/122
[1;33m[WARNING]:[0m At setSpeciesOD, flux mode #0 is computed by FBA...
[1;33m[WARNING]:[0m At setSpeciesOD, flux mode #0 is computed by FBA...
Set new seed: 2930692647
total metabolites env/read/known: 122/423/122
[1;33m[WARNING]:[0m At setSpeciesOD, flux mode #0 is computed by FBA...
[1;33m[WARNING]:[0m At setSpeciesOD, flux mode #0 is computed by FBA...
Set new seed: 2966895071
total metabolites env/read/known: 122/423/122
[1;33m[WARNING]:[0m At setSpeciesOD, flux mode #0 is computed by FBA...
[1;33m[WARNING]:[0m At setSpeciesOD, flux mode #0 is computed by FBA...
Set new seed: 3002836575
total metabolites env/read/known: 122/423/122
[1;33m[WARNING]:[0m At setSpeciesOD, flux mode #0 is computed by FBA...
[1;33m[WARNING]:[0m At setSpeciesOD, flux mode #0 is computed by FBA...
Set new seed: 3337733490
total metabolites env/read/known: 122/423/122
[1;33m[WARNING]:[0m At setSpeciesOD, flux mode #0 is computed by FBA...
[1;33m[WARNING]:[0m At setSpeciesOD, flux mode #0 is computed by FBA...
Set new seed: 3735076070
total metabolites env/read/known: 122/423/122
[1;33m[WARNING]:[0m At setSpeciesOD, flux mode #0 is computed by FBA...
[1;33m[WARNING]:[0m At setSpeciesOD, flux mode #0 is computed by FBA...
Set new seed: 4090240491
total metabolites env/read/known: 122/423/122
[1;33m[WARNING]:[0m At setSpeciesOD, flux mode #0 is computed by FBA...
[1;33m[WARNING]:[0m At setSpeciesOD, flux mode #0 is computed by FBA...
Set new seed: 222530725
total metabolites env/read/known: 122/423/122
[1;33m[WARNING]:[0m At setSpeciesOD, flux mode #0 is computed by FBA...
[1;33m[WARNING]:[0m At setSpeciesOD, flux mode #0 is computed by FBA...
Set new seed: 602070440
total metabolites env/read/known: 122/423/122
[1;33m[WARNING]:[0m At setSpeciesOD, flux mode #0 is computed by FBA...
[1;33m[WARNING]:[0m At setSpeciesOD, flux mode #0 is computed by FBA...
Set new seed: 637132584
total metabolites env/read/known: 122/423/122
[1;33m[WARNING]:[0m At setSpeciesOD, flux mode #0 is computed by FBA...
[1;33m[WARNING]:[0m At setSpeciesOD, flux mode #0 is computed by FBA...
Set new seed: 672793973
total metabolites env/read/known: 122/423/122
[1;33m[WARNING]:[0m At setSpeciesOD, flux mode #0 is computed by FBA...
[1;33m[WARNING]:[0m At setSpeciesOD, flux mode #0 is computed by FBA...
Set new seed: 707881958
total metabolites env/read/known: 122/423/122
[1;33m[WARNING]:[0m At setSpeciesOD, flux mode #0 is computed by FBA...
[1;33m[WARNING]:[0m At setSpeciesOD, flux mode #0 is computed by FBA...
Set new seed: 743139496
total metabolites env/read/known: 122/423/122
[1;33m[WARNING]:[0m At setSpeciesOD, flux mode #0 is computed by FBA...
[1;33m[WARNING]:[0m At setSpeciesOD, flux mode #0 is computed by FBA...
Set new seed: 778975809
total metabolites env/read/known: 122/423/122
[1;33m[WARNING]:[0m At setSpeciesOD, flux mode #0 is computed by FBA...
[1;33m[WARNING]:[0m At setSpeciesOD, flux mode #0 is computed by FBA...
Set new seed: 1164562987
total metabolites env/read/known: 122/423/122
[1;33m[WARNING]:[0m At setSpeciesOD, flux mode #0 is computed by FBA...
[1;33m[WARNING]:[0m At setSpeciesOD, flux mode #0 is computed by FBA...
Set new seed: 1581679658
total metabolites env/read/known: 122/423/122
[1;33m[WARNING]:[0m At setSpeciesOD, flux mode #0 is computed by FBA...
[1;33m[WARNING]:[0m At setSpeciesOD, flux mode #0 is computed by FBA...
Set new seed: 1952331208
total metabolites env/read/known: 122/423/122
[1;33m[WARNING]:[0m At setSpeciesOD, flux mode #0 is computed by FBA...
[1;33m[WARNING]:[0m At setSpeciesOD, flux mode #0 is computed by FBA...
Set new seed: 2344917762
total metabolites env/read/known: 122/423/122
[1;33m[WARNING]:[0m At setSpeciesOD, flux mode #0 is computed by FBA...
[1;33m[WARNING]:[0m At setSpeciesOD, flux mode #0 is computed by FBA...
Set new seed: 2726568958
total metabolites env/read/known: 122/423/122
[1;33m[WARNING]:[0m At setSpeciesOD, flux mode #0 is computed by FBA...
[1;33m[WARNING]:[0m At setSpeciesOD, flux mode #0 is computed by FBA...
[1;33m[WARNING]:[0m At setSpeciesOD, flux mode #0 is computed by FBA...
[1;33m[WARNING]:[0m At setSpeciesOD, flux mode #0 is computed by FBA...
[1;33m[WARNING]:[0m No (further) growth detected, stopping simulation...
Simulating trajectory complete
calibrateGrowthCurve with  diet
final point:
	t = 13.0621h
	OD[0] = 1.38709;	r[0] = -0.1

Set param (FLX)   : 390.115
Set param (YLD)   : 0.483684
Set param (CRW)   : 0.211581
Set param (CNC)   : 0.0562341
Set param (maxR)  : 1.109
Set param (maxOD) : 1.38709

****************************************************
*** Finished calibrating species growth curve(s) ***
****************************************************

[1;35m[LOGGING SYSTEM]:[0m Goodbye World!
