[1;35m[LOGGING SYSTEM]:[0m Hello World!
[1;35m[LOGGING SYSTEM]:[0m set to lvl 
[1;33m[WARNING]:[0m 
You are running CALIBRATION-ONLY mode.
No culturing simulation will be run.

********************************
*** Detecting program directory ***
********************************
*****************************************
*** Finished detecting program directory ***
*****************************************

********************************
*** Fetching parameter files ***
********************************
Loading parameters from arguments...
Simulation setA_20_EU_avg in CALIBRATION-ONLY mode.
Calibrate 1 species,
in environment: EU_avg.
*****************************************
*** Finished fetching parameter files ***
*****************************************

*************************************
*** Initialising folder structure ***
*************************************
**********************************************
*** Finished initialising folder structure ***
**********************************************

*******************************
*** Loading SBML model data ***
*******************************
Loading species (1/1)
Parsing of SBML file: ../materials/sbml_files/agora_1.03/Peptoniphilus_timonensis_JC401.xml complete
Species ID		: Peptoniphilus_timonensis_JC401
Amount of metabolites	: 828
Stoichiometric matrix	: 3813 non-zero metabolite-reaction pairs
Amount of reactions	: 1184	: 100.0%
---------------------------------------
	# forward 	: 896	: 75.6757%
	# reverse 	: 288	: 24.3243%
	-----------------------------------
	# internal	: 993	: 83.8682%
	# exchange	: 191	: 16.1318%

Flux objective(s): 
	1 x R_biomass025

Done!

****************************************
*** Finished loading SBML model data ***
****************************************

*******************************************
*** Calibrating species growth curve(s) ***
*******************************************
Set new seed: 3751720491
total metabolites env/read/known: 127/423/127
[1;33m[WARNING]:[0m At setSpeciesOD, flux mode #0 is computed by FBA...
No parameter file found for species (1/1), calibrating growth curve now...
Set new seed: 3772374006
total metabolites env/read/known: 127/423/127
[1;33m[WARNING]:[0m At setSpeciesOD, flux mode #0 is computed by FBA...
[1;33m[WARNING]:[0m At setSpeciesOD, flux mode #0 is computed by FBA...
Set new seed: 3792094852
total metabolites env/read/known: 127/423/127
[1;33m[WARNING]:[0m At setSpeciesOD, flux mode #0 is computed by FBA...
[1;33m[WARNING]:[0m At setSpeciesOD, flux mode #0 is computed by FBA...
Set new seed: 3811711061
total metabolites env/read/known: 127/423/127
[1;33m[WARNING]:[0m At setSpeciesOD, flux mode #0 is computed by FBA...
[1;33m[WARNING]:[0m At setSpeciesOD, flux mode #0 is computed by FBA...
Set new seed: 3831155789
total metabolites env/read/known: 127/423/127
[1;33m[WARNING]:[0m At setSpeciesOD, flux mode #0 is computed by FBA...
[1;33m[WARNING]:[0m At setSpeciesOD, flux mode #0 is computed by FBA...
Set new seed: 3850812692
total metabolites env/read/known: 127/423/127
[1;33m[WARNING]:[0m At setSpeciesOD, flux mode #0 is computed by FBA...
[1;33m[WARNING]:[0m At setSpeciesOD, flux mode #0 is computed by FBA...
Set new seed: 3870446180
total metabolites env/read/known: 127/423/127
[1;33m[WARNING]:[0m At setSpeciesOD, flux mode #0 is computed by FBA...
[1;33m[WARNING]:[0m At setSpeciesOD, flux mode #0 is computed by FBA...
Set new seed: 3889879528
total metabolites env/read/known: 127/423/127
[1;33m[WARNING]:[0m At setSpeciesOD, flux mode #0 is computed by FBA...
[1;33m[WARNING]:[0m At setSpeciesOD, flux mode #0 is computed by FBA...
Set new seed: 3909489992
total metabolites env/read/known: 127/423/127
[1;33m[WARNING]:[0m At setSpeciesOD, flux mode #0 is computed by FBA...
[1;33m[WARNING]:[0m At setSpeciesOD, flux mode #0 is computed by FBA...
Set new seed: 3929405604
total metabolites env/read/known: 127/423/127
[1;33m[WARNING]:[0m At setSpeciesOD, flux mode #0 is computed by FBA...
[1;33m[WARNING]:[0m At setSpeciesOD, flux mode #0 is computed by FBA...
Set new seed: 3949014264
total metabolites env/read/known: 127/423/127
[1;33m[WARNING]:[0m At setSpeciesOD, flux mode #0 is computed by FBA...
[1;33m[WARNING]:[0m At setSpeciesOD, flux mode #0 is computed by FBA...
Set new seed: 3968637827
total metabolites env/read/known: 127/423/127
[1;33m[WARNING]:[0m At setSpeciesOD, flux mode #0 is computed by FBA...
[1;33m[WARNING]:[0m At setSpeciesOD, flux mode #0 is computed by FBA...
Set new seed: 550219402
total metabolites env/read/known: 127/423/127
[1;33m[WARNING]:[0m At setSpeciesOD, flux mode #0 is computed by FBA...
[1;33m[WARNING]:[0m At setSpeciesOD, flux mode #0 is computed by FBA...
Set new seed: 1382433554
total metabolites env/read/known: 127/423/127
[1;33m[WARNING]:[0m At setSpeciesOD, flux mode #0 is computed by FBA...
[1;33m[WARNING]:[0m At setSpeciesOD, flux mode #0 is computed by FBA...
Set new seed: 2244170394
total metabolites env/read/known: 127/423/127
[1;33m[WARNING]:[0m At setSpeciesOD, flux mode #0 is computed by FBA...
[1;33m[WARNING]:[0m At setSpeciesOD, flux mode #0 is computed by FBA...
Set new seed: 3101713461
total metabolites env/read/known: 127/423/127
[1;33m[WARNING]:[0m At setSpeciesOD, flux mode #0 is computed by FBA...
[1;33m[WARNING]:[0m At setSpeciesOD, flux mode #0 is computed by FBA...
Set new seed: 1863655429
total metabolites env/read/known: 127/423/127
[1;33m[WARNING]:[0m At setSpeciesOD, flux mode #0 is computed by FBA...
[1;33m[WARNING]:[0m At setSpeciesOD, flux mode #0 is computed by FBA...
Set new seed: 3338981279
total metabolites env/read/known: 127/423/127
[1;33m[WARNING]:[0m At setSpeciesOD, flux mode #0 is computed by FBA...
[1;33m[WARNING]:[0m At setSpeciesOD, flux mode #0 is computed by FBA...
Set new seed: 835306741
total metabolites env/read/known: 127/423/127
[1;33m[WARNING]:[0m At setSpeciesOD, flux mode #0 is computed by FBA...
[1;33m[WARNING]:[0m At setSpeciesOD, flux mode #0 is computed by FBA...
Set new seed: 2455135940
total metabolites env/read/known: 127/423/127
[1;33m[WARNING]:[0m At setSpeciesOD, flux mode #0 is computed by FBA...
[1;33m[WARNING]:[0m At setSpeciesOD, flux mode #0 is computed by FBA...
Set new seed: 3302992478
total metabolites env/read/known: 127/423/127
[1;33m[WARNING]:[0m At setSpeciesOD, flux mode #0 is computed by FBA...
[1;33m[WARNING]:[0m At setSpeciesOD, flux mode #0 is computed by FBA...
Set new seed: 4140807170
total metabolites env/read/known: 127/423/127
[1;33m[WARNING]:[0m At setSpeciesOD, flux mode #0 is computed by FBA...
[1;33m[WARNING]:[0m At setSpeciesOD, flux mode #0 is computed by FBA...
Set new seed: 4168604595
total metabolites env/read/known: 127/423/127
[1;33m[WARNING]:[0m At setSpeciesOD, flux mode #0 is computed by FBA...
[1;33m[WARNING]:[0m At setSpeciesOD, flux mode #0 is computed by FBA...
Set new seed: 4196185638
total metabolites env/read/known: 127/423/127
[1;33m[WARNING]:[0m At setSpeciesOD, flux mode #0 is computed by FBA...
[1;33m[WARNING]:[0m At setSpeciesOD, flux mode #0 is computed by FBA...
Set new seed: 4223920101
total metabolites env/read/known: 127/423/127
[1;33m[WARNING]:[0m At setSpeciesOD, flux mode #0 is computed by FBA...
[1;33m[WARNING]:[0m At setSpeciesOD, flux mode #0 is computed by FBA...
Set new seed: 4251896649
total metabolites env/read/known: 127/423/127
[1;33m[WARNING]:[0m At setSpeciesOD, flux mode #0 is computed by FBA...
[1;33m[WARNING]:[0m At setSpeciesOD, flux mode #0 is computed by FBA...
Set new seed: 4279762274
total metabolites env/read/known: 127/423/127
[1;33m[WARNING]:[0m At setSpeciesOD, flux mode #0 is computed by FBA...
[1;33m[WARNING]:[0m At setSpeciesOD, flux mode #0 is computed by FBA...
Set new seed: 1382944399
total metabolites env/read/known: 127/423/127
[1;33m[WARNING]:[0m At setSpeciesOD, flux mode #0 is computed by FBA...
[1;33m[WARNING]:[0m At setSpeciesOD, flux mode #0 is computed by FBA...
Set new seed: 2846698017
total metabolites env/read/known: 127/423/127
[1;33m[WARNING]:[0m At setSpeciesOD, flux mode #0 is computed by FBA...
[1;33m[WARNING]:[0m At setSpeciesOD, flux mode #0 is computed by FBA...
Set new seed: 4278162699
total metabolites env/read/known: 127/423/127
[1;33m[WARNING]:[0m At setSpeciesOD, flux mode #0 is computed by FBA...
[1;33m[WARNING]:[0m At setSpeciesOD, flux mode #0 is computed by FBA...
Set new seed: 1733279084
total metabolites env/read/known: 127/423/127
[1;33m[WARNING]:[0m At setSpeciesOD, flux mode #0 is computed by FBA...
[1;33m[WARNING]:[0m At setSpeciesOD, flux mode #0 is computed by FBA...
Set new seed: 3211047767
total metabolites env/read/known: 127/423/127
[1;33m[WARNING]:[0m At setSpeciesOD, flux mode #0 is computed by FBA...
[1;33m[WARNING]:[0m At setSpeciesOD, flux mode #0 is computed by FBA...
Set new seed: 3239280852
total metabolites env/read/known: 127/423/127
[1;33m[WARNING]:[0m At setSpeciesOD, flux mode #0 is computed by FBA...
[1;33m[WARNING]:[0m At setSpeciesOD, flux mode #0 is computed by FBA...
Set new seed: 3267463198
total metabolites env/read/known: 127/423/127
[1;33m[WARNING]:[0m At setSpeciesOD, flux mode #0 is computed by FBA...
[1;33m[WARNING]:[0m At setSpeciesOD, flux mode #0 is computed by FBA...
Set new seed: 3295621421
total metabolites env/read/known: 127/423/127
[1;33m[WARNING]:[0m At setSpeciesOD, flux mode #0 is computed by FBA...
[1;33m[WARNING]:[0m At setSpeciesOD, flux mode #0 is computed by FBA...
Set new seed: 3323906353
total metabolites env/read/known: 127/423/127
[1;33m[WARNING]:[0m At setSpeciesOD, flux mode #0 is computed by FBA...
[1;33m[WARNING]:[0m At setSpeciesOD, flux mode #0 is computed by FBA...
Set new seed: 3352212504
total metabolites env/read/known: 127/423/127
[1;33m[WARNING]:[0m At setSpeciesOD, flux mode #0 is computed by FBA...
[1;33m[WARNING]:[0m At setSpeciesOD, flux mode #0 is computed by FBA...
Set new seed: 459286216
total metabolites env/read/known: 127/423/127
[1;33m[WARNING]:[0m At setSpeciesOD, flux mode #0 is computed by FBA...
[1;33m[WARNING]:[0m At setSpeciesOD, flux mode #0 is computed by FBA...
Set new seed: 1861413222
total metabolites env/read/known: 127/423/127
[1;33m[WARNING]:[0m At setSpeciesOD, flux mode #0 is computed by FBA...
[1;33m[WARNING]:[0m At setSpeciesOD, flux mode #0 is computed by FBA...
Set new seed: 3284979606
total metabolites env/read/known: 127/423/127
[1;33m[WARNING]:[0m At setSpeciesOD, flux mode #0 is computed by FBA...
[1;33m[WARNING]:[0m At setSpeciesOD, flux mode #0 is computed by FBA...
Set new seed: 405043838
total metabolites env/read/known: 127/423/127
[1;33m[WARNING]:[0m At setSpeciesOD, flux mode #0 is computed by FBA...
[1;33m[WARNING]:[0m At setSpeciesOD, flux mode #0 is computed by FBA...
Set new seed: 1848258837
total metabolites env/read/known: 127/423/127
[1;33m[WARNING]:[0m At setSpeciesOD, flux mode #0 is computed by FBA...
[1;33m[WARNING]:[0m At setSpeciesOD, flux mode #0 is computed by FBA...
Set new seed: 1876432189
total metabolites env/read/known: 127/423/127
[1;33m[WARNING]:[0m At setSpeciesOD, flux mode #0 is computed by FBA...
[1;33m[WARNING]:[0m At setSpeciesOD, flux mode #0 is computed by FBA...
Set new seed: 1904587567
total metabolites env/read/known: 127/423/127
[1;33m[WARNING]:[0m At setSpeciesOD, flux mode #0 is computed by FBA...
[1;33m[WARNING]:[0m At setSpeciesOD, flux mode #0 is computed by FBA...
Set new seed: 1932748784
total metabolites env/read/known: 127/423/127
[1;33m[WARNING]:[0m At setSpeciesOD, flux mode #0 is computed by FBA...
[1;33m[WARNING]:[0m At setSpeciesOD, flux mode #0 is computed by FBA...
Set new seed: 1961324025
total metabolites env/read/known: 127/423/127
[1;33m[WARNING]:[0m At setSpeciesOD, flux mode #0 is computed by FBA...
[1;33m[WARNING]:[0m At setSpeciesOD, flux mode #0 is computed by FBA...
Set new seed: 1989609984
total metabolites env/read/known: 127/423/127
[1;33m[WARNING]:[0m At setSpeciesOD, flux mode #0 is computed by FBA...
[1;33m[WARNING]:[0m At setSpeciesOD, flux mode #0 is computed by FBA...
Set new seed: 3419454598
total metabolites env/read/known: 127/423/127
[1;33m[WARNING]:[0m At setSpeciesOD, flux mode #0 is computed by FBA...
[1;33m[WARNING]:[0m At setSpeciesOD, flux mode #0 is computed by FBA...
Set new seed: 528173746
total metabolites env/read/known: 127/423/127
[1;33m[WARNING]:[0m At setSpeciesOD, flux mode #0 is computed by FBA...
[1;33m[WARNING]:[0m At setSpeciesOD, flux mode #0 is computed by FBA...
Set new seed: 2102453030
total metabolites env/read/known: 127/423/127
[1;33m[WARNING]:[0m At setSpeciesOD, flux mode #0 is computed by FBA...
[1;33m[WARNING]:[0m At setSpeciesOD, flux mode #0 is computed by FBA...
Set new seed: 3506866100
total metabolites env/read/known: 127/423/127
[1;33m[WARNING]:[0m At setSpeciesOD, flux mode #0 is computed by FBA...
[1;33m[WARNING]:[0m At setSpeciesOD, flux mode #0 is computed by FBA...
Set new seed: 629021336
total metabolites env/read/known: 127/423/127
[1;33m[WARNING]:[0m At setSpeciesOD, flux mode #0 is computed by FBA...
[1;33m[WARNING]:[0m At setSpeciesOD, flux mode #0 is computed by FBA...
Set new seed: 657054687
total metabolites env/read/known: 127/423/127
[1;33m[WARNING]:[0m At setSpeciesOD, flux mode #0 is computed by FBA...
[1;33m[WARNING]:[0m At setSpeciesOD, flux mode #0 is computed by FBA...
Set new seed: 685166146
total metabolites env/read/known: 127/423/127
[1;33m[WARNING]:[0m At setSpeciesOD, flux mode #0 is computed by FBA...
[1;33m[WARNING]:[0m At setSpeciesOD, flux mode #0 is computed by FBA...
Set new seed: 713339758
total metabolites env/read/known: 127/423/127
[1;33m[WARNING]:[0m At setSpeciesOD, flux mode #0 is computed by FBA...
[1;33m[WARNING]:[0m At setSpeciesOD, flux mode #0 is computed by FBA...
Set new seed: 741545556
total metabolites env/read/known: 127/423/127
[1;33m[WARNING]:[0m At setSpeciesOD, flux mode #0 is computed by FBA...
[1;33m[WARNING]:[0m At setSpeciesOD, flux mode #0 is computed by FBA...
Set new seed: 769711246
total metabolites env/read/known: 127/423/127
[1;33m[WARNING]:[0m At setSpeciesOD, flux mode #0 is computed by FBA...
[1;33m[WARNING]:[0m At setSpeciesOD, flux mode #0 is computed by FBA...
Set new seed: 2173934149
total metabolites env/read/known: 127/423/127
[1;33m[WARNING]:[0m At setSpeciesOD, flux mode #0 is computed by FBA...
[1;33m[WARNING]:[0m At setSpeciesOD, flux mode #0 is computed by FBA...
Set new seed: 3569787824
total metabolites env/read/known: 127/423/127
[1;33m[WARNING]:[0m At setSpeciesOD, flux mode #0 is computed by FBA...
[1;33m[WARNING]:[0m At setSpeciesOD, flux mode #0 is computed by FBA...
Set new seed: 686948528
total metabolites env/read/known: 127/423/127
[1;33m[WARNING]:[0m At setSpeciesOD, flux mode #0 is computed by FBA...
[1;33m[WARNING]:[0m At setSpeciesOD, flux mode #0 is computed by FBA...
Set new seed: 2153072632
total metabolites env/read/known: 127/423/127
[1;33m[WARNING]:[0m At setSpeciesOD, flux mode #0 is computed by FBA...
[1;33m[WARNING]:[0m At setSpeciesOD, flux mode #0 is computed by FBA...
Set new seed: 3555942117
total metabolites env/read/known: 127/423/127
[1;33m[WARNING]:[0m At setSpeciesOD, flux mode #0 is computed by FBA...
[1;33m[WARNING]:[0m At setSpeciesOD, flux mode #0 is computed by FBA...
Set new seed: 3584156896
total metabolites env/read/known: 127/423/127
[1;33m[WARNING]:[0m At setSpeciesOD, flux mode #0 is computed by FBA...
[1;33m[WARNING]:[0m At setSpeciesOD, flux mode #0 is computed by FBA...
Set new seed: 3612155121
total metabolites env/read/known: 127/423/127
[1;33m[WARNING]:[0m At setSpeciesOD, flux mode #0 is computed by FBA...
[1;33m[WARNING]:[0m At setSpeciesOD, flux mode #0 is computed by FBA...
Set new seed: 3640079330
total metabolites env/read/known: 127/423/127
[1;33m[WARNING]:[0m At setSpeciesOD, flux mode #0 is computed by FBA...
[1;33m[WARNING]:[0m At setSpeciesOD, flux mode #0 is computed by FBA...
Set new seed: 3668207004
total metabolites env/read/known: 127/423/127
[1;33m[WARNING]:[0m At setSpeciesOD, flux mode #0 is computed by FBA...
[1;33m[WARNING]:[0m At setSpeciesOD, flux mode #0 is computed by FBA...
Set new seed: 3696467000
total metabolites env/read/known: 127/423/127
[1;33m[WARNING]:[0m At setSpeciesOD, flux mode #0 is computed by FBA...
[1;33m[WARNING]:[0m At setSpeciesOD, flux mode #0 is computed by FBA...
Set new seed: 796341947
total metabolites env/read/known: 127/423/127
[1;33m[WARNING]:[0m At setSpeciesOD, flux mode #0 is computed by FBA...
[1;33m[WARNING]:[0m At setSpeciesOD, flux mode #0 is computed by FBA...
Set new seed: 2194149287
total metabolites env/read/known: 127/423/127
[1;33m[WARNING]:[0m At setSpeciesOD, flux mode #0 is computed by FBA...
[1;33m[WARNING]:[0m At setSpeciesOD, flux mode #0 is computed by FBA...
Set new seed: 3594479788
total metabolites env/read/known: 127/423/127
[1;33m[WARNING]:[0m At setSpeciesOD, flux mode #0 is computed by FBA...
[1;33m[WARNING]:[0m At setSpeciesOD, flux mode #0 is computed by FBA...
Set new seed: 710743273
total metabolites env/read/known: 127/423/127
[1;33m[WARNING]:[0m At setSpeciesOD, flux mode #0 is computed by FBA...
[1;33m[WARNING]:[0m At setSpeciesOD, flux mode #0 is computed by FBA...
Set new seed: 2103740988
total metabolites env/read/known: 127/423/127
[1;33m[WARNING]:[0m At setSpeciesOD, flux mode #0 is computed by FBA...
[1;33m[WARNING]:[0m At setSpeciesOD, flux mode #0 is computed by FBA...
Set new seed: 3513322036
total metabolites env/read/known: 127/423/127
[1;33m[WARNING]:[0m At setSpeciesOD, flux mode #0 is computed by FBA...
[1;33m[WARNING]:[0m At setSpeciesOD, flux mode #0 is computed by FBA...
Set new seed: 637393616
total metabolites env/read/known: 127/423/127
[1;33m[WARNING]:[0m At setSpeciesOD, flux mode #0 is computed by FBA...
[1;33m[WARNING]:[0m At setSpeciesOD, flux mode #0 is computed by FBA...
Set new seed: 665493539
total metabolites env/read/known: 127/423/127
[1;33m[WARNING]:[0m At setSpeciesOD, flux mode #0 is computed by FBA...
[1;33m[WARNING]:[0m At setSpeciesOD, flux mode #0 is computed by FBA...
Set new seed: 693924789
total metabolites env/read/known: 127/423/127
[1;33m[WARNING]:[0m At setSpeciesOD, flux mode #0 is computed by FBA...
[1;33m[WARNING]:[0m At setSpeciesOD, flux mode #0 is computed by FBA...
Set new seed: 722321951
total metabolites env/read/known: 127/423/127
[1;33m[WARNING]:[0m At setSpeciesOD, flux mode #0 is computed by FBA...
[1;33m[WARNING]:[0m At setSpeciesOD, flux mode #0 is computed by FBA...
Set new seed: 750367087
total metabolites env/read/known: 127/423/127
[1;33m[WARNING]:[0m At setSpeciesOD, flux mode #0 is computed by FBA...
[1;33m[WARNING]:[0m At setSpeciesOD, flux mode #0 is computed by FBA...
Set new seed: 778656457
total metabolites env/read/known: 127/423/127
[1;33m[WARNING]:[0m At setSpeciesOD, flux mode #0 is computed by FBA...
[1;33m[WARNING]:[0m At setSpeciesOD, flux mode #0 is computed by FBA...
Set new seed: 2189482977
total metabolites env/read/known: 127/423/127
[1;33m[WARNING]:[0m At setSpeciesOD, flux mode #0 is computed by FBA...
[1;33m[WARNING]:[0m At setSpeciesOD, flux mode #0 is computed by FBA...
Set new seed: 3579845712
total metabolites env/read/known: 127/423/127
[1;33m[WARNING]:[0m At setSpeciesOD, flux mode #0 is computed by FBA...
[1;33m[WARNING]:[0m At setSpeciesOD, flux mode #0 is computed by FBA...
Set new seed: 683474941
total metabolites env/read/known: 127/423/127
[1;33m[WARNING]:[0m At setSpeciesOD, flux mode #0 is computed by FBA...
[1;33m[WARNING]:[0m At setSpeciesOD, flux mode #0 is computed by FBA...
Set new seed: 2117888534
total metabolites env/read/known: 127/423/127
[1;33m[WARNING]:[0m At setSpeciesOD, flux mode #0 is computed by FBA...
[1;33m[WARNING]:[0m At setSpeciesOD, flux mode #0 is computed by FBA...
Set new seed: 372288665
total metabolites env/read/known: 127/423/127
[1;33m[WARNING]:[0m At setSpeciesOD, flux mode #0 is computed by FBA...
[1;33m[WARNING]:[0m At setSpeciesOD, flux mode #0 is computed by FBA...
[1;33m[WARNING]:[0m At setSpeciesOD, flux mode #0 is computed by FBA...
[1;33m[WARNING]:[0m At setSpeciesOD, flux mode #0 is computed by FBA...
[1;33m[WARNING]:[0m No (further) growth detected, stopping simulation...
Simulating trajectory complete
calibrateGrowthCurve with  diet
final point:
	t = 11.2986h
	OD[0] = 1.38749;	r[0] = -0.1

Set param (FLX)   : 1911.6
Set param (YLD)   : 0.0423302
Set param (CRW)   : 0.270922
Set param (CNC)   : 0.0140494
Set param (maxR)  : 1.109
Set param (maxOD) : 1.38749

****************************************************
*** Finished calibrating species growth curve(s) ***
****************************************************

[1;35m[LOGGING SYSTEM]:[0m Goodbye World!
