[1;35m[LOGGING SYSTEM]:[0m Hello World!
[1;35m[LOGGING SYSTEM]:[0m set to lvl 3
[1;33m[WARNING]:[0m 
You are running CALIBRATION-ONLY mode.
No culturing simulation will be run.

********************************
*** Detecting program directory ***
********************************
*****************************************
*** Finished detecting program directory ***
*****************************************

********************************
*** Fetching parameter files ***
********************************
Loading parameters from arguments...
Simulation setA_14_vegan in CALIBRATION-ONLY mode.
Calibrate 1 species,
in environment: vegan.
*****************************************
*** Finished fetching parameter files ***
*****************************************

*************************************
*** Initialising folder structure ***
*************************************
**********************************************
*** Finished initialising folder structure ***
**********************************************

*******************************
*** Loading SBML model data ***
*******************************
Loading species (1/1)
Parsing of SBML file: ../materials/sbml_files/agora_1.03/Faecalibacterium_cf_prausnitzii_KLE1255.xml complete
Species ID		: Faecalibacterium_cf_prausnitzii_KLE1255
Amount of metabolites	: 831
Stoichiometric matrix	: 3765 non-zero metabolite-reaction pairs
Amount of reactions	: 1234	: 100.0%
---------------------------------------
	# forward 	: 906	: 73.4198%
	# reverse 	: 328	: 26.5802%
	-----------------------------------
	# internal	: 1066	: 86.3857%
	# exchange	: 168	: 13.6143%

Flux objective(s): 
	1 x R_biomass525

Done!

****************************************
*** Finished loading SBML model data ***
****************************************

*******************************************
*** Calibrating species growth curve(s) ***
*******************************************
Set new seed: 2752303742
total metabolites env/read/known: 118/423/116
[1;33m[WARNING]:[0m At setSpeciesOD, flux mode #0 is computed by FBA...
No parameter file found for species (1/1), calibrating growth curve now...
Set new seed: 2779837501
total metabolites env/read/known: 118/423/116
[1;33m[WARNING]:[0m At setSpeciesOD, flux mode #0 is computed by FBA...
[1;33m[WARNING]:[0m At setSpeciesOD, flux mode #0 is computed by FBA...
Set new seed: 2803268066
total metabolites env/read/known: 118/423/116
[1;33m[WARNING]:[0m At setSpeciesOD, flux mode #0 is computed by FBA...
[1;33m[WARNING]:[0m At setSpeciesOD, flux mode #0 is computed by FBA...
Set new seed: 2826763045
total metabolites env/read/known: 118/423/116
[1;33m[WARNING]:[0m At setSpeciesOD, flux mode #0 is computed by FBA...
[1;33m[WARNING]:[0m At setSpeciesOD, flux mode #0 is computed by FBA...
Set new seed: 2850212571
total metabolites env/read/known: 118/423/116
[1;33m[WARNING]:[0m At setSpeciesOD, flux mode #0 is computed by FBA...
[1;33m[WARNING]:[0m At setSpeciesOD, flux mode #0 is computed by FBA...
Set new seed: 2873554950
total metabolites env/read/known: 118/423/116
[1;33m[WARNING]:[0m At setSpeciesOD, flux mode #0 is computed by FBA...
[1;33m[WARNING]:[0m At setSpeciesOD, flux mode #0 is computed by FBA...
Set new seed: 2897297797
total metabolites env/read/known: 118/423/116
[1;33m[WARNING]:[0m At setSpeciesOD, flux mode #0 is computed by FBA...
[1;33m[WARNING]:[0m At setSpeciesOD, flux mode #0 is computed by FBA...
Set new seed: 2921761744
total metabolites env/read/known: 118/423/116
[1;33m[WARNING]:[0m At setSpeciesOD, flux mode #0 is computed by FBA...
[1;33m[WARNING]:[0m At setSpeciesOD, flux mode #0 is computed by FBA...
Set new seed: 2945153636
total metabolites env/read/known: 118/423/116
[1;33m[WARNING]:[0m At setSpeciesOD, flux mode #0 is computed by FBA...
[1;33m[WARNING]:[0m At setSpeciesOD, flux mode #0 is computed by FBA...
Set new seed: 2968581619
total metabolites env/read/known: 118/423/116
[1;33m[WARNING]:[0m At setSpeciesOD, flux mode #0 is computed by FBA...
[1;33m[WARNING]:[0m At setSpeciesOD, flux mode #0 is computed by FBA...
Set new seed: 2992262211
total metabolites env/read/known: 118/423/116
[1;33m[WARNING]:[0m At setSpeciesOD, flux mode #0 is computed by FBA...
[1;33m[WARNING]:[0m At setSpeciesOD, flux mode #0 is computed by FBA...
Set new seed: 3015961453
total metabolites env/read/known: 118/423/116
[1;33m[WARNING]:[0m At setSpeciesOD, flux mode #0 is computed by FBA...
[1;33m[WARNING]:[0m At setSpeciesOD, flux mode #0 is computed by FBA...
Set new seed: 3527517790
total metabolites env/read/known: 118/423/116
[1;33m[WARNING]:[0m At setSpeciesOD, flux mode #0 is computed by FBA...
[1;33m[WARNING]:[0m At setSpeciesOD, flux mode #0 is computed by FBA...
Set new seed: 3810388067
total metabolites env/read/known: 118/423/116
[1;33m[WARNING]:[0m At setSpeciesOD, flux mode #0 is computed by FBA...
[1;33m[WARNING]:[0m At setSpeciesOD, flux mode #0 is computed by FBA...
Set new seed: 4097165872
total metabolites env/read/known: 118/423/116
[1;33m[WARNING]:[0m At setSpeciesOD, flux mode #0 is computed by FBA...
[1;33m[WARNING]:[0m At setSpeciesOD, flux mode #0 is computed by FBA...
Set new seed: 187671512
total metabolites env/read/known: 118/423/116
[1;33m[WARNING]:[0m At setSpeciesOD, flux mode #0 is computed by FBA...
[1;33m[WARNING]:[0m At setSpeciesOD, flux mode #0 is computed by FBA...
Set new seed: 577137944
total metabolites env/read/known: 118/423/116
[1;33m[WARNING]:[0m At setSpeciesOD, flux mode #0 is computed by FBA...
[1;33m[WARNING]:[0m At setSpeciesOD, flux mode #0 is computed by FBA...
Set new seed: 966127661
total metabolites env/read/known: 118/423/116
[1;33m[WARNING]:[0m At setSpeciesOD, flux mode #0 is computed by FBA...
[1;33m[WARNING]:[0m At setSpeciesOD, flux mode #0 is computed by FBA...
Set new seed: 1399639976
total metabolites env/read/known: 118/423/116
[1;33m[WARNING]:[0m At setSpeciesOD, flux mode #0 is computed by FBA...
[1;33m[WARNING]:[0m At setSpeciesOD, flux mode #0 is computed by FBA...
Set new seed: 1854689047
total metabolites env/read/known: 118/423/116
[1;33m[WARNING]:[0m At setSpeciesOD, flux mode #0 is computed by FBA...
[1;33m[WARNING]:[0m At setSpeciesOD, flux mode #0 is computed by FBA...
Set new seed: 2292894331
total metabolites env/read/known: 118/423/116
[1;33m[WARNING]:[0m At setSpeciesOD, flux mode #0 is computed by FBA...
[1;33m[WARNING]:[0m At setSpeciesOD, flux mode #0 is computed by FBA...
Set new seed: 2636806336
total metabolites env/read/known: 118/423/116
[1;33m[WARNING]:[0m At setSpeciesOD, flux mode #0 is computed by FBA...
[1;33m[WARNING]:[0m At setSpeciesOD, flux mode #0 is computed by FBA...
Set new seed: 2661673848
total metabolites env/read/known: 118/423/116
[1;33m[WARNING]:[0m At setSpeciesOD, flux mode #0 is computed by FBA...
[1;33m[WARNING]:[0m At setSpeciesOD, flux mode #0 is computed by FBA...
Set new seed: 2685756294
total metabolites env/read/known: 118/423/116
[1;33m[WARNING]:[0m At setSpeciesOD, flux mode #0 is computed by FBA...
[1;33m[WARNING]:[0m At setSpeciesOD, flux mode #0 is computed by FBA...
Set new seed: 2710619368
total metabolites env/read/known: 118/423/116
[1;33m[WARNING]:[0m At setSpeciesOD, flux mode #0 is computed by FBA...
[1;33m[WARNING]:[0m At setSpeciesOD, flux mode #0 is computed by FBA...
Set new seed: 2735030634
total metabolites env/read/known: 118/423/116
[1;33m[WARNING]:[0m At setSpeciesOD, flux mode #0 is computed by FBA...
[1;33m[WARNING]:[0m At setSpeciesOD, flux mode #0 is computed by FBA...
Set new seed: 2760331250
total metabolites env/read/known: 118/423/116
[1;33m[WARNING]:[0m At setSpeciesOD, flux mode #0 is computed by FBA...
[1;33m[WARNING]:[0m At setSpeciesOD, flux mode #0 is computed by FBA...
Set new seed: 3301406896
total metabolites env/read/known: 118/423/116
[1;33m[WARNING]:[0m At setSpeciesOD, flux mode #0 is computed by FBA...
[1;33m[WARNING]:[0m At setSpeciesOD, flux mode #0 is computed by FBA...
Set new seed: 3862850174
total metabolites env/read/known: 118/423/116
[1;33m[WARNING]:[0m At setSpeciesOD, flux mode #0 is computed by FBA...
[1;33m[WARNING]:[0m At setSpeciesOD, flux mode #0 is computed by FBA...
Set new seed: 4283416809
total metabolites env/read/known: 118/423/116
[1;33m[WARNING]:[0m At setSpeciesOD, flux mode #0 is computed by FBA...
[1;33m[WARNING]:[0m At setSpeciesOD, flux mode #0 is computed by FBA...
Set new seed: 545300651
total metabolites env/read/known: 118/423/116
[1;33m[WARNING]:[0m At setSpeciesOD, flux mode #0 is computed by FBA...
[1;33m[WARNING]:[0m At setSpeciesOD, flux mode #0 is computed by FBA...
Set new seed: 1001420481
total metabolites env/read/known: 118/423/116
[1;33m[WARNING]:[0m At setSpeciesOD, flux mode #0 is computed by FBA...
[1;33m[WARNING]:[0m At setSpeciesOD, flux mode #0 is computed by FBA...
Set new seed: 1503488957
total metabolites env/read/known: 118/423/116
[1;33m[WARNING]:[0m At setSpeciesOD, flux mode #0 is computed by FBA...
[1;33m[WARNING]:[0m At setSpeciesOD, flux mode #0 is computed by FBA...
Set new seed: 2122930653
total metabolites env/read/known: 118/423/116
[1;33m[WARNING]:[0m At setSpeciesOD, flux mode #0 is computed by FBA...
[1;33m[WARNING]:[0m At setSpeciesOD, flux mode #0 is computed by FBA...
Set new seed: 2836747076
total metabolites env/read/known: 118/423/116
[1;33m[WARNING]:[0m At setSpeciesOD, flux mode #0 is computed by FBA...
[1;33m[WARNING]:[0m At setSpeciesOD, flux mode #0 is computed by FBA...
Set new seed: 3626647279
total metabolites env/read/known: 118/423/116
[1;33m[WARNING]:[0m At setSpeciesOD, flux mode #0 is computed by FBA...
[1;33m[WARNING]:[0m At setSpeciesOD, flux mode #0 is computed by FBA...
Set new seed: 3651364222
total metabolites env/read/known: 118/423/116
[1;33m[WARNING]:[0m At setSpeciesOD, flux mode #0 is computed by FBA...
[1;33m[WARNING]:[0m At setSpeciesOD, flux mode #0 is computed by FBA...
Set new seed: 3676040108
total metabolites env/read/known: 118/423/116
[1;33m[WARNING]:[0m At setSpeciesOD, flux mode #0 is computed by FBA...
[1;33m[WARNING]:[0m At setSpeciesOD, flux mode #0 is computed by FBA...
Set new seed: 3700293696
total metabolites env/read/known: 118/423/116
[1;33m[WARNING]:[0m At setSpeciesOD, flux mode #0 is computed by FBA...
[1;33m[WARNING]:[0m At setSpeciesOD, flux mode #0 is computed by FBA...
Set new seed: 3724652742
total metabolites env/read/known: 118/423/116
[1;33m[WARNING]:[0m At setSpeciesOD, flux mode #0 is computed by FBA...
[1;33m[WARNING]:[0m At setSpeciesOD, flux mode #0 is computed by FBA...
Set new seed: 3749077448
total metabolites env/read/known: 118/423/116
[1;33m[WARNING]:[0m At setSpeciesOD, flux mode #0 is computed by FBA...
[1;33m[WARNING]:[0m At setSpeciesOD, flux mode #0 is computed by FBA...
Set new seed: 86757462
total metabolites env/read/known: 118/423/116
[1;33m[WARNING]:[0m At setSpeciesOD, flux mode #0 is computed by FBA...
[1;33m[WARNING]:[0m At setSpeciesOD, flux mode #0 is computed by FBA...
Set new seed: 860243717
total metabolites env/read/known: 118/423/116
[1;33m[WARNING]:[0m At setSpeciesOD, flux mode #0 is computed by FBA...
[1;33m[WARNING]:[0m At setSpeciesOD, flux mode #0 is computed by FBA...
Set new seed: 1603316314
total metabolites env/read/known: 118/423/116
[1;33m[WARNING]:[0m At setSpeciesOD, flux mode #0 is computed by FBA...
[1;33m[WARNING]:[0m At setSpeciesOD, flux mode #0 is computed by FBA...
Set new seed: 2385826700
total metabolites env/read/known: 118/423/116
[1;33m[WARNING]:[0m At setSpeciesOD, flux mode #0 is computed by FBA...
[1;33m[WARNING]:[0m At setSpeciesOD, flux mode #0 is computed by FBA...
Set new seed: 3237342238
total metabolites env/read/known: 118/423/116
[1;33m[WARNING]:[0m At setSpeciesOD, flux mode #0 is computed by FBA...
[1;33m[WARNING]:[0m At setSpeciesOD, flux mode #0 is computed by FBA...
Set new seed: 4056263584
total metabolites env/read/known: 118/423/116
[1;33m[WARNING]:[0m At setSpeciesOD, flux mode #0 is computed by FBA...
[1;33m[WARNING]:[0m At setSpeciesOD, flux mode #0 is computed by FBA...
Set new seed: 646699358
total metabolites env/read/known: 118/423/116
[1;33m[WARNING]:[0m At setSpeciesOD, flux mode #0 is computed by FBA...
[1;33m[WARNING]:[0m At setSpeciesOD, flux mode #0 is computed by FBA...
Set new seed: 1600445784
total metabolites env/read/known: 118/423/116
[1;33m[WARNING]:[0m At setSpeciesOD, flux mode #0 is computed by FBA...
[1;33m[WARNING]:[0m At setSpeciesOD, flux mode #0 is computed by FBA...
Set new seed: 2582309652
total metabolites env/read/known: 118/423/116
[1;33m[WARNING]:[0m At setSpeciesOD, flux mode #0 is computed by FBA...
[1;33m[WARNING]:[0m At setSpeciesOD, flux mode #0 is computed by FBA...
Set new seed: 2607329392
total metabolites env/read/known: 118/423/116
[1;33m[WARNING]:[0m At setSpeciesOD, flux mode #0 is computed by FBA...
[1;33m[WARNING]:[0m At setSpeciesOD, flux mode #0 is computed by FBA...
Set new seed: 2632466257
total metabolites env/read/known: 118/423/116
[1;33m[WARNING]:[0m At setSpeciesOD, flux mode #0 is computed by FBA...
[1;33m[WARNING]:[0m At setSpeciesOD, flux mode #0 is computed by FBA...
Set new seed: 2657585340
total metabolites env/read/known: 118/423/116
[1;33m[WARNING]:[0m At setSpeciesOD, flux mode #0 is computed by FBA...
[1;33m[WARNING]:[0m At setSpeciesOD, flux mode #0 is computed by FBA...
Set new seed: 2683273205
total metabolites env/read/known: 118/423/116
[1;33m[WARNING]:[0m At setSpeciesOD, flux mode #0 is computed by FBA...
[1;33m[WARNING]:[0m At setSpeciesOD, flux mode #0 is computed by FBA...
Set new seed: 2709083120
total metabolites env/read/known: 118/423/116
[1;33m[WARNING]:[0m At setSpeciesOD, flux mode #0 is computed by FBA...
[1;33m[WARNING]:[0m At setSpeciesOD, flux mode #0 is computed by FBA...
Set new seed: 3836452935
total metabolites env/read/known: 118/423/116
[1;33m[WARNING]:[0m At setSpeciesOD, flux mode #0 is computed by FBA...
[1;33m[WARNING]:[0m At setSpeciesOD, flux mode #0 is computed by FBA...
Set new seed: 574270623
total metabolites env/read/known: 118/423/116
[1;33m[WARNING]:[0m At setSpeciesOD, flux mode #0 is computed by FBA...
[1;33m[WARNING]:[0m At setSpeciesOD, flux mode #0 is computed by FBA...
Set new seed: 1559546901
total metabolites env/read/known: 118/423/116
[1;33m[WARNING]:[0m At setSpeciesOD, flux mode #0 is computed by FBA...
[1;33m[WARNING]:[0m At setSpeciesOD, flux mode #0 is computed by FBA...
Set new seed: 2521724653
total metabolites env/read/known: 118/423/116
[1;33m[WARNING]:[0m At setSpeciesOD, flux mode #0 is computed by FBA...
[1;33m[WARNING]:[0m At setSpeciesOD, flux mode #0 is computed by FBA...
Set new seed: 3584789036
total metabolites env/read/known: 118/423/116
[1;33m[WARNING]:[0m At setSpeciesOD, flux mode #0 is computed by FBA...
[1;33m[WARNING]:[0m At setSpeciesOD, flux mode #0 is computed by FBA...
Set new seed: 402591911
total metabolites env/read/known: 118/423/116
[1;33m[WARNING]:[0m At setSpeciesOD, flux mode #0 is computed by FBA...
[1;33m[WARNING]:[0m At setSpeciesOD, flux mode #0 is computed by FBA...
Set new seed: 1479235387
total metabolites env/read/known: 118/423/116
[1;33m[WARNING]:[0m At setSpeciesOD, flux mode #0 is computed by FBA...
[1;33m[WARNING]:[0m At setSpeciesOD, flux mode #0 is computed by FBA...
Set new seed: 2610043995
total metabolites env/read/known: 118/423/116
[1;33m[WARNING]:[0m At setSpeciesOD, flux mode #0 is computed by FBA...
[1;33m[WARNING]:[0m At setSpeciesOD, flux mode #0 is computed by FBA...
Set new seed: 3789955564
total metabolites env/read/known: 118/423/116
[1;33m[WARNING]:[0m At setSpeciesOD, flux mode #0 is computed by FBA...
[1;33m[WARNING]:[0m At setSpeciesOD, flux mode #0 is computed by FBA...
Set new seed: 3815262394
total metabolites env/read/known: 118/423/116
[1;33m[WARNING]:[0m At setSpeciesOD, flux mode #0 is computed by FBA...
[1;33m[WARNING]:[0m At setSpeciesOD, flux mode #0 is computed by FBA...
Set new seed: 3840526396
total metabolites env/read/known: 118/423/116
[1;33m[WARNING]:[0m At setSpeciesOD, flux mode #0 is computed by FBA...
[1;33m[WARNING]:[0m At setSpeciesOD, flux mode #0 is computed by FBA...
Set new seed: 3865504892
total metabolites env/read/known: 118/423/116
[1;33m[WARNING]:[0m At setSpeciesOD, flux mode #0 is computed by FBA...
[1;33m[WARNING]:[0m At setSpeciesOD, flux mode #0 is computed by FBA...
Set new seed: 3891474141
total metabolites env/read/known: 118/423/116
[1;33m[WARNING]:[0m At setSpeciesOD, flux mode #0 is computed by FBA...
[1;33m[WARNING]:[0m At setSpeciesOD, flux mode #0 is computed by FBA...
Set new seed: 3916390178
total metabolites env/read/known: 118/423/116
[1;33m[WARNING]:[0m At setSpeciesOD, flux mode #0 is computed by FBA...
[1;33m[WARNING]:[0m At setSpeciesOD, flux mode #0 is computed by FBA...
Set new seed: 616069254
total metabolites env/read/known: 118/423/116
[1;33m[WARNING]:[0m At setSpeciesOD, flux mode #0 is computed by FBA...
[1;33m[WARNING]:[0m At setSpeciesOD, flux mode #0 is computed by FBA...
Set new seed: 1685429049
total metabolites env/read/known: 118/423/116
[1;33m[WARNING]:[0m At setSpeciesOD, flux mode #0 is computed by FBA...
[1;33m[WARNING]:[0m At setSpeciesOD, flux mode #0 is computed by FBA...
Set new seed: 2798231029
total metabolites env/read/known: 118/423/116
[1;33m[WARNING]:[0m At setSpeciesOD, flux mode #0 is computed by FBA...
[1;33m[WARNING]:[0m At setSpeciesOD, flux mode #0 is computed by FBA...
Set new seed: 3917246902
total metabolites env/read/known: 118/423/116
[1;33m[WARNING]:[0m At setSpeciesOD, flux mode #0 is computed by FBA...
[1;33m[WARNING]:[0m At setSpeciesOD, flux mode #0 is computed by FBA...
Set new seed: 725974957
total metabolites env/read/known: 118/423/116
[1;33m[WARNING]:[0m At setSpeciesOD, flux mode #0 is computed by FBA...
[1;33m[WARNING]:[0m At setSpeciesOD, flux mode #0 is computed by FBA...
Set new seed: 1833050662
total metabolites env/read/known: 118/423/116
[1;33m[WARNING]:[0m At setSpeciesOD, flux mode #0 is computed by FBA...
[1;33m[WARNING]:[0m At setSpeciesOD, flux mode #0 is computed by FBA...
Set new seed: 3171906299
total metabolites env/read/known: 118/423/116
[1;33m[WARNING]:[0m At setSpeciesOD, flux mode #0 is computed by FBA...
[1;33m[WARNING]:[0m At setSpeciesOD, flux mode #0 is computed by FBA...
Set new seed: 3196750055
total metabolites env/read/known: 118/423/116
[1;33m[WARNING]:[0m At setSpeciesOD, flux mode #0 is computed by FBA...
[1;33m[WARNING]:[0m At setSpeciesOD, flux mode #0 is computed by FBA...
Set new seed: 3222009641
total metabolites env/read/known: 118/423/116
[1;33m[WARNING]:[0m At setSpeciesOD, flux mode #0 is computed by FBA...
[1;33m[WARNING]:[0m At setSpeciesOD, flux mode #0 is computed by FBA...
Set new seed: 3246501554
total metabolites env/read/known: 118/423/116
[1;33m[WARNING]:[0m At setSpeciesOD, flux mode #0 is computed by FBA...
[1;33m[WARNING]:[0m At setSpeciesOD, flux mode #0 is computed by FBA...
Set new seed: 3271095320
total metabolites env/read/known: 118/423/116
[1;33m[WARNING]:[0m At setSpeciesOD, flux mode #0 is computed by FBA...
[1;33m[WARNING]:[0m At setSpeciesOD, flux mode #0 is computed by FBA...
Set new seed: 3296041777
total metabolites env/read/known: 118/423/116
[1;33m[WARNING]:[0m At setSpeciesOD, flux mode #0 is computed by FBA...
[1;33m[WARNING]:[0m At setSpeciesOD, flux mode #0 is computed by FBA...
Set new seed: 142840468
total metabolites env/read/known: 118/423/116
[1;33m[WARNING]:[0m At setSpeciesOD, flux mode #0 is computed by FBA...
[1;33m[WARNING]:[0m At setSpeciesOD, flux mode #0 is computed by FBA...
Set new seed: 1296120162
total metabolites env/read/known: 118/423/116
[1;33m[WARNING]:[0m At setSpeciesOD, flux mode #0 is computed by FBA...
[1;33m[WARNING]:[0m At setSpeciesOD, flux mode #0 is computed by FBA...
Set new seed: 2431134374
total metabolites env/read/known: 118/423/116
[1;33m[WARNING]:[0m At setSpeciesOD, flux mode #0 is computed by FBA...
[1;33m[WARNING]:[0m At setSpeciesOD, flux mode #0 is computed by FBA...
Set new seed: 3561403020
total metabolites env/read/known: 118/423/116
[1;33m[WARNING]:[0m At setSpeciesOD, flux mode #0 is computed by FBA...
[1;33m[WARNING]:[0m At setSpeciesOD, flux mode #0 is computed by FBA...
Set new seed: 441290604
total metabolites env/read/known: 118/423/116
[1;33m[WARNING]:[0m At setSpeciesOD, flux mode #0 is computed by FBA...
[1;33m[WARNING]:[0m At setSpeciesOD, flux mode #0 is computed by FBA...
Set new seed: 465841708
total metabolites env/read/known: 118/423/116
[1;33m[WARNING]:[0m At setSpeciesOD, flux mode #0 is computed by FBA...
[1;33m[WARNING]:[0m At setSpeciesOD, flux mode #0 is computed by FBA...
Set new seed: 490635573
total metabolites env/read/known: 118/423/116
[1;33m[WARNING]:[0m At setSpeciesOD, flux mode #0 is computed by FBA...
[1;33m[WARNING]:[0m At setSpeciesOD, flux mode #0 is computed by FBA...
Set new seed: 515554185
total metabolites env/read/known: 118/423/116
[1;33m[WARNING]:[0m At setSpeciesOD, flux mode #0 is computed by FBA...
[1;33m[WARNING]:[0m At setSpeciesOD, flux mode #0 is computed by FBA...
Set new seed: 540257042
total metabolites env/read/known: 118/423/116
[1;33m[WARNING]:[0m At setSpeciesOD, flux mode #0 is computed by FBA...
[1;33m[WARNING]:[0m At setSpeciesOD, flux mode #0 is computed by FBA...
Set new seed: 564809442
total metabolites env/read/known: 118/423/116
[1;33m[WARNING]:[0m At setSpeciesOD, flux mode #0 is computed by FBA...
[1;33m[WARNING]:[0m At setSpeciesOD, flux mode #0 is computed by FBA...
Set new seed: 1660349322
total metabolites env/read/known: 118/423/116
[1;33m[WARNING]:[0m At setSpeciesOD, flux mode #0 is computed by FBA...
[1;33m[WARNING]:[0m At setSpeciesOD, flux mode #0 is computed by FBA...
Set new seed: 2957620160
total metabolites env/read/known: 118/423/116
[1;33m[WARNING]:[0m At setSpeciesOD, flux mode #0 is computed by FBA...
[1;33m[WARNING]:[0m At setSpeciesOD, flux mode #0 is computed by FBA...
Set new seed: 4121251236
total metabolites env/read/known: 118/423/116
[1;33m[WARNING]:[0m At setSpeciesOD, flux mode #0 is computed by FBA...
[1;33m[WARNING]:[0m At setSpeciesOD, flux mode #0 is computed by FBA...
Set new seed: 1033381957
total metabolites env/read/known: 118/423/116
[1;33m[WARNING]:[0m At setSpeciesOD, flux mode #0 is computed by FBA...
[1;33m[WARNING]:[0m At setSpeciesOD, flux mode #0 is computed by FBA...
Set new seed: 2262586935
total metabolites env/read/known: 118/423/116
[1;33m[WARNING]:[0m At setSpeciesOD, flux mode #0 is computed by FBA...
[1;33m[WARNING]:[0m At setSpeciesOD, flux mode #0 is computed by FBA...
[1;33m[WARNING]:[0m At setSpeciesOD, flux mode #0 is computed by FBA...
[1;33m[WARNING]:[0m At setSpeciesOD, flux mode #0 is computed by FBA...
[1;33m[WARNING]:[0m No (further) growth detected, stopping simulation...
Simulating trajectory complete
calibrateGrowthCurve with  diet
final point:
	t = 13.0656h
	OD[0] = 1.38825;	r[0] = -0.1

Set param (FLX)   : 640.391
Set param (YLD)   : 0.00726963
Set param (CRW)   : 0.227642
Set param (CNC)   : 3.36173
Set param (maxR)  : 1.109
Set param (maxOD) : 1.38825

****************************************************
*** Finished calibrating species growth curve(s) ***
****************************************************

[1;35m[LOGGING SYSTEM]:[0m Goodbye World!
