	metabolite_index	reaction_index	stoichiometry	metabolite_id	reaction_id
1	0	1	-1	M_12dgr180__91__e__93__	R_12DGR180ti
2	2	19	-1	M_2obut__91__e__93__	R_23DHMPO
3	2	20	+1	M_2obut__91__e__93__	R_23PDE2
4	3	130	-1	M_4abz__91__e__93__	R_23PDE4
5	4	133	-1	M_4hbz__91__e__93__	R_23PDE7
6	4	134	+1	M_4hbz__91__e__93__	R_23PDE9
7	6	152	-1	M_acald__91__e__93__	R_26DAPLLATi
8	6	153	+1	M_acald__91__e__93__	R_2AHBUTI
9	7	163	-1	M_acgam__91__e__93__	R_2DHPL
10	8	199	-1	M_actn_R__91__e__93__	R_2HBO
11	8	200	+1	M_actn_R__91__e__93__	R_2HMCOXT
12	5	201	-1	M_ac__91__e__93__	R_2MBCOATA
13	5	202	+1	M_ac__91__e__93__	R_2OBUTt2r
14	9	207	-1	M_ade__91__e__93__	R_34DHOXPEGOX
15	9	208	+1	M_ade__91__e__93__	R_3HAD100
16	10	227	-1	M_adn__91__e__93__	R_3HAD10M12
17	10	228	+1	M_adn__91__e__93__	R_3HAD11M12
18	11	234	-1	M_adocbl__91__e__93__	R_3HAD120
19	13	276	-1	M_alaasp__91__e__93__	R_3HAD121
20	14	283	-1	M_alagln__91__e__93__	R_3HAD12M14
21	15	286	-1	M_alaglu__91__e__93__	R_3HAD13M14
22	16	289	-1	M_alagly__91__e__93__	R_3HAD140
23	17	292	-1	M_alahis__91__e__93__	R_3HAD141
24	18	295	-1	M_alaleu__91__e__93__	R_3HAD14M16
25	19	303	-1	M_alathr__91__e__93__	R_3HAD15M16
26	12	304	-1	M_ala_L__91__e__93__	R_3HAD160
27	12	305	+1	M_ala_L__91__e__93__	R_3HAD161
28	20	314	-1	M_alltn__91__e__93__	R_3HAD180
29	20	315	+1	M_alltn__91__e__93__	R_3HAD181
30	22	329	-1	M_arbt__91__e__93__	R_3HAD40
31	21	330	-1	M_arab_L__91__e__93__	R_3HAD4M6
32	23	334	-1	M_arsenb__91__e__93__	R_3HAD5M6
33	24	338	-1	M_asn_L__91__e__93__	R_3HAD60
34	24	339	+1	M_asn_L__91__e__93__	R_3HAD6M8
35	25	345	-1	M_asp_L__91__e__93__	R_3HAD7M8
36	25	346	+1	M_asp_L__91__e__93__	R_3HAD80
37	26	357	-1	M_btn__91__e__93__	R_3HAD8M10
38	27	358	-1	M_ca2__91__e__93__	R_3HAD9M10
39	28	361	-1	M_cbl1__91__e__93__	R_3MOBS
40	29	362	-1	M_cbl2__91__e__93__	R_3OAR100
41	30	365	+1	M_cd2__91__e__93__	R_3OAR10M11
42	31	371	-1	M_cellb__91__e__93__	R_3OAR10M12
43	32	372	-1	M_cgly__91__e__93__	R_3OAR11M12
44	33	373	-1	M_chol__91__e__93__	R_3OAR120
45	33	374	-1	M_chol__91__e__93__	R_3OAR12M13
46	33	375	+1	M_chol__91__e__93__	R_3OAR12M14
47	34	379	-1	M_chols__91__e__93__	R_3OAR13M14
48	36	404	-1	M_co2__91__e__93__	R_3OAR140
49	36	405	+1	M_co2__91__e__93__	R_3OAR14M15
50	37	406	+1	M_cobalt2__91__e__93__	R_3OAR14M16
51	37	407	-1	M_cobalt2__91__e__93__	R_3OAR15M16
52	38	410	-1	M_crn__91__e__93__	R_3OAR160
53	39	412	-1	M_csn__91__e__93__	R_3OAR180
54	40	413	-1	M_ctbt__91__e__93__	R_3OAR40
55	42	421	-1	M_cys_L__91__e__93__	R_3OAR4M5
56	42	422	+1	M_cys_L__91__e__93__	R_3OAR4M6
57	43	430	-1	M_cytd__91__e__93__	R_3OAR5M6
58	43	431	+1	M_cytd__91__e__93__	R_3OAR60
59	41	436	-1	M_cu2__91__e__93__	R_3OAR6M7
60	41	437	+1	M_cu2__91__e__93__	R_3OAR6M8
61	44	440	-1	M_dad_2__91__e__93__	R_3OAR7M8
62	44	441	+1	M_dad_2__91__e__93__	R_3OAR80
63	1	455	-1	M_26dap_M__91__e__93__	R_3OAR8M10
64	45	475	-1	M_dcyt__91__e__93__	R_3OAR8M9
65	45	476	+1	M_dcyt__91__e__93__	R_3OAR9M10
66	46	483	-1	M_dextrin__91__e__93__	R_3OAS100
67	47	486	-1	M_dgsn__91__e__93__	R_3OAS10M11
68	48	515	-1	M_din__91__e__93__	R_3OAS10M12
69	49	541	-1	M_duri__91__e__93__	R_3OAS11M12
70	50	585	-1	M_etoh__91__e__93__	R_3OAS120
71	50	586	+1	M_etoh__91__e__93__	R_3OAS121
72	57	589	-1	M_fuc1p_L__91__e__93__	R_3OAS12M13
73	116	589	+2	M_pi__91__e__93__	R_3OAS12M13
74	57	590	+1	M_fuc1p_L__91__e__93__	R_3OAS12M14
75	116	590	-2	M_pi__91__e__93__	R_3OAS12M14
76	51	601	-1	M_fe2__91__e__93__	R_3OAS13M14
77	52	602	-1	M_fe3__91__e__93__	R_3OAS140
78	53	603	-1	M_fecrm__91__e__93__	R_3OAS141
79	54	612	-1	M_fol__91__e__93__	R_3OAS160
80	54	613	+1	M_fol__91__e__93__	R_3OAS161
81	55	616	-1	M_for__91__e__93__	R_3OAS180
82	55	617	+1	M_for__91__e__93__	R_3OAS181
83	56	626	-1	M_fru__91__e__93__	R_3OAS2M3
84	58	666	-1	M_g6p__91__e__93__	R_3OAS3M4
85	116	666	+2	M_pi__91__e__93__	R_3OAS3M4
86	58	667	+1	M_g6p__91__e__93__	R_3OAS4M3O6
87	116	667	-2	M_pi__91__e__93__	R_3OAS4M3O6
88	59	675	-1	M_galt__91__e__93__	R_3OAS4M5
89	60	678	-1	M_gam__91__e__93__	R_3OAS4M6
90	61	682	-1	M_gbbtn__91__e__93__	R_3OAS5M6
91	62	684	-1	M_gcald__91__e__93__	R_3OAS60
92	62	685	+1	M_gcald__91__e__93__	R_3OAS6M7
93	63	702	-1	M_glc_D__91__e__93__	R_3OAS6M8
94	63	703	-1	M_glc_D__91__e__93__	R_3OAS7M8
95	64	709	-1	M_gln_L__91__e__93__	R_3OAS80
96	64	710	-1	M_gln_L__91__e__93__	R_3OAS8M10
97	64	711	+1	M_gln_L__91__e__93__	R_3OAS8M9
98	65	725	-1	M_glu_L__91__e__93__	R_3OAS9M10
99	65	726	+1	M_glu_L__91__e__93__	R_4ABZt2
100	67	729	-1	M_glyasn__91__e__93__	R_4HBZCL
101	68	732	-1	M_glyasp__91__e__93__	R_4HBZt2
102	69	733	-1	M_glyb__91__e__93__	R_4HTHRS
103	71	736	-1	M_glycys__91__e__93__	R_5AIZCDC
104	70	737	+1	M_glyc__91__e__93__	R_5MTHCYST
105	70	738	-1	M_glyc__91__e__93__	R_6PHBG
106	72	741	-1	M_glygln__91__e__93__	R_6PHBG2
107	73	744	-1	M_glyglu__91__e__93__	R_A5PISO
108	74	748	-1	M_glyleu__91__e__93__	R_AACPS6
109	75	751	-1	M_glymet__91__e__93__	R_AACPS7
110	76	755	-1	M_glyphe__91__e__93__	R_AB6PGH
111	77	758	-1	M_glypro__91__e__93__	R_AB6PGH2
112	78	761	-1	M_glytyr__91__e__93__	R_ABTOXy
113	66	762	-1	M_gly__91__e__93__	R_ABUTD
114	66	763	+1	M_gly__91__e__93__	R_ACALD
115	79	782	-1	M_gua__91__e__93__	R_ACALDt
116	79	783	+1	M_gua__91__e__93__	R_ACBIPGT
117	79	784	-1	M_gua__91__e__93__	R_ACCOAC
118	115	792	-1	M_pheme__91__e__93__	R_ACCOACL
119	80	799	+1	M_hg2__91__e__93__	R_ACCOALYS2
120	81	805	-1	M_his_L__91__e__93__	R_ACEDIPIT
121	81	806	+1	M_his_L__91__e__93__	R_ACGAMPM
122	85	808	-1	M_k__91__e__93__	R_ACGAMT
123	82	830	-1	M_hxan__91__e__93__	R_ACGApts
124	83	854	-1	M_ile_L__91__e__93__	R_ACGK
125	83	855	-1	M_ile_L__91__e__93__	R_ACGS
126	83	856	+1	M_ile_L__91__e__93__	R_ACHBPL
127	84	862	-1	M_ins__91__e__93__	R_ACKr
128	84	863	+1	M_ins__91__e__93__	R_ACLDC
129	85	893	-1	M_k__91__e__93__	R_ACLS_a
130	85	894	+1	M_k__91__e__93__	R_ACLS_b
131	85	895	+1	M_k__91__e__93__	R_ACOAAGPAT140
132	87	904	-1	M_leu_L__91__e__93__	R_ACOAAGPAT160
133	87	905	-1	M_leu_L__91__e__93__	R_ACOAAGPAT180
134	87	906	+1	M_leu_L__91__e__93__	R_ACOAAGPATAI15
135	88	951	-1	M_lys_L__91__e__93__	R_ACOAAGPATAI17
136	88	952	+1	M_lys_L__91__e__93__	R_ACOAAGPATI14
137	86	957	-1	M_lac_L__91__e__93__	R_ACOAAGPATI15
138	86	958	+1	M_lac_L__91__e__93__	R_ACOAAGPATI16
139	90	967	-1	M_malthx__91__e__93__	R_ACOAAGPATI17
140	91	968	-1	M_malttr__91__e__93__	R_ACOATA
141	89	969	-1	M_malt__91__e__93__	R_ACOCT
142	89	970	-1	M_malt__91__e__93__	R_ACODAr
143	92	973	-1	M_man6p__91__e__93__	R_ACONT
144	116	973	+2	M_pi__91__e__93__	R_ACONT
145	94	976	-1	M_mantr__91__e__93__	R_ACONTa
146	93	977	-1	M_man__91__e__93__	R_ACONTb
147	97	991	-1	M_metala__91__e__93__	R_ACOTA
148	95	994	-1	M_met_D__91__e__93__	R_ACPS1
149	99	997	-1	M_metsox_S_L__91__e__93__	R_ACTNDH
150	98	998	-1	M_metsox_R_L__91__e__93__	R_ACTNdiff
151	96	1001	-1	M_met_L__91__e__93__	R_ACt2r
152	96	1002	-1	M_met_L__91__e__93__	R_ADA
153	96	1003	+1	M_met_L__91__e__93__	R_ADAD
154	100	1005	-1	M_mg2__91__e__93__	R_ADD
155	100	1007	+1	M_mg2__91__e__93__	R_ADEt2r
156	100	1008	-1	M_mg2__91__e__93__	R_ADK1
157	103	1012	+1	M_mqn8__91__e__93__	R_ADK10
158	103	1013	-1	M_mqn8__91__e__93__	R_ADK11
159	102	1024	-1	M_mnl__91__e__93__	R_ADK2
160	101	1025	-1	M_mn2__91__e__93__	R_ADK3
161	101	1026	-1	M_mn2__91__e__93__	R_ADK5
162	105	1039	+1	M_nac__91__e__93__	R_ADK7
163	105	1040	-1	M_nac__91__e__93__	R_ADK8
164	104	1053	+1	M_na1__91__e__93__	R_ADK9
165	104	1054	-1	M_na1__91__e__93__	R_ADNCNT3tc
166	106	1074	-1	M_nh4__91__e__93__	R_ADNCYC
167	106	1075	+1	M_nh4__91__e__93__	R_ADNK1
168	107	1077	-1	M_nmn__91__e__93__	R_ADNUC
169	108	1083	-1	M_no2__91__e__93__	R_ADOCBIK
170	108	1084	+1	M_no2__91__e__93__	R_ADOCBLS
171	109	1107	-1	M_o2__91__e__93__	R_ADOCBLabc
172	109	1108	+1	M_o2__91__e__93__	R_ADPRDP
173	110	1116	-1	M_ocdca__91__e__93__	R_ADPT
174	110	1117	+1	M_ocdca__91__e__93__	R_ADSL1r
175	111	1118	-1	M_ocdcea__91__e__93__	R_ADSL2r
176	111	1119	+1	M_ocdcea__91__e__93__	R_ADSS
177	112	1137	-1	M_orn__91__e__93__	R_AGDC
178	112	1138	+1	M_orn__91__e__93__	R_AGPAT120
179	113	1149	+1	M_pb__91__e__93__	R_AGPAT140
180	114	1199	-1	M_phe_L__91__e__93__	R_AGPAT141
181	114	1200	+1	M_phe_L__91__e__93__	R_AGPAT160
182	116	1203	-1	M_pi__91__e__93__	R_AGPAT161
183	116	1204	-1	M_pi__91__e__93__	R_AGPAT180
184	116	1205	+1	M_pi__91__e__93__	R_AGPAT181
185	104	1206	-3	M_na1__91__e__93__	R_AGPR
186	116	1206	-1	M_pi__91__e__93__	R_AGPR
187	104	1216	-1	M_na1__91__e__93__	R_AGTi
188	117	1216	-1	M_pnto_R__91__e__93__	R_AGTi
189	118	1223	+1	M_ppa__91__e__93__	R_AHC
190	119	1227	+1	M_ppi__91__e__93__	R_AHCYSNS_r
191	120	1245	-1	M_pro_L__91__e__93__	R_AHEXASE3
192	121	1282	-1	M_ptrc__91__e__93__	R_AHSERL2
193	122	1298	-1	M_pydam__91__e__93__	R_AHSERL3
194	124	1301	-1	M_pydxn__91__e__93__	R_AICART
195	123	1302	-1	M_pydx__91__e__93__	R_AIHDUDPMG
196	125	1312	-1	M_pyr__91__e__93__	R_AIHDUPDG
197	125	1313	+1	M_pyr__91__e__93__	R_AIHPDCOATA
198	127	1328	-1	M_ribflv__91__e__93__	R_AIPDCOATA
199	127	1329	+1	M_ribflv__91__e__93__	R_AIRC4
200	126	1330	-1	M_rib_D__91__e__93__	R_ALAALA
201	128	1345	-1	M_salcn__91__e__93__	R_ALAASP1c
202	129	1346	-1	M_sbt_D__91__e__93__	R_ALAASPabc
203	130	1351	-1	M_ser_L__91__e__93__	R_ALACI
204	130	1352	+1	M_ser_L__91__e__93__	R_ALAD_R
205	131	1356	-1	M_sheme__91__e__93__	R_ALAGLN1c
206	132	1365	-1	M_so4__91__e__93__	R_ALAGLNabc
207	132	1366	+1	M_so4__91__e__93__	R_ALAGLU1c
208	133	1367	-1	M_spmd__91__e__93__	R_ALAGLUabc
209	134	1376	-1	M_stys__91__e__93__	R_ALAGLY1c
210	135	1380	-1	M_succ__91__e__93__	R_ALAGLYabc
211	135	1381	+1	M_succ__91__e__93__	R_ALAHIS1c
212	136	1387	-1	M_sucr__91__e__93__	R_ALAHISabc
213	139	1450	-1	M_thymd__91__e__93__	R_ALALEU1c
214	139	1451	+1	M_thymd__91__e__93__	R_ALALEUabc
215	137	1454	-1	M_thm__91__e__93__	R_ALAPGPL
216	138	1457	-1	M_thr_L__91__e__93__	R_ALAR
217	138	1458	+1	M_thr_L__91__e__93__	R_ALATA_D
218	140	1464	-1	M_tma__91__e__93__	R_ALATHR1c
219	140	1465	+1	M_tma__91__e__93__	R_ALATHRabc
220	141	1483	-1	M_tre__91__e__93__	R_ALAt2r
221	142	1497	-1	M_tyr_L__91__e__93__	R_ALCD19
222	142	1498	+1	M_tyr_L__91__e__93__	R_ALCD2x
223	143	1528	-1	M_ura__91__e__93__	R_ALCD4
224	144	1534	-1	M_urea__91__e__93__	R_ALLTAMH2
225	144	1535	+1	M_urea__91__e__93__	R_ALLTN
226	145	1553	-1	M_uri__91__e__93__	R_ALLTNt2r
227	145	1554	+1	M_uri__91__e__93__	R_AMANK
228	146	1559	-1	M_val_L__91__e__93__	R_AMMQT8r
229	146	1560	-1	M_val_L__91__e__93__	R_AMPMS2
230	146	1561	+1	M_val_L__91__e__93__	R_AMPTASECG
231	147	1562	-1	M_xan__91__e__93__	R_AMPTASEGC
232	148	1571	-1	M_zn2__91__e__93__	R_ANPRT
233	35	1603	-1	M_cl__91__e__93__	R_ANS
234	35	1604	+1	M_cl__91__e__93__	R_ANS2
