CNC	distance
0.161948	0.10993
0.165482	0.109972
0.169093	0.0930601
0.170008	0.0902229
0.170928	0.109855
0.171853	0.0987514
0.172783	0.114019
0.173718	0.099574
0.174658	0.0981897
0.175603	0.0943513
0.176553	0.102539
0.177508	0.110204
0.178469	0.109263
0.180406	0.104384
0.182363	0.0996325
0.184342	0.111505
0.186343	0.105463
0.188365	0.101458
0.192475	0.108313
0.196675	0.115121
0.205353	0.112178
0.214412	0.113836
0.233749	0.1139
0.244062	0.115172
0.266073	0.113266
0.290068	0.11358
0.316228	0.11305
0.344747	0.114548
0.375837	0.113551
0.446684	0.115684
0.530884	0.117926
0.630957	0.116922
0.749894	0.111265
inf	0.839317
inf	0.839317
inf	0.839317
inf	0.839317
inf	0.839317
inf	0.839317
inf	0.839317
inf	0.839317
inf	0.839317
inf	0.839317
inf	0.839317
inf	0.839317
inf	0.839317
inf	0.839317
inf	0.839317
inf	0.839317
inf	0.839317
inf	0.839317
inf	0.839317
inf	0.839317
inf	0.839317
inf	0.839317
inf	0.839317
inf	0.839317
inf	0.839317
inf	0.839317
inf	0.839317
inf	0.839317
inf	0.839317
inf	0.839317
inf	0.839317
inf	0.839317
inf	0.839317
inf	0.839317
inf	0.839317
inf	0.839317
inf	0.839317
inf	0.839317
inf	0.839317
inf	0.839317
0.01	0.149269
0.0141254	2.03289e+195
0.0199526	0.147822
0.0281838	0.142416
0.0398107	0.138401
0.0562341	0.18255
0.0794328	0.156245
0.112202	0.114759
0.158489	0.10089
0.223872	0.112263
