	metabolite_index	reaction_index	stoichiometry	metabolite_id	reaction_id
1	0	7	-1	M_26dap_M__91__e__93__	R_1P4H2CBXLAH
2	0	8	+1	M_26dap_M__91__e__93__	R_23DHMPO
3	1	14	-1	M_2dmmq8__91__e__93__	R_26DAPLLAT
4	3	153	-1	M_ac__91__e__93__	R_26DAPt2r
5	3	154	+1	M_ac__91__e__93__	R_2AHBUTI
6	4	156	-1	M_ade__91__e__93__	R_2DDPENTHL
7	4	157	+1	M_ade__91__e__93__	R_2DHPL
8	5	252	-1	M_arg_L__91__e__93__	R_2DMMQ8abc
9	5	253	+1	M_arg_L__91__e__93__	R_2HMCOXT
10	6	256	-1	M_asn_L__91__e__93__	R_2MBCOATA
11	6	257	+1	M_asn_L__91__e__93__	R_3HAD10M12
12	7	264	-1	M_asp_L__91__e__93__	R_3HAD11M12
13	7	265	-1	M_asp_L__91__e__93__	R_3HAD12M14
14	8	275	-1	M_butso3__91__e__93__	R_3HAD13M14
15	9	277	-1	M_ca2__91__e__93__	R_3HAD14M16
16	10	282	+1	M_cd2__91__e__93__	R_3HAD15M16
17	11	288	-1	M_cgly__91__e__93__	R_3HAD4M6
18	12	289	-1	M_chol__91__e__93__	R_3HAD5M6
19	12	290	+1	M_chol__91__e__93__	R_3HAD6M8
20	15	299	-1	M_co2__91__e__93__	R_3HAD7M8
21	15	300	+1	M_co2__91__e__93__	R_3HAD8M10
22	16	301	+1	M_cobalt2__91__e__93__	R_3HAD9M10
23	16	302	-1	M_cobalt2__91__e__93__	R_3MOBS
24	17	311	-1	M_crn__91__e__93__	R_3OAR100
25	17	312	-1	M_crn__91__e__93__	R_3OAR10M11
26	29	312	+1	M_gbbtn__91__e__93__	R_3OAR10M11
27	17	313	+1	M_crn__91__e__93__	R_3OAR10M12
28	29	313	-1	M_gbbtn__91__e__93__	R_3OAR10M12
29	18	314	-1	M_csn__91__e__93__	R_3OAR11M12
30	18	315	+1	M_csn__91__e__93__	R_3OAR120
31	19	316	+1	M_ctbt__91__e__93__	R_3OAR12M13
32	21	327	-1	M_cytd__91__e__93__	R_3OAR12M14
33	21	328	+1	M_cytd__91__e__93__	R_3OAR13M14
34	20	331	-1	M_cu2__91__e__93__	R_3OAR140
35	20	332	+1	M_cu2__91__e__93__	R_3OAR14M15
36	22	333	-1	M_dad_2__91__e__93__	R_3OAR14M16
37	22	334	+1	M_dad_2__91__e__93__	R_3OAR15M16
38	23	369	-1	M_dgsn__91__e__93__	R_3OAR160
39	23	370	+1	M_dgsn__91__e__93__	R_3OAR180
40	24	475	-1	M_ethso3__91__e__93__	R_3OAR40
41	25	513	-1	M_fe2__91__e__93__	R_3OAR4M5
42	26	514	-1	M_fe3__91__e__93__	R_3OAR4M6
43	13	515	-2	M_cit__91__e__93__	R_3OAR5M6
44	26	515	-1	M_fe3__91__e__93__	R_3OAR5M6
45	27	521	-1	M_fol__91__e__93__	R_3OAR60
46	27	522	+1	M_fol__91__e__93__	R_3OAR6M7
47	28	537	-1	M_fum__91__e__93__	R_3OAR6M8
48	28	538	+1	M_fum__91__e__93__	R_3OAR7M8
49	29	574	+1	M_gbbtn__91__e__93__	R_3OAR80
50	30	575	-1	M_gcald__91__e__93__	R_3OAR8M10
51	30	576	+1	M_gcald__91__e__93__	R_3OAR8M9
52	31	597	-1	M_gln_L__91__e__93__	R_3OAR9M10
53	31	598	+1	M_gln_L__91__e__93__	R_3OAS100
54	32	632	-1	M_gly__91__e__93__	R_3OAS10M11
55	56	632	-1	M_na1__91__e__93__	R_3OAS10M11
56	32	633	+1	M_gly__91__e__93__	R_3OAS10M12
57	56	633	+1	M_na1__91__e__93__	R_3OAS10M12
58	33	640	-1	M_gthox__91__e__93__	R_3OAS11M12
59	34	645	-1	M_gua__91__e__93__	R_3OAS120
60	34	646	+1	M_gua__91__e__93__	R_3OAS12M13
61	35	649	-1	M_h2s__91__e__93__	R_3OAS12M14
62	35	650	+1	M_h2s__91__e__93__	R_3OAS13M14
63	68	653	-1	M_pheme__91__e__93__	R_3OAS140
64	36	661	-1	M_hexs__91__e__93__	R_3OAS160
65	37	663	+1	M_hg2__91__e__93__	R_3OAS180
66	38	686	-1	M_hxan__91__e__93__	R_3OAS2M3
67	39	703	-1	M_ile_L__91__e__93__	R_3OAS3M4
68	39	704	+1	M_ile_L__91__e__93__	R_3OAS4M3O6
69	40	708	-1	M_ind3ac__91__e__93__	R_3OAS4M5
70	40	709	+1	M_ind3ac__91__e__93__	R_3OAS4M6
71	41	722	-1	M_isetac__91__e__93__	R_3OAS5M6
72	42	740	-1	M_k__91__e__93__	R_3OAS60
73	42	741	+1	M_k__91__e__93__	R_3OAS6M7
74	2	747	-1	M_Lcyst__91__e__93__	R_3OAS6M8
75	43	750	-1	M_leu_L__91__e__93__	R_3OAS7M8
76	43	751	+1	M_leu_L__91__e__93__	R_3OAS80
77	44	754	+1	M_lys_L__91__e__93__	R_3OAS8M10
78	44	755	-1	M_lys_L__91__e__93__	R_3OAS8M9
79	45	760	-1	M_mal_L__91__e__93__	R_3OAS9M10
80	45	761	+1	M_mal_L__91__e__93__	R_4HBZCL
81	46	775	-1	M_met_D__91__e__93__	R_4HTHRS
82	49	779	-1	M_metsox_S_L__91__e__93__	R_4NTPPH2
83	48	780	-1	M_metsox_R_L__91__e__93__	R_5AIZCDC
84	47	781	-1	M_met_L__91__e__93__	R_5DOAN
85	50	782	-1	M_mg2__91__e__93__	R_A5PISO
86	50	783	+1	M_mg2__91__e__93__	R_AACOAT
87	50	784	-1	M_mg2__91__e__93__	R_AACPS6
88	51	787	-1	M_mn2__91__e__93__	R_AACPS7
89	52	791	-1	M_mops__91__e__93__	R_ABTOXy
90	53	792	-1	M_mso3__91__e__93__	R_ABUTD
91	55	798	-1	M_n2o__91__e__93__	R_ACBIPGT
92	54	798	+1	M_n2__91__e__93__	R_ACBIPGT
93	55	799	-1	M_n2o__91__e__93__	R_ACCOACL
94	55	800	+1	M_n2o__91__e__93__	R_ACCOALYS2
95	54	801	-1	M_n2__91__e__93__	R_ACHBPL
96	54	802	+1	M_n2__91__e__93__	R_ACKr
97	57	804	+1	M_nac__91__e__93__	R_ACLS_a
98	57	805	-1	M_nac__91__e__93__	R_ACLS_b
99	56	812	+1	M_na1__91__e__93__	R_ACOAAGPAT140
100	56	813	-1	M_na1__91__e__93__	R_ACOAAGPAT160
101	58	832	-1	M_nh4__91__e__93__	R_ACOAAGPAT180
102	58	833	+1	M_nh4__91__e__93__	R_ACOAAGPATAI15
103	59	840	-1	M_no2__91__e__93__	R_ACOAAGPATAI17
104	58	840	+1	M_nh4__91__e__93__	R_ACOAAGPATAI17
105	59	841	-1	M_no2__91__e__93__	R_ACOAAGPATI14
106	58	841	+1	M_nh4__91__e__93__	R_ACOAAGPATI14
107	59	842	-1	M_no2__91__e__93__	R_ACOAAGPATI15
108	60	845	-1	M_no3__91__e__93__	R_ACOAAGPATI16
109	60	846	-1	M_no3__91__e__93__	R_ACOAAGPATI17
110	59	846	+1	M_no2__91__e__93__	R_ACOAAGPATI17
111	60	847	-1	M_no3__91__e__93__	R_ACOATA
112	59	847	+1	M_no2__91__e__93__	R_ACOATA
113	60	848	-1	M_no3__91__e__93__	R_ACOCT
114	61	864	-1	M_o2__91__e__93__	R_ACONT
115	61	865	+1	M_o2__91__e__93__	R_ACONTa
116	62	871	-1	M_ocdca__91__e__93__	R_ACONTb
117	63	872	-1	M_ocdcea__91__e__93__	R_ACPS1
118	63	873	+1	M_ocdcea__91__e__93__	R_ACtr
119	64	889	-1	M_orn__91__e__93__	R_ADCS
120	64	890	+1	M_orn__91__e__93__	R_ADEt2r
121	65	900	+1	M_pb__91__e__93__	R_ADK1
122	67	948	-1	M_phe_L__91__e__93__	R_ADK10
123	67	949	+1	M_phe_L__91__e__93__	R_ADK11
124	69	952	-1	M_pi__91__e__93__	R_ADK2
125	69	953	-1	M_pi__91__e__93__	R_ADK3
126	69	954	+1	M_pi__91__e__93__	R_ADK5
127	70	969	+1	M_ppa__91__e__93__	R_ADK7
128	71	975	+1	M_ppi__91__e__93__	R_ADK8
129	56	996	-1	M_na1__91__e__93__	R_ADK9
130	72	996	-1	M_pro_L__91__e__93__	R_ADK9
131	56	997	+1	M_na1__91__e__93__	R_ADNK1
132	72	997	+1	M_pro_L__91__e__93__	R_ADNK1
133	66	1016	-1	M_ph2s__91__e__93__	R_ADOCBIK
134	35	1016	+2	M_h2s__91__e__93__	R_ADOCBIK
135	66	1017	-1	M_ph2s__91__e__93__	R_ADOCBLS
136	35	1017	+2	M_h2s__91__e__93__	R_ADOCBLS
137	73	1051	-1	M_pydam__91__e__93__	R_ADPRDP
138	75	1054	-1	M_pydxn__91__e__93__	R_ADPT
139	74	1055	-1	M_pydx__91__e__93__	R_ADSL1r
140	76	1059	-1	M_q8__91__e__93__	R_ADSL2r
141	77	1088	-1	M_sheme__91__e__93__	R_ADSS
142	79	1093	-1	M_so4__91__e__93__	R_AGMD
143	79	1094	+1	M_so4__91__e__93__	R_AGMHE
144	80	1095	-1	M_spmd__91__e__93__	R_AGPAT120
145	81	1100	-1	M_succ__91__e__93__	R_AGPAT140
146	81	1101	-1	M_succ__91__e__93__	R_AGPAT141
147	81	1102	+1	M_succ__91__e__93__	R_AGPAT160
148	82	1110	-1	M_sulfac__91__e__93__	R_AGPAT161
149	83	1114	-1	M_taur__91__e__93__	R_AGPAT180
150	86	1125	-1	M_thymd__91__e__93__	R_AGPAT181
151	86	1126	+1	M_thymd__91__e__93__	R_AHCYSNS
152	85	1127	-1	M_thm__91__e__93__	R_AHEXASE3
153	89	1130	-1	M_tsul__91__e__93__	R_AHMMPS
154	35	1130	+1	M_h2s__91__e__93__	R_AHMMPS
155	78	1130	+1	M_so3__91__e__93__	R_AHMMPS
156	89	1131	-1	M_tsul__91__e__93__	R_AHSERL2
157	35	1131	+1	M_h2s__91__e__93__	R_AHSERL2
158	78	1131	+1	M_so3__91__e__93__	R_AHSERL2
159	88	1139	-1	M_tmao__91__e__93__	R_AHSERL3
160	87	1139	+1	M_tma__91__e__93__	R_AHSERL3
161	88	1140	-1	M_tmao__91__e__93__	R_AICART
162	87	1140	+1	M_tma__91__e__93__	R_AICART
163	89	1160	-1	M_tsul__91__e__93__	R_AIHPDCOATA
164	90	1161	-1	M_ttdca__91__e__93__	R_AIPDCOATA
165	84	1162	-1	M_tet__91__e__93__	R_AIRC4
166	89	1162	+2	M_tsul__91__e__93__	R_AIRC4
167	84	1163	-1	M_tet__91__e__93__	R_AKP1
168	89	1163	+2	M_tsul__91__e__93__	R_AKP1
169	91	1194	-1	M_ura__91__e__93__	R_ALAALA
170	92	1202	-1	M_uri__91__e__93__	R_ALAASP1c
171	92	1203	+1	M_uri__91__e__93__	R_ALACI
172	93	1209	-1	M_val_L__91__e__93__	R_ALAGLN1c
173	93	1210	+1	M_val_L__91__e__93__	R_ALAGLU1c
174	94	1217	-1	M_zn2__91__e__93__	R_ALAGLY1c
175	14	1235	-1	M_cl__91__e__93__	R_ALAHIS1c
176	14	1236	+1	M_cl__91__e__93__	R_ALALEU1c
