	metabolite_index	reaction_index	stoichiometry	metabolite_id	reaction_id
1	29	1	-1	M_cholate__91__e__93__	R_12aHSDHe
2	0	1	+1	M_12dhchol__91__e__93__	R_12aHSDHe
3	29	2	+1	M_cholate__91__e__93__	R_23DHMPO
4	0	2	-1	M_12dhchol__91__e__93__	R_23DHMPO
5	3	118	-1	M_4hbz__91__e__93__	R_26DAPLLAT
6	3	119	+1	M_4hbz__91__e__93__	R_2AHBUTI
7	7	162	-1	M_ac__91__e__93__	R_2MBCOATA
8	7	163	+1	M_ac__91__e__93__	R_2OMMBOX
9	8	164	+1	M_adchac__91__e__93__	R_2OMPHH
10	8	165	-1	M_adchac__91__e__93__	R_3HAD100
11	9	185	-1	M_adn__91__e__93__	R_3HAD10M11
12	9	186	+1	M_adn__91__e__93__	R_3HAD10M12
13	11	222	-1	M_alaasp__91__e__93__	R_3HAD11M12
14	12	227	-1	M_alagln__91__e__93__	R_3HAD120
15	13	230	-1	M_alaglu__91__e__93__	R_3HAD12M13
16	14	233	-1	M_alagly__91__e__93__	R_3HAD12M14
17	15	236	-1	M_alahis__91__e__93__	R_3HAD13M14
18	16	239	-1	M_alaleu__91__e__93__	R_3HAD140
19	17	247	-1	M_alathr__91__e__93__	R_3HAD14M15
20	10	248	-1	M_ala_L__91__e__93__	R_3HAD14M16
21	10	249	+1	M_ala_L__91__e__93__	R_3HAD15M16
22	18	250	+1	M_alchac__91__e__93__	R_3HAD160
23	18	251	-1	M_alchac__91__e__93__	R_3HAD180
24	19	258	-1	M_alltn__91__e__93__	R_3HAD40
25	19	259	+1	M_alltn__91__e__93__	R_3HAD4M5
26	20	268	-1	M_arab_D__91__e__93__	R_3HAD4M6
27	20	269	+1	M_arab_D__91__e__93__	R_3HAD5M6
28	21	275	-1	M_arg_L__91__e__93__	R_3HAD60
29	22	279	-1	M_asn_L__91__e__93__	R_3HAD6M7
30	22	280	+1	M_asn_L__91__e__93__	R_3HAD6M8
31	23	281	-1	M_aso3__91__e__93__	R_3HAD7M8
32	23	282	+1	M_aso3__91__e__93__	R_3HAD80
33	24	283	-1	M_aso4__91__e__93__	R_3HAD8M10
34	24	284	+1	M_aso4__91__e__93__	R_3HAD8M9
35	25	289	-1	M_asp_L__91__e__93__	R_3HAD9M10
36	25	290	+1	M_asp_L__91__e__93__	R_3MOBS
37	29	340	-1	M_cholate__91__e__93__	R_3OAR100
38	29	341	+1	M_cholate__91__e__93__	R_3OAR10M11
39	4	342	-1	M_C02528__91__e__93__	R_3OAR10M12
40	4	343	+1	M_C02528__91__e__93__	R_3OAR11M12
41	6	344	-1	M_HC02194__91__e__93__	R_3OAR120
42	6	345	+1	M_HC02194__91__e__93__	R_3OAR12M13
43	29	351	-1	M_cholate__91__e__93__	R_3OAR12M14
44	2	351	+1	M_3dhchol__91__e__93__	R_3OAR12M14
45	29	352	+1	M_cholate__91__e__93__	R_3OAR13M14
46	2	352	-1	M_3dhchol__91__e__93__	R_3OAR13M14
47	27	359	+1	M_cd2__91__e__93__	R_3OAR140
48	4	360	-1	M_C02528__91__e__93__	R_3OAR14M15
49	1	360	+1	M_3dhcdchol__91__e__93__	R_3OAR14M15
50	4	361	+1	M_C02528__91__e__93__	R_3OAR14M16
51	1	361	-1	M_3dhcdchol__91__e__93__	R_3OAR14M16
52	28	365	-1	M_cgly__91__e__93__	R_3OAR15M16
53	26	368	-1	M_ca2__91__e__93__	R_3OAR160
54	30	368	-1	M_cit__91__e__93__	R_3OAR160
55	26	369	+1	M_ca2__91__e__93__	R_3OAR180
56	30	369	+1	M_cit__91__e__93__	R_3OAR180
57	32	379	-1	M_co2__91__e__93__	R_3OAR40
58	32	380	+1	M_co2__91__e__93__	R_3OAR4M5
59	33	381	+1	M_cobalt2__91__e__93__	R_3OAR4M6
60	33	382	-1	M_cobalt2__91__e__93__	R_3OAR5M6
61	34	388	-1	M_crn__91__e__93__	R_3OAR60
62	35	389	-1	M_csn__91__e__93__	R_3OAR6M7
63	36	390	+1	M_ctbt__91__e__93__	R_3OAR6M8
64	38	397	-1	M_cys_L__91__e__93__	R_3OAR7M8
65	38	398	+1	M_cys_L__91__e__93__	R_3OAR80
66	37	406	-1	M_cu2__91__e__93__	R_3OAR8M10
67	37	407	+1	M_cu2__91__e__93__	R_3OAR8M9
68	39	433	+1	M_dchac__91__e__93__	R_3OAR9M10
69	39	434	-1	M_dchac__91__e__93__	R_3OAS100
70	40	437	-1	M_ddca__91__e__93__	R_3OAS10M11
71	40	438	+1	M_ddca__91__e__93__	R_3OAS10M12
72	42	470	-1	M_dmso__91__e__93__	R_3OAS11M12
73	41	470	+1	M_dms__91__e__93__	R_3OAS11M12
74	42	471	-1	M_dmso__91__e__93__	R_3OAS120
75	41	471	+1	M_dms__91__e__93__	R_3OAS120
76	43	548	-1	M_fe2__91__e__93__	R_3OAS12M13
77	44	549	-1	M_fe3__91__e__93__	R_3OAS12M14
78	45	554	-1	M_fol__91__e__93__	R_3OAS13M14
79	45	555	+1	M_fol__91__e__93__	R_3OAS140
80	46	558	-1	M_for__91__e__93__	R_3OAS160
81	46	559	+1	M_for__91__e__93__	R_3OAS180
82	47	608	+1	M_gbbtn__91__e__93__	R_3OAS2M3
83	48	625	-1	M_gln_L__91__e__93__	R_3OAS3M4
84	49	636	-1	M_glu_L__91__e__93__	R_3OAS4M3O6
85	49	637	+1	M_glu_L__91__e__93__	R_3OAS4M5
86	51	640	-1	M_glyasn__91__e__93__	R_3OAS4M6
87	52	643	-1	M_glyasp__91__e__93__	R_3OAS5M6
88	53	644	-1	M_glyc3p__91__e__93__	R_3OAS60
89	54	645	-1	M_glycys__91__e__93__	R_3OAS6M7
90	55	648	-1	M_glygln__91__e__93__	R_3OAS6M8
91	56	651	-1	M_glyglu__91__e__93__	R_3OAS7M8
92	57	655	-1	M_glyleu__91__e__93__	R_3OAS80
93	58	658	-1	M_glymet__91__e__93__	R_3OAS8M10
94	59	662	-1	M_glyphe__91__e__93__	R_3OAS8M9
95	60	665	-1	M_glypro__91__e__93__	R_3OAS9M10
96	61	668	-1	M_glytyr__91__e__93__	R_4HBZt2
97	50	669	-1	M_gly__91__e__93__	R_4HTHRS
98	50	670	+1	M_gly__91__e__93__	R_5AIZCDC
99	63	689	-1	M_h2s__91__e__93__	R_5C2O3EDDC
100	63	690	+1	M_h2s__91__e__93__	R_AACPS7
101	62	691	+1	M_h2__91__e__93__	R_ACBIPGT
102	62	692	-1	M_h2__91__e__93__	R_ACCOAC
103	64	696	-1	M_hdca__91__e__93__	R_ACCOACL
104	64	697	+1	M_hdca__91__e__93__	R_ACCOAL
105	92	700	-1	M_pheme__91__e__93__	R_ACGK
106	65	710	+1	M_hg2__91__e__93__	R_ACGS
107	66	716	-1	M_his_L__91__e__93__	R_ACHBPL
108	66	717	+1	M_his_L__91__e__93__	R_ACKr
109	70	718	-1	M_k__91__e__93__	R_ACLS_a
110	67	735	-1	M_hxan__91__e__93__	R_ACLS_b
111	67	736	+1	M_hxan__91__e__93__	R_ACNAMS
112	69	741	-1	M_isochol__91__e__93__	R_ACOAAGPAT140
113	2	741	+1	M_3dhchol__91__e__93__	R_ACOAAGPAT140
114	69	742	+1	M_isochol__91__e__93__	R_ACOAAGPAT160
115	2	742	-1	M_3dhchol__91__e__93__	R_ACOAAGPAT160
116	68	743	-1	M_icdchol__91__e__93__	R_ACOAAGPAT180
117	1	743	+1	M_3dhcdchol__91__e__93__	R_ACOAAGPAT180
118	68	744	+1	M_icdchol__91__e__93__	R_ACOAAGPATAI15
119	1	744	-1	M_3dhcdchol__91__e__93__	R_ACOAAGPATAI15
120	70	790	+1	M_k__91__e__93__	R_ACOAAGPATAI17
121	70	791	-1	M_k__91__e__93__	R_ACOAAGPATI14
122	72	794	-1	M_lanost__91__e__93__	R_ACOAAGPATI15
123	72	795	+1	M_lanost__91__e__93__	R_ACOAAGPATI16
124	5	799	+1	M_HC02191__91__e__93__	R_ACOAAGPATI17
125	5	800	-1	M_HC02191__91__e__93__	R_ACOAD1
126	73	805	-1	M_leu_L__91__e__93__	R_ACOAD20
127	73	806	+1	M_leu_L__91__e__93__	R_ACOADH2
128	74	850	-1	M_lys_L__91__e__93__	R_ACOATA
129	74	851	+1	M_lys_L__91__e__93__	R_ACOCT
130	71	852	-1	M_lac_L__91__e__93__	R_ACONT
131	71	853	+1	M_lac_L__91__e__93__	R_ACOTA
132	77	863	-1	M_metala__91__e__93__	R_ACPS1
133	75	865	-1	M_met_D__91__e__93__	R_ACS
134	79	870	-1	M_metsox_S_L__91__e__93__	R_ACYP
135	78	871	-1	M_metsox_R_L__91__e__93__	R_ACYP_2
136	76	872	-1	M_met_L__91__e__93__	R_ACt2r
137	80	873	-1	M_mg2__91__e__93__	R_ADCA_T
138	80	874	+1	M_mg2__91__e__93__	R_ADD
139	80	875	-1	M_mg2__91__e__93__	R_ADK1
140	81	876	-1	M_mn2__91__e__93__	R_ADK10
141	83	887	+1	M_nac__91__e__93__	R_ADK11
142	83	888	-1	M_nac__91__e__93__	R_ADK2
143	82	892	+1	M_na1__91__e__93__	R_ADK3
144	82	893	-1	M_na1__91__e__93__	R_ADK5
145	84	912	-1	M_nh4__91__e__93__	R_ADK7
146	84	913	+1	M_nh4__91__e__93__	R_ADK8
147	85	917	-1	M_no2__91__e__93__	R_ADK9
148	84	917	+1	M_nh4__91__e__93__	R_ADK9
149	85	918	-1	M_no2__91__e__93__	R_ADNCNT3tc
150	86	919	-1	M_no3__91__e__93__	R_ADOCBIK2
151	85	919	+1	M_no2__91__e__93__	R_ADOCBIK2
152	86	920	-1	M_no3__91__e__93__	R_ADOCBLS
153	87	937	-1	M_o2__91__e__93__	R_ADSL1r
154	87	938	+1	M_o2__91__e__93__	R_ADSL2r
155	88	943	-1	M_ocdca__91__e__93__	R_ADSS
156	88	944	+1	M_ocdca__91__e__93__	R_AGDC
157	90	968	+1	M_pb__91__e__93__	R_AGMD
158	91	1010	-1	M_phe_L__91__e__93__	R_AGMHE
159	91	1011	+1	M_phe_L__91__e__93__	R_AGPAT120
160	93	1014	-1	M_pi__91__e__93__	R_AGPAT140
161	93	1015	-1	M_pi__91__e__93__	R_AGPAT141
162	93	1016	+1	M_pi__91__e__93__	R_AGPAT160
163	82	1022	-1	M_na1__91__e__93__	R_AGPAT161
164	94	1022	-1	M_pnto_R__91__e__93__	R_AGPAT161
165	95	1034	+1	M_ppi__91__e__93__	R_AGPAT180
166	96	1049	-1	M_pro_L__91__e__93__	R_AGPAT181
167	96	1050	+1	M_pro_L__91__e__93__	R_AGPR
168	97	1067	-1	M_ptrc__91__e__93__	R_AHC
169	98	1072	-1	M_q8__91__e__93__	R_AHMMPS
170	99	1077	-1	M_ribflv__91__e__93__	R_AHSERL2
171	99	1078	+1	M_ribflv__91__e__93__	R_AHSERL3
172	100	1100	-1	M_sheme__91__e__93__	R_AICART
173	102	1105	-1	M_so4__91__e__93__	R_AIHPDCOATA
174	102	1106	+1	M_so4__91__e__93__	R_AIPDCOATA
175	103	1107	-1	M_spmd__91__e__93__	R_AIRC4
176	104	1114	-1	M_succ__91__e__93__	R_ALAALA
177	104	1115	+1	M_succ__91__e__93__	R_ALAASP1c
178	106	1144	-1	M_thm__91__e__93__	R_ALAASPabc
179	106	1145	+1	M_thm__91__e__93__	R_ALACI
180	107	1150	-1	M_thr_L__91__e__93__	R_ALAGLN1c
181	107	1151	+1	M_thr_L__91__e__93__	R_ALAGLNabc
182	111	1152	-1	M_tsul__91__e__93__	R_ALAGLU1c
183	63	1152	+1	M_h2s__91__e__93__	R_ALAGLU1c
184	101	1152	+1	M_so3__91__e__93__	R_ALAGLU1c
185	111	1153	-1	M_tsul__91__e__93__	R_ALAGLUabc
186	63	1153	+1	M_h2s__91__e__93__	R_ALAGLUabc
187	101	1153	+1	M_so3__91__e__93__	R_ALAGLUabc
188	109	1160	-1	M_tmao__91__e__93__	R_ALAGLY1c
189	108	1160	+1	M_tma__91__e__93__	R_ALAGLY1c
190	109	1161	+1	M_tmao__91__e__93__	R_ALAGLYabc
191	108	1161	-1	M_tma__91__e__93__	R_ALAGLYabc
192	109	1163	-1	M_tmao__91__e__93__	R_ALAHIS1c
193	108	1163	+1	M_tma__91__e__93__	R_ALAHIS1c
194	110	1175	-1	M_trp_L__91__e__93__	R_ALAHISabc
195	110	1176	+1	M_trp_L__91__e__93__	R_ALALEU1c
196	112	1177	-1	M_ttdca__91__e__93__	R_ALALEUabc
197	112	1178	+1	M_ttdca__91__e__93__	R_ALAPGPL
198	105	1179	-1	M_tet__91__e__93__	R_ALAR
199	111	1179	+2	M_tsul__91__e__93__	R_ALAR
200	105	1180	-1	M_tet__91__e__93__	R_ALATA_L
201	111	1180	+2	M_tsul__91__e__93__	R_ALATA_L
202	113	1183	-1	M_tyr_L__91__e__93__	R_ALATHR1c
203	113	1184	+1	M_tyr_L__91__e__93__	R_ALATHRabc
204	114	1215	-1	M_ura__91__e__93__	R_ALAt2r
205	115	1224	-1	M_xan__91__e__93__	R_ALCA_T
206	115	1225	+1	M_xan__91__e__93__	R_ALCD19
207	116	1229	-1	M_zn2__91__e__93__	R_ALCD2x
208	21	1247	-1	M_arg_L__91__e__93__	R_ALCD4
209	89	1247	+1	M_orn__91__e__93__	R_ALCD4
210	21	1248	+1	M_arg_L__91__e__93__	R_ALLTNt2r
211	89	1248	-1	M_orn__91__e__93__	R_ALLTNt2r
212	31	1249	-1	M_cl__91__e__93__	R_ALPHNH
213	31	1250	+1	M_cl__91__e__93__	R_AMANAPEr
