CNC	distance
0.165482	0.00624437
0.166377	0.00617599
0.167277	0.00650293
0.168183	0.00657802
0.169093	0.00669933
0.170008	0.00669428
0.170928	0.00677958
0.171853	0.00723714
0.172783	0.00716192
0.173718	0.0076651
0.174658	0.00780445
0.176553	0.0084134
0.178469	0.0087715
0.180406	0.00939446
0.182363	0.0100273
0.184342	0.0105661
0.188365	0.0120161
0.192475	0.013329
0.196675	0.0148679
0.200967	0.0166605
0.205353	0.0179875
0.214412	0.0212996
0.233749	0.0285799
0.244062	0.032485
0.266073	0.0403842
0.290068	0.0480235
0.316228	0.0542603
0.344747	0.0615352
0.375837	0.0684906
0.446684	0.0828307
0.530884	0.0971593
0.630957	0.109942
0.749894	0.124569
inf	0.839317
inf	0.839317
inf	0.839317
inf	0.839318
inf	0.839317
inf	0.839317
inf	0.839317
inf	0.839317
inf	0.839317
inf	0.839317
inf	0.839317
inf	0.839317
inf	0.839317
inf	0.839317
inf	0.839317
inf	0.839317
inf	0.839317
inf	0.839317
inf	0.839317
inf	0.839317
inf	0.839317
inf	0.839317
inf	0.839317
inf	0.839317
inf	0.839317
inf	0.839317
inf	0.839317
inf	0.839317
inf	0.839317
inf	0.839317
inf	0.839317
inf	0.839317
inf	0.839317
inf	0.839317
inf	0.839317
inf	0.839317
inf	0.839317
inf	0.839317
inf	0.839317
inf	0.839317
0.01	0.134305
0.0141254	0.126973
0.0199526	0.117733
0.0281838	0.105762
0.0398107	0.0916496
0.0562341	0.0747891
0.0794328	0.0549334
0.112202	0.0326808
0.158489	0.00697167
0.223872	0.0250722
