	metabolite_index	reaction_index	stoichiometry	metabolite_id	reaction_id
1	1	17	-1	M_34dhphe__91__e__93__	R_1P4H2CBXLAH
2	3	73	-1	M_4abz__91__e__93__	R_23DHMPO
3	4	74	-1	M_4hbz__91__e__93__	R_2AHBUTI
4	4	75	+1	M_4hbz__91__e__93__	R_2DHPL
5	5	82	-1	M_5htrp__91__e__93__	R_2HBO
6	2	94	-1	M_4abut__91__e__93__	R_2MBCOATA
7	2	95	+1	M_4abut__91__e__93__	R_2MEBCOADH
8	8	96	-1	M_acald__91__e__93__	R_34DHOXPEGOX
9	8	97	+1	M_acald__91__e__93__	R_34DHPHEt2
10	9	102	-1	M_acgam__91__e__93__	R_3HAD10M12
11	7	134	-1	M_ac__91__e__93__	R_3HAD11M12
12	7	135	+1	M_ac__91__e__93__	R_3HAD12M14
13	10	161	-1	M_adn__91__e__93__	R_3HAD13M14
14	10	162	+1	M_adn__91__e__93__	R_3HAD14M16
15	12	208	-1	M_alaasp__91__e__93__	R_3HAD15M16
16	13	215	-1	M_alagln__91__e__93__	R_3HAD4M6
17	14	218	-1	M_alaglu__91__e__93__	R_3HAD5M6
18	15	221	-1	M_alagly__91__e__93__	R_3HAD6M8
19	16	224	-1	M_alahis__91__e__93__	R_3HAD7M8
20	17	227	-1	M_alaleu__91__e__93__	R_3HAD8M10
21	18	233	-1	M_alathr__91__e__93__	R_3HAD9M10
22	11	234	-1	M_ala_L__91__e__93__	R_3HBCOAHL
23	92	234	-1	M_na1__91__e__93__	R_3HBCOAHL
24	11	235	+1	M_ala_L__91__e__93__	R_3HLYTCL
25	92	235	+1	M_na1__91__e__93__	R_3HLYTCL
26	20	268	-1	M_arbt__91__e__93__	R_3HPCOAHYD
27	19	269	-1	M_arab_L__91__e__93__	R_3MEBCOADH
28	21	274	-1	M_arg_L__91__e__93__	R_3MOBS
29	22	278	-1	M_asn_L__91__e__93__	R_3OAR10M12
30	22	279	+1	M_asn_L__91__e__93__	R_3OAR11M12
31	23	285	-1	M_asp_L__91__e__93__	R_3OAR12M14
32	24	295	-1	M_btn__91__e__93__	R_3OAR13M14
33	25	297	-1	M_ca2__91__e__93__	R_3OAR14M16
34	75	302	-1	M_k__91__e__93__	R_3OAR15M16
35	26	302	+1	M_cd2__91__e__93__	R_3OAR15M16
36	75	303	+1	M_k__91__e__93__	R_3OAR4M6
37	26	303	-1	M_cd2__91__e__93__	R_3OAR4M6
38	27	309	-1	M_cgly__91__e__93__	R_3OAR5M6
39	28	311	-1	M_chol__91__e__93__	R_3OAR6M8
40	28	312	+1	M_chol__91__e__93__	R_3OAR7M8
41	31	334	-1	M_co2__91__e__93__	R_3OAR8M10
42	31	335	+1	M_co2__91__e__93__	R_3OAR9M10
43	32	336	+1	M_cobalt2__91__e__93__	R_3OAS10M12
44	32	337	-1	M_cobalt2__91__e__93__	R_3OAS11M12
45	34	358	-1	M_cys_L__91__e__93__	R_3OAS12M14
46	34	359	+1	M_cys_L__91__e__93__	R_3OAS13M14
47	35	364	-1	M_cytd__91__e__93__	R_3OAS3M4
48	35	365	+1	M_cytd__91__e__93__	R_3OAS4M3O6
49	33	370	-1	M_cu2__91__e__93__	R_3OAS4M6
50	36	371	-1	M_dad_2__91__e__93__	R_3OAS5M6
51	36	372	+1	M_dad_2__91__e__93__	R_3OAS6M8
52	0	378	-1	M_26dap_M__91__e__93__	R_3OAS7M8
53	37	398	-1	M_dcyt__91__e__93__	R_3OAS8M10
54	37	399	+1	M_dcyt__91__e__93__	R_3OAS9M10
55	38	405	-1	M_dgsn__91__e__93__	R_4ABZt2
56	39	433	-1	M_din__91__e__93__	R_4HBZt2
57	40	443	+1	M_dopa__91__e__93__	R_4HTHRS
58	41	457	-1	M_duri__91__e__93__	R_5AIZCDC
59	42	529	-1	M_fe2__91__e__93__	R_5C2O3EDDC
60	43	530	-1	M_fe3__91__e__93__	R_5DGLCNR
61	29	531	-2	M_cit__91__e__93__	R_5HLTDL
62	43	531	-1	M_fe3__91__e__93__	R_5HLTDL
63	44	539	-1	M_fol__91__e__93__	R_5HTRPt2
64	44	540	+1	M_fol__91__e__93__	R_5HXKYNDCL
65	45	543	-1	M_for__91__e__93__	R_AACGLYDH
66	45	544	+1	M_for__91__e__93__	R_AACOAT
67	46	555	-1	M_fru__91__e__93__	R_AACPS7
68	47	592	-1	M_galt__91__e__93__	R_ABTA
69	48	595	-1	M_gam__91__e__93__	R_ABTOXy
70	49	601	-1	M_gcald__91__e__93__	R_ABUTD
71	49	602	+1	M_gcald__91__e__93__	R_ABUTR
72	50	622	-1	M_glc_D__91__e__93__	R_ABUTt2r
73	50	623	-1	M_glc_D__91__e__93__	R_ACALDt
74	51	630	-1	M_gln_L__91__e__93__	R_ACBIPGT
75	51	631	-1	M_gln_L__91__e__93__	R_ACCOACL
76	51	632	+1	M_gln_L__91__e__93__	R_ACCOALYS2
77	52	643	-1	M_glu_L__91__e__93__	R_ACGAMT
78	52	644	+1	M_glu_L__91__e__93__	R_ACGApts
79	52	645	-1	M_glu_L__91__e__93__	R_ACGK
80	92	645	-1	M_na1__91__e__93__	R_ACGK
81	52	646	+1	M_glu_L__91__e__93__	R_ACGS
82	92	646	+1	M_na1__91__e__93__	R_ACGS
83	54	650	-1	M_glyasn__91__e__93__	R_ACHBPL
84	55	653	-1	M_glyasp__91__e__93__	R_ACKr
85	56	654	-1	M_glyb__91__e__93__	R_ACLDC
86	57	655	-1	M_glyc3p__91__e__93__	R_ACLS_a
87	57	656	+1	M_glyc3p__91__e__93__	R_ACLS_b
88	59	660	-1	M_glycys__91__e__93__	R_ACOAAGPAT140
89	58	661	+1	M_glyc__91__e__93__	R_ACOAAGPAT160
90	58	662	-1	M_glyc__91__e__93__	R_ACOAAGPAT180
91	60	665	-1	M_glygln__91__e__93__	R_ACOAAGPATAI15
92	61	668	-1	M_glyglu__91__e__93__	R_ACOAAGPATAI17
93	65	672	-1	M_glyleu__91__e__93__	R_ACOAAGPATI14
94	66	675	-1	M_glymet__91__e__93__	R_ACOAAGPATI15
95	67	681	-1	M_glyphe__91__e__93__	R_ACOAAGPATI16
96	68	684	-1	M_glypro__91__e__93__	R_ACOAAGPATI17
97	69	687	-1	M_glytyr__91__e__93__	R_ACOCT
98	53	688	-1	M_gly__91__e__93__	R_ACONT
99	53	689	+1	M_gly__91__e__93__	R_ACONTa
100	70	705	-1	M_gua__91__e__93__	R_ACONTb
101	99	710	-1	M_pheme__91__e__93__	R_ACOTA
102	72	717	+1	M_hista__91__e__93__	R_ACPS1
103	71	723	-1	M_his_L__91__e__93__	R_ACYP
104	71	724	+1	M_his_L__91__e__93__	R_ACYP_2
105	73	741	-1	M_hxan__91__e__93__	R_ACt2r
106	74	768	-1	M_ins__91__e__93__	R_ADAD
107	74	769	+1	M_ins__91__e__93__	R_ADCL
108	75	793	-1	M_k__91__e__93__	R_ADCPS1
109	75	794	+1	M_k__91__e__93__	R_ADCPS2
110	75	795	+1	M_k__91__e__93__	R_ADCS
111	77	804	-1	M_leu_L__91__e__93__	R_ADCYRS
112	77	805	+1	M_leu_L__91__e__93__	R_ADK1
113	78	850	-1	M_lys_L__91__e__93__	R_ADK10
114	78	851	+1	M_lys_L__91__e__93__	R_ADK11
115	76	860	-1	M_lac_L__91__e__93__	R_ADK2
116	76	861	+1	M_lac_L__91__e__93__	R_ADK3
117	81	869	-1	M_malthx__91__e__93__	R_ADK5
118	82	870	-1	M_malttr__91__e__93__	R_ADK7
119	80	871	-1	M_malt__91__e__93__	R_ADK8
120	80	872	-1	M_malt__91__e__93__	R_ADK9
121	79	873	-1	M_mal_L__91__e__93__	R_ADNCNT3tc
122	79	874	+1	M_mal_L__91__e__93__	R_ADNCYC
123	83	878	-1	M_man__91__e__93__	R_ADNK1
124	83	879	-1	M_man__91__e__93__	R_ADNUC
125	86	894	-1	M_metala__91__e__93__	R_ADOCBIK
126	84	896	-1	M_met_D__91__e__93__	R_ADOCBIK2
127	88	900	-1	M_metsox_S_L__91__e__93__	R_ADOCBLS
128	87	901	-1	M_metsox_R_L__91__e__93__	R_ADPRDP
129	85	904	-1	M_met_L__91__e__93__	R_ADPT
130	89	905	-1	M_mg2__91__e__93__	R_ADSL1r
131	89	906	+1	M_mg2__91__e__93__	R_ADSL2r
132	89	907	-1	M_mg2__91__e__93__	R_ADSS
133	91	922	-1	M_mnl__91__e__93__	R_AGDC
134	90	923	-1	M_mn2__91__e__93__	R_AGPAT120
135	93	932	+1	M_nac__91__e__93__	R_AGPAT140
136	93	933	-1	M_nac__91__e__93__	R_AGPAT141
137	94	960	-1	M_nh4__91__e__93__	R_AGPAT160
138	94	961	+1	M_nh4__91__e__93__	R_AGPAT161
139	95	973	-1	M_o2__91__e__93__	R_AGPAT180
140	95	974	+1	M_o2__91__e__93__	R_AGPAT181
141	96	981	-1	M_ocdca__91__e__93__	R_AGPR
142	98	1058	-1	M_phe_L__91__e__93__	R_AHC
143	98	1059	+1	M_phe_L__91__e__93__	R_AHCYSNS
144	101	1061	-1	M_pime__91__e__93__	R_AHEXASE3
145	101	1062	+1	M_pime__91__e__93__	R_AHSERL2
146	100	1063	-1	M_pi__91__e__93__	R_AHSERL3
147	100	1064	-1	M_pi__91__e__93__	R_AICART
148	100	1065	+1	M_pi__91__e__93__	R_AIHDUDPMG
149	102	1080	+1	M_ppa__91__e__93__	R_AIHDUPDG
150	102	1081	-1	M_ppa__91__e__93__	R_AIHPDCOATA
151	103	1089	+1	M_ppi__91__e__93__	R_AIPDCOATA
152	104	1108	-1	M_pro_L__91__e__93__	R_AIRC4
153	92	1109	-1	M_na1__91__e__93__	R_ALAALA
154	104	1109	-1	M_pro_L__91__e__93__	R_ALAALA
155	92	1110	+1	M_na1__91__e__93__	R_ALAASP1c
156	104	1110	+1	M_pro_L__91__e__93__	R_ALAASP1c
157	105	1142	-1	M_pydam__91__e__93__	R_ALAASPabc
158	107	1145	-1	M_pydxn__91__e__93__	R_ALACI
159	106	1146	-1	M_pydx__91__e__93__	R_ALAD_R
160	108	1165	-1	M_ribflv__91__e__93__	R_ALAGLN1c
161	108	1166	+1	M_ribflv__91__e__93__	R_ALAGLNabc
162	109	1180	-1	M_salcn__91__e__93__	R_ALAGLU1c
163	110	1181	-1	M_sbt_D__91__e__93__	R_ALAGLUabc
164	111	1188	-1	M_ser_L__91__e__93__	R_ALAGLY1c
165	111	1189	+1	M_ser_L__91__e__93__	R_ALAGLYabc
166	112	1198	-1	M_so4__91__e__93__	R_ALAHIS1c
167	112	1199	+1	M_so4__91__e__93__	R_ALAHISabc
168	113	1200	-1	M_spmd__91__e__93__	R_ALALEU1c
169	114	1202	+1	M_srtn__91__e__93__	R_ALALEUabc
170	115	1212	-1	M_succ__91__e__93__	R_ALAPGPL
171	115	1213	-1	M_succ__91__e__93__	R_ALAR
172	115	1214	+1	M_succ__91__e__93__	R_ALATHR1c
173	116	1224	-1	M_sucr__91__e__93__	R_ALATHRabc
174	119	1290	-1	M_thymd__91__e__93__	R_ALAt4r
175	119	1291	+1	M_thymd__91__e__93__	R_ALCD19
176	117	1292	-1	M_thm__91__e__93__	R_ALCD2x
177	118	1296	-1	M_thr_L__91__e__93__	R_ALDD2x
178	118	1297	+1	M_thr_L__91__e__93__	R_AMALT1
179	120	1318	-1	M_tre__91__e__93__	R_AMALT2
180	121	1325	-1	M_trp_L__91__e__93__	R_AMALT3
181	121	1326	+1	M_trp_L__91__e__93__	R_AMALT4
182	122	1327	+1	M_trypta__91__e__93__	R_AMANAPEr
183	123	1330	-1	M_tym__91__e__93__	R_AMANK
184	123	1331	+1	M_tym__91__e__93__	R_AMAOTr
185	124	1335	-1	M_tyr_L__91__e__93__	R_AMMQT8r
186	124	1336	+1	M_tyr_L__91__e__93__	R_AMPMS2
187	125	1371	-1	M_uri__91__e__93__	R_AMPN
188	125	1372	+1	M_uri__91__e__93__	R_AMPTASECG
189	126	1377	-1	M_val_L__91__e__93__	R_AMPTASEGC
190	126	1378	+1	M_val_L__91__e__93__	R_ANPRT
191	75	1388	-1	M_k__91__e__93__	R_ANS
192	127	1388	+1	M_zn2__91__e__93__	R_ANS
193	75	1389	+1	M_k__91__e__93__	R_ANS2
194	127	1389	-1	M_zn2__91__e__93__	R_ANS2
195	127	1390	-1	M_zn2__91__e__93__	R_AOXSr
196	21	1416	-1	M_arg_L__91__e__93__	R_AOXSr2
197	97	1416	+1	M_orn__91__e__93__	R_AOXSr2
198	21	1417	+1	M_arg_L__91__e__93__	R_APATr
199	97	1417	-1	M_orn__91__e__93__	R_APATr
200	30	1418	-1	M_cl__91__e__93__	R_APRAUR
201	30	1419	+1	M_cl__91__e__93__	R_ARAI
