CNC	distance
0.0109018	0.116248
0.0109608	0.136349
0.0110201	0.137637
0.0110798	0.136203
0.0111397	0.136845
0.0112	0.136834
0.0112606	0.138439
0.0113216	0.134846
0.0113828	0.13246
0.0114444	0.137522
0.0115063	0.138494
0.0116312	0.137876
0.0117574	0.138533
0.011885	0.135054
0.012014	0.138848
0.0121444	0.139529
0.0124094	0.138984
0.0126802	0.139211
0.0129569	0.138097
0.0132396	0.139369
0.0135285	0.140201
0.0147486	0.140988
0.0153993	0.138619
0.0160787	0.141608
0.016788	0.141241
0.0183021	0.156718
0.021752	0.156102
0.0237137	0.155851
0.0334965	0.154373
0.0473151	0.152546
inf	0.839317
inf	0.839318
inf	0.839318
inf	0.839317
inf	0.839317
inf	0.839318
inf	0.839318
inf	0.839317
inf	0.839317
inf	0.839318
inf	0.839317
inf	0.839318
inf	0.839318
inf	0.839317
inf	0.839318
inf	0.839318
inf	0.839317
inf	0.839318
inf	0.839317
inf	0.839317
inf	0.839317
inf	0.839317
inf	0.839317
inf	0.839317
inf	0.839317
inf	0.839317
inf	0.839317
inf	0.839317
inf	0.839317
inf	0.839317
inf	0.839317
inf	0.839317
inf	0.839317
inf	0.839317
inf	0.839317
inf	0.839317
inf	0.839317
inf	0.839317
inf	0.839317
inf	0.839317
0.01	0.130039
0.0141254	0.138566
0.0199526	0.156399
0.0281838	0.155203
0.0398107	0.153614
0.0562341	0.151242
0.0794328	0.148447
0.112202	0.145539
0.158489	0.141285
0.223872	0.136416
