CNC	distance
0.0565384	0.0108485
0.0568444	0.00888935
0.057152	0.00884601
0.0574612	0.0118479
0.0577722	0.0105018
0.0580848	0.0109479
0.0583991	0.00958318
0.0587151	0.00968785
0.0590328	0.0102993
0.0593523	0.010989
0.0599964	0.0141863
0.0606474	0.0135242
0.0613056	0.0118697
0.0619709	0.0172852
0.0626434	0.0143164
0.0640103	0.0149307
0.0654071	0.0202873
0.0668344	0.0230872
0.0682928	0.0252092
0.0697831	0.0246464
0.0728618	0.0328908
0.0760764	0.0350923
0.0829373	0.0411311
0.0865964	0.0466699
0.0944061	0.0561126
0.10292	0.0656976
0.122321	0.0888026
0.133352	0.0996347
0.188365	0.136833
0.266073	0.166189
inf	0.839317
inf	0.839317
inf	0.839317
inf	0.839317
inf	0.839317
inf	0.839317
inf	0.839317
inf	0.839317
inf	0.839317
inf	0.839317
inf	0.839317
inf	0.839317
inf	0.839317
inf	0.839317
inf	0.839317
inf	0.839317
inf	0.839317
inf	0.839317
inf	0.839317
inf	0.839317
inf	0.839317
inf	0.839317
inf	0.839317
inf	0.839317
inf	0.839317
inf	0.839317
inf	0.839317
inf	0.839317
inf	0.839317
inf	0.839317
inf	0.839317
inf	0.839317
inf	0.839317
inf	0.839317
inf	0.839317
inf	0.839317
inf	0.839317
inf	0.839317
inf	0.839317
inf	0.839317
0.01	0.10264
0.0141254	0.0859133
0.0199526	0.0684269
0.0281838	0.0482064
0.0398107	0.0261884
0.0562341	0.00833727
0.0794328	0.0402757
0.112202	0.0781145
0.158489	0.119878
0.223872	0.151618
