	metabolite_index	reaction_index	stoichiometry	metabolite_id	reaction_id
1	0	7	-1	M_26dap_M__91__e__93__	R_1P4H2CBXLAH
2	0	8	+1	M_26dap_M__91__e__93__	R_23DHMPO
3	1	13	-1	M_2dmmq8__91__e__93__	R_26DAPLLAT
4	2	20	-1	M_2obut__91__e__93__	R_26DAPt2r
5	2	21	+1	M_2obut__91__e__93__	R_2AHBUTI
6	3	121	-1	M_4abz__91__e__93__	R_2DHPL
7	4	122	-1	M_4hbz__91__e__93__	R_2DMMQ8abc
8	4	123	+1	M_4hbz__91__e__93__	R_2HBO
9	7	146	-1	M_acald__91__e__93__	R_2MBCOATA
10	7	147	+1	M_acald__91__e__93__	R_2MEBCOADH
11	8	153	-1	M_acgam__91__e__93__	R_2OBUTt2r
12	9	185	-1	M_actn_R__91__e__93__	R_34DHOXPEGOX
13	9	186	+1	M_actn_R__91__e__93__	R_3CARLPDH
14	6	189	-1	M_ac__91__e__93__	R_3HAD10M12
15	6	190	+1	M_ac__91__e__93__	R_3HAD11M12
16	10	243	-1	M_akg__91__e__93__	R_3HAD12M14
17	10	244	+1	M_akg__91__e__93__	R_3HAD13M14
18	13	248	-1	M_alaasp__91__e__93__	R_3HAD14M16
19	14	253	-1	M_alagln__91__e__93__	R_3HAD15M16
20	15	256	-1	M_alaglu__91__e__93__	R_3HAD4M6
21	16	259	-1	M_alagly__91__e__93__	R_3HAD5M6
22	17	262	-1	M_alahis__91__e__93__	R_3HAD6M8
23	18	265	-1	M_alaleu__91__e__93__	R_3HAD7M8
24	19	270	-1	M_alathr__91__e__93__	R_3HAD8M10
25	12	271	-1	M_ala_L__91__e__93__	R_3HAD9M10
26	12	272	+1	M_ala_L__91__e__93__	R_3MEBCOADH
27	21	287	-1	M_arbt__91__e__93__	R_3MOBDC2
28	20	288	-1	M_arab_D__91__e__93__	R_3MOBS
29	22	289	-1	M_arg_L__91__e__93__	R_3MOPDC2
30	23	290	-1	M_arsenb__91__e__93__	R_3OAR100
31	23	291	+1	M_arsenb__91__e__93__	R_3OAR10M11
32	24	294	-1	M_asn_L__91__e__93__	R_3OAR10M12
33	24	295	+1	M_asn_L__91__e__93__	R_3OAR11M12
34	25	301	-1	M_asp_L__91__e__93__	R_3OAR120
35	25	302	+1	M_asp_L__91__e__93__	R_3OAR12M13
36	26	312	-1	M_btn__91__e__93__	R_3OAR12M14
37	27	313	-1	M_butso3__91__e__93__	R_3OAR13M14
38	29	319	+1	M_cd2__91__e__93__	R_3OAR140
39	30	325	-1	M_cgly__91__e__93__	R_3OAR14M15
40	28	329	-1	M_ca2__91__e__93__	R_3OAR14M16
41	31	329	-1	M_cit__91__e__93__	R_3OAR14M16
42	28	330	+1	M_ca2__91__e__93__	R_3OAR15M16
43	31	330	+1	M_cit__91__e__93__	R_3OAR15M16
44	33	352	-1	M_co2__91__e__93__	R_3OAR160
45	33	353	+1	M_co2__91__e__93__	R_3OAR180
46	34	354	+1	M_cobalt2__91__e__93__	R_3OAR40
47	34	355	-1	M_cobalt2__91__e__93__	R_3OAR4M5
48	35	357	-1	M_csn__91__e__93__	R_3OAR4M6
49	35	358	+1	M_csn__91__e__93__	R_3OAR5M6
50	37	369	-1	M_cys_L__91__e__93__	R_3OAR60
51	37	370	+1	M_cys_L__91__e__93__	R_3OAR6M7
52	38	375	-1	M_cytd__91__e__93__	R_3OAR6M8
53	38	376	+1	M_cytd__91__e__93__	R_3OAR7M8
54	36	381	-1	M_cu2__91__e__93__	R_3OAR80
55	36	382	+1	M_cu2__91__e__93__	R_3OAR8M10
56	39	383	-1	M_dad_2__91__e__93__	R_3OAR8M9
57	39	384	+1	M_dad_2__91__e__93__	R_3OAR9M10
58	11	385	-1	M_ala_D__91__e__93__	R_3OAS100
59	11	386	+1	M_ala_D__91__e__93__	R_3OAS10M11
60	40	409	-1	M_dextrin__91__e__93__	R_3OAS10M12
61	114	454	-1	M_ser_D__91__e__93__	R_3OAS11M12
62	114	455	+1	M_ser_D__91__e__93__	R_3OAS120
63	41	510	-1	M_ethso3__91__e__93__	R_3OAS12M13
64	42	511	-1	M_etoh__91__e__93__	R_3OAS12M14
65	42	512	+1	M_etoh__91__e__93__	R_3OAS13M14
66	43	548	-1	M_fe2__91__e__93__	R_3OAS140
67	44	549	-1	M_fe3__91__e__93__	R_3OAS160
68	44	550	-1	M_fe3__91__e__93__	R_3OAS180
69	45	558	-1	M_fol__91__e__93__	R_3OAS2M3
70	45	559	+1	M_fol__91__e__93__	R_3OAS3M4
71	46	562	-1	M_for__91__e__93__	R_3OAS4M3O6
72	46	563	+1	M_for__91__e__93__	R_3OAS4M5
73	47	574	-1	M_fru__91__e__93__	R_3OAS4M6
74	48	607	-1	M_galt__91__e__93__	R_3OAS5M6
75	49	610	-1	M_gam__91__e__93__	R_3OAS60
76	50	636	-1	M_glc_D__91__e__93__	R_3OAS6M7
77	50	637	-1	M_glc_D__91__e__93__	R_3OAS6M8
78	51	643	-1	M_gln_L__91__e__93__	R_3OAS7M8
79	51	644	+1	M_gln_L__91__e__93__	R_3OAS80
80	52	654	-1	M_glu_L__91__e__93__	R_3OAS8M10
81	52	655	+1	M_glu_L__91__e__93__	R_3OAS8M9
82	54	659	-1	M_glyasn__91__e__93__	R_3OAS9M10
83	55	662	-1	M_glyasp__91__e__93__	R_4ABZt2
84	56	663	-1	M_glyb__91__e__93__	R_4HBZt2
85	56	664	-1	M_glyb__91__e__93__	R_4HTHRS
86	56	665	+1	M_glyb__91__e__93__	R_4MOPDC2
87	58	667	-1	M_glycys__91__e__93__	R_5MTHCYST
88	57	668	+1	M_glyc__91__e__93__	R_6PHBG
89	57	669	-1	M_glyc__91__e__93__	R_6PHBG2
90	59	672	-1	M_glygln__91__e__93__	R_AACGLYDH
91	60	675	-1	M_glyglu__91__e__93__	R_AACOAT
92	61	679	-1	M_glyleu__91__e__93__	R_AACPS6
93	62	682	-1	M_glymet__91__e__93__	R_AACPS7
94	63	687	-1	M_glyphe__91__e__93__	R_AB6PGH
95	64	690	-1	M_glypro__91__e__93__	R_AB6PGH2
96	65	693	-1	M_glytyr__91__e__93__	R_ABTAr
97	53	694	-1	M_gly__91__e__93__	R_ABTOXy
98	53	695	+1	M_gly__91__e__93__	R_ABUTD
99	66	708	-1	M_gua__91__e__93__	R_ABUTR
100	66	709	+1	M_gua__91__e__93__	R_ACALD
101	66	710	-1	M_gua__91__e__93__	R_ACALDt
102	102	714	-1	M_pheme__91__e__93__	R_ACBIPGT
103	67	724	-1	M_hexs__91__e__93__	R_ACCOACL
104	68	726	+1	M_hg2__91__e__93__	R_ACCOAL
105	69	728	-1	M_his_L__91__e__93__	R_ACCOALYS2
106	69	729	+1	M_his_L__91__e__93__	R_ACGAMT
107	70	746	-1	M_hxan__91__e__93__	R_ACGApts
108	71	763	-1	M_inost__91__e__93__	R_ACHBPL
109	71	764	+1	M_inost__91__e__93__	R_ACKr
110	72	775	-1	M_isetac__91__e__93__	R_ACLDC
111	73	792	+1	M_k__91__e__93__	R_ACLS_a
112	73	793	-1	M_k__91__e__93__	R_ACLS_b
113	5	797	-1	M_Lcyst__91__e__93__	R_ACNAMS
114	75	802	-1	M_leu_L__91__e__93__	R_ACOAAGPAT140
115	75	803	+1	M_leu_L__91__e__93__	R_ACOAAGPAT160
116	76	812	-1	M_lys_L__91__e__93__	R_ACOAAGPAT180
117	76	813	+1	M_lys_L__91__e__93__	R_ACOAAGPATAI15
118	74	822	-1	M_lac_L__91__e__93__	R_ACOAAGPATAI17
119	74	823	+1	M_lac_L__91__e__93__	R_ACOAAGPATI14
120	77	827	-1	M_mal_L__91__e__93__	R_ACOAAGPATI15
121	91	827	-1	M_na1__91__e__93__	R_ACOAAGPATI15
122	77	828	+1	M_mal_L__91__e__93__	R_ACOAAGPATI16
123	91	828	+1	M_na1__91__e__93__	R_ACOAAGPATI16
124	78	831	-1	M_malt__91__e__93__	R_ACOAAGPATI17
125	77	832	-1	M_mal_L__91__e__93__	R_ACOAD1
126	79	836	-1	M_man__91__e__93__	R_ACOAD20
127	82	850	-1	M_metala__91__e__93__	R_ACOADH2
128	80	853	-1	M_met_D__91__e__93__	R_ACOATA
129	84	856	-1	M_metsox_S_L__91__e__93__	R_ACOCT
130	83	857	-1	M_metsox_R_L__91__e__93__	R_ACODAr
131	81	860	-1	M_met_L__91__e__93__	R_ACPS1
132	81	861	-1	M_met_L__91__e__93__	R_ACS
133	81	862	+1	M_met_L__91__e__93__	R_ACTNDH
134	85	864	-1	M_mg2__91__e__93__	R_ACTNdiff
135	89	865	+1	M_mqn8__91__e__93__	R_ACYP
136	89	866	-1	M_mqn8__91__e__93__	R_ACYP_2
137	87	874	-1	M_mnl__91__e__93__	R_ACt2r
138	86	875	-1	M_mn2__91__e__93__	R_ADCL
139	88	879	-1	M_mops__91__e__93__	R_ADCS
140	90	880	-1	M_mso3__91__e__93__	R_ADK1
141	92	890	+1	M_nac__91__e__93__	R_ADK10
142	92	891	-1	M_nac__91__e__93__	R_ADK11
143	91	901	+1	M_na1__91__e__93__	R_ADK2
144	93	921	-1	M_nh4__91__e__93__	R_ADK3
145	93	922	+1	M_nh4__91__e__93__	R_ADK5
146	94	928	-1	M_no2__91__e__93__	R_ADK7
147	94	929	+1	M_no2__91__e__93__	R_ADK8
148	95	932	-1	M_no3__91__e__93__	R_ADK9
149	95	933	-1	M_no3__91__e__93__	R_ADNCYC
150	94	933	+1	M_no2__91__e__93__	R_ADNCYC
151	96	951	-1	M_o2__91__e__93__	R_ADNK1
152	96	952	+1	M_o2__91__e__93__	R_ADOCBIK
153	97	956	-1	M_ocdca__91__e__93__	R_ADOCBLS
154	98	973	-1	M_orn__91__e__93__	R_ADPRDP
155	98	974	+1	M_orn__91__e__93__	R_ADPT
156	99	976	+1	M_oxa__91__e__93__	R_ADSL1r
157	100	985	+1	M_pb__91__e__93__	R_ADSL2r
158	101	1028	-1	M_phe_L__91__e__93__	R_ADSS
159	101	1029	+1	M_phe_L__91__e__93__	R_AGMHE
160	103	1030	-1	M_pi__91__e__93__	R_AGPAT120
161	103	1031	-1	M_pi__91__e__93__	R_AGPAT140
162	103	1032	+1	M_pi__91__e__93__	R_AGPAT141
163	104	1041	-1	M_pnto_R__91__e__93__	R_AGPAT160
164	105	1046	+1	M_ppa__91__e__93__	R_AGPAT161
165	106	1051	+1	M_ppi__91__e__93__	R_AGPAT180
166	107	1073	-1	M_pro_L__91__e__93__	R_AGPAT181
167	107	1074	+1	M_pro_L__91__e__93__	R_AHCYSNS_r
168	108	1099	-1	M_pydam__91__e__93__	R_AHSERL2
169	110	1102	-1	M_pydxn__91__e__93__	R_AHSERL3
170	109	1103	-1	M_pydx__91__e__93__	R_AICART
171	111	1107	-1	M_q8__91__e__93__	R_AIHPDCOATA
172	112	1131	-1	M_salcn__91__e__93__	R_AIPDCOATA
173	113	1134	-1	M_sbt_D__91__e__93__	R_AIRC4
174	115	1138	-1	M_ser_L__91__e__93__	R_AKGS
175	115	1139	+1	M_ser_L__91__e__93__	R_AKGt2r
176	116	1141	-1	M_sheme__91__e__93__	R_ALAALA
177	117	1150	-1	M_so4__91__e__93__	R_ALAASP1c
178	117	1151	+1	M_so4__91__e__93__	R_ALAASPabc
179	118	1152	-1	M_spmd__91__e__93__	R_ALACI
180	119	1162	-1	M_succ__91__e__93__	R_ALAGLN1c
181	119	1163	+1	M_succ__91__e__93__	R_ALAGLNabc
182	120	1174	-1	M_sucr__91__e__93__	R_ALAGLU1c
183	121	1175	-1	M_sulfac__91__e__93__	R_ALAGLUabc
184	122	1178	-1	M_taur__91__e__93__	R_ALAGLY1c
185	125	1206	-1	M_thymd__91__e__93__	R_ALAGLYabc
186	125	1207	+1	M_thymd__91__e__93__	R_ALAHIS1c
187	123	1208	-1	M_thm__91__e__93__	R_ALAHISabc
188	124	1211	-1	M_thr_L__91__e__93__	R_ALALEU1c
189	124	1212	+1	M_thr_L__91__e__93__	R_ALALEUabc
190	126	1231	-1	M_tre__91__e__93__	R_ALAR
191	127	1237	-1	M_trp_L__91__e__93__	R_ALATHR1c
192	127	1238	+1	M_trp_L__91__e__93__	R_ALATHRabc
193	128	1241	-1	M_ttdca__91__e__93__	R_ALAt2r
194	129	1244	-1	M_tyr_L__91__e__93__	R_ALCD19
195	129	1245	+1	M_tyr_L__91__e__93__	R_ALCD2x
196	130	1275	-1	M_ura__91__e__93__	R_ALDD2x
197	131	1279	-1	M_uri__91__e__93__	R_AMMQLT8
198	131	1280	+1	M_uri__91__e__93__	R_AMPTASECG
199	132	1286	-1	M_val_L__91__e__93__	R_AMPTASEGC
200	132	1287	+1	M_val_L__91__e__93__	R_ANPRT
201	133	1296	-1	M_zn2__91__e__93__	R_ANS
202	52	1326	-1	M_glu_L__91__e__93__	R_ANS2
203	91	1326	-1	M_na1__91__e__93__	R_ANS2
204	32	1327	-1	M_cl__91__e__93__	R_APRAUR
205	32	1328	+1	M_cl__91__e__93__	R_ARAI
