	index	compartment	charge	id	formula	name
1	909	c	+0	C_charge_balance	X	charge balance
2	910	c	+0	C_cytosol_crowding	X	cytosol molecular crowding
3	911	c	+0	C_membrane_crowding	X	membrane molecular crowding
4	0	c	-6	M_10fthf5glu__91__c__93__	C40H45N11O19	10-formyltetrahydrofolate-[Glu](5)
5	1	c	-2	M_10fthf__91__c__93__	C20H21N7O7	10-Formyltetrahydrofolate
6	2	c	-1	M_10m3hddcaACP__91__c__93__	C24H45N2O9PRS	10-methyl-3-hydroxy-dodecanoyl-ACP
7	3	c	-1	M_10m3oddcaACP__91__c__93__	C24H43N2O9PRS	10-methyl-3-oxo-dodecanoyl-ACP
8	4	c	-1	M_10mddcaACP__91__c__93__	C24H45N2O8PRS	10-methyl-dodecanoyl-ACP
9	5	c	-1	M_10mtddec2eACP__91__c__93__	C24H43N2O8PRS	10-methyl-trans-dodec-2-enoyl-ACP
10	6	c	-1	M_11m3hddcaACP__91__c__93__	C24H45N2O9PRS	11-methyl-3-hydroxy-dodecanoyl-ACP
11	7	c	-1	M_11m3oddcaACP__91__c__93__	C24H43N2O9PRS	11-methyl-3-oxo-dodecanoyl-ACP
12	8	c	-1	M_11mddcaACP__91__c__93__	C24H45N2O8PRS	11-methyl-dodecanoyl-ACP
13	9	c	-1	M_11mtddec2eACP__91__c__93__	C24H43N2O8PRS	11-methyl-trans-dodec-2-enoyl-ACP
14	10	c	+0	M_12daihdglyc__91__c__93__	C37H72O5	1,2-Dianteisoheptadecanoyl-sn-glycerol
15	11	c	+0	M_12dgr180__91__c__93__	C39H76O5	1,2-Diacyl-sn-glycerol (dioctadecanoyl, n-C18:0)
16	12	c	+0	M_12dihdglyc__91__c__93__	C37H72O5	1,2-Diisoheptadecanoyl-sn-glycerol
17	13	c	-1	M_12m3hmyrsACP__91__c__93__	C26H49N2O9PRS	12-methyl-3-hydroxy-tetra-decanoyl-ACP
18	14	c	-1	M_12m3omyrsACP__91__c__93__	C26H47N2O9PRS	12-methyl-3-oxo-tetra-decanoyl-ACP
19	15	c	-1	M_12mmyrsACP__91__c__93__	C26H49N2O8PRS	12-methyl-tetra-decanoyl-ACP
20	16	c	-1	M_12mtmrs2eACP__91__c__93__	C26H47N2O8PRS	12-methyl-trans-tetra-dec-2-enoyl-ACP
21	17	c	-1	M_12mtridecACP__91__c__93__	C25H47N2O8PRS	12-methyl-tridecanoyl-ACP
22	18	c	-4	M_13dpg__91__c__93__	C3H4O10P2	3-Phospho-D-glyceroyl phosphate
23	19	c	-1	M_13m3hmyrsACP__91__c__93__	C26H49N2O9PRS	13-methyl-3-hydroxy-tetra-decanoyl-ACP
24	20	c	-1	M_13m3omyrsACP__91__c__93__	C26H47N2O9PRS	13-methyl-3-oxo-tetra-decanoyl-ACP
25	21	c	-1	M_13mmyrsACP__91__c__93__	C26H49N2O8PRS	13-methyl-tetra-decanoyl-ACP
26	22	c	-1	M_13mtmrs2eACP__91__c__93__	C26H47N2O8PRS	13-methyl-trans-tetra-dec-2-enoyl-ACP
27	23	c	-1	M_14m3hpalmACP__91__c__93__	C28H53N2O9PRS	14-methyl-3-hydroxy-hexa-decanoyl-ACP
28	24	c	-1	M_14m3opalmACP__91__c__93__	C28H51N2O9PRS	14-methyl-3-oxo-hexa-decanoyl-ACP
29	25	c	-1	M_14mpalmACP__91__c__93__	C28H53N2O8PRS	14-methyl-hexa-decanoyl-ACP
30	26	c	-1	M_14mpentdecACP__91__c__93__	C27H51N2O8PRS	14-methyl-pentadecanoyl-ACP
31	27	c	-1	M_14mtpalm2eACP__91__c__93__	C28H51N2O8PRS	14-methyl-trans-hexa-dec-2-enoyl-ACP
32	28	c	-1	M_15m3hpalmACP__91__c__93__	C28H53N2O9PRS	15-methyl-3-hydroxy-hexa-decanoyl-ACP
33	29	c	-1	M_15m3opalmACP__91__c__93__	C28H51N2O9PRS	15-methyl-3-oxo-hexa-decanoyl-ACP
34	30	c	-1	M_15mpalmACP__91__c__93__	C28H53N2O8PRS	15-methyl-hexa-decanoyl-ACP
35	31	c	-1	M_15mtpalm2eACP__91__c__93__	C28H51N2O8PRS	15-methyl-trans-hexa-dec-2-enoyl-ACP
36	32	c	+0	M_15phytn__91__c__93__	C40H64	15-cis-Phytoene
37	33	c	+0	M_1agpe120__91__c__93__	C17H36NO7P1	1-Acyl-sn-glycero-3-phosphoethanolamine (n-C12:0)
38	34	c	+0	M_1agpe140__91__c__93__	C19H40NO7P1	1-Acyl-sn-glycero-3-phosphoethanolamine (n-C14:0)
39	35	c	+0	M_1agpe141__91__c__93__	C19H38NO7P1	1-Acyl-sn-glycero-3-phosphoethanolamine (n-C14:1)
40	36	c	+0	M_1agpe160__91__c__93__	C21H44NO7P1	1-Acyl-sn-glycero-3-phosphoethanolamine (n-C16:0)
41	37	c	+0	M_1agpe161__91__c__93__	C21H42NO7P1	1-Acyl-sn-glycero-3-phosphoethanolamine (n-C16:1)
42	38	c	+0	M_1agpe180__91__c__93__	C23H48NO7P1	1-Acyl-sn-glycero-3-phosphoethanolamine (n-C18:0)
43	39	c	+0	M_1agpe181__91__c__93__	C23H46NO7P1	1-Acyl-sn-glycero-3-phosphoethanolamine (n-C18:1)
44	40	c	-1	M_1agpg120__91__c__93__	C18H36O9P1	1-Acyl-sn-glycero-3-phosphoglycerol (n-C12:0)
45	41	c	-1	M_1agpg140__91__c__93__	C20H40O9P1	1-Acyl-sn-glycero-3-phosphoglycerol (n-C14:0)
46	42	c	-1	M_1agpg141__91__c__93__	C20H38O9P1	1-Acyl-sn-glycero-3-phosphoglycerol (n-C14:1)
47	43	c	-1	M_1agpg160__91__c__93__	C22H44O9P1	1-Acyl-sn-glycero-3-phosphoglycerol (n-C16:0)
48	44	c	-1	M_1agpg161__91__c__93__	C22H42O9P1	1-Acyl-sn-glycero-3-phosphoglycerol (n-C16:1)
49	45	c	-1	M_1agpg180__91__c__93__	C24H48O9P1	1-Acyl-sn-glycero-3-phosphoglycerol (n-C18:0)
50	46	c	-1	M_1agpg181__91__c__93__	C24H46O9P1	1-Acyl-sn-glycero-3-phosphoglycerol (n-C18:1)
51	47	c	-2	M_1aihpdecg3p__91__c__93__	C20H39O7P	1-anteisoheptadecanoyl-sn-glycerol 3-phosphate (14-methyl-hexadecanoyl, anteiso-C17)
52	48	c	-1	M_1aipdecg3p__91__c__93__	C18H36O7P	1-anteisopentadecanoyl-sn-glycerol 3-phosphate (12-methyl-tetradecanoyl, anteiso-C15)
53	49	c	-2	M_1ddecg3p__91__c__93__	C15H29O7P1	1-acyl-sn-glycerol 3-phosphate(2-)
54	50	c	-2	M_1hdec9eg3p__91__c__93__	C19H35O7P1	1-hexadec-9-enoyl-sn-glycerol 3-phosphate
55	51	c	-2	M_1hdecg3p__91__c__93__	C19H37O7P1	1-hexadecanoyl-sn-glycerol 3-phosphate
56	52	c	-1	M_1ihdecg3p__91__c__93__	C19H38O7P	1-isohexadecanoyl-sn-glycerol 3-phosphate (14-methyl-pentadecanoyl, iso-C16)
57	53	c	-2	M_1ihpdecg3p__91__c__93__	C20H39O7P	1-isoheptadecanoyl-sn-glycerol 3-phosphate (15-methyl-hexadecanoyl, iso-C17)
58	54	c	-1	M_1ipdecg3p__91__c__93__	C18H36O7P	1-isopentadecanoyl-sn-glycerol 3-phosphate (13-methyl-tetradecanoyl, iso-C15)
59	55	c	-1	M_1itdecg3p__91__c__93__	C17H34O7P	1-isotetradecanoyl-sn-glycerol 3-phosphate (12-methyl-tridecanoyl, iso-C14)
60	56	c	-2	M_1odec11eg3p__91__c__93__	C21H39O7P1	1-octadec-11-enoyl-sn-glycerol 3-phosphate
61	57	c	-2	M_1odecg3p__91__c__93__	C21H41O7P1	1-octadecanoyl-sn-glycerol 3-phosphate
62	58	c	-1	M_1p4h2cbxl__91__c__93__	C5H6NO3	1-Pyrroline-4-hydroxy-2-carboxylate
63	59	c	-1	M_1pyr5c__91__c__93__	C5H6NO2	1-Pyrroline-5-carboxylate
64	60	c	-2	M_1tdec7eg3p__91__c__93__	C17H31O7P1	1-tetradec-7-enoyl-sn-glycerol 3-phosphate
65	61	c	-2	M_1tdecg3p__91__c__93__	C17H33O7P1	1-tetradecanoyl-sn-glycerol 3-phosphate
66	62	c	-1	M_23dhmb__91__c__93__	C5H9O4	(R)-2,3-Dihydroxy-3-methylbutanoate
67	63	c	-1	M_23dhmp__91__c__93__	C6H11O4	(R)-2,3-Dihydroxy-3-methylpentanoate
68	64	c	-5	M_23dpg__91__c__93__	C3H3O10P2	2,3-bisphosphonato-D-glycerate(5-)
69	65	c	-4	M_25aics__91__c__93__	C13H15N4O12P	(S)-2-[5-Amino-1-(5-phospho-D-ribosyl)imidazole-4-carboxamido]succinate
70	66	c	-2	M_25dhpp__91__c__93__	C9H14N5O8P	2,5-Diamino-6-hydroxy-4-(5-phosphoribosylamino)-pyrimidine
71	67	c	-1	M_25dop__91__c__93__	C5H5O4	2,5-Dioxopentanoate
72	68	c	-2	M_25drapp__91__c__93__	C9H14N5O8P	2,5-Diamino-6-(ribosylamino)-4-(3H)-pyrimidinone 5-phosphate
73	69	c	+0	M_26dap_LL__91__c__93__	C7H14N2O4	LL-2,6-Diaminoheptanedioate
74	70	c	+0	M_26dap_M__91__c__93__	C7H14N2O4	meso-2,6-Diaminoheptanedioate
75	71	c	+0	M_2agpe120__91__c__93__	C17H36NO7P1	2-Acyl-sn-glycero-3-phosphoethanolamine (n-C12:0)
76	72	c	+0	M_2agpe140__91__c__93__	C19H40NO7P1	2-Acyl-sn-glycero-3-phosphoethanolamine (n-C14:0)
77	73	c	+0	M_2agpe141__91__c__93__	C19H38NO7P1	2-Acyl-sn-glycero-3-phosphoethanolamine (n-C14:1)
78	74	c	+0	M_2agpe160__91__c__93__	C21H44NO7P1	2-Acyl-sn-glycero-3-phosphoethanolamine (n-C16:0)
79	75	c	+0	M_2agpe161__91__c__93__	C21H42NO7P1	2-Acyl-sn-glycero-3-phosphoethanolamine (n-C16:1)
80	76	c	+0	M_2agpe180__91__c__93__	C23H48NO7P1	2-Acyl-sn-glycero-3-phosphoethanolamine (n-C18:0)
81	77	c	+0	M_2agpe181__91__c__93__	C23H46NO7P1	2-Acyl-sn-glycero-3-phosphoethanolamine (n-C18:1)
82	78	c	-1	M_2agpg120__91__c__93__	C18H36O9P1	2-Acyl-sn-glycero-3-phosphoglycerol (n-C12:0)
83	79	c	-1	M_2agpg140__91__c__93__	C20H40O9P1	2-Acyl-sn-glycero-3-phosphoglycerol (n-C14:0)
84	80	c	-1	M_2agpg141__91__c__93__	C20H38O9P1	2-Acyl-sn-glycero-3-phosphoglycerol (n-C14:1)
85	81	c	-1	M_2agpg160__91__c__93__	C22H44O9P1	2-Acyl-sn-glycero-3-phosphoglycerol (n-C16:0)
86	82	c	-1	M_2agpg161__91__c__93__	C22H42O9P1	2-Acyl-sn-glycero-3-phosphoglycerol (n-C16:1)
87	83	c	-1	M_2agpg180__91__c__93__	C24H48O9P1	2-Acyl-sn-glycero-3-phosphoglycerol (n-C18:0)
88	84	c	-1	M_2agpg181__91__c__93__	C24H46O9P1	2-Acyl-sn-glycero-3-phosphoglycerol (n-C18:1)
89	85	c	-1	M_2ahbut__91__c__93__	C6H9O4	(S)-2-Aceto-2-hydroxybutanoate
90	86	c	-3	M_2ahhmd__91__c__93__	C7H8N5O8P2	2-Amino-4-hydroxy-6-hydroxymethyl-7,8-dihydropteridine diphosphate
91	87	c	+0	M_2ahhmp__91__c__93__	C7H9N5O2	2-Amino-4-hydroxy-6-hydroxymethyl-7,8-dihydropteridine
92	88	c	-3	M_2cpr5p__91__c__93__	C12H13NO9P	1-(2-Carboxyphenylamino)-1-deoxy-D-ribulose 5-phosphate
93	89	c	-3	M_2dda7p__91__c__93__	C7H10O10P	2-Dehydro-3-deoxy-D-arabino-heptonate 7-phosphate
94	90	c	-1	M_2ddecg3p__91__c__93__	C15H30O7P1	2-dodecanoyl-sn-glycerol 3-phosphate
95	91	c	-3	M_2dh3dgal6p__91__c__93__	C6H8O9P	2-Dehydro-3-deoxy-D-galactonate 6-phosphate
96	92	c	-1	M_2dhp__91__c__93__	C6H9O4	2-Dehydropantoate
97	93	c	+0	M_2dmmq8__91__c__93__	C50H70O2	2-Demethylmenaquinone 8
98	94	c	+0	M_2dmmql8__91__c__93__	C50H72O2	2-Demethylmenaquinol 8
99	95	c	-2	M_2dr1p__91__c__93__	C5H9O7P	2-Deoxy-D-ribose 1-phosphate
100	96	c	-2	M_2dr5p__91__c__93__	C5H9O7P	2-deoxy-D-ribose 5-phosphate(2-)
101	97	c	-1	M_2hb__91__c__93__	C4H7O3	2-Hydroxybutyrate
102	98	c	-1	M_2hdec9eg3p__91__c__93__	C19H36O7P1	2-hexadec-9-enoyl-sn-glycerol 3-phosphate
103	99	c	-1	M_2hdecg3p__91__c__93__	C19H38O7P1	2-hexadecanoyl-sn-glycerol 3-phosphate
104	100	c	-2	M_2hh24dd__91__c__93__	C7H6O5	2-Hydroxyhepta-2-4-dienedioate
105	101	c	-2	M_2ippm__91__c__93__	C7H8O4	2-Isopropylmaleate
106	102	c	-3	M_2mahmp__91__c__93__	C6H8N3O7P2	2-Methyl-4-amino-5-hydroxymethylpyrimidine diphosphate
107	103	c	-4	M_2mb2coa__91__c__93__	C26H38N7O17P3S	2-methylcrotonoyl-CoA(4-)
108	104	c	-4	M_2mbcoa__91__c__93__	C26H40N7O17P3S	2-methylbutanoyl-CoA(4-)
109	105	c	-1	M_2mbutACP__91__c__93__	C16H29N2O8PRS	2-methylbutanoyl-ACP,2-methylbutyryl-ACP
110	106	c	-3	M_2mcacn__91__c__93__	C7H5O6	(Z)-but-2-ene-1,2,3-tricarboxylate
111	107	c	-2	M_2me4p__91__c__93__	C5H11O7P	2-C-methyl-D-erythritol 4-phosphate
112	108	c	-2	M_2mecdp__91__c__93__	C5H10O9P2	2-C-methyl-D-erythritol 2,4-cyclodiphosphate
113	109	c	-4	M_2mp2coa__91__c__93__	C25H36N7O17P3S	2-Methylprop-2-enoyl-CoA
114	110	c	+0	M_2mpdhl__91__c__93__	C12H23NO2S2	S-(2-Methylpropanoyl)-dihydrolipoamide
115	111	c	-1	M_2mpropACP__91__c__93__	C15H27N2O8PRS	2-methylpropionyl-ACP,isobutyryl-ACP
116	112	c	-1	M_2obut__91__c__93__	C4H5O3	2-Oxobutanoate
117	113	c	-1	M_2odec11eg3p__91__c__93__	C21H40O7P1	2-octadec-11-enoyl-sn-glycerol 3-phosphate
118	114	c	-1	M_2odecg3p__91__c__93__	C21H42O7P1	2-octadecanoyl-sn-glycerol 3-phosphate
119	115	c	+0	M_2ohph__91__c__93__	C46H70O2	2-Octaprenyl-6-hydroxyphenol
120	116	c	+0	M_2ombzl__91__c__93__	C47H72O3	2-Octaprenyl-6-methoxy-1,4-benzoquinol
121	117	c	+0	M_2omhmbl__91__c__93__	C48H74O4	2-Octaprenyl-3-methyl-5-hydroxy-6-methoxy-1,4-benzoquinol
122	118	c	+0	M_2ommbl__91__c__93__	C48H74O3	2-Octaprenyl-3-methyl-6-methoxy- 1,4-benzoquinol
123	119	c	+0	M_2omph__91__c__93__	C47H72O2	2-Octaprenyl-6-methoxyphenol
124	120	c	+0	M_2oph__91__c__93__	C46H70O	2-Octaprenylphenol
125	121	c	-4	M_2p4c2me__91__c__93__	C14H22N3O17P3	2-phospho-4-(cytidine 5-diphospho)-2-C-methyl-D-erythritol
126	122	c	-3	M_2pg__91__c__93__	C3H4O7P	D-Glycerate 2-phosphate
127	123	c	-3	M_2s5epchc__91__c__93__	C14H13O9	2-Succinyl-5-enolpyruvyl-6-hydroxy-3-cyclohexene-1-carboxylate
128	124	c	-2	M_2shchc__91__c__93__	C11H10O6	2-Succinyl-6-hydroxy-2,4-cyclohexadiene-1-carboxylate
129	125	c	-1	M_2tdec7eg3p__91__c__93__	C17H32O7P1	2-tetradec-7-enoyl-sn-glycerol 3-phosphate
130	126	c	-1	M_2tdecg3p__91__c__93__	C17H34O7P1	2-tetradecanoyl-sn-glycerol 3-phosphate
131	127	c	-1	M_33hmeoxobut__91__c__93__	C5H7O4	2-Oxo-3-hydroxyisovalerate
132	128	c	+0	M_34dhmald__91__c__93__	C8H8O4	3,4-Dihydroxymandelaldehyde
133	129	c	+0	M_34dhoxpeg__91__c__93__	C8H10O4	3,4-Dihydroxyphenylethyleneglycol
134	130	c	+0	M_34dhphe__91__c__93__	C9H11NO4	L-dopa
135	131	c	-1	M_34hpp__91__c__93__	C9H7O4	3-(4-hydroxyphenyl)pyruvate
136	132	c	-2	M_3c2hmp__91__c__93__	C7H10O5	3-Carboxy-2-hydroxy-4-methylpentanoate
137	133	c	-2	M_3c3hmp__91__c__93__	C7H10O5	3-Carboxy-3-hydroxy-4-methylpentanoate
138	134	c	-2	M_3c4mop__91__c__93__	C7H8O5	3-Carboxy-4-methyl-2-oxopentanoate
139	135	c	-1	M_3dhq__91__c__93__	C7H9O6	3-Dehydroquinate
140	136	c	-1	M_3dhsk__91__c__93__	C7H7O5	3-Dehydroshikimate
141	137	c	-1	M_3h3mop__91__c__93__	C6H9O4	(R)-3-Hydroxy-3-methyl-2-oxopentanoate
142	138	c	-4	M_3hbcoa__91__c__93__	C25H38N7O18P3S	(S)-3-hydroxybutanoyl-CoA(4-)
143	139	c	-4	M_3hdcoa__91__c__93__	C31H50N7O18P3S	(S)-3-Hydroxydecanoyl-CoA
144	140	c	-4	M_3hddcoa__91__c__93__	C33H54N7O18P3S	(S)-3-Hydroxydodecanoyl-CoA
145	141	c	-4	M_3hhdcoa__91__c__93__	C37H62N7O18P3S	(S)-3-Hydroxyhexadecanoyl-CoA
146	142	c	-4	M_3hibutcoa__91__c__93__	C25H38N7O18P3S	(S)-3-Hydroxyisobutyryl-CoA
147	143	c	-4	M_3hmbcoa__91__c__93__	C26H40N7O18P3S	(2S,3S)-3-hydroxy-2-methylbutanoyl-CoA(4-)
148	144	c	-1	M_3hmp__91__c__93__	C4H7O3	3-hydroxy-2-methylpropanoate
149	145	c	-4	M_3hocoa__91__c__93__	C29H46N7O18P3S	(S)-3-Hydroxyoctanoyl-CoA
150	146	c	-4	M_3hpcoa__91__c__93__	C24H36N7O18P3S	3-hydroxypropanoyl-CoA(4-)
151	147	c	-1	M_3hpp__91__c__93__	C3H5O3	3-hydroxypropionate
152	148	c	-4	M_3htdcoa__91__c__93__	C35H58N7O18P3S	(S)-3-Hydroxytetradecanoyl-CoA
153	149	c	-2	M_3ig3p__91__c__93__	C11H12NO6P	C-(3-Indolyl)-glycerol 3-phosphate
154	150	c	-1	M_3mbutACP__91__c__93__	C16H29N2O8PRS	3-methylbutanoyl-ACP,isovaleryl-ACP
155	151	c	-1	M_3mob__91__c__93__	C5H7O3	3-methyl-2-oxobutanoate
156	152	c	-1	M_3mop__91__c__93__	C6H9O3	3-methyl-2-oxopentanoate
157	153	c	-1	M_3ophb__91__c__93__	C47H69O3	3-Octaprenyl-4-hydroxybenzoate
158	154	c	-3	M_3pg__91__c__93__	C3H4O7P	3-Phospho-D-glycerate
159	155	c	-3	M_3php__91__c__93__	C3H2O7P	3-phosphonatooxypyruvate(3-)
160	156	c	-4	M_3psme__91__c__93__	C10H9O10P	5-O-(1-Carboxyvinyl)-3-phosphoshikimate
161	157	c	-1	M_3uib__91__c__93__	C5H9N2O3	3-Ureidoisobutyrate
162	158	c	+0	M_4abut__91__c__93__	C4H9NO2	4-Aminobutanoate
163	159	c	+1	M_4abutn__91__c__93__	C4H10NO	4-Aminobutanal
164	160	c	-1	M_4abz__91__c__93__	C7H6NO2	4-Aminobenzoate
165	161	c	-1	M_4adcho__91__c__93__	C10H10NO5	4-amino-4-deoxychorismate
166	162	c	+0	M_4ahmmp__91__c__93__	C6H9N3O	4-Amino-5-hydroxymethyl-2-methylpyrimidine
167	163	c	-2	M_4ampm__91__c__93__	C6H8N3O4P	4-Amino-2-methyl-5-phosphomethylpyrimidine
168	164	c	-2	M_4c2me__91__c__93__	C14H23N3O14P2	4-(cytidine 5-diphospho)-2-C-methyl-D-erythritol
169	165	c	-2	M_4h2oglt__91__c__93__	C5H4O6	4-hydroxy-2-oxoglutarate(2-)
170	166	c	+0	M_4hba__91__c__93__	C7H8O2	4-Hydroxy-benzyl alcohol
171	167	c	-1	M_4hbz__91__c__93__	C7H5O3	4-hydroxybenzoate
172	168	c	+0	M_4hthr__91__c__93__	C4H9NO4	4-Hydroxy-L-threonine
173	169	c	-1	M_4m3hhexACP__91__c__93__	C18H33N2O9PRS	4-methyl-3-hydroxy-hexanoyl-ACP
174	170	c	-1	M_4m3ohexACP__91__c__93__	C18H31N2O9PRS	4-methyl-3-oxo-hexanoyl-ACP
175	171	c	+0	M_4mhetz__91__c__93__	C6H9NOS	4-Methyl-5-(2-hydroxyethyl)-thiazole
176	172	c	-1	M_4mhexACP__91__c__93__	C18H33N2O8PRS	4-methyl-hexanoyl-ACP
177	173	c	-1	M_4mop__91__c__93__	C6H9O3	4-methyl-2-oxopentanoate
178	174	c	-2	M_4mpetz__91__c__93__	C6H8NO4PS	4-Methyl-5-(2-phosphoethyl)-thiazole
179	175	c	-1	M_4mthex2eACP__91__c__93__	C18H31N2O8PRS	4-methyl-trans-hex-2-enoyl-ACP
180	176	c	-2	M_4pasp__91__c__93__	C4H6NO7P	4-Phospho-L-aspartate
181	177	c	-3	M_4per__91__c__93__	C4H6O8P	4-Phospho-D-erythronate
182	178	c	-3	M_4ppan__91__c__93__	C9H15NO8P	D-4-Phosphopantothenate
183	179	c	-3	M_4ppcys__91__c__93__	C12H20N2O9PS	N-((R)-4-Phosphopantothenoyl)-L-cysteine
184	180	c	+0	M_4r5au__91__c__93__	C9H16N4O6	4-(1-D-Ribitylamino)-5-aminouracil
185	181	c	+0	M_56dthm__91__c__93__	C5H8N2O2	5,6-dihydrothymine
186	182	c	+0	M_56dura__91__c__93__	C4H6N2O2	5,6-dihydrouracil
187	183	c	-3	M_5aizc__91__c__93__	C9H11N3O9P	5-amino-1-(5-phospho-D-ribosyl)imidazole-4-carboxylate
188	184	c	+0	M_5aop__91__c__93__	C5H9NO3	5-Amino-4-oxopentanoate
189	185	c	-2	M_5aprbu__91__c__93__	C9H15N4O9P	5-Amino-6-(5-phosphoribitylamino)uracil
190	186	c	-2	M_5apru__91__c__93__	C9H13N4O9P	5-Amino-6-(5-phosphoribosylamino)uracil
191	187	c	-3	M_5c2o3ed__91__c__93__	C8H5O7	5-Carboxy-2-oxohept-3-enedioate
192	188	c	-1	M_5dglcn__91__c__93__	C6H9O7	5-Dehydro-D-gluconate
193	189	c	-2	M_5dh4dglc__91__c__93__	C6H6O7	5-Dehydro-4-deoxy-D-glucarate
194	190	c	-2	M_5forthf__91__c__93__	C20H22N8O6	5-Formiminotetrahydrofolate
195	191	c	-2	M_5fthf__91__c__93__	C20H21N7O7	5-formyltetrahydrofolate(2-)
196	192	c	+0	M_5htrp__91__c__93__	C11H12N2O3	5-hydroxy-L-tryptophan
197	193	c	+0	M_5hxkyn__91__c__93__	C10H12N2O4	5-hydroxykynurenine
198	194	c	+1	M_5hxkynam__91__c__93__	C9H13N2O2	5-Hydroxykynurenamine
199	195	c	-1	M_5m3hhexACP__91__c__93__	C18H33N2O9PRS	5-methyl-3-hydroxy-hexanoyl-ACP
200	196	c	-1	M_5m3ohexACP__91__c__93__	C18H31N2O9PRS	5-methyl-3-oxo-hexanoyl-ACP
201	197	c	-1	M_5mhexACP__91__c__93__	C18H33N2O8PRS	5-methyl-hexanoyl-ACP
202	198	c	-1	M_5mthex2eACP__91__c__93__	C18H31N2O8PRS	5-methyl-trans-hex-2-enoyl-ACP
203	199	c	-1	M_5mthf__91__c__93__	C20H24N7O6	5-Methyltetrahydrofolate
204	200	c	-2	M_5prdmbz__91__c__93__	C14H17N2O7P	N1-(5-Phospho-alpha-D-ribosyl)-5,6-dimethylbenzimidazole
205	201	c	-6	M_5thf__91__c__93__	C39H45N11O18	pentaglutamyl folate (THF)
206	202	c	+0	M_6hmhpt__91__c__93__	C7H9N5O2	6-hydroxymethyl dihydropterin
207	203	c	-3	M_6hmhptpp__91__c__93__	C7H8N5O8P2	6-hydroxymethyl-dihydropterin pyrophosphate
208	204	c	-1	M_6m3hocACP__91__c__93__	C20H37N2O9PRS	6-methyl-3-hydroxy-octanoyl-ACP
209	205	c	-1	M_6m3oocACP__91__c__93__	C20H35N2O9PRS	6-methyl-3-oxo-octanoyl-ACP
210	206	c	-1	M_6mocACP__91__c__93__	C20H37N2O8PRS	6-methyl-octanoyl-ACP
211	207	c	-1	M_6mtoct2eACP__91__c__93__	C20H35N2O8PRS	6-methyl-trans-oct-2-enoyl-ACP
212	208	c	-3	M_6pgc__91__c__93__	C6H10O10P	6-Phospho-D-gluconate
213	209	c	-2	M_6pgl__91__c__93__	C6H9O9P	6-phospho-D-glucono-1,5-lactone
214	210	c	-1	M_7m3hocACP__91__c__93__	C20H37N2O9PRS	7-methyl-3-hydroxy-octanoyl-ACP
215	211	c	-1	M_7m3oocACP__91__c__93__	C20H35N2O9PRS	7-methyl-3-oxo-octanoyl-ACP
216	212	c	-1	M_7mocACP__91__c__93__	C20H37N2O8PRS	7-methyl-octanoyl-ACP
217	213	c	-1	M_7mtoct2eACP__91__c__93__	C20H35N2O8PRS	7-methyl-trans-oct-2-enoyl-ACP
218	214	c	+0	M_8aonn__91__c__93__	C9H17NO3	8-Amino-7-oxononanoate
219	215	c	-1	M_8m3hdcaACP__91__c__93__	C22H41N2O9PRS	8-methyl-3-hydroxy-decanoyl-ACP
220	216	c	-1	M_8m3odcaACP__91__c__93__	C22H39N2O9PRS	8-methyl-3-oxo-decanoyl-ACP
221	217	c	-1	M_8mdcaACP__91__c__93__	C22H41N2O8PRS	8-methyl-decanoyl-ACP
222	218	c	-1	M_8mtdec2eACP__91__c__93__	C22H39N2O8PRS	8-methyl-trans-dec-2-enoyl-ACP
223	219	c	-1	M_9m3hdcaACP__91__c__93__	C22H41N2O9PRS	9-methyl-3-hydroxy-decanoyl-ACP
224	220	c	-1	M_9m3odcaACP__91__c__93__	C22H39N2O9PRS	9-methyl-3-oxo-decanoyl-ACP
225	221	c	-1	M_9mdcaACP__91__c__93__	C22H41N2O8PRS	9-methyl-decanoyl-ACP
226	222	c	-1	M_9mtdec2eACP__91__c__93__	C22H39N2O8PRS	9-methyl-trans-dec-2-enoyl-ACP
227	223	c	-1	M_ACP__91__c__93__	C11H21N2O7PRS	acyl carrier protein
228	224	c	+0	M_HC01376__91__c__93__	C13H25NO2S2	S-(2-Methylbutanoyl)-dihydrolipoamide
229	225	c	-3	M_HC01434__91__c__93__	C6H3O7	oxalatosuccinate(3-)
230	226	c	-8	M_HC01609__91__c__93__	C40H36N4O16	UroporphyrinogenI
231	227	c	-4	M_HC01651__91__c__93__	C10H14N5O15P3	Formamidopyrimidine nucleoside triphosphate
232	228	c	-4	M_HC01652__91__c__93__	C9H14N5O14P3	2,5-Diaminopyrimidine nucleoside triphosphate
233	229	c	-4	M_HC01710__91__c__93__	C9H14N5O14P3	2,5-Diamino-6-(5-triphosphoryl-3,4-trihydroxy-2-oxopentyl)- amino-4-oxopyrimidine
234	230	c	-1	M_Largn__91__c__93__	C10H12NO5	L-Arogenate
235	231	c	+0	M_M00512__91__c__93__	C6H8O4R2	1-Alkenyl-2-acylglycerol
236	232	c	-3	M_M01966__91__c__93__	C6H11O12P2	Alpha-D-Glucose 1,6-bisphosphate
237	233	c	-2	M_Nacasp__91__c__93__	C6H7NO5	N-acetyl-L-aspartate(2-)
238	234	c	+0	M_Naccitr_L__91__c__93__	C8H15N3O4	N-Acetyl-L-citrulline
239	235	c	+0	M_PGP__91__c__93__	C39H64N8O19X	Peptidoglycan polymer (n subunits)
240	236	c	+0	M_PGPm1__91__c__93__	X	Peptidoglycan polymer (n-1 subunits)
241	237	c	+1	M_aacald__91__c__93__	C2H6NO	Aminoacetaldehyde
242	238	c	-4	M_aacoa__91__c__93__	C25H36N7O18P3S	Acetoacetyl-CoA
243	239	c	+0	M_abt__91__c__93__	C5H12O5	L-arabinitol
244	240	c	-1	M_ac__91__c__93__	C2H3O2	acetate
245	241	c	-2	M_acaadpdp__91__c__93__	C8H12NO8P	N2-Acetyl-L-aminoadipyl-delta-phosphate
246	242	c	-1	M_acaadpsal__91__c__93__	C8H12NO4	N2-Acetyl-L-aminoadipate semialdehyde
247	243	c	-1	M_acac__91__c__93__	C4H5O3	acetoacetate
248	244	c	+0	M_acald__91__c__93__	C2H4O	acetaldehyde
249	245	c	-2	M_acbdma14gapuc__91__c__93__	C71H116N2O17P2	N-Acetyl-beta-D-mannosaminyl-1,4-N-acetyl-D- glucosaminyldiphosphoundecaprenol
250	246	c	-4	M_accoa__91__c__93__	C23H34N7O17P3S	Acetyl-CoA
251	247	c	-3	M_acg5p__91__c__93__	C7H9NO8P	N-acetyl-L-gamma-glutamyl phosphate(3-)
252	248	c	-1	M_acg5sa__91__c__93__	C7H10NO4	2-acetamido-5-oxopentanoate
253	249	c	-2	M_acgam1p__91__c__93__	C8H14NO9P	N-Acetyl-D-glucosamine 1-phosphate
254	250	c	-2	M_acgam6p__91__c__93__	C8H14NO9P	N-acetyl-D-glucosamine 6-phosphate(2-)
255	251	c	+0	M_acgam__91__c__93__	C8H15NO6	N-acetyl-D-glucosamine
256	252	c	-2	M_acglu__91__c__93__	C7H9NO5	N-acetyl-L-glutamate(2-)
257	253	c	+0	M_achms__91__c__93__	C6H11NO4	O-Acetyl-L-homoserine
258	254	c	+0	M_acmalt__91__c__93__	C14H24O12	Acetyl-maltose
259	255	c	+0	M_acmana__91__c__93__	C8H15NO6	N-acetyl-D-mannosamine
260	256	c	-2	M_acmanap__91__c__93__	C8H14NO9P	N-acetyl-D-mannosamine 6-phosphate(2-)
261	257	c	-3	M_acon_C__91__c__93__	C6H3O6	cis-Aconitate
262	258	c	+0	M_acorn__91__c__93__	C7H14N2O3	N(2)-acetyl-L-ornithine
263	259	c	+0	M_acser__91__c__93__	C5H9NO4	O-Acetyl-L-serine
264	260	c	+0	M_actn_R__91__c__93__	C4H8O2	(R)-Acetoin
265	261	c	-2	M_actp__91__c__93__	C2H3O5P	Acetyl phosphate
266	262	c	-4	M_adcobdam__91__c__93__	C55H68CoN11O15	Adenosyl cobyrinate diamide
267	263	c	+0	M_adcobhex__91__c__93__	C55H76CoN15O11	adenosyl-cobyric acid
268	264	c	+0	M_ade__91__c__93__	C5H5N5	Adenine
269	265	c	+0	M_adhlam__91__c__93__	C10H19NO2S2	S-Acetyldihydrolipoamide
270	266	c	+0	M_adn__91__c__93__	C10H13N5O4	Adenosine
271	267	c	+1	M_adocbi__91__c__93__	C58H84CoN16O11	Adenosyl cobinamide
272	268	c	-1	M_adocbip__91__c__93__	C58H83CoN16O14P	Adenosyl cobinamide phosphate
273	269	c	+0	M_adocbl__91__c__93__	C72H100CoN18O17P	Adenosylcobalamin
274	270	c	-3	M_adp__91__c__93__	C10H12N5O10P2	ADP
275	271	c	-2	M_adpglc__91__c__93__	C16H23N5O15P2	ADP alpha-D-glucoside(2-)
276	272	c	-2	M_adprib__91__c__93__	C15H21N5O14P2	ADPribose
277	273	c	-1	M_agdpcbi__91__c__93__	C68H95CoN21O21P2	Adenosine-GDP-cobinamide
278	274	c	+0	M_ahcys__91__c__93__	C14H20N6O5S	S-Adenosyl-L-homocysteine
279	275	c	-4	M_ahdt__91__c__93__	C9H12N5O13P3	7,8-dihydroneopterin 3-triphosphate(4-)
280	276	c	-24	M_ai15tca1__91__c__93__	C117H228O135P24	Anteisopentadecanoyllipoteichoic acid (n=24), linked, unsubstituted
281	277	c	-24	M_ai15tcaacgam__91__c__93__	C309H540N24O255P24	Anteisopentadecanoyllipoteichoic acid (n=24), linked, N-acetyl-D-glucosamine
282	278	c	-24	M_ai15tcaglc__91__c__93__	C261H468O255P24	Anteisopentadecanoyllipoteichoic acid (n=24), linked, glucose substituted
283	279	c	-24	M_ai17tca1__91__c__93__	C121H236O135P24	Anteisoheptadecanoyllipoteichoic acid (n=24), linked, unsubstituted
284	280	c	-24	M_ai17tcaacgam__91__c__93__	C313H548N24O255P24	Anteisoheptadecanoyllipoteichoic acid (n=24), linked, N-acetyl-D-glucosamine
285	281	c	+0	M_ai17tcaala_D__91__c__93__	C193H332N24O135P24	Anteisoheptadecanoyllipoteichoic acid (n=24), linked, D-alanine substituted
286	282	c	-24	M_ai17tcaglc__91__c__93__	C265H476O255P24	Anteisoheptadecanoyllipoteichoic acid (n=24), linked, glucose substituted
287	283	c	-2	M_aicar__91__c__93__	C9H13N4O8P	5-Amino-1-(5-Phospho-D-ribosyl)imidazole-4-carboxamide
288	284	c	-4	M_aihpdcoa__91__c__93__	C38H64N7O17P3S	fa12coa,Anteiso-C17:0 CoA   Anteisoheptadecanoyl-CoA
289	285	c	-4	M_aipdcoa__91__c__93__	C36H60N7O17P3S	fa4coa,Anteiso-C15:0 CoA   Anteisopentadecanoyl-CoA
290	286	c	-2	M_air__91__c__93__	C8H12N3O7P	5-amino-1-(5-phospho-D-ribosyl)imidazole
291	287	c	-2	M_akg__91__c__93__	C5H4O5	2-Oxoglutarate
292	288	c	+0	M_ala_B__91__c__93__	C3H7NO2	beta-alanine
293	289	c	+0	M_ala_D__91__c__93__	C3H7NO2	D-alanine
294	290	c	+0	M_ala_L__91__c__93__	C3H7NO2	L-alanine
295	291	c	+0	M_alaala__91__c__93__	C6H12N2O3	D-Alanyl-D-alanine
296	292	c	-1	M_alaasp__91__c__93__	C7H11N2O5	L-alanyl-L-aspartate
297	293	c	-1	M_alac_S__91__c__93__	C5H7O4	(S)-2-Acetolactate
298	294	c	+0	M_alagln__91__c__93__	C8H15N3O4	L-alanyl-L-glutamine
299	295	c	-1	M_alaglu__91__c__93__	C8H13N2O5	L-alanyl-L-glutamate
300	296	c	+0	M_alagly__91__c__93__	C5H10N2O3	L-alanylglycine
301	297	c	+0	M_alahis__91__c__93__	C9H14N4O3	L-alanyl-L-histidine
302	298	c	+0	M_alaleu__91__c__93__	C9H18N2O3	L-alanyl-L-leucine
303	299	c	+0	M_alathr__91__c__93__	C7H14N2O4	L-alanyl-L-threonine
304	300	c	+1	M_alpro__91__c__93__	CH6NS2X	S-Aminomethyldihydrolipoylprotein
305	301	c	+1	M_amet__91__c__93__	C15H23N6O5S	S-Adenosyl-L-methionine
306	302	c	+0	M_amob__91__c__93__	C15H19N5O6S	S-Adenosyl-4-methylthio-2-oxobutanoate
307	303	c	-2	M_amp__91__c__93__	C10H12N5O7P	AMP
308	304	c	-1	M_anth__91__c__93__	C7H6NO2	anthranilate
309	305	c	+0	M_apoACP__91__c__93__	RHO	apoprotein [acyl carrier protein]
310	306	c	+0	M_apoC_Lys_btn__91__c__93__	C16H27N4O3SX	Holocarboxylase (biotin covalent bound to Lys residue of apoC)
311	307	c	+1	M_appl__91__c__93__	C3H10NO	1-Aminopropan-2-ol
312	308	c	-1	M_applp__91__c__93__	C3H9NO4P	D-1-Aminopropan-2-ol O-phosphate
313	309	c	+0	M_arab_L__91__c__93__	C5H10O5	L-arabinose
314	310	c	-2	M_arbt6p__91__c__93__	C12H15O10P	Arbutin 6-phosphate
315	311	c	+1	M_arg_L__91__c__93__	C6H15N4O2	L-argininium(1+)
316	312	c	-1	M_argsuc__91__c__93__	C10H17N4O6	N(omega)-(L-Arginino)succinate
317	313	c	+0	M_asn_L__91__c__93__	C4H8N2O3	L-asparagine
318	314	c	-1	M_asp_L__91__c__93__	C4H6NO4	L-aspartate(1-)
319	315	c	+0	M_aspsa__91__c__93__	C4H7NO3	L-Aspartate 4-semialdehyde
320	316	c	-4	M_atp__91__c__93__	C10H12N5O13P3	ATP
321	317	c	-4	M_b2coa__91__c__93__	C25H36N7O17P3S	crotonoyl-CoA(4-)
322	318	c	+1	M_bamppald__91__c__93__	C3H8NO	beta-Aminopropion aldehyde
323	319	c	+1	M_betald__91__c__93__	C5H12NO	betaine aldehyde
324	320	c	-1	M_bhb__91__c__93__	C4H7O3	(R)-3-hydroxybutyrate
325	321	c	+0	M_biomass__91__c__93__	X	Produced biomass
326	322	c	-1	M_btn__91__c__93__	C10H15N2O3S	Biotin
327	323	c	-1	M_btn_co2__91__c__93__	C17H26N4O5SX	Carboxybiotin-carboxyl-carrier protein
328	324	c	+2	M_ca2__91__c__93__	Ca	calcium(2+)
329	325	c	-1	M_cala__91__c__93__	C4H7N2O3	N-carbamoyl-beta-alaninate
330	326	c	-1	M_camp__91__c__93__	C10H11N5O6P	3,5-cyclic AMP(1-)
331	327	c	-2	M_cbasp__91__c__93__	C5H6N2O5	N-Carbamoyl-L-aspartate
332	328	c	+0	M_cbi__91__c__93__	C48H72CoN11O8	Cobinamide
333	329	c	-2	M_cbp__91__c__93__	CH2NO5P	Carbamoyl phosphate
334	330	c	+2	M_cd2__91__c__93__	Cd	Cadmium
335	331	c	-3	M_cdp__91__c__93__	C9H12N3O11P2	CDP
336	332	c	-2	M_cdpdaihpdecg__91__c__93__	C46H83N3O15P2	CDP-1,2-dianteisoheptadecanoylglycerol (14-methyl-hexadecanoyl, anteiso-C17)
337	333	c	-2	M_cdpdaipdecg__91__c__93__	C42H75N3O15P2	CDP-1,2-dianteisopentadecanoylglycerol (12-methyl-tetradecanoyl, anteiso-C15)
338	334	c	-2	M_cdpdddecg__91__c__93__	C36H63N3O15P2	CDP-1,2-didodecanoylglycerol
339	335	c	-2	M_cdpdhdec9eg__91__c__93__	C44H75N3O15P2	CDP-1,2-dihexadec-9-enoylglycerol
340	336	c	-2	M_cdpdhdecg__91__c__93__	C44H79N3O15P2	CDP-1,2-dihexadecanoylglycerol
341	337	c	-2	M_cdpdihdecg__91__c__93__	C44H79N3O15P2	CDP-1,2-diisohexadecanoylglycerol (14-methyl-pentadecanoyl, iso-C16)
342	338	c	-2	M_cdpdihpdecg__91__c__93__	C46H83N3O15P2	CDP-1,2-diisoheptadecanoylglycerol (15-methyl-hexadecanoyl, iso-C17)
343	339	c	-2	M_cdpdipdecg__91__c__93__	C42H75N3O15P2	CDP-1,2-diisopentadecanoylglycerol (13-methyl-tetradecanoyl, iso-C15)
344	340	c	-2	M_cdpditdecg__91__c__93__	C40H71N3O15P2	CDP-1,2-diisotetradecanoylglycerol (12-methyl-tridecanoyl, iso-C14)
345	341	c	-2	M_cdpdodec11eg__91__c__93__	C48H83N3O15P2	CDP-1,2-dioctadec-11-enoylglycerol
346	342	c	-2	M_cdpdodecg__91__c__93__	C48H87N3O15P2	CDP-1,2-dioctadecanoylglycerol
347	343	c	-2	M_cdpdtdec7eg__91__c__93__	C40H67N3O15P2	CDP-1,2-ditetradec-7-enoylglycerol
348	344	c	-2	M_cdpdtdecg__91__c__93__	C40H71N3O15P2	CDP-1,2-ditetradecanoylglycerol
349	345	c	-1	M_cdpea__91__c__93__	C11H19N4O11P2	CDP-ethanolamine(1-)
350	346	c	-2	M_cdpglyc__91__c__93__	C12H19N3O13P2	CDPglycerol
351	347	c	+0	M_cgly__91__c__93__	C5H10N2O3S	L-cysteinylglycine
352	348	c	+1	M_chol__91__c__93__	C5H14NO	Choline
353	349	c	-1	M_cholate__91__c__93__	C24H39O5	Cholate
354	350	c	-4	M_cholcoa__91__c__93__	C45H70N7O20P3S	choloyl-CoA(4-)
355	351	c	-2	M_chor__91__c__93__	C10H8O6	chorismate
356	352	c	+0	M_chtbs__91__c__93__	C16H28N2O11	N,N-diacetylchitobiose
357	353	c	-3	M_cit__91__c__93__	C6H5O7	Citrate
358	354	c	+0	M_citr_L__91__c__93__	C6H13N3O3	L-citrulline
359	355	c	-2	M_ckdo__91__c__93__	C17H24N3O15P	CMP-3-deoxy-D-manno-octulosonate
360	356	c	-1	M_cl__91__c__93__	Cl	Chloride
361	357	c	-2	M_clpn140__91__c__93__	C65H124O17P2	cardiolipin (tetratetradecanoyl, n-C14:0)
362	358	c	-2	M_clpn160__91__c__93__	C73H140O17P2	cardiolipin (tetrahexadecanoyl, n-C16:0)
363	359	c	-2	M_clpn180__91__c__93__	C81H156O17P2	cardiolipin (tetraoctadecanoyl, n-C18:0)
364	360	c	-2	M_clpnai15__91__c__93__	C69H132O17P2	cardiolipin (12-methyl-tetradecanoyl, anteiso-C15)
365	361	c	-2	M_clpnai17__91__c__93__	C77H148O17P2	cardiolipin (14-methyl-hexadecanoyl, anteiso-C17)
366	362	c	-2	M_clpni14__91__c__93__	C65H124O17P2	cardiolipin (12-methyl-tridecanoyl, iso-C14)
367	363	c	-2	M_clpni15__91__c__93__	C69H132O17P2	cardiolipin (13-methyl-tetradecanoyl, iso-C15)
368	364	c	-2	M_clpni16__91__c__93__	C73H140O17P2	cardiolipin (14-methyl-pentadecanoyl, iso-C16)
369	365	c	-2	M_clpni17__91__c__93__	C77H148O17P2	cardiolipin (15-methyl-hexadecanoyl, iso-C17)
370	366	c	-2	M_cmp__91__c__93__	C9H12N3O8P	CMP
371	367	c	-5	M_co1dam__91__c__93__	C45H56CoN6O12	Cob(I)yrinate a,c diamide
372	368	c	+0	M_co2__91__c__93__	CO2	carbon dioxide
373	369	c	-4	M_co2dam__91__c__93__	C45H56CoN6O12	Cob(II)yrinate a,c diamide
374	370	c	-4	M_coa__91__c__93__	C21H32N7O16P3S	Coenzyme A
375	371	c	+2	M_cobalt2__91__c__93__	Co	Co2+
376	372	c	-6	M_cobya__91__c__93__	C45H52N4O14Co	Cobyrinate
377	373	c	-7	M_codhpre6__91__c__93__	C44H47N4O16Co	cobalt-dihydro-precorrin 6
378	374	c	-8	M_copre2__91__c__93__	C42H38N4O16Co	cobalt-precorrin 2
379	375	c	-8	M_copre3__91__c__93__	C43H40N4O16Co	cobalt-precorrin 3
380	376	c	-7	M_copre4__91__c__93__	C44H43N4O16Co	cobalt-precorrin 4
381	377	c	-7	M_copre5__91__c__93__	C45H45N4O16Co	cobalt-precorrin 5
382	378	c	-7	M_copre6__91__c__93__	C44H45N4O16Co	cobalt-precorrin 6
383	379	c	-6	M_copre8__91__c__93__	C45H52N4O14Co	cobalt-precorrin 8
384	380	c	-4	M_cpppg1__91__c__93__	C36H40N4O8	Coproporphyrinogen I
385	381	c	-4	M_cpppg3__91__c__93__	C36H40N4O8	Coproporphyrinogen III
386	382	c	-4	M_ctp__91__c__93__	C9H12N3O14P3	CTP
387	383	c	+2	M_cu2__91__c__93__	Cu	Cu2+
388	384	c	+0	M_cyan__91__c__93__	CHN	hydrogen cyanide
389	385	c	+0	M_cys_L__91__c__93__	C3H7NO2S	L-cysteine
390	386	c	+0	M_cytd__91__c__93__	C9H13N3O5	Cytidine
391	387	c	+0	M_dad_2__91__c__93__	C10H13N5O3	2-deoxyadenosine
392	388	c	+0	M_dad_5__91__c__93__	C10H13N5O3	5-Deoxyadenosine
393	389	c	-3	M_dadp__91__c__93__	C10H12N5O9P2	dADP
394	390	c	-2	M_damp__91__c__93__	C10H12N5O6P	dAMP(2-)
395	391	c	+1	M_dann__91__c__93__	C9H21N2O2	7,8-Diaminononanoate
396	392	c	-4	M_datp__91__c__93__	C10H12N5O12P3	dATP
397	393	c	-2	M_db4p__91__c__93__	C4H7O6P	3,4-dihydroxy-2-butanone 4-phosphate
398	394	c	-4	M_dc2coa__91__c__93__	C31H48N7O17P3S	trans-Dec-2-enoyl-CoA
399	395	c	-4	M_dcamp__91__c__93__	C14H14N5O11P	N6-(1,2-Dicarboxyethyl)-AMP
400	396	c	-3	M_dcdp__91__c__93__	C9H12N3O10P2	dCDP
401	397	c	-2	M_dcmp__91__c__93__	C9H12N3O7P	dCMP
402	398	c	-4	M_dctp__91__c__93__	C9H12N3O13P3	dCTP
403	399	c	+0	M_dcyt__91__c__93__	C9H13N3O4	Deoxycytidine
404	400	c	-4	M_dd2coa__91__c__93__	C33H52N7O17P3S	trans-Dodec-2-enoyl-CoA
405	401	c	-1	M_ddcaACP__91__c__93__	C23H43N2O8PRS	Dodecanoyl-ACP (n-C12:0ACP)
406	402	c	-1	M_ddca__91__c__93__	C12H23O2	laurate
407	403	c	-3	M_dgdp__91__c__93__	C10H12N5O10P2	dGDP
408	404	c	-2	M_dgmp__91__c__93__	C10H12N5O7P	dGMP
409	405	c	+0	M_dgsn__91__c__93__	C10H13N5O4	Deoxyguanosine
410	406	c	-4	M_dgtp__91__c__93__	C10H12N5O13P3	dGTP
411	407	c	+0	M_dha__91__c__93__	C3H6O3	glycerone
412	408	c	-2	M_dhap__91__c__93__	C3H5O6P	Dihydroxyacetone phosphate
413	409	c	-2	M_dhf__91__c__93__	C19H19N7O6	7,8-Dihydrofolate
414	410	c	+0	M_dhlam__91__c__93__	C8H17NOS2	dihydrolipoamide
415	411	c	+0	M_dhlpro__91__c__93__	H2S2X	Dihydrolipolprotein
416	412	c	-1	M_dhna__91__c__93__	C11H7O4	1,4-Dihydroxy-2-naphthoate
417	413	c	-4	M_dhnacoa__91__c__93__	C32H38N7O19P3S	1,4-Dihydroxy-2-naphthoyl-CoA
418	414	c	+0	M_dhnpt__91__c__93__	C9H13N5O4	Dihydroneopterin
419	415	c	-1	M_dhor_S__91__c__93__	C5H5N2O4	(S)-dihydroorotate
420	416	c	-1	M_dhpt__91__c__93__	C14H13N6O3	Dihydropteroate
421	417	c	+0	M_dhptd__91__c__93__	C5H8O4	4,5-dihydroxy-2,3-pentanedione
422	418	c	+0	M_diglcpg180__91__c__93__	C51H96O15	Diglucosyl-1,2 distearoylglycerol
423	419	c	+0	M_diglcpgai17__91__c__93__	C49H92O15	Diglucosyl-1,2 dianteisoheptadecanoylglycerol
424	420	c	+0	M_diglcpgi17__91__c__93__	C49H92O15	Diglucosyl-1,2 diisoheptadecanoylglycerol
425	421	c	+0	M_din__91__c__93__	C10H12N4O4	Deoxyinosine
426	422	c	+0	M_dmbzid__91__c__93__	C9H10N2	5,6-Dimethylbenzimidazole
427	423	c	+0	M_dmlz__91__c__93__	C13H18N4O6	6,7-Dimethyl-8-(1-D-ribityl)lumazine
428	424	c	-3	M_dmpp__91__c__93__	C5H9O7P2	Dimethylallyl diphosphate
429	425	c	-2	M_dnad__91__c__93__	C21H24N6O15P2	Deamino-NAD+
430	426	c	+0	M_dnarep__91__c__93__	X	DNA replication
431	427	c	+1	M_dopa__91__c__93__	C8H12NO2	dopaminium(1+)
432	428	c	-2	M_dpcoa__91__c__93__	C21H33N7O13P2S	Dephospho-CoA
433	429	c	+0	M_drib__91__c__93__	C5H10O4	2-deoxy-D-ribose
434	430	c	-7	M_dscl__91__c__93__	C42H41N4O16	dihydrosirohydrochlorin
435	431	c	-1	M_dtbt__91__c__93__	C10H17N2O3	Dethiobiotin
436	432	c	-2	M_dtdp4d6dg__91__c__93__	C16H22N2O15P2	dTDP-4-dehydro-6-deoxy-alpha-D-glucose(2-)
437	433	c	-2	M_dtdp4d6dm__91__c__93__	C16H22N2O15P2	dTDP-4-dehydro-6-deoxy-L-mannose(2-)
438	434	c	-3	M_dtdp__91__c__93__	C10H13N2O11P2	dTDP
439	435	c	-2	M_dtdpglu__91__c__93__	C16H24N2O16P2	dTDP-glucose(2-)
440	436	c	-2	M_dtdprmn__91__c__93__	C16H24N2O15P2	dTDP-L-rhamnose
441	437	c	-2	M_dtmp__91__c__93__	C10H13N2O8P	dTMP
442	438	c	-4	M_dttp__91__c__93__	C10H13N2O14P3	dTTP
443	439	c	-3	M_dudp__91__c__93__	C9H11N2O11P2	dUDP
444	440	c	-2	M_dump__91__c__93__	C9H11N2O8P	dUMP
445	441	c	+0	M_duri__91__c__93__	C9H12N2O5	Deoxyuridine
446	442	c	-4	M_dutp__91__c__93__	C9H11N2O14P3	dUTP
447	443	c	-2	M_dxyl5p__91__c__93__	C5H9O7P	1-deoxy-D-xylulose 5-phosphate
448	444	c	-1	M_e4hglu__91__c__93__	C5H8NO5	erythro-4-hydroxy-L-glutamate(1-)
449	445	c	-2	M_e4p__91__c__93__	C4H7O7P	D-Erythrose 4-phosphate
450	446	c	-2	M_eig3p__91__c__93__	C6H9N2O6P	D-erythro-1-(Imidazol-4-yl)glycerol 3-phosphate
451	447	c	+1	M_etha__91__c__93__	C2H8NO	etha[c]
452	448	c	-1	M_ethamp__91__c__93__	C2H7NO4P	O-phosphonatoethanaminium(1-)
453	449	c	+0	M_etoh__91__c__93__	C2H6O	ethanol
454	450	c	-2	M_f1p__91__c__93__	C6H11O9P	D-Fructose 1-phosphate
455	451	c	-2	M_f6p__91__c__93__	C6H11O9P	D-Fructose 6-phosphate
456	452	c	-1	M_fa11__91__c__93__	C17H33O2	Fatty acid (Iso-C17:0)
457	453	c	-1	M_fa12__91__c__93__	C17H33O2	Fatty acid (Anteiso-C17:0)
458	454	c	-1	M_fa1__91__c__93__	C14H27O2	Fatty acid (Iso-C14:0)
459	455	c	-1	M_fa3__91__c__93__	C15H29O2	Fatty acid (Iso-C15:0)
460	456	c	-1	M_fa4__91__c__93__	C15H29O2	Fatty acid (Anteiso-C15:0)
461	457	c	-1	M_fa6__91__c__93__	C16H31O2	Fatty acid (iso-C16:0)
462	458	c	-2	M_fad__91__c__93__	C27H31N9O15P2	Flavin adenine dinucleotide oxidized
463	459	c	-2	M_fadh2__91__c__93__	C27H33N9O15P2	Flavin adenine dinucleotide reduced
464	460	c	+0	M_fald__91__c__93__	CH2O	formaldehyde
465	461	c	-4	M_fdp__91__c__93__	C6H10O12P2	D-Fructose 1,6-bisphosphate
466	462	c	+0	M_fdxox__91__c__93__	X	Oxidized ferredoxin
467	463	c	+0	M_fdxrd__91__c__93__	XH2	Reduced ferredoxin
468	464	c	+2	M_fe2__91__c__93__	Fe	Fe2+
469	465	c	+3	M_fe3__91__c__93__	Fe	Fe3+
470	466	c	-2	M_fgam__91__c__93__	C8H13N2O9P	N2-Formyl-N1-(5-phospho-D-ribosyl)glycinamide
471	467	c	+3	M_ficytC__91__c__93__	C42H54FeN8O6S2	Ferricytochrome c
472	468	c	-2	M_fmn__91__c__93__	C17H19N4O9P	FMN
473	469	c	-2	M_fmnh2__91__c__93__	C17H21N4O9P	Reduced FMN
474	470	c	+2	M_focytC__91__c__93__	C42H54FeN8O6S2	Ferrocytochrome C
475	471	c	-1	M_fol__91__c__93__	C19H18N7O6	Folate
476	472	c	-1	M_for__91__c__93__	CH1O2	Formate
477	473	c	-2	M_forglu__91__c__93__	C6H8N2O4	N-Formimidoyl-L-glutamate
478	474	c	-1	M_fpram__91__c__93__	C8H15N3O8P	2-(Formamido)-N1-(5-phospho-D-ribosyl)acetamidine
479	475	c	-2	M_fprica__91__c__93__	C10H13N4O9P	5-Formamido-1-(5-phospho-D-ribosyl)imidazole-4-carboxamide
480	476	c	-3	M_frdp__91__c__93__	C15H25O7P2	Farnesyl diphosphate
481	477	c	+0	M_frmd__91__c__93__	CH3NO	Formamide
482	478	c	+0	M_fru__91__c__93__	C6H12O6	D-Fructose
483	479	c	-2	M_fuc1p_L__91__c__93__	C6H11O8P	L-Fucose 1-phosphate
484	480	c	+0	M_fuc_L__91__c__93__	C6H12O5	L-fucose
485	481	c	-2	M_fum__91__c__93__	C4H2O4	Fumarate
486	482	c	-2	M_g1p__91__c__93__	C6H11O9P	D-Glucose 1-phosphate
487	483	c	-2	M_g3p__91__c__93__	C3H5O6P	Glyceraldehyde 3-phosphate
488	484	c	+0	M_g3pc__91__c__93__	C8H20NO6P	sn-Glycero-3-phosphocholine
489	485	c	+0	M_g3pe__91__c__93__	C5H14NO6P	sn-Glycero-3-phosphoethanolamine
490	486	c	-1	M_g3pg__91__c__93__	C6H14O8P	Glycerophosphoglycerol
491	488	c	-2	M_g6p_B__91__c__93__	C6H11O9P	beta-D-glucose 6-phosphate
492	487	c	-2	M_g6p__91__c__93__	C6H11O9P	D-Glucose 6-phosphate
493	489	c	-2	M_gal1p__91__c__93__	C6H11O9P	(2R,3R,4S,5R,6R)-3,4,5-trihydroxy-6-(hydroxymethyl)oxan-2-yl phosphate
494	490	c	+0	M_gal__91__c__93__	C6H12O6	D-Galactose
495	491	c	-2	M_galct_D__91__c__93__	C6H8O8	D-Galactarate
496	492	c	-2	M_galt1p__91__c__93__	C6H13O9P	Galactitol 1-phosphate
497	493	c	-1	M_gam1p__91__c__93__	C6H13NO8P	D-Glucosamine 1-phosphate
498	494	c	-1	M_gam6p__91__c__93__	C6H13NO8P	D-Glucosamine 6-phosphate
499	495	c	-1	M_gar__91__c__93__	C7H14N2O8P	N1-(5-Phospho-D-ribosyl)glycinamide
500	496	c	+0	M_gcald__91__c__93__	C2H4O2	glycolaldehyde
501	497	c	-3	M_gdp__91__c__93__	C10H12N5O11P2	GDP
502	498	c	-2	M_gdpmann__91__c__93__	C16H23N5O16P2	GDP-alpha-D-mannose(2-)
503	499	c	-7	M_gdptp__91__c__93__	C10H11N5O20P5	Guanosine 3-diphosphate 5-triphosphate
504	500	c	-1	M_gg4abut__91__c__93__	C9H15O5N2	gamma-glutamyl-gamma aminobutyric acid
505	501	c	+0	M_ggbutal__91__c__93__	C9H16O4N2	gamma-glutamyl-gamma-butyraldehyde
506	502	c	-3	M_ggdp__91__c__93__	C20H33O7P2	2-trans,6-trans,10-trans-geranylgeranyl diphosphate(3-)
507	503	c	+0	M_glc_D__91__c__93__	C6H12O6	D-glucose
508	504	c	-1	M_glcn__91__c__93__	C6H11O7	D-gluconate
509	505	c	+0	M_gln_L__91__c__93__	C5H10N2O3	L-glutamine
510	506	c	+0	M_glu1sa__91__c__93__	C5H9NO3	L-Glutamate 1-semialdehyde
511	507	c	-2	M_glu5p__91__c__93__	C5H8NO7P	L-Glutamate 5-phosphate
512	508	c	+0	M_glu5sa__91__c__93__	C5H9NO3	L-Glutamate 5-semialdehyde
513	509	c	-1	M_glu_D__91__c__93__	C5H8NO4	D-Glutamate
514	510	c	-1	M_glu_L__91__c__93__	C5H8NO4	L-glutamate(1-)
515	511	c	+0	M_glutrna__91__c__93__	C5H7NO3R	L-Glutamyl-tRNA(Glu)
516	512	c	-1	M_glx__91__c__93__	C2H1O3	glyoxylate
517	513	c	+0	M_gly__91__c__93__	C2H5NO2	Glycine
518	514	c	+0	M_glyald__91__c__93__	C3H6O3	D-Glyceraldehyde
519	515	c	+0	M_glyasn__91__c__93__	C6H11N3O4	Glycyl-L-asparagine
520	516	c	-1	M_glyasp__91__c__93__	C6H9N2O5	Glycyl-L-aspartate
521	517	c	+0	M_glyb__91__c__93__	C5H11NO2	glycine betaine
522	518	c	-2	M_glyc3p__91__c__93__	C3H7O6P	Glycerol 3-phosphate
523	519	c	+0	M_glyc45tca__91__c__93__	X	glycerol teichoic acid (n=45), linked, unsubstituted
524	520	c	+0	M_glyc45tcaala_D__91__c__93__	X	glycerol teichoic acid (n=45), linked, D-ala substituted
525	521	c	+0	M_glyc45tcaglc__91__c__93__	X	glycerol teichoic acid (n=45), linked, glucose substituted
526	523	c	-1	M_glyc_R__91__c__93__	C3H5O4	D-glycerate
527	522	c	+0	M_glyc__91__c__93__	C3H8O3	Glycerol
528	524	c	+0	M_glycogen__91__c__93__	C6H10O5	glycogen
529	525	c	+0	M_glycys__91__c__93__	C5H10N2O3S	Gly-Cys
530	526	c	+0	M_glygln__91__c__93__	C7H13N3O4	Glycyl-L-glutamine
531	527	c	-1	M_glyglu__91__c__93__	C7H11N2O5	Glycyl-L-glutamate
532	528	c	+0	M_glyleu__91__c__93__	C8H16N2O3	Glycylleucine
533	529	c	+0	M_glymet__91__c__93__	C7H14N2O3S	Glycyl-L-methionine
534	530	c	+0	M_glyphe__91__c__93__	C11H14N2O3	Glycylphenylalanine
535	531	c	+0	M_glypro__91__c__93__	C7H12N2O3	Glycylproline
536	532	c	+0	M_glytyr__91__c__93__	C11H14N2O4	Glycyl-L-tyrosine
537	533	c	-2	M_gmp__91__c__93__	C10H12N5O8P	GMP
538	534	c	-3	M_grdp__91__c__93__	C10H17O7P2	Geranyl diphosphate
539	535	c	+0	M_gsn__91__c__93__	C10H13N5O5	Guanosine
540	536	c	-2	M_gthox__91__c__93__	C20H30N6O12S2	Oxidized glutathione
541	537	c	-1	M_gthrd__91__c__93__	C10H16N3O6S	Reduced glutathione
542	538	c	-4	M_gtp__91__c__93__	C10H12N5O14P3	GTP
543	539	c	+0	M_gua__91__c__93__	C5H5N5O	Guanine
544	540	c	+0	M_h2__91__c__93__	H2	Hydrogen
545	541	c	-3	M_h2mb4p__91__c__93__	C5H9O8P2	1-hydroxy-2-methyl-2-(E)-butenyl 4-diphosphate
546	542	c	+0	M_h2o2__91__c__93__	H2O2	Hydrogen peroxide
547	543	c	+0	M_h2s__91__c__93__	H2S	Hydrogen sulfide
548	544	c	+1	M_h__91__c__93__	H	proton
549	545	c	-1	M_hco3__91__c__93__	CHO3	Bicarbonate
550	546	c	+0	M_hcys_L__91__c__93__	C4H9NO2S	L-homocysteine
551	547	c	-1	M_hdca__91__c__93__	C16H31O2	Hexadecanoate (n-C16:0)
552	548	c	-1	M_hdcea__91__c__93__	C16H29O2	Hexadecenoate (n-C16:1)
553	549	c	-4	M_hdcoa__91__c__93__	C37H60N7O17P3S	Hexadecenoyl-CoA (n-C16:1CoA)
554	550	c	-4	M_hdd2coa__91__c__93__	C37H60N7O17P3S	trans-Hexadec-2-enoyl-CoA
555	551	c	-1	M_hdeACP__91__c__93__	C27H49N2O8PRS	cis-hexadec-9-enoyl-[acyl-carrier protein] (n-C16:1)
556	552	c	-2	M_hemeO__91__c__93__	C49H56FeN4O5	Heme O
557	553	c	-3	M_hepdp__91__c__93__	C35H57O7P2	all-trans-Heptaprenyl diphosphate
558	554	c	-2	M_hethmpp__91__c__93__	C14H20N4O8P2S	Hydroxy ethyl Thiamin diphosphate
559	555	c	-3	M_hexdp__91__c__93__	C30H49O7P2	all-trans-Hexaprenyl diphosphate
560	556	c	-4	M_hgbam__91__c__93__	C45H58N6O12	Hydrogenobyrinate a,c diamide
561	557	c	-6	M_hgbyr__91__c__93__	C45H54N4O14	Hydrogenobyrinate
562	558	c	+0	M_his_L__91__c__93__	C6H9N3O2	L-histidine
563	559	c	-1	M_hisp__91__c__93__	C6H11N3O4P	L-Histidinol phosphate
564	560	c	+1	M_hista__91__c__93__	C5H10N3	histamium
565	561	c	+1	M_histd__91__c__93__	C6H12N3O	L-Histidinol
566	562	c	+1	M_histl_L__91__c__93__	C6H10N3O	L-Histidinal
567	563	c	-8	M_hmbil__91__c__93__	C40H38N4O17	Hydroxymethylbilane
568	564	c	+0	M_hom_L__91__c__93__	C4H9NO3	L-homoserine
569	565	c	+0	M_hxan__91__c__93__	C5H4N4O	Hypoxanthine
570	566	c	-24	M_i14tca1__91__c__93__	C115H224O135P24	Isotetradecanoyllipoteichoic acid (n=24), linked, unsubstituted
571	567	c	-24	M_i14tcaacgam__91__c__93__	C307H536N24O255P24	Isotetradecanoyllipoteichoic acid (n=24), linked, N-acetyl-D-glucosamine
572	568	c	-24	M_i14tcaglc__91__c__93__	C259H464O255P24	Isotetradecanoyllipoteichoic acid (n=24), linked, glucose substituted
573	569	c	-24	M_i15tca1__91__c__93__	C117H228O135P24	Isopentadecanoyllipoteichoic acid (n=24), linked, unsubstituted
574	570	c	-24	M_i15tcaacgam__91__c__93__	C309H540N24O255P24	Isopentadecanoyllipoteichoic acid (n=24), linked, N-acetyl-D-glucosamine
575	571	c	-24	M_i15tcaglc__91__c__93__	C261H468O255P24	Isopentadecanoyllipoteichoic acid (n=24), linked, glucose substituted
576	572	c	-24	M_i16tca1__91__c__93__	C119H232O135P24	Isohexadecanoyllipoteichoic acid (n=24), linked, unsubstituted
577	573	c	-24	M_i16tcaacgam__91__c__93__	C311H544N24O255P24	Isohexadecanoyllipoteichoic acid (n=24), linked, N-acetyl-D-glucosamine
578	574	c	-24	M_i16tcaglc__91__c__93__	C263H472O255P24	Isohexadecanoyllipoteichoic acid (n=24), linked, glucose substituted
579	575	c	-24	M_i17tca1__91__c__93__	C121H236O135P24	Isoheptadecanoyllipoteichoic acid (n=24), linked, unsubstituted
580	576	c	-24	M_i17tcaacgam__91__c__93__	C313H548N24O255P24	Isoheptadecanoyllipoteichoic acid (n=24), linked, N-acetyl-D-glucosamine
581	577	c	+0	M_i17tcaala_D__91__c__93__	C193H332O135N24P24	Isoheptadecanoyllipoteichoic acid (n=24), linked, D-alanine substituted
582	578	c	-24	M_i17tcaglc__91__c__93__	C265H476O255P24	Isoheptadecanoyllipoteichoic acid (n=24), linked, glucose substituted
583	579	c	-4	M_ibcoa__91__c__93__	C25H38N7O17P3S	isobutyryl-CoA(4-)
584	580	c	-2	M_ichor__91__c__93__	C10H8O6	Isochorismate
585	581	c	-3	M_icit__91__c__93__	C6H5O7	Isocitrate
586	582	c	-1	M_idon_L__91__c__93__	C6H11O7	L-Idonate
587	583	c	-3	M_idp__91__c__93__	C10H11N4O11P2	IDP(3-)
588	584	c	-4	M_ihdcoa__91__c__93__	C37H62N7O17P3S	fa6coa,Iso-C16:0 CoA   Isohexadecanoyl-CoA
589	585	c	-4	M_ihpdcoa__91__c__93__	C38H64N7O17P3S	fa11coa, Iso-C17:0 CoA   Isoheptadecanoyl-CoA
590	586	c	+0	M_ile_L__91__c__93__	C6H13NO2	L-isoleucine
591	587	c	-1	M_im4ac__91__c__93__	C5H5N2O2	imidazol-4-ylacetate
592	588	c	+0	M_im4act__91__c__93__	C5H6N2O	imidazole-4-acetaldehyde
593	589	c	-2	M_imacp__91__c__93__	C6H7N2O5P	3-(Imidazol-4-yl)-2-oxopropyl phosphate
594	590	c	+0	M_imogly__91__c__93__	C2H3NO2	Iminoglycine
595	591	c	-2	M_imp__91__c__93__	C10H11N4O8P	IMP
596	592	c	+0	M_indole__91__c__93__	C8H7N	Indole
597	593	c	-1	M_indpyr__91__c__93__	C11H8NO3	Indolepyruvate
598	594	c	+0	M_inost__91__c__93__	C6H12O6	myo-inositol
599	595	c	+0	M_ins__91__c__93__	C10H12N4O5	Inosine
600	596	c	-4	M_ipdcoa__91__c__93__	C36H60N7O17P3S	fa3coa,Iso-C15:0 CoA   Isopentadecanoyl-CoA
601	597	c	-3	M_ipdp__91__c__93__	C5H9O7P2	Isopentenyl diphosphate
602	598	c	-4	M_itdcoa__91__c__93__	C35H58N7O17P3S	fa1coa,Iso-C14:0 CoA   Isotetradecanoyl-CoA
603	599	c	-4	M_itp__91__c__93__	C10H11N4O14P3	ITP(3-)
604	600	c	-4	M_ivcoa__91__c__93__	C26H40N7O17P3S	Isovaleryl-CoA
605	601	c	+1	M_k__91__c__93__	K	potassium
606	602	c	-1	M_kdo__91__c__93__	C8H13O8	3-Deoxy-D-manno-2-octulosonate
607	603	c	-1	M_l2a6o__91__c__93__	C7H10NO5	L-2-Amino-6-oxopimelate
608	604	c	-1	M_lac_D__91__c__93__	C3H5O3	(R)-lactate
609	605	c	-1	M_lac_L__91__c__93__	C3H5O3	(S)-lactate
610	606	c	+0	M_leu_L__91__c__93__	C6H13NO2	L-leucine
611	607	c	-1	M_lgt_S__91__c__93__	C13H20N3O8S	(R)-S-lactoylglutathionate(1-)
612	608	c	+0	M_lpam__91__c__93__	C8H15NOS2	lipoamide
613	609	c	+0	M_lpro__91__c__93__	S2X	Lipoylprotein
614	610	c	+1	M_lys_L__91__c__93__	C6H15N2O2	L-lysinium(1+)
615	611	c	+0	M_m12dahglyc__91__c__93__	C43H82O10	Monoglucosyl-1,2 dianteisoheptadecanoylglycerol
616	612	c	+0	M_m12dihglyc__91__c__93__	C43H82O10	Monoglucosyl-1,2 diisoheptadecanoylglycerol
617	613	c	+0	M_m12dsglyc__91__c__93__	C45H86O10	Monoglucosyl-1,2 distearoylglycerol
618	614	c	-2	M_malACP__91__c__93__	C14H22N2O10PRS	Malonyl-[acyl-carrier protein]
619	615	c	-2	M_mal_L__91__c__93__	C4H4O5	(S)-malate(2-)
620	616	c	-5	M_malcoa__91__c__93__	C24H33N7O19P3S	Malonyl-CoA
621	617	c	-2	M_malt6p__91__c__93__	C12H21O14P	Maltose 6-phosphate
622	618	c	+0	M_malt__91__c__93__	C12H22O11	Maltose
623	619	c	+0	M_malthp__91__c__93__	C42H72O36	maltoheptaose
624	620	c	+0	M_malthx__91__c__93__	C36H62O31	Maltohexaose
625	621	c	+0	M_maltpt__91__c__93__	C30H52O26	maltopentaose
626	622	c	+0	M_malttr__91__c__93__	C18H32O16	maltotriose
627	623	c	+0	M_maltttr__91__c__93__	C24H42O21	Maltotetraose
628	624	c	-2	M_man1p__91__c__93__	C6H11O9P	D-Mannose 1-phosphate
629	625	c	-2	M_man6p__91__c__93__	C6H11O9P	D-Mannose 6-phosphate
630	626	c	+0	M_man__91__c__93__	C6H12O6	D-Mannose
631	627	c	+0	M_meoh__91__c__93__	CH4O1	methanol
632	628	c	-1	M_mercplac__91__c__93__	C3H5O3S	3-Mercaptolactate
633	629	c	-1	M_mercppyr__91__c__93__	C3H3O3S	3-mercaptopyruvate
634	630	c	+0	M_met_D__91__c__93__	C5H10NO2S	D-Methionine
635	631	c	+0	M_met_L__91__c__93__	C5H11NO2S	L-methionine
636	632	c	+0	M_metala__91__c__93__	C8H16N2O3S	L-methionyl-L-alanine
637	633	c	-1	M_methf__91__c__93__	C20H20N7O6	5,10-Methenyltetrahydrofolate
638	634	c	+0	M_metsox_R_L__91__c__93__	C5H11NO3S	L-methionine-R-sulfoxide
639	635	c	+0	M_metsox_S_L__91__c__93__	C5H11NO3S	L-Methionine Sulfoxide
640	636	c	+2	M_mg2__91__c__93__	Mg	magnesium
641	637	c	-2	M_mi1p_D__91__c__93__	C6H11O9P	1D-myo-inositol 1-phosphate(2-)
642	638	c	-2	M_mi3p_D__91__c__93__	C6H11O9P	1D-myo-inositol 3-phosphate(2-)
643	639	c	-2	M_mi4p_D__91__c__93__	C6H11O9P	1D-myo-inositol 4-phosphate(2-)
644	640	c	-3	M_micit__91__c__93__	C7H7O7	(2S,3R)-3-hydroxybutane-1,2,3-tricarboxylate
645	641	c	-2	M_mlthf__91__c__93__	C20H21N7O6	5,10-Methylenetetrahydrofolate
646	642	c	-5	M_mmcoa_R__91__c__93__	C25H35N7O19P3S	(R)-methylmalonyl-CoA(5-)
647	643	c	-5	M_mmcoa_S__91__c__93__	C25H35N7O19P3S	(S)-methylmalonyl-CoA(5-)
648	644	c	+2	M_mn2__91__c__93__	Mn	Mn2+
649	645	c	-2	M_mnl1p__91__c__93__	C6H13O9P	D-Mannitol 1-phosphate
650	646	c	+0	M_mql8__91__c__93__	C51H74O2	Menaquinol 8
651	647	c	+0	M_mqn8__91__c__93__	C51H72O2	Menaquinone 8
652	648	c	-1	M_msa__91__c__93__	C3H3O3	3-oxopropanoate
653	649	c	-1	M_myrsACP__91__c__93__	C25H47N2O8PRS	Myristoyl-ACP (n-C14:0ACP)
654	650	c	-24	M_myrstca1__91__c__93__	C115H224O135P24	Myristoyllipoteichoic acid (n=24), linked, unsubstituted
655	651	c	-24	M_myrstcaacgam__91__c__93__	C307H536N24O255P24	Myristoyllipoteichoic acid (n=24), linked, N-acetyl-D-glucosamine
656	652	c	-24	M_myrstcaglc__91__c__93__	C259H464O255P24	Myristoyllipoteichoic acid (n=24), linked, glucose substituted
657	653	c	-1	M_n6all26d__91__c__93__	C9H15N2O5	N6-Acetyl-LL-2,6-diaminoheptanedioate
658	654	c	+1	M_na1__91__c__93__	Na	Sodium
659	655	c	-1	M_nac__91__c__93__	C6H4NO2	Nicotinate
660	656	c	-1	M_nad__91__c__93__	C21H26N7O14P2	Nicotinamide adenine dinucleotide
661	657	c	-2	M_nadh__91__c__93__	C21H27N7O14P2	Nicotinamide adenine dinucleotide - reduced
662	658	c	-3	M_nadp__91__c__93__	C21H25N7O17P3	Nicotinamide adenine dinucleotide phosphate
663	659	c	-4	M_nadph__91__c__93__	C21H26N7O17P3	Nicotinamide adenine dinucleotide phosphate - reduced
664	660	c	+0	M_ncam__91__c__93__	C6H6N2O	Nicotinamide
665	661	c	+1	M_nh4__91__c__93__	H4N	Ammonium
666	662	c	+0	M_nicrns__91__c__93__	C11H13NO6	Nicotinate D-ribonucleoside
667	663	c	-2	M_nicrnt__91__c__93__	C11H12NO9P	Nicotinate D-ribonucleotide
668	664	c	-1	M_nmn__91__c__93__	C11H14N2O8P	NMN
669	665	c	-1	M_no2__91__c__93__	NO2	Nitrite
670	666	c	+0	M_o2__91__c__93__	O2	O2
671	667	c	-1	M_o2s__91__c__93__	O2	superoxide
672	668	c	-2	M_oaa__91__c__93__	C4H2O5	Oxaloacetate
673	669	c	-4	M_oc2coa__91__c__93__	C29H44N7O17P3S	trans-Oct-2-enoyl-CoA
674	670	c	-1	M_ocdcaACP__91__c__93__	C29H55N2O8PRS	Octadecanoyl-ACP (n-C18:0ACP)
675	671	c	-1	M_ocdca__91__c__93__	C18H35O2	octadecanoate (n-C18:0)
676	672	c	-1	M_ocdcea__91__c__93__	C18H33O2	octadecenoate (n-C18:1)
677	673	c	-3	M_octdp__91__c__93__	C40H65O7P2	all-trans-Octaprenyl diphosphate
678	674	c	-1	M_octeACP__91__c__93__	C29H53N2O8PRS	cis-octadec-11-enoyl-[acyl-carrier protein] (n-C18:1)
679	675	c	-4	M_odecoa__91__c__93__	C39H64N7O17P3S	Octadecenoyl-CoA (n-C18:1CoA)
680	676	c	-3	M_ohpb__91__c__93__	C4H4O8P	2-Oxo-3-hydroxy-4-phosphobutanoate
681	677	c	+1	M_orn__91__c__93__	C5H13N2O2	Ornithine
682	678	c	-3	M_orot5p__91__c__93__	C10H10N2O11P	Orotidine 5-phosphate
683	679	c	-1	M_orot__91__c__93__	C5H3N2O4	Orotate
684	680	c	-2	M_oxa__91__c__93__	C2O4	oxalate(2-)
685	681	c	-2	M_pa120__91__c__93__	C27H51O8P1	1,2-didodecanoyl-sn-glycerol 3-phosphate
686	682	c	-2	M_pa140__91__c__93__	C31H59O8P1	1,2-ditetradecanoyl-sn-glycerol 3-phosphate
687	683	c	-2	M_pa141__91__c__93__	C31H55O8P1	1,2-ditetradec-7-enoyl-sn-glycerol 3-phosphate
688	684	c	-2	M_pa160__91__c__93__	C35H67O8P1	1,2-dihexadecanoyl-sn-glycerol 3-phosphate
689	685	c	-2	M_pa161__91__c__93__	C35H63O8P1	1,2-dihexadec-9-enoyl-sn-glycerol 3-phosphate
690	686	c	-2	M_pa180__91__c__93__	C39H75O8P1	1,2-dioctadecanoyl-sn-glycerol 3-phosphate
691	687	c	-2	M_pa181__91__c__93__	C39H71O8P1	1,2-dioctadec-11-enoyl-sn-glycerol 3-phosphate
692	688	c	-2	M_paai15__91__c__93__	C33H63O8P	1,2-dianteisopentadecanoyl-sn-glycerol 3-phosphate (12-methyl-tetradecanoyl, anteiso-C15)
693	689	c	-2	M_paai17__91__c__93__	C37H71O8P	1,2-dianteisoheptadecanoyl-sn-glycerol 3-phosphate (14-methyl-hexadecanoyl, anteiso-C17)
694	690	c	-2	M_pai14__91__c__93__	C31H59O8P	1,2-diisotetradecanoyl-sn-glycerol 3-phosphate (12-methyl-tridecanoyl, iso-C14)
695	691	c	-2	M_pai15__91__c__93__	C33H63O8P	1,2-diisopentadecanoyl-sn-glycerol 3-phosphate (13-methyl-tetradecanoyl, iso-C15)
696	692	c	-2	M_pai16__91__c__93__	C35H67O8P	1,2-diisohexadecanoyl-sn-glycerol 3-phosphate (14-methyl-pentadecanoyl, iso-C16)
697	693	c	-2	M_pai17__91__c__93__	C37H71O8P	1,2-diisoheptadecanoyl-sn-glycerol 3-phosphate (15-methyl-hexadecanoyl, iso-C17)
698	694	c	-1	M_palmACP__91__c__93__	C27H51N2O8PRS	Palmitoyl-ACP (n-C16:0ACP)
699	695	c	-24	M_palmtca1__91__c__93__	C119H232O135P24	Palmitoyllipoteichoic acid (n=24), linked, unsubstituted
700	696	c	-24	M_palmtcaacgam__91__c__93__	C311H544N24O255P24	Palmitoyllipoteichoic acid (n=24), linked, N-acetyl-D-glucosamine
701	697	c	-24	M_palmtcaglc__91__c__93__	C263H472O255P24	Palmitoyllipoteichoic acid (n=24), linked, glucose substituted
702	698	c	-2	M_pan4p__91__c__93__	C11H21N2O7PS	Pantetheine 4-phosphate
703	699	c	-1	M_pant_R__91__c__93__	C6H11O4	(R)-Pantoate
704	700	c	-4	M_pap__91__c__93__	C10H11N5O10P2	adenosine 3,5-bismonophosphate(4-)
705	701	c	-2	M_pdx5p__91__c__93__	C8H10NO6P	Pyridoxine 5-phosphate
706	702	c	+0	M_pe180__91__c__93__	C41H82N1O8P1	phosphatidylethanolamine (dioctadecanoyl, n-C18:0)
707	703	c	+0	M_peai17__91__c__93__	C39H78NO8P	Phosphatidylethanolamine (14-methyl-hexadecanoyl, anteiso-C17)
708	704	c	+1	M_peamn__91__c__93__	C8H12N	2-phenylethanaminium
709	705	c	+0	M_pei17__91__c__93__	C39H78NO8P	Phosphatidylethanolamine (15-methyl-hexadecanoyl, iso-C17)
710	706	c	-3	M_pendp__91__c__93__	C25H41O7P2	all-trans-Pentaprenyl diphosphate
711	707	c	-3	M_pep__91__c__93__	C3H2O6P	Phosphoenolpyruvate
712	708	c	+0	M_peptmet_L__91__c__93__	XC3H7S	Peptide-L-methionine
713	709	c	+0	M_peptmetox_L__91__c__93__	XC3H7OS	Peptide-L-methionine (R)-S-oxide
714	710	c	-1	M_pg140__91__c__93__	C34H66O10P1	Phosphatidylglycerol (ditetradecanoyl, n-C14:0)
715	711	c	-1	M_pg160__91__c__93__	C38H74O10P1	Phosphatidylglycerol (dihexadecanoyl, n-C16:0)
716	712	c	-1	M_pg180__91__c__93__	C42H82O10P1	Phosphatidylglycerol (dioctadecanoyl, n-C18:0)
717	713	c	-1	M_pgai15__91__c__93__	C36H70O10P	Phosphatidylglycerol (12-methyl-tetradecanoyl, anteiso-C15)
718	714	c	-1	M_pgai17__91__c__93__	C40H78O10P	Phosphatidylglycerol (14-methyl-hexadecanoyl, anteiso-C17)
719	715	c	-1	M_pgi14__91__c__93__	C34H66O10P	Phosphatidylglycerol (12-methyltridecanoyl, iso-C14)
720	716	c	-1	M_pgi15__91__c__93__	C36H70O10P	Phosphatidylglycerol (13-methyltetradecanoyl, iso-C15)
721	717	c	-1	M_pgi16__91__c__93__	C38H74O10P	Phosphatidylglycerol (14-methylpentadecanoyl, iso-C16)
722	718	c	-1	M_pgi17__91__c__93__	C40H78O10P	Phosphatidylglycerol (15-methyl-hexadecanoyl, iso-C17)
723	719	c	-3	M_pgp120__91__c__93__	C30H57O13P2	Phosphatidylglycerophosphate (didodecanoyl, n-C12:0)
724	720	c	-3	M_pgp140__91__c__93__	C34H65O13P2	Phosphatidylglycerophosphate (ditetradecanoyl, n-C14:0)
725	721	c	-3	M_pgp141__91__c__93__	C34H61O13P2	Phosphatidylglycerophosphate (ditetradec-7-enoyl, n-C14:1)
726	722	c	-3	M_pgp160__91__c__93__	C38H73O13P2	Phosphatidylglycerophosphate (dihexadecanoyl, n-C16:0)
727	723	c	-3	M_pgp161__91__c__93__	C38H69O13P2	Phosphatidylglycerophosphate (dihexadec-9-enoyl, n-C16:1)
728	724	c	-3	M_pgp180__91__c__93__	C42H81O13P2	Phosphatidylglycerophosphate (dioctadecanoyl, n-C18:0)
729	725	c	-3	M_pgp181__91__c__93__	C42H77O13P2	Phosphatidylglycerophosphate (dioctadec-11-enoyl, n-C18:1)
730	726	c	-3	M_pgpai15__91__c__93__	C36H69O13P2	Phosphatidylglycerophosphate (12-methyl-tetradecanoyl, anteiso-C15)
731	727	c	-3	M_pgpai17__91__c__93__	C40H77O13P2	Phosphatidylglycerophosphate (14-methyl-hexadecanoyl, anteiso-C17)
732	728	c	-3	M_pgpi14__91__c__93__	C34H65O13P2	Phosphatidylglycerophosphate (12-methyltridecanoyl, iso-C14)
733	729	c	-3	M_pgpi15__91__c__93__	C36H69O13P2	Phosphatidylglycerophosphate (13-methyltetradecanoyl, iso-C15)
734	730	c	-3	M_pgpi16__91__c__93__	C38H73O13P2	Phosphatidylglycerophosphate (14-methylpentadecanoyl, iso-C16)
735	731	c	-3	M_pgpi17__91__c__93__	C40H77O13P2	Phosphatidylglycerophosphate (15-methyl-hexadecanoyl, iso-C17)
736	732	c	+0	M_phe_L__91__c__93__	C9H11NO2	L-phenylalanine
737	733	c	-2	M_pheme__91__c__93__	C34H30FeN4O4	Protoheme
738	734	c	-2	M_phom__91__c__93__	C4H8NO6P	O-phosphonato-L-homoserine(2-)
739	735	c	-1	M_phpyr__91__c__93__	C9H7O3	keto-phenylpyruvate
740	736	c	-2	M_phthr__91__c__93__	C4H8NO7P	O-Phospho-4-hydroxy-L-threonine
741	737	c	+0	M_phytn__91__c__93__	C40H64	Phytoene
742	738	c	-2	M_pi__91__c__93__	HO4P	hydrogenphosphate
743	739	c	-2	M_pime__91__c__93__	C7H10O4	Pimelate
744	740	c	-1	M_plasmetha__91__c__93__	C8H13NO7PR2	Plasmenylethanolamine
745	741	c	-2	M_pmACP__91__c__93__	C18H30N2O10PRS	Pimeloyl-ACP
746	742	c	-5	M_pmcoa__91__c__93__	C28H41N7O19P3S	Pimeloyl-CoA
747	743	c	-4	M_pmtcoa__91__c__93__	C37H62N7O17P3S	Palmitoyl-CoA (n-C16:0CoA)
748	744	c	-1	M_pnto_R__91__c__93__	C9H16NO5	(R)-Pantothenate
749	745	c	-1	M_ppa__91__c__93__	C3H5O2	propionate
750	746	c	-2	M_ppap__91__c__93__	C3H5O5P	Propanoyl phosphate
751	747	c	-1	M_ppbng__91__c__93__	C10H13N2O4	Porphobilinogen
752	748	c	-4	M_ppcoa__91__c__93__	C24H36N7O17P3S	Propanoyl-CoA
753	749	c	-2	M_pphn__91__c__93__	C10H8O6	Prephenate
754	750	c	-3	M_pphtd__91__c__93__	C40H65O7P2	Prephytoene diphosphate
755	751	c	-3	M_ppi__91__c__93__	HO7P2	Diphosphate
756	752	c	-2	M_ppp9__91__c__93__	C34H32N4O4	Protoporphyrin
757	753	c	-2	M_pppg9__91__c__93__	C34H38N4O4	Protoporphyrinogen IX
758	754	c	-4	M_pppi__91__c__93__	HO10P3	triphosphate(5-)
759	755	c	-1	M_pram__91__c__93__	C5H11NO7P	5-Phospho-beta-D-ribosylamine
760	756	c	-3	M_pran__91__c__93__	C12H13NO9P	N-(5-Phospho-D-ribosyl)anthranilate
761	757	c	-4	M_prbamp__91__c__93__	C15H19N5O14P2	1-(5-Phosphoribosyl)-AMP
762	758	c	-6	M_prbatp__91__c__93__	C15H19N5O20P4	1-(5-Phosphoribosyl)-ATP
763	759	c	-8	M_pre1__91__c__93__	C41H38N4O16	Precorrin 1
764	760	c	-7	M_pre3a__91__c__93__	C43H43N4O16	Precorrin 3 A
765	761	c	-6	M_pre3b__91__c__93__	C43H44N4O17	Precorrin 3B
766	762	c	-8	M_pre4__91__c__93__	C44H44N4O17	Precorrin 4
767	763	c	-8	M_pre5__91__c__93__	C45H46N4O17	Precorrin 5
768	764	c	-7	M_pre6a__91__c__93__	C44H47N4O16	Precorrin 6A
769	765	c	-7	M_pre6b__91__c__93__	C44H49N4O16	Precorrin 6B
770	766	c	-7	M_pre8__91__c__93__	C45H53N4O14	Precorrin 8
771	767	c	-4	M_prfp__91__c__93__	C15H21N5O15P2	1-(5-Phosphoribosyl)-5-[(5-phosphoribosylamino)methylideneamino]imidazole-4-carboxamide
772	768	c	-47	M_prl45tca__91__c__93__	C206H386N2O242P47	Prenol-45n teichoic acid
773	769	c	-2	M_prl45tcaala__91__c__93__	C341H566N47O242P47	Prenol-45n teichoic acid-alanine substituted
774	770	c	-47	M_prl45tcaglc__91__c__93__	C476H836N2O467P47	Prenol-45n teichoic acid-glucose substituted
775	771	c	-4	M_prlp__91__c__93__	C15H21N5O15P2	5-[(5-phospho-1-deoxyribulos-1-ylamino)methylideneamino]-1-(5-phosphoribosyl)imidazole-4-carboxamide
776	772	c	+0	M_pro_L__91__c__93__	C5H9NO2	L-proline
777	773	c	+0	M_proteinsynth__91__c__93__	X	Protein biosynthesis
778	774	c	-5	M_prpp__91__c__93__	C5H8O14P3	5-Phospho-alpha-D-ribose 1-diphosphate
779	775	c	-1	M_ps180__91__c__93__	C42H81N1O10P1	phosphatidylserine (dioctadecanoyl, n-C18:0)
780	776	c	-1	M_psai17__91__c__93__	C40H77NO10P	Phosphatidylserine (14-methyl-hexadecanoyl, anteiso-C17)
781	777	c	-2	M_psd5p__91__c__93__	C9H11N2O9P	Pseudouridine 5-phosphate
782	778	c	-2	M_pser_L__91__c__93__	C3H6NO6P	O-Phospho-L-serine
783	779	c	-1	M_psi17__91__c__93__	C40H77NO10P	Phosphatidylserine (15-methyl-hexadecanoyl, iso-C17)
784	780	c	+2	M_ptrc__91__c__93__	C4H14N2	Putrescine
785	781	c	-1	M_pyam5p__91__c__93__	C8H12N2O5P	Pyridoxamine 5-phosphate
786	782	c	+1	M_pydam__91__c__93__	C8H13N2O2	Pyridoxamine
787	783	c	-2	M_pydx5p__91__c__93__	C8H8NO6P	Pyridoxal 5-phosphate
788	784	c	+0	M_pydx__91__c__93__	C8H9NO3	Pyridoxal
789	785	c	+0	M_pydxn__91__c__93__	C8H11NO3	Pyridoxine
790	786	c	-1	M_pyr__91__c__93__	C3H3O3	pyruvate
791	787	c	+0	M_q8__91__c__93__	C49H74O4	Ubiquinone-8
792	788	c	+0	M_q8h2__91__c__93__	C49H76O4	Ubiquinol-8
793	789	c	-2	M_r1p__91__c__93__	C5H9O8P	alpha-D-Ribose 1-phosphate
794	790	c	-2	M_r5p__91__c__93__	C5H9O8P	alpha-D-Ribose 5-phosphate
795	791	c	+0	M_rbflvrd__91__c__93__	C17H22N4O6	Reduced riboflavin
796	792	c	+0	M_rbl_D__91__c__93__	C5H10O5	D-ribulose
797	793	c	+0	M_rbl_L__91__c__93__	C5H10O5	L-Ribulose
798	794	c	+0	M_rdmbzi__91__c__93__	C14H18N2O4	N1-(alpha-D-ribosyl)-5,6-dimethylbenzimidazole
799	795	c	+0	M_retinal__91__c__93__	C20H28O	retinal
800	796	c	+0	M_retinol__91__c__93__	C20H30O	retinol
801	797	c	+0	M_rhcys__91__c__93__	C9H17NO6S	S-Ribosyl-L-homocysteine
802	798	c	+0	M_rib_D__91__c__93__	C5H10O5	D-ribose
803	799	c	+0	M_ribflv__91__c__93__	C17H20N4O6	Riboflavin
804	800	c	+1	M_rnam__91__c__93__	C11H15N2O5	N-Ribosylnicotinamide
805	801	c	+0	M_rnatrans__91__c__93__	X	RNA transcription
806	802	c	-2	M_ru5p_D__91__c__93__	C5H9O8P	D-ribulose 5-phosphate(2-)
807	803	c	-2	M_ru5p_L__91__c__93__	C5H9O8P	L-Ribulose 5-phosphate
808	804	c	-4	M_s17bp__91__c__93__	C7H12O13P2	Sedoheptulose 1,7-bisphosphate
809	805	c	-2	M_s7p__91__c__93__	C7H13O10P	Sedoheptulose 7-phosphate
810	806	c	+0	M_s__91__c__93__	S	Sulfur
811	807	c	-2	M_salc6p__91__c__93__	C13H17O10P	Salicin 6-phosphate
812	808	c	-2	M_sbt6p__91__c__93__	C6H13O9P	D-Sorbitol 6-phosphate
813	809	c	-5	M_sbzcoa__91__c__93__	C32H39N7O20P3S	O-Succinylbenzoyl-CoA
814	810	c	-7	M_scl__91__c__93__	C42H39N4O16	sirohydrochlorin
815	811	c	-1	M_seln__91__c__93__	HSe	Selenide
816	812	c	-1	M_selnp__91__c__93__	H2O3PSe	Selenophosphate
817	813	c	+0	M_ser_L__91__c__93__	C3H7NO3	L-serine
818	814	c	-8	M_sheme__91__c__93__	C42H36FeN4O16	Siroheme
819	815	c	-3	M_skm5p__91__c__93__	C7H8O8P	Shikimate 5-phosphate
820	816	c	-1	M_skm__91__c__93__	C7H9O5	Shikimate
821	817	c	-2	M_sl26da__91__c__93__	C11H16N2O7	N-Succinyl-LL-2,6-diaminoheptanedioate
822	818	c	-3	M_sl2a6o__91__c__93__	C11H12NO8	N-Succinyl-2-L-amino-6-oxoheptanedioate
823	819	c	-2	M_so3__91__c__93__	O3S	Sulfite
824	820	c	-2	M_so4__91__c__93__	O4S	sulfate
825	821	c	+3	M_spmd__91__c__93__	C7H22N3	Spermidine
826	822	c	+1	M_srtn__91__c__93__	C10H13N2O	serotonin(1+)
827	823	c	-4	M_stcoa__91__c__93__	C39H66N7O17P3S	Stearoyl-CoA (n-C18:0CoA)
828	824	c	-24	M_sttca1__91__c__93__	C123H240O135P24	Stearoyllipoteichoic acid (n=24), linked, unsubstituted
829	825	c	-24	M_sttcaacgam__91__c__93__	C315H552N24O255P24	Stearoyllipoteichoic acid (n=24), linked, N-acetyl-D-glucosamine
830	826	c	+0	M_sttcaala_D__91__c__93__	C195H336N24O135P24	Stearoyllipoteichoic acid (n=24), linked, D-alanine substituted
831	827	c	-24	M_sttcaglc__91__c__93__	C267H480O255P24	Stearoyllipoteichoic acid (n=24), linked, glucose substituted
832	828	c	-2	M_suc6p__91__c__93__	C12H21O14P	Sucrose 6-phosphate
833	829	c	-2	M_sucbz__91__c__93__	C11H8O5	o-Succinylbenzoate
834	830	c	-2	M_succ__91__c__93__	C4H4O4	Succinate
835	831	c	-1	M_succitr_L__91__c__93__	C10H16N3O6	N-succinyl-L-citrulline 
836	832	c	-5	M_succoa__91__c__93__	C25H35N7O19P3S	Succinyl-CoA
837	833	c	-1	M_suchms__91__c__93__	C8H12NO6	O-Succinyl-L-homoserine
838	834	c	-1	M_sucorn__91__c__93__	C9H15N2O5	N2-Succinyl-L-ornithine
839	835	c	-1	M_sucsal__91__c__93__	C4H5O3	Succinic semialdehyde
840	836	c	-2	M_tag6p_D__91__c__93__	C6H11O9P	D-Tagatose 6-phosphate
841	837	c	-4	M_tagdp_D__91__c__93__	C6H10O12P2	D-Tagatose 1,6-biphosphate
842	838	c	+0	M_tcam__91__c__93__	X	minor teichoic acid (acetylgalactosamine glucose phosphate, n=30)
843	839	c	-1	M_tcynt__91__c__93__	CNS	thiocyanate
844	840	c	-4	M_td2coa__91__c__93__	C35H56N7O17P3S	trans-Tetradec-2-enoyl-CoA
845	841	c	-4	M_tdcoa__91__c__93__	C35H58N7O17P3S	Tetradecanoyl-CoA (n-C14:0CoA)
846	842	c	-1	M_tdeACP__91__c__93__	C25H45N2O8PRS	cis-tetradec-7-enoyl-[acyl-carrier protein] (n-C14:1)
847	843	c	-2	M_thdp__91__c__93__	C7H7NO4	2,3,4,5-Tetrahydrodipicolinate
848	844	c	-2	M_thf__91__c__93__	C19H21N7O6	5,6,7,8-Tetrahydrofolate
849	845	c	-3	M_thfglu__91__c__93__	C24H27N8O9	Tetrahydrofolyl-[Glu](2)
850	846	c	+1	M_thm__91__c__93__	C12H17N4OS	Thiamin
851	847	c	-1	M_thmmp__91__c__93__	C12H16N4O4PS	Thiamin monophosphate
852	848	c	-2	M_thmpp__91__c__93__	C12H16N4O7P2S	Thiamine diphosphate
853	849	c	+0	M_thr_L__91__c__93__	C4H9NO3	L-threonine
854	850	c	-2	M_thrp__91__c__93__	C4H8NO6P	L-Threonine O-3-phosphate
855	851	c	+0	M_thym__91__c__93__	C5H6N2O2	Thymine
856	852	c	+0	M_thymd__91__c__93__	C10H14N2O5	Thymidine
857	853	c	+0	M_trdox__91__c__93__	X	Oxidized thioredoxin
858	854	c	+0	M_trdrd__91__c__93__	XH2	Reduced thioredoxin
859	855	c	-2	M_tre6p__91__c__93__	C12H21O14P	alpha,alpha-Trehalose 6-phosphate
860	856	c	+0	M_tre__91__c__93__	C12H22O11	Trehalose
861	857	c	+0	M_trnaglu__91__c__93__	R	tRNA (Glu)
862	858	c	+0	M_trp_L__91__c__93__	C11H12N2O2	L-tryptophan
863	859	c	+1	M_trypta__91__c__93__	C10H13N2	tryptaminium
864	860	c	-2	M_tsul__91__c__93__	O3S2	thiosulfate(2-)
865	861	c	-3	M_ttc_ggdp__91__c__93__	C20H33O7P2	trans,trans,cis-Geranylgeranyl diphosphate
866	862	c	-1	M_ttdca__91__c__93__	C14H27O2	tetradecanoate (n-C14:0)
867	863	c	-1	M_ttdcea__91__c__93__	C14H25O2	tetradecenoate (n-C14:1)
868	864	c	+1	M_tym__91__c__93__	C8H12NO	tyraminium
869	865	c	+0	M_tyr_L__91__c__93__	C9H11NO3	L-tyrosine
870	866	c	-3	M_uGgla__91__c__93__	C40H62N9O26P2	UDP-N-acetylmuramoyl-L-alanyl-gamma-D-glutamyl-L-lysyl-D-alanyl-D-alanine
871	867	c	-3	M_uaGgla__91__c__93__	C86H140N7O21P2	Undecaprenyl-diphospho-N-acetylmuramoyl-L-alanyl-gamma-D-glutamyl-L-lysyl-D-alanyl-D-alanine
872	868	c	-3	M_uaaAgla__91__c__93__	C94H153N8O26P2	Undecaprenyl-diphospho-N-acetylmuramoyl-(N-acetylglucosamine)-L-alanyl-D-glutamyl-L-lysyl-D-alanyl-D-alanine
873	869	c	-2	M_uaaAgtla__91__c__93__	C94H155N9O25P2	Undecaprenyl-diphospho-N-acetylmuramoyl-(N-acetylglucosamine)-L-alanyl-D-glutaminyl-L-lysyl-D-alanyl-D-alanine
874	870	c	-3	M_uaaGgla__91__c__93__	C94H153N8O26P2	Undecaprenyl-diphospho-N-acetylmuramoyl-(N-acetylglucosamine)-L-alanyl-gamma-D-glutamyl-L-lysyl-D-alanyl-D-alanine
875	871	c	-2	M_uaaGgtla__91__c__93__	C94H155N9O25P2	Undecaprenyl-diphospho-N-acetylmuramoyl-(N-acetylglucosamine)-L-alanyl-D-isoglutaminyl-L-lysyl-D-alanyl-D-alanine
876	872	c	-4	M_uaagmda__91__c__93__	C95H152N8O28P2	Undecaprenyl-diphospho-N-acetylmuramoyl-(N-acetylglucosamine)-L-ala-D-glu-meso-2,6-diaminopimeloyl-D-ala-D-ala
877	873	c	-3	M_uaagtmda__91__c__93__	C95H154N9O27P2	Undecaprenyl-diphospho-N-acetylmuramoyl-(N-acetylglucosamine)-L-alanyl-D-glutaminyl-meso-2,6-diaminopimeloyl-D-alanyl-D-alanine
878	874	c	-3	M_uaccg__91__c__93__	C20H26N3O19P2	UDP-N-acetyl-3-O-(1-carboxyvinyl)-D-glucosamine
879	875	c	-2	M_uacgam__91__c__93__	C17H25N3O17P2	UDP-N-acetyl-alpha-D-glucosamine(2-)
880	876	c	-2	M_uacmam__91__c__93__	C17H25N3O17P2	UDP-N-acetyl-D-mannosamine
881	877	c	-4	M_uagmda__91__c__93__	C87H139N7O23P2	Undecaprenyl-diphospho-N-acetylmuramoyl-L-alanyl-D-glutamyl-meso-2,6-diaminopimeloyl-D-alanyl-D-alanine
882	878	c	-3	M_uama__91__c__93__	C23H33N4O20P2	UDP-N-acetylmuramoyl-L-alanine
883	879	c	-4	M_uamag__91__c__93__	C28H39N5O23P2	UDP-N-acetylmuramoyl-L-alanyl-D-glutamate
884	880	c	-3	M_uamr__91__c__93__	C20H28N3O19P2	UDP-N-acetylmuramate
885	881	c	-3	M_udcpdp__91__c__93__	C55H89O7P2	Undecaprenyl diphosphate
886	882	c	-2	M_udcpp__91__c__93__	C55H89O4P	Undecaprenyl phosphate
887	883	c	-3	M_udp__91__c__93__	C9H11N2O12P2	UDP
888	884	c	-2	M_udpacgal__91__c__93__	C17H25N3O17P2	UDP-N-acetyl-D-galactosamine(2-)
889	885	c	-2	M_udpg__91__c__93__	C15H22N2O17P2	UDPglucose
890	886	c	-2	M_udpgal__91__c__93__	C15H22N2O17P2	UDP-D-galactose(2-)
891	887	c	-2	M_udpgalfur__91__c__93__	C15H22N2O17P2	UDP-D-galacto-1,4-furanose
892	888	c	-3	M_udpglcur__91__c__93__	C15H19N2O18P2	UDP-D-glucuronate
893	889	c	-4	M_ugmd__91__c__93__	C35H51N7O26P2	UDP-N-acetylmuramoyl-L-alanyl-D-gamma-glutamyl-meso-2,6-diaminopimelate
894	890	c	-4	M_ugmda__91__c__93__	C41H61N9O28P2	UDP-N-acetylmuramoyl-L-alanyl-D-glutamyl-meso-2,6-diaminopimeloyl-D-alanyl-D-alanine
895	891	c	-2	M_ump__91__c__93__	C9H11N2O9P	UMP
896	892	c	-2	M_unaga__91__c__93__	C63H103NO12P2	Undecaprenyl diphospho N-acetyl-glucosamine
897	893	c	-8	M_uppg3__91__c__93__	C40H36N4O16	Uroporphyrinogen III
898	894	c	+0	M_ura__91__c__93__	C4H4N2O2	uracil
899	895	c	+0	M_urea__91__c__93__	CH4N2O	Urea
900	896	c	+0	M_uri__91__c__93__	C9H12N2O6	Uridine
901	897	c	-4	M_utp__91__c__93__	C9H11N2O15P3	UTP
902	898	c	+0	M_val_L__91__c__93__	C5H11NO2	L-valine
903	899	c	+0	M_xan__91__c__93__	C5H4N4O2	Xanthine
904	900	c	-2	M_xmp__91__c__93__	C10H11N4O9P	Xanthosine 5-phosphate
905	901	c	+0	M_xol7ah2al__91__c__93__	C27H46O3	3alpha,7alpha-dihydroxy-5beta-cholestan-26-al
906	902	c	+0	M_xol7ah3__91__c__93__	C27H48O3	5beta-cholestane-3alpha,7alpha,26-triol
907	903	c	+0	M_xtsn__91__c__93__	C10H12N4O6	xanthosine
908	904	c	-2	M_xu5p_D__91__c__93__	C5H9O8P	D-xylulose 5-phosphate(2-)
909	905	c	-2	M_xu5p_L__91__c__93__	C5H9O8P	L-Xylulose 5-phosphate
910	906	c	+0	M_xyl_D__91__c__93__	C5H10O5	aldehydo-D-xylose
911	907	c	+0	M_xylu_D__91__c__93__	C5H10O5	D-xylulose
912	908	c	+2	M_zn2__91__c__93__	Zn	Zinc
