species_ID	mode	EU_avg	DACH	diabetes2	gluten_free	high_fat	high_fiber	high_protein	mediterranean	unhealthy	vegan	vegetarian
setA_11	plastic	36	36	36	36	36	36	36	36	36	36	36
setA_11	sfm	36	36	36	36	36	36	36	36	36	36	36
setA_13	plastic	2.61529	2.69811	2.95223	2.67399	3.13414	2.53797	2.77392	3.0793	2.55891	2.78522	2.43844
setA_13	sfm	36	36	36	36	36	36	36	36	36	36	36
setA_14	plastic	36	36	36	36	36	36	36	36	36	36	36
setA_14	sfm	36	36	36	36	36	36	36	36	36	36	36
setA_15	plastic	36	36	36	36	36	36	36	36	36	36	36
setA_15	sfm	36	36	36	36	36	36	36	36	36	36	36
setA_16	plastic	36	36	36	36	36	36	36	36	36	36	36
setA_16	sfm	36	36	36	36	36	36	36	36	36	36	36
setA_17	plastic	36	36	36	36	36	36	36	36	36	36	36
setA_17	sfm	36	36	36	36	36	36	36	36	36	36	36
setA_18	plastic	36	36	36	36	36	36	36	36	36	36	36
setA_18	sfm	36	36	36	36	36	36	36	36	36	36	36
setA_19	plastic	36	36	36	36	36	36	36	36	36	36	36
setA_19	sfm	36	36	36	36	36	36	36	36	36	36	36
setA_20	plastic	36	36	36	36	36	36	36	36	36	36	36
setA_20	sfm	36	36	36	36	36	36	36	36	36	36	36
setA_21	plastic	36	36	36	36	36	36	36	36	36	36	36
setA_21	sfm	36	36	36	36	36	36	36	36	36	36	36
setA_22	plastic	11.8062	36	36	36	36	36	36	36	36	36	36
setA_22	sfm	36	36	36	36	36	36	36	36	36	36	36
setA_24	plastic	36	36	36	36	36	36	36	36	36	36	36
setA_24	sfm	36	36	36	36	36	36	36	36	36	36	36
setA_26	plastic	36	36	36	36	36	36	36	36	36	36	36
setA_26	sfm	36	36	36	36	36	36	36	36	36	36	36
setA_3	plastic	36	36	36	36	36	36	36	36	36	36	36
setA_3	sfm	36	36	36	36	36	36	36	36	36	36	36
setA_4	plastic	36	36	36	36	36	36	36	36	36	36	36
setA_4	sfm	36	36	36	36	36	36	36	36	36	36	36
setA_6	plastic	36	36	36	36	36	36	36	36	36	36	36
setA_6	sfm	36	36	36	36	36	36	36	36	36	36	36
setA_8	plastic	36	36	36	36	36	36	36	36	36	36	36
setA_8	sfm	36	36	36	36	36	36	36	36	36	36	36
setA_9	plastic	36	36	36	36	36	36	36	36	36	36	36
setA_9	sfm	36	36	36	36	36	36	36	36	36	36	36
