species_ID	mode	EU_avg	DACH	diabetes2	gluten_free	high_fat	high_fiber	high_protein	mediterranean	unhealthy	vegan	vegetarian
setA_11	plastic	2.21722	10.5884	2.31815	4.08453	3.54389	13.4115	8.14538	6.14812	3.60365	2.59286	2.77471
setA_11	sfm	1.94466	2.27785	1.94309	2.27682	2.96263	2.09867	2.0899	2.0883	2.96421	2.08988	2.28961
setA_13	plastic	1.13836	1.47428	1.47437	1.04234	1.5862	2.31218	1.75037	1.49924	1.50941	6.25776	1.51723
setA_13	sfm	1.01053	1.01009	1.01081	1.01019	1.01308	1.0101	1.01004	1.01044	1.0152	1.0101	1.01024
setA_14	plastic	3.4	3.30863	3.6885	3.29183	3.63751	3.11988	3.13785	3.35566	3.3765	3.29276	4.0881
setA_14	sfm	3.09852	2.9869	2.99175	2.94586	3.65794	2.88941	2.93577	2.91461	2.94188	2.93523	3.54488
setA_15	plastic	6.59049	7.13102	6.9225	6.76169	6.20603	7.05186	7.0928	7.04269	6.53938	6.6719	6.52176
setA_15	sfm	5.87979	5.87473	5.87058	5.87787	6.05009	5.87312	5.87199	5.87505	6.01252	5.87336	5.88133
setA_16	plastic	2.16176	18.9815	3.98498	18.9816	36	10.6215	10.6439	10.644	36	10.6483	19.2574
setA_16	sfm	1.97326	19.0431	1.91316	19.0095	36	10.6364	10.6623	10.6495	36	10.6656	19.2761
setA_17	plastic	2.94624	3.08487	2.88012	2.8062	3.67985	2.87392	3.01635	2.82466	3.07223	2.86567	3.10296
setA_17	sfm	2.76763	2.69931	2.68176	2.72668	4.228	2.68879	2.68392	2.69499	2.98421	2.6983	2.76629
setA_18	plastic	2.80324	2.82238	2.75911	2.74988	4.7652	2.74958	2.72459	2.77776	2.50785	2.7677	2.79245
setA_18	sfm	2.7397	2.74221	2.74379	2.74328	2.07411	2.74466	2.71524	2.7438	2.07196	2.74078	2.73991
setA_19	plastic	1.92575	2.25513	2.21905	6.18014	2.4149	5.85835	5.85718	5.05849	2.78894	1.88459	1.94174
setA_19	sfm	1.56186	1.6095	1.56165	1.60933	1.94573	1.5607	1.56006	1.55999	1.94287	1.56022	1.60738
setA_20	plastic	6.70304	6.17455	6.69436	6.16312	5.73005	5.99797	6.44287	6.44377	5.60454	6.4499	6.17783
setA_20	sfm	6.2305	5.7237	6.22861	5.72308	5.39255	5.96551	5.96491	5.9656	5.39077	5.96836	5.72411
setA_21	plastic	2.21778	2.40216	2.27234	2.2467	3.1724	2.35665	2.38107	2.24775	2.43827	2.32008	2.20677
setA_21	sfm	2.11737	2.10096	2.09313	2.11206	2.42741	2.09667	2.0954	2.09967	2.36853	2.09843	2.11843
setA_22	plastic	2.63269	2.55545	2.46131	2.35549	4.88197	2.43739	2.79185	2.69825	2.50538	2.51091	2.49763
setA_22	sfm	2.18219	2.17841	2.17884	2.17892	3.0574	2.17706	2.1781	2.17767	2.19001	2.18191	2.18577
setA_24	plastic	4.25096	4.58896	5.26002	4.07075	5.0986	4.34271	4.19607	4.20326	4.19554	4.69693	5.48216
setA_24	sfm	4.2221	4.09329	4.12735	4.0403	6.00958	3.92897	4.0157	3.9671	4.08791	4.03619	4.95594
setA_26	plastic	2.30582	6.38087	2.02794	9.29565	3.06297	6.02321	5.20523	10.4272	2.9061	5.23328	6.41877
setA_26	sfm	1.86059	1.96049	1.86489	2.05215	2.51552	1.83961	1.81798	1.81976	2.35571	1.8528	2.01339
setA_3	plastic	2.15209	9.1066	5.97409	6.2729	2.51588	10.3613	2.09528	5.96301	4.60518	5.9528	7.22425
setA_3	sfm	1.68701	1.71646	1.6873	1.71643	1.94533	1.66786	1.66757	1.66769	1.94614	1.66919	1.71862
setA_4	plastic	1.9211	2.31857	2.09242	2.09289	2.44868	2.09341	2.0981	2.09778	2.44805	2.09124	2.47021
setA_4	sfm	1.67488	1.67479	1.6751	1.67491	1.7275	1.67681	1.67514	1.6748	1.67179	1.67494	1.67548
setA_6	plastic	6.63449	1.34502	1.34645	1.31788	1.17558	1.10378	1.34235	1.34236	1.64183	1.35308	1.09918
setA_6	sfm	0.877803	0.877447	0.877858	0.878014	0.884827	0.877292	0.87738	0.877702	0.883894	0.877319	0.87797
setA_8	plastic	2.05616	2.22329	1.96282	2.31838	4.25631	2.21687	1.89952	1.84307	2.19942	2.12411	2.11114
setA_8	sfm	1.71266	1.63371	1.72978	1.78463	1.58731	1.668	1.76082	1.78208	1.56993	1.62747	1.82171
setA_9	plastic	1.79901	2.5363	1.81074	2.31262	2.93567	1.84916	2.08778	2.08099	2.89137	2.29144	2.3161
setA_9	sfm	1.3533	1.5729	1.35241	1.57018	2.132	1.4165	1.41857	1.4183	2.09161	1.41755	1.57225
