CNC	distance
0.225084	0.13439
0.226302	0.149014
0.227526	0.153772
0.228757	0.15848
0.229995	0.137766
0.23124	0.119482
0.232491	0.144523
0.233749	0.143044
0.235014	0.134443
0.236286	0.150741
0.23885	0.141264
0.241442	0.119202
0.244062	0.133847
0.24671	0.1423
0.249388	0.131447
0.25483	0.129495
0.26039	0.130343
0.266073	0.122568
0.271879	0.130475
0.277811	0.141564
0.290068	0.130534
0.302866	0.129183
0.316228	0.124879
0.330179	0.127968
0.344747	0.116683
0.375837	0.123327
0.409732	0.113451
0.446684	0.11273
0.486968	0.109106
0.530884	0.0952407
0.630957	0.102538
0.749894	0.0990698
0.891251	0.099405
1.05925	0.0989277
inf	0.839317
inf	0.839317
inf	0.839347
inf	0.839347
inf	0.839317
inf	0.839347
inf	0.839317
inf	0.839317
inf	0.839347
inf	0.839317
inf	0.839347
inf	0.839317
inf	0.839317
inf	0.839347
inf	0.839317
inf	0.839317
inf	0.839347
inf	0.839317
inf	0.839317
inf	0.839347
inf	0.839347
inf	0.839317
inf	0.839347
inf	0.839317
inf	0.839317
inf	0.839347
inf	0.839317
inf	0.839317
inf	0.839347
inf	0.839317
inf	0.839317
inf	0.839317
inf	0.839317
inf	0.839317
inf	0.839317
inf	0.839317
inf	0.839317
inf	0.839317
inf	0.839317
inf	0.839317
0.01	0.153422
0.0141254	0.151143
0.0199526	0.148053
0.0281838	0.11058
0.0398107	0.136421
0.0562341	0.188766
0.0794328	0.187099
0.112202	0.178116
0.158489	0.163533
0.223872	0.0822992
