CNC	distance
0.188365	0.0973678
0.266073	0.0914635
0.316228	0.0903892
0.375837	0.0891631
0.446684	0.0843958
0.530884	0.0754306
0.630957	0.0648942
0.749894	0.0517373
0.817523	0.0481633
0.891251	0.0404711
0.971628	0.0335496
1.05925	0.029906
1.15478	0.0234411
1.25893	0.0178085
1.37246	0.00946536
1.49624	0.00695052
1.56225	0.00604157
1.5707	0.0076186
1.5792	0.00764606
1.58775	0.00798582
1.59634	0.00691323
1.60498	0.00677382
1.61366	0.00715663
1.62239	0.00679763
1.63117	0.00865326
1.64	0.00858785
1.64887	0.00925659
1.66677	0.0105289
1.68485	0.0110365
1.70314	0.0116007
1.72162	0.0128411
1.7403	0.010969
1.77828	0.0139035
1.81708	0.0139006
1.85674	0.013964
1.89725	0.0173795
1.93865	0.0201735
2.02418	0.0220503
2.11349	0.0251567
2.20673	0.0299653
inf	0.839317
inf	0.839317
inf	0.839317
inf	0.839317
inf	0.839317
inf	0.839317
inf	0.839317
inf	0.839317
inf	0.839317
inf	0.839317
inf	0.839318
inf	0.839317
inf	0.839317
inf	0.839318
inf	0.839318
inf	0.839317
inf	0.839317
inf	0.839317
inf	0.839317
inf	0.839317
inf	0.839317
inf	0.839317
inf	0.839317
inf	0.839317
inf	0.839317
inf	0.839317
inf	0.839317
inf	0.839318
inf	0.839317
inf	0.839318
inf	0.839317
inf	0.839317
inf	0.839317
inf	0.839317
inf	0.839317
inf	0.839317
inf	0.839317
inf	0.839317
inf	0.839317
inf	0.839317
0.01	0.15257
0.0141254	5.38319e+303
0.0199526	5.38319e+303
0.0281838	5.38319e+303
0.0398107	0.130543
0.0562341	0.130591
0.0794328	0.120444
0.112202	0.101216
0.158489	0.091283
0.223872	0.0944724
