

###############################################################################
Peregrine Cluster
Job 19121664 for user 's4278836'
Finished at: Wed Apr  7 22:45:38 CEST 2021

Job details:
============

Job ID              : 19121664
Name                : Communism
User                : s4278836
Partition           : regular
Nodes               : pg-node151
Number of Nodes     : 1
Cores               : 1
State               : COMPLETED
Submit              : 2021-04-07T22:25:14
Start               : 2021-04-07T22:25:15
End                 : 2021-04-07T22:45:38
Reserved walltime   : 1-00:00:00
Used walltime       :   00:20:23
Used CPU time       :   00:20:18 (efficiency: 99.61%)
% User (Computation): 98.44%
% System (I/O)      :  1.56%
Mem reserved        : 4G/node
Max Mem used        : 619.58M (pg-node151)
Max Disk Write      : 0.00  (pg-node151)
Max Disk Read       : 61.44K (pg-node151)
Hints and tips      :
 1) You requested much more memory than your program used.
    Please reduce the requested amount of memory.
 *) For more information on these issues see:
    https://wiki.hpc.rug.nl/peregrine/additional_information/job_hints


Acknowledgements:
=================

Please see this page for information about acknowledging Peregrine in your publications:

https://wiki.hpc.rug.nl/peregrine/introduction/scientific_output

################################################################################
