	od_rel	r_rel
0	0.000739134	1
1	0.000748449	0.999999
2	0.000757881	0.999998
3	0.000767432	0.999997
4	0.000777104	0.999997
5	0.000786898	0.999996
6	0.000796815	0.999995
7	0.000806857	0.999994
8	0.000817025	0.999993
9	0.000827322	0.999992
10	0.000837748	0.999991
11	0.000848306	0.99999
12	0.000858997	0.999989
13	0.000869822	0.999988
14	0.000880784	0.999987
15	0.000891884	0.999986
16	0.000903124	0.999985
17	0.000914506	0.999984
18	0.000926031	0.999983
19	0.000937701	0.999982
20	0.000949518	0.999981
21	0.000961484	0.99998
22	0.000973601	0.999979
23	0.000985871	0.999978
24	0.000998295	0.999977
25	0.00101088	0.999976
26	0.00102362	0.999975
27	0.00103652	0.999973
28	0.00104958	0.999972
29	0.00106281	0.999971
30	0.0010762	0.99997
31	0.00108976	0.999969
32	0.0011035	0.999967
33	0.0011174	0.999966
34	0.00113148	0.999965
35	0.00114574	0.999964
36	0.00116018	0.999962
37	0.0011748	0.999961
38	0.00118961	0.99996
39	0.0012046	0.999958
40	0.00121978	0.999957
41	0.00123515	0.999956
42	0.00125072	0.999954
43	0.00126648	0.999953
44	0.00128244	0.999951
45	0.0012986	0.99995
46	0.00131496	0.999949
47	0.00133154	0.999947
48	0.00134832	0.999946
49	0.00136531	0.999944
50	0.00138251	0.999943
51	0.00139994	0.999941
52	0.00141758	0.999939
53	0.00143544	0.999938
54	0.00145353	0.999936
55	0.00147185	0.999935
56	0.0014904	0.999933
57	0.00150918	0.999931
58	0.0015282	0.99993
59	0.00154745	0.999928
60	0.00156695	0.999926
61	0.0015867	0.999924
62	0.0016067	0.999922
63	0.00162694	0.999921
64	0.00164744	0.999919
65	0.0016682	0.999917
66	0.00168923	0.999915
67	0.00171051	0.999913
68	0.00173207	0.999911
69	0.0017539	0.999909
70	0.001776	0.999907
71	0.00179838	0.999905
72	0.00182104	0.999903
73	0.00184399	0.999901
74	0.00186722	0.999899
75	0.00189075	0.999897
76	0.00191458	0.999895
77	0.00193871	0.999893
78	0.00196314	0.999891
79	0.00198787	0.999888
80	0.00201292	0.999886
81	0.00203829	0.999884
82	0.00206397	0.999882
83	0.00208998	0.999879
84	0.00211632	0.999877
85	0.00214299	0.999875
86	0.00216999	0.999872
87	0.00219733	0.99987
88	0.00222502	0.999867
89	0.00225306	0.999865
90	0.00228145	0.999862
91	0.0023102	0.99986
92	0.00233931	0.999857
93	0.00236879	0.999854
94	0.00239864	0.999852
95	0.00242886	0.999849
96	0.00245946	0.999846
97	0.00249046	0.999843
98	0.00252184	0.999841
99	0.00255361	0.999838
100	0.00258579	0.999835
101	0.00261837	0.999832
102	0.00265137	0.999829
103	0.00268477	0.999826
104	0.0027186	0.999823
105	0.00275286	0.99982
106	0.00278755	0.999817
107	0.00282267	0.999814
108	0.00285824	0.99981
109	0.00289425	0.999807
110	0.00293072	0.999804
111	0.00296765	0.999801
112	0.00300504	0.999797
113	0.0030429	0.999794
114	0.00308124	0.99979
115	0.00312007	0.999787
116	0.00315938	0.999783
117	0.00319919	0.99978
118	0.0032395	0.999776
119	0.00328031	0.999773
120	0.00332164	0.999769
121	0.0033635	0.999765
122	0.00340588	0.999761
123	0.00344879	0.999757
124	0.00349224	0.999754
125	0.00353624	0.99975
126	0.0035808	0.999746
127	0.00362591	0.999742
128	0.0036716	0.999737
129	0.00371786	0.999733
130	0.0037647	0.999729
131	0.00381213	0.999725
132	0.00386016	0.999721
133	0.00390879	0.999716
134	0.00395804	0.999712
135	0.00400791	0.999707
136	0.0040584	0.999703
137	0.00410953	0.999698
138	0.00416131	0.999694
139	0.00421374	0.999689
140	0.00426682	0.999684
141	0.00432058	0.999679
142	0.00437501	0.999674
143	0.00443013	0.999669
144	0.00448594	0.999664
145	0.00454246	0.999659
146	0.00459969	0.999654
147	0.00465763	0.999649
148	0.00471631	0.999644
149	0.00477573	0.999638
150	0.00483589	0.999633
151	0.00489682	0.999627
152	0.0049585	0.999622
153	0.00502097	0.999616
154	0.00508422	0.999611
155	0.00514827	0.999605
156	0.00521313	0.999599
157	0.0052788	0.999593
158	0.0053453	0.999587
159	0.00541264	0.999581
160	0.00548082	0.999575
161	0.00554986	0.999569
162	0.00561978	0.999562
163	0.00569057	0.999556
164	0.00576225	0.999549
165	0.00583484	0.999543
166	0.00590834	0.999536
167	0.00598277	0.99953
168	0.00605813	0.999523
169	0.00613444	0.999516
170	0.00621171	0.999509
171	0.00628996	0.999502
172	0.00636919	0.999495
173	0.00644941	0.999488
174	0.00653065	0.99948
175	0.00661291	0.999473
176	0.00669621	0.999465
177	0.00678055	0.999458
178	0.00686596	0.99945
179	0.00695244	0.999442
180	0.00704001	0.999434
181	0.00712868	0.999426
182	0.00721847	0.999418
183	0.00730938	0.99941
184	0.00740145	0.999402
185	0.00749467	0.999393
186	0.00758906	0.999385
187	0.00768464	0.999376
188	0.00778143	0.999367
189	0.00787943	0.999358
190	0.00797867	0.999349
191	0.00807915	0.99934
192	0.0081809	0.999331
193	0.00828394	0.999322
194	0.00838826	0.999312
195	0.0084939	0.999303
196	0.00860087	0.999293
197	0.00870919	0.999283
198	0.00881887	0.999273
199	0.00892993	0.999263
200	0.00904238	0.999253
201	0.00915625	0.999243
202	0.00927156	0.999232
203	0.00938831	0.999222
204	0.00950654	0.999211
205	0.00962625	0.9992
206	0.00974747	0.999189
207	0.00987021	0.999178
208	0.00999449	0.999167
209	0.0101203	0.999155
210	0.0102478	0.999144
211	0.0103768	0.999132
212	0.0105075	0.99912
213	0.0106398	0.999108
214	0.0107737	0.999096
215	0.0109094	0.999084
216	0.0110468	0.999071
217	0.0111858	0.999058
218	0.0113267	0.999046
219	0.0114693	0.999033
220	0.0116137	0.99902
221	0.0117599	0.999006
222	0.011908	0.998993
223	0.0120579	0.998979
224	0.0122097	0.998965
225	0.0123634	0.998951
226	0.012519	0.998937
227	0.0126766	0.998923
228	0.0128362	0.998908
229	0.0129978	0.998893
230	0.0131614	0.998878
231	0.0133271	0.998863
232	0.0134949	0.998848
233	0.0136648	0.998832
234	0.0138368	0.998817
235	0.0140109	0.998801
236	0.0141873	0.998785
237	0.0143659	0.998768
238	0.0145467	0.998752
239	0.0147298	0.998735
240	0.0149152	0.998718
241	0.0151029	0.998701
242	0.015293	0.998683
243	0.0154855	0.998666
244	0.0156803	0.998648
245	0.0158777	0.99863
246	0.0160775	0.998611
247	0.0162798	0.998593
248	0.0164847	0.998574
249	0.0166922	0.998555
250	0.0169022	0.998536
251	0.0171149	0.998516
252	0.0173303	0.998496
253	0.0175484	0.998476
254	0.0177692	0.998456
255	0.0179928	0.998435
256	0.0182192	0.998414
257	0.0184484	0.998393
258	0.0186805	0.998372
259	0.0189155	0.99835
260	0.0191535	0.998328
261	0.0193945	0.998306
262	0.0196385	0.998283
263	0.0198856	0.998261
264	0.0201357	0.998237
265	0.020389	0.998214
266	0.0206455	0.99819
267	0.0209052	0.998166
268	0.0211682	0.998142
269	0.0214345	0.998117
270	0.0217041	0.998092
271	0.0219771	0.998067
272	0.0222535	0.998041
273	0.0225334	0.998015
274	0.0228168	0.997989
275	0.0231038	0.997962
276	0.0233943	0.997935
277	0.0236886	0.997908
278	0.0239865	0.99788
279	0.0242881	0.997852
280	0.0245935	0.997824
281	0.0249028	0.997795
282	0.0252159	0.997765
283	0.025533	0.997736
284	0.025854	0.997706
285	0.0261791	0.997675
286	0.0265082	0.997645
287	0.0268415	0.997613
288	0.0271789	0.997582
289	0.0275206	0.99755
290	0.0278666	0.997517
291	0.0282169	0.997485
292	0.0285716	0.997451
293	0.0289307	0.997417
294	0.0292944	0.997383
295	0.0296626	0.997349
296	0.0300354	0.997314
297	0.0304129	0.997278
298	0.0307951	0.997242
299	0.0311821	0.997205
300	0.031574	0.997168
301	0.0319707	0.997131
302	0.0323725	0.997093
303	0.0327793	0.997054
304	0.0331911	0.997015
305	0.0336081	0.996976
306	0.0340304	0.996936
307	0.0344579	0.996895
308	0.0348908	0.996854
309	0.0353291	0.996813
310	0.0357729	0.99677
311	0.0362223	0.996728
312	0.0366772	0.996684
313	0.0371379	0.99664
314	0.0376043	0.996596
315	0.0380766	0.996551
316	0.0385548	0.996505
317	0.0390389	0.996458
318	0.0395292	0.996411
319	0.0400255	0.996364
320	0.0405281	0.996316
321	0.0410369	0.996267
322	0.0415521	0.996217
323	0.0420738	0.996167
324	0.0426019	0.996116
325	0.0431367	0.996065
326	0.0436782	0.996012
327	0.0442264	0.995959
328	0.0447815	0.995906
329	0.0453435	0.995851
330	0.0459125	0.995796
331	0.0464886	0.99574
332	0.047072	0.995683
333	0.0476626	0.995626
334	0.0482606	0.995568
335	0.0488661	0.995509
336	0.0494791	0.995449
337	0.0500998	0.995388
338	0.0507282	0.995327
339	0.0513644	0.995264
340	0.0520087	0.995201
341	0.0526609	0.995137
342	0.0533213	0.995072
343	0.0539899	0.995006
344	0.0546668	0.99494
345	0.0553522	0.994872
346	0.0560462	0.994803
347	0.0567488	0.994734
348	0.0574601	0.994663
349	0.0581803	0.994592
350	0.0589095	0.99452
351	0.0596478	0.994446
352	0.0603952	0.994372
353	0.061152	0.994296
354	0.0619182	0.99422
355	0.0626939	0.994142
356	0.0634793	0.994063
357	0.0642745	0.993983
358	0.0650795	0.993902
359	0.0658946	0.99382
360	0.0667198	0.993737
361	0.0675553	0.993653
362	0.0684012	0.993567
363	0.0692576	0.993481
364	0.0701246	0.993393
365	0.0710024	0.993303
366	0.0718911	0.993213
367	0.0727908	0.993121
368	0.0737018	0.993028
369	0.074624	0.992934
370	0.0755577	0.992838
371	0.076503	0.992741
372	0.07746	0.992642
373	0.0784288	0.992542
374	0.0794097	0.992441
375	0.0804028	0.992338
376	0.0814082	0.992234
377	0.082426	0.992128
378	0.0834564	0.992021
379	0.0844997	0.991912
380	0.0855558	0.991802
381	0.086625	0.99169
382	0.0877075	0.991576
383	0.0888033	0.991461
384	0.0899127	0.991344
385	0.0910358	0.991225
386	0.0921729	0.991105
387	0.093324	0.990982
388	0.0944893	0.990858
389	0.095669	0.990733
390	0.0968633	0.990605
391	0.0980723	0.990475
392	0.0992963	0.990344
393	0.100535	0.990211
394	0.10179	0.990075
395	0.10306	0.989938
396	0.104345	0.989799
397	0.105646	0.989657
398	0.106964	0.989513
399	0.108297	0.989368
400	0.109647	0.98922
401	0.111014	0.989069
402	0.112398	0.988917
403	0.113798	0.988762
404	0.115216	0.988605
405	0.116651	0.988446
406	0.118104	0.988284
407	0.119574	0.988119
408	0.121063	0.987952
409	0.12257	0.987783
410	0.124095	0.987611
411	0.12564	0.987436
412	0.127203	0.987259
413	0.128785	0.987078
414	0.130386	0.986895
415	0.132008	0.98671
416	0.133649	0.986521
417	0.13531	0.986329
418	0.136991	0.986135
419	0.138693	0.985937
420	0.140416	0.985736
421	0.14216	0.985532
422	0.143925	0.985324
423	0.145712	0.985114
424	0.14752	0.9849
425	0.149351	0.984682
426	0.151204	0.984462
427	0.153079	0.984237
428	0.154977	0.984009
429	0.156898	0.983777
430	0.158843	0.983542
431	0.160811	0.983302
432	0.162803	0.983059
433	0.16482	0.982812
434	0.16686	0.98256
435	0.168926	0.982305
436	0.171016	0.982045
437	0.173132	0.981781
438	0.175273	0.981512
439	0.177441	0.981239
440	0.179634	0.980962
441	0.181854	0.98068
442	0.1841	0.980392
443	0.186374	0.980101
444	0.188675	0.979804
445	0.191004	0.979502
446	0.193361	0.979194
447	0.195746	0.978882
448	0.19816	0.978564
449	0.200602	0.978241
450	0.203074	0.977911
451	0.205576	0.977577
452	0.208107	0.977236
453	0.210669	0.976889
454	0.213261	0.976536
455	0.215884	0.976177
456	0.218539	0.975811
457	0.221225	0.975439
458	0.223943	0.97506
459	0.226694	0.974674
460	0.229477	0.974281
461	0.232293	0.973881
462	0.235142	0.973474
463	0.238025	0.973059
464	0.240942	0.972636
465	0.243894	0.972206
466	0.24688	0.971767
467	0.249902	0.97132
468	0.252959	0.970865
469	0.256052	0.970401
470	0.259181	0.969928
471	0.262347	0.969446
472	0.26555	0.968955
473	0.268791	0.968454
474	0.272069	0.967943
475	0.275385	0.967423
476	0.27874	0.966892
477	0.282134	0.96635
478	0.285567	0.965798
479	0.289041	0.965235
480	0.292554	0.96466
481	0.296107	0.964074
482	0.299702	0.963475
483	0.303338	0.962865
484	0.307016	0.962241
485	0.310735	0.961605
486	0.314498	0.960955
487	0.318303	0.960292
488	0.322151	0.959615
489	0.326043	0.958923
490	0.32998	0.958216
491	0.333961	0.957494
492	0.337986	0.956757
493	0.342057	0.956003
494	0.346174	0.955232
495	0.350337	0.954445
496	0.354546	0.953639
497	0.358802	0.952816
498	0.363106	0.951974
499	0.367457	0.951113
500	0.371856	0.950232
501	0.376303	0.94933
502	0.380799	0.948407
503	0.385345	0.947463
504	0.38994	0.946496
505	0.394585	0.945506
506	0.39928	0.944492
507	0.404026	0.943454
508	0.408822	0.94239
509	0.41367	0.9413
510	0.41857	0.940182
511	0.423522	0.939037
512	0.428526	0.937863
513	0.433582	0.936658
514	0.438691	0.935423
515	0.443854	0.934155
516	0.44907	0.932854
517	0.45434	0.931519
518	0.459663	0.930148
519	0.465041	0.92874
520	0.470473	0.927293
521	0.47596	0.925807
522	0.481501	0.92428
523	0.487098	0.92271
524	0.492749	0.921095
525	0.498456	0.919435
526	0.504218	0.917726
527	0.510036	0.915968
528	0.515909	0.914158
529	0.521837	0.912294
530	0.527821	0.910374
531	0.53386	0.908395
532	0.539954	0.906356
533	0.546104	0.904254
534	0.552308	0.902085
535	0.558568	0.899848
536	0.564882	0.897539
537	0.571251	0.895154
538	0.577673	0.892692
539	0.584149	0.890148
540	0.590678	0.887518
541	0.59726	0.884799
542	0.603894	0.881987
543	0.610579	0.879077
544	0.617315	0.876064
545	0.624101	0.872944
546	0.630936	0.869711
547	0.637819	0.86636
548	0.644749	0.862885
549	0.651725	0.859281
550	0.658746	0.855539
551	0.665809	0.851654
552	0.672915	0.847618
553	0.680061	0.843424
554	0.687245	0.839062
555	0.694465	0.834524
556	0.70172	0.829801
557	0.709007	0.824883
558	0.716323	0.819759
559	0.723667	0.814418
560	0.731035	0.808848
561	0.738424	0.803036
562	0.745831	0.796969
563	0.753253	0.790633
564	0.760686	0.784012
565	0.768125	0.777091
566	0.775567	0.769852
567	0.783006	0.762278
568	0.790439	0.75435
569	0.797859	0.746048
570	0.805261	0.737352
571	0.812639	0.728239
572	0.819986	0.718688
573	0.827296	0.708675
574	0.834562	0.698175
575	0.841775	0.687166
576	0.848928	0.67562
577	0.856011	0.663515
578	0.863017	0.650824
579	0.869935	0.637525
580	0.876756	0.623595
581	0.883469	0.609014
582	0.890063	0.593763
583	0.896528	0.577828
584	0.902851	0.561201
585	0.909022	0.543878
586	0.915028	0.525863
587	0.920859	0.507169
588	0.926502	0.487818
589	0.931946	0.467846
590	0.937182	0.447299
591	0.942198	0.42624
592	0.946986	0.404746
593	0.951538	0.382908
594	0.955848	0.360834
595	0.95991	0.338644
596	0.963723	0.316471
597	0.967283	0.294455
598	0.970593	0.272744
599	0.973655	0.251485
600	0.976473	0.230821
601	0.979056	0.210886
602	0.98141	0.191802
603	0.983547	0.173673
604	0.985478	0.156581
605	0.987215	0.140587
606	0.98877	0.125729
607	0.990158	0.112023
608	0.991393	0.0994625
609	0.992486	0.0880244
610	0.993452	0.0776688
611	0.994303	0.068344
612	0.99505	0.0599891
613	0.995705	0.0525371
614	0.996278	0.0459178
615	0.996778	0.04006
616	0.997213	0.0348931
617	0.997592	0.0303493
618	0.997922	0.0263639
619	0.998208	0.0228764
620	0.998456	0.0198309
621	0.998671	0.0171761
622	0.998857	0.0148656
623	0.999017	0.0128575
624	0.999156	0.0111144
625	0.999277	0.00960288
626	0.99938	0.00829334
627	0.99947	0.00715972
628	0.999547	0.00617907
629	0.999614	0.00533125
630	0.999672	0.00459864
631	0.999721	0.00396588
632	0.999764	0.00341957
633	0.999801	0.00294805
634	0.999833	0.00254121
635	0.99986	0.00219026
636	0.999884	0.00188759
637	0.999904	0.0016266
638	0.999922	0.0014016
639	0.999937	0.00120764
640	0.99995	0.00104046
641	0.999961	0.000896388
642	0.999971	0.000772231
643	0.999979	0.000665246
644	0.999986	0.000573066
645	0.999993	0.000493646
646	0.999998	0.000425223
647	1	0.000366277
648	1.00001	0.000315496
649	1.00001	0.000271752
650	1.00001	0.00023407
651	1.00002	0.000201611
652	1.00002	0.000173652
653	1.00002	0.000149569
654	1.00002	0.000128825
655	1.00002	0.000110957
656	1.00002	9.5567e-05
657	1.00002	8.23113e-05
658	1.00003	7.0894e-05
659	1.00003	6.10602e-05
660	1.00003	5.25902e-05
661	1.00003	4.52951e-05
662	1.00003	3.90118e-05
663	1.00003	3.36001e-05
664	1.00003	2.89391e-05
665	1.00003	2.49246e-05
666	1.00003	2.1467e-05
667	1.00003	1.8489e-05
668	1.00003	1.59241e-05
669	1.00003	1.3715e-05
