	metabolite_index	reaction_index	stoichiometry	metabolite_id	reaction_id
1	0	1	-1	M_12dgr180__91__e__93__	R_12DGR180ti
2	2	12	-1	M_2dmmq8__91__e__93__	R_1P4H2CBXLAH
3	3	15	-1	M_2obut__91__e__93__	R_23PDE2
4	3	16	+1	M_2obut__91__e__93__	R_23PDE4
5	4	41	-1	M_3mop__91__e__93__	R_23PDE7
6	4	42	+1	M_3mop__91__e__93__	R_23PDE9
7	6	141	-1	M_acald__91__e__93__	R_26DAPLLAT
8	6	142	+1	M_acald__91__e__93__	R_2DHPL
9	7	148	-1	M_acgam__91__e__93__	R_2DMMQ8abc
10	5	170	-1	M_ac__91__e__93__	R_2MBCOATA
11	5	171	+1	M_ac__91__e__93__	R_2OBUTt2r
12	8	176	-1	M_ade__91__e__93__	R_3HAD100
13	8	177	+1	M_ade__91__e__93__	R_3HAD10M12
14	9	186	-1	M_adocbl__91__e__93__	R_3HAD11M12
15	11	217	-1	M_alaasp__91__e__93__	R_3HAD120
16	12	220	-1	M_alagln__91__e__93__	R_3HAD121
17	13	223	-1	M_alaglu__91__e__93__	R_3HAD12M14
18	14	226	-1	M_alagly__91__e__93__	R_3HAD13M14
19	15	229	-1	M_alahis__91__e__93__	R_3HAD140
20	16	232	-1	M_alaleu__91__e__93__	R_3HAD141
21	17	238	-1	M_alathr__91__e__93__	R_3HAD14M16
22	10	239	-1	M_ala_L__91__e__93__	R_3HAD15M16
23	90	239	-1	M_na1__91__e__93__	R_3HAD15M16
24	10	240	+1	M_ala_L__91__e__93__	R_3HAD160
25	90	240	+1	M_na1__91__e__93__	R_3HAD160
26	18	244	-1	M_alltn__91__e__93__	R_3HAD161
27	18	245	+1	M_alltn__91__e__93__	R_3HAD180
28	19	250	-1	M_arbt__91__e__93__	R_3HAD181
29	20	256	-1	M_arg_L__91__e__93__	R_3HAD40
30	21	261	-1	M_asn_L__91__e__93__	R_3HAD4M6
31	21	262	+1	M_asn_L__91__e__93__	R_3HAD5M6
32	22	271	-1	M_asp_L__91__e__93__	R_3HAD60
33	22	272	+1	M_asp_L__91__e__93__	R_3HAD6M8
34	23	277	-1	M_btn__91__e__93__	R_3HAD7M8
35	25	282	-1	M_cbl1__91__e__93__	R_3HAD80
36	26	283	-1	M_cbl2__91__e__93__	R_3HAD8M10
37	27	285	+1	M_cd2__91__e__93__	R_3HAD9M10
38	28	292	-1	M_cgly__91__e__93__	R_3MOPt2r
39	29	293	-1	M_chol__91__e__93__	R_3OAR100
40	30	294	-1	M_chols__91__e__93__	R_3OAR10M11
41	24	296	-1	M_ca2__91__e__93__	R_3OAR10M12
42	31	296	-1	M_cit__91__e__93__	R_3OAR10M12
43	24	297	+1	M_ca2__91__e__93__	R_3OAR11M12
44	31	297	+1	M_cit__91__e__93__	R_3OAR11M12
45	33	317	-1	M_co2__91__e__93__	R_3OAR120
46	33	318	+1	M_co2__91__e__93__	R_3OAR12M13
47	34	319	+1	M_cobalt2__91__e__93__	R_3OAR12M14
48	34	320	-1	M_cobalt2__91__e__93__	R_3OAR13M14
49	35	322	-1	M_crn__91__e__93__	R_3OAR140
50	36	323	+1	M_cro4__91__e__93__	R_3OAR14M15
51	36	324	-1	M_cro4__91__e__93__	R_3OAR14M16
52	37	325	-1	M_csn__91__e__93__	R_3OAR15M16
53	37	326	+1	M_csn__91__e__93__	R_3OAR160
54	39	334	-1	M_cys_L__91__e__93__	R_3OAR180
55	39	335	+1	M_cys_L__91__e__93__	R_3OAR40
56	40	341	-1	M_cytd__91__e__93__	R_3OAR4M5
57	40	342	+1	M_cytd__91__e__93__	R_3OAR4M6
58	38	347	-1	M_cu2__91__e__93__	R_3OAR5M6
59	38	348	+1	M_cu2__91__e__93__	R_3OAR60
60	41	349	-1	M_dad_2__91__e__93__	R_3OAR6M7
61	41	350	+1	M_dad_2__91__e__93__	R_3OAR6M8
62	1	362	-1	M_26dap_M__91__e__93__	R_3OAR7M8
63	42	381	-1	M_dcyt__91__e__93__	R_3OAR80
64	42	382	+1	M_dcyt__91__e__93__	R_3OAR8M10
65	43	388	-1	M_dgsn__91__e__93__	R_3OAR8M9
66	43	389	+1	M_dgsn__91__e__93__	R_3OAR9M10
67	44	415	-1	M_drib__91__e__93__	R_3OAS100
68	76	426	-1	M_lac_D__91__e__93__	R_3OAS10M12
69	76	427	+1	M_lac_D__91__e__93__	R_3OAS11M12
70	45	466	-1	M_fe2__91__e__93__	R_3OAS120
71	46	467	-1	M_fe3__91__e__93__	R_3OAS121
72	31	468	-2	M_cit__91__e__93__	R_3OAS12M14
73	46	468	-1	M_fe3__91__e__93__	R_3OAS12M14
74	47	474	-1	M_fol__91__e__93__	R_3OAS13M14
75	47	475	+1	M_fol__91__e__93__	R_3OAS140
76	48	480	-1	M_for__91__e__93__	R_3OAS141
77	48	481	+1	M_for__91__e__93__	R_3OAS160
78	49	489	-1	M_fru__91__e__93__	R_3OAS161
79	50	517	-1	M_galt__91__e__93__	R_3OAS180
80	51	519	-1	M_gam__91__e__93__	R_3OAS181
81	52	535	-1	M_glc_D__91__e__93__	R_3OAS3M4
82	53	537	-1	M_gln_L__91__e__93__	R_3OAS4M3O6
83	53	538	-1	M_gln_L__91__e__93__	R_3OAS4M6
84	53	539	+1	M_gln_L__91__e__93__	R_3OAS5M6
85	54	552	-1	M_glu_L__91__e__93__	R_3OAS60
86	54	553	-1	M_glu_L__91__e__93__	R_3OAS6M8
87	54	554	+1	M_glu_L__91__e__93__	R_3OAS7M8
88	56	557	-1	M_glyasn__91__e__93__	R_3OAS80
89	57	560	-1	M_glyasp__91__e__93__	R_3OAS8M10
90	58	561	-1	M_glyb__91__e__93__	R_3OAS9M10
91	60	565	-1	M_glyclt__91__e__93__	R_4HTHRS
92	60	566	+1	M_glyclt__91__e__93__	R_4NTPPH2
93	61	567	-1	M_glycys__91__e__93__	R_5AIZCDC
94	59	568	+1	M_glyc__91__e__93__	R_5GLUP5T1
95	59	569	-1	M_glyc__91__e__93__	R_5GLUP5T2
96	62	576	-1	M_glygln__91__e__93__	R_AACPS6
97	63	579	-1	M_glyglu__91__e__93__	R_AACPS7
98	64	583	-1	M_glyleu__91__e__93__	R_ABUTD
99	65	586	-1	M_glymet__91__e__93__	R_ACACT1r
100	66	590	-1	M_glyphe__91__e__93__	R_ACACT2r
101	67	593	-1	M_glypro__91__e__93__	R_ACACT3r
102	68	596	-1	M_glytyr__91__e__93__	R_ACACT4r
103	55	597	-1	M_gly__91__e__93__	R_ACACT5r
104	55	598	+1	M_gly__91__e__93__	R_ACACT6r
105	69	607	-1	M_gua__91__e__93__	R_ACACT7r
106	69	608	+1	M_gua__91__e__93__	R_ACALDt
107	69	609	-1	M_gua__91__e__93__	R_ACBIPGT
108	97	614	-1	M_pheme__91__e__93__	R_ACCOAC
109	70	616	+1	M_hg2__91__e__93__	R_ACCOACL
110	71	618	-1	M_his_L__91__e__93__	R_ACCOALYS2
111	71	619	+1	M_his_L__91__e__93__	R_ACGAMT
112	72	629	-1	M_hxan__91__e__93__	R_ACGApts
113	73	641	-1	M_ile_L__91__e__93__	R_ACKr
114	73	642	+1	M_ile_L__91__e__93__	R_ACOAAGPAT140
115	74	646	-1	M_indole__91__e__93__	R_ACOAAGPAT160
116	74	647	+1	M_indole__91__e__93__	R_ACOAAGPAT180
117	75	656	-1	M_k__91__e__93__	R_ACOAAGPATAI15
118	75	657	+1	M_k__91__e__93__	R_ACOAAGPATAI17
119	75	658	+1	M_k__91__e__93__	R_ACOAAGPATI14
120	77	666	-1	M_leu_L__91__e__93__	R_ACOAAGPATI15
121	77	667	+1	M_leu_L__91__e__93__	R_ACOAAGPATI16
122	78	714	-1	M_lys_L__91__e__93__	R_ACOAAGPATI17
123	78	715	+1	M_lys_L__91__e__93__	R_ACOAD1
124	79	720	-1	M_malt__91__e__93__	R_ACOAD20
125	80	721	-1	M_man__91__e__93__	R_ACOADH2
126	83	730	-1	M_metala__91__e__93__	R_ACOATA
127	81	732	-1	M_met_D__91__e__93__	R_ACOCT
128	85	735	-1	M_metsox_S_L__91__e__93__	R_ACODAr
129	84	736	-1	M_metsox_R_L__91__e__93__	R_ACPS1
130	82	739	-1	M_met_L__91__e__93__	R_ACt2r
131	82	740	-1	M_met_L__91__e__93__	R_ADAD
132	82	741	+1	M_met_L__91__e__93__	R_ADCL
133	86	742	-1	M_mg2__91__e__93__	R_ADCS
134	86	744	+1	M_mg2__91__e__93__	R_ADEt2r
135	86	745	-1	M_mg2__91__e__93__	R_ADK1
136	89	749	+1	M_mqn8__91__e__93__	R_ADK2
137	89	750	-1	M_mqn8__91__e__93__	R_ADNCYC
138	88	754	-1	M_mnl__91__e__93__	R_ADNK1
139	87	755	-1	M_mn2__91__e__93__	R_ADOCBIK
140	91	765	+1	M_nac__91__e__93__	R_ADOCBLS
141	91	766	-1	M_nac__91__e__93__	R_ADOCBLabc
142	90	773	+1	M_na1__91__e__93__	R_ADPRDP
143	90	774	-1	M_na1__91__e__93__	R_ADPT
144	92	793	-1	M_nh4__91__e__93__	R_AGPAT120
145	92	794	+1	M_nh4__91__e__93__	R_AGPAT140
146	93	816	-1	M_o2__91__e__93__	R_AGPAT141
147	93	817	+1	M_o2__91__e__93__	R_AGPAT160
148	94	820	-1	M_ocdca__91__e__93__	R_AGPAT161
149	95	840	+1	M_pb__91__e__93__	R_AGPAT180
150	96	885	-1	M_phe_L__91__e__93__	R_AGPAT181
151	96	886	+1	M_phe_L__91__e__93__	R_AGTi
152	98	889	-1	M_pi__91__e__93__	R_AHC
153	90	890	-3	M_na1__91__e__93__	R_AHCYSNS_r
154	98	890	-1	M_pi__91__e__93__	R_AHCYSNS_r
155	99	896	-1	M_pnto_R__91__e__93__	R_AHSERL2
156	100	903	+1	M_ppa__91__e__93__	R_AHSERL3
157	101	917	-1	M_pro_L__91__e__93__	R_AICART
158	102	940	-1	M_ptrc__91__e__93__	R_AIHDUDPMG
159	103	956	-1	M_pydam__91__e__93__	R_AIHDUPDG
160	105	959	-1	M_pydxn__91__e__93__	R_AIHPDCOATA
161	104	960	-1	M_pydx__91__e__93__	R_AIRC4
162	106	968	-1	M_q8__91__e__93__	R_AKP1
163	107	975	+1	M_rib_D__91__e__93__	R_ALAALA
164	108	976	-1	M_ribflv__91__e__93__	R_ALAASP1c
165	108	977	+1	M_ribflv__91__e__93__	R_ALAASPabc
166	107	978	-1	M_rib_D__91__e__93__	R_ALAGLN1c
167	109	992	-1	M_salcn__91__e__93__	R_ALAGLNabc
168	110	995	-1	M_sbt_D__91__e__93__	R_ALAGLU1c
169	111	998	-1	M_ser_L__91__e__93__	R_ALAGLUabc
170	111	999	+1	M_ser_L__91__e__93__	R_ALAGLY1c
171	112	1001	-1	M_sheme__91__e__93__	R_ALAGLYabc
172	113	1005	-1	M_so4__91__e__93__	R_ALAHIS1c
173	113	1006	+1	M_so4__91__e__93__	R_ALAHISabc
174	114	1007	-1	M_spmd__91__e__93__	R_ALALEU1c
175	115	1013	-1	M_succ__91__e__93__	R_ALALEUabc
176	115	1014	+1	M_succ__91__e__93__	R_ALAPGPL
177	116	1016	-1	M_sucr__91__e__93__	R_ALAR
178	119	1078	-1	M_thymd__91__e__93__	R_ALATHR1c
179	119	1079	+1	M_thymd__91__e__93__	R_ALATHRabc
180	117	1080	-1	M_thm__91__e__93__	R_ALAt4r
181	117	1081	+1	M_thm__91__e__93__	R_ALCD4
182	118	1087	-1	M_thr_L__91__e__93__	R_ALKP
183	118	1088	+1	M_thr_L__91__e__93__	R_ALLTNt2r
184	120	1104	-1	M_tre__91__e__93__	R_ALPHNH
185	121	1106	-1	M_trp_L__91__e__93__	R_AMPTASECG
186	121	1107	+1	M_trp_L__91__e__93__	R_AMPTASEGC
187	122	1112	-1	M_tyr_L__91__e__93__	R_APRAUR
188	122	1113	+1	M_tyr_L__91__e__93__	R_ARBTpts
189	123	1139	-1	M_ura__91__e__93__	R_ARGDC
190	124	1157	-1	M_uri__91__e__93__	R_ARGSL
191	124	1158	+1	M_uri__91__e__93__	R_ARGSSr
192	125	1159	-1	M_val_L__91__e__93__	R_ARGt2
193	125	1160	+1	M_val_L__91__e__93__	R_AROH
194	126	1165	-1	M_zn2__91__e__93__	R_ASAD
195	54	1178	-1	M_glu_L__91__e__93__	R_ASNS2
196	90	1178	-1	M_na1__91__e__93__	R_ASNS2
197	32	1179	-1	M_cl__91__e__93__	R_ASNt2r
198	32	1180	+1	M_cl__91__e__93__	R_ASP1DC
