	index	compartment	charge	id	formula	name
1	863	c	+0	C_charge_balance	X	charge balance
2	864	c	+0	C_cytosol_crowding	X	cytosol molecular crowding
3	865	c	+0	C_membrane_crowding	X	membrane molecular crowding
4	0	c	-6	M_10fthf5glu__91__c__93__	C40H45N11O19	10-formyltetrahydrofolate-[Glu](5)
5	1	c	-2	M_10fthf__91__c__93__	C20H21N7O7	10-Formyltetrahydrofolate
6	2	c	-1	M_10m3hddcaACP__91__c__93__	C24H45N2O9PRS	10-methyl-3-hydroxy-dodecanoyl-ACP
7	3	c	-1	M_10m3hundecACP__91__c__93__	C23H43N2O9PRS	10-methyl-3-hydroxy-undecanoyl-ACP
8	4	c	-1	M_10m3oddcaACP__91__c__93__	C24H43N2O9PRS	10-methyl-3-oxo-dodecanoyl-ACP
9	5	c	-1	M_10m3oundecACP__91__c__93__	C23H41N2O9PRS	10-methyl-3-oxo-undecanoyl-ACP
10	6	c	-1	M_10mddcaACP__91__c__93__	C24H45N2O8PRS	10-methyl-dodecanoyl-ACP
11	7	c	-1	M_10mtddec2eACP__91__c__93__	C24H43N2O8PRS	10-methyl-trans-dodec-2-enoyl-ACP
12	8	c	-1	M_10mtundec2eACP__91__c__93__	C23H41N2O8PRS	10-methyl-trans-undec-2-enoyl-ACP
13	9	c	-1	M_10mundecACP__91__c__93__	C23H43N2O8PRS	10-methyl-undecanoyl-ACP
14	10	c	-1	M_11m3hddcaACP__91__c__93__	C24H45N2O9PRS	11-methyl-3-hydroxy-dodecanoyl-ACP
15	11	c	-1	M_11m3oddcaACP__91__c__93__	C24H43N2O9PRS	11-methyl-3-oxo-dodecanoyl-ACP
16	12	c	-1	M_11mddcaACP__91__c__93__	C24H45N2O8PRS	11-methyl-dodecanoyl-ACP
17	13	c	-1	M_11mtddec2eACP__91__c__93__	C24H43N2O8PRS	11-methyl-trans-dodec-2-enoyl-ACP
18	14	c	+0	M_12daihdglyc__91__c__93__	C37H72O5	1,2-Dianteisoheptadecanoyl-sn-glycerol
19	15	c	+0	M_12daipdglyc__91__c__93__	C33H64O5	1,2-Dianteisopentadecanoyl-sn-glycerol
20	16	c	+0	M_12dgr120__91__c__93__	C27H52O5	1,2-Diacyl-sn-glycerol (didodecanoyl, n-C12:0)
21	17	c	+0	M_12dgr140__91__c__93__	C31H60O5	1,2-Diacyl-sn-glycerol (ditetradecanoyl, n-C14:0)
22	18	c	+0	M_12dgr141__91__c__93__	C31H56O5	1,2-Diacyl-sn-glycerol (ditetradec-7-enoyl, n-C14:1)
23	19	c	+0	M_12dgr160__91__c__93__	C35H68O5	1,2-Diacyl-sn-glycerol (dihexadecanoyl, n-C16:0)
24	20	c	+0	M_12dgr161__91__c__93__	C35H64O5	1,2-Diacyl-sn-glycerol (dihexadec-9-enoyl, n-C16:1)
25	21	c	+0	M_12dgr180__91__c__93__	C39H76O5	1,2-Diacyl-sn-glycerol (dioctadecanoyl, n-C18:0)
26	22	c	+0	M_12dgr181__91__c__93__	C39H72O5	1,2-Diacyl-sn-glycerol (dioctadec-11-enoyl, n-C18:1)
27	23	c	+0	M_12dihdglyc__91__c__93__	C37H72O5	1,2-Diisoheptadecanoyl-sn-glycerol
28	24	c	+0	M_12dipdglyc__91__c__93__	C33H64O5	1,2-Diisopentadecanoyl-sn-glycerol
29	25	c	+0	M_12ditdglyc__91__c__93__	C31H60O5	1,2-Diisotetradecanoyl-sn-glycerol
30	26	c	+0	M_12dixdglyc__91__c__93__	C35H68O5	1,2-Diisohexadecanoyl-sn-glycerol
31	27	c	-1	M_12m3hmyrsACP__91__c__93__	C26H49N2O9PRS	12-methyl-3-hydroxy-tetra-decanoyl-ACP
32	28	c	-1	M_12m3htridecACP__91__c__93__	C25H47N2O9PRS	12-methyl-3-hydroxy-tridecanoyl-ACP
33	29	c	-1	M_12m3omyrsACP__91__c__93__	C26H47N2O9PRS	12-methyl-3-oxo-tetra-decanoyl-ACP
34	30	c	-1	M_12m3otridecACP__91__c__93__	C25H45N2O9PRS	12-methyl-3-oxo-tridecanoyl-ACP
35	31	c	-1	M_12mmyrsACP__91__c__93__	C26H49N2O8PRS	12-methyl-tetra-decanoyl-ACP
36	32	c	-1	M_12mtmrs2eACP__91__c__93__	C26H47N2O8PRS	12-methyl-trans-tetra-dec-2-enoyl-ACP
37	33	c	-1	M_12mtridecACP__91__c__93__	C25H47N2O8PRS	12-methyl-tridecanoyl-ACP
38	34	c	-1	M_12mttritec2eACP__91__c__93__	C25H45N2O8PRS	12-methyl-trans-tridec-2-enoyl-ACP
39	35	c	-4	M_13dpg__91__c__93__	C3H4O10P2	3-Phospho-D-glyceroyl phosphate
40	36	c	-1	M_13m3hmyrsACP__91__c__93__	C26H49N2O9PRS	13-methyl-3-hydroxy-tetra-decanoyl-ACP
41	37	c	-1	M_13m3omyrsACP__91__c__93__	C26H47N2O9PRS	13-methyl-3-oxo-tetra-decanoyl-ACP
42	38	c	-1	M_13mmyrsACP__91__c__93__	C26H49N2O8PRS	13-methyl-tetra-decanoyl-ACP
43	39	c	-1	M_13mtmrs2eACP__91__c__93__	C26H47N2O8PRS	13-methyl-trans-tetra-dec-2-enoyl-ACP
44	40	c	-1	M_14m3hpalmACP__91__c__93__	C28H53N2O9PRS	14-methyl-3-hydroxy-hexa-decanoyl-ACP
45	41	c	-1	M_14m3hpentdecACP__91__c__93__	C27H51N2O9PRS	14-methyl-3-hydroxy-pentadecanoyl-ACP
46	42	c	-1	M_14m3opalmACP__91__c__93__	C28H51N2O9PRS	14-methyl-3-oxo-hexa-decanoyl-ACP
47	43	c	-1	M_14m3opentdecACP__91__c__93__	C27H49N2O9PRS	14-methyl-3-oxo-pentadecanoyl-ACP
48	44	c	-1	M_14mpalmACP__91__c__93__	C28H53N2O8PRS	14-methyl-hexa-decanoyl-ACP
49	45	c	-1	M_14mpentdecACP__91__c__93__	C27H51N2O8PRS	14-methyl-pentadecanoyl-ACP
50	46	c	-1	M_14mtpalm2eACP__91__c__93__	C28H51N2O8PRS	14-methyl-trans-hexa-dec-2-enoyl-ACP
51	47	c	-1	M_14mtpentdec2eACP__91__c__93__	C27H49N2O8PRS	14-methyl-trans-pentadec-2-enoyl-ACP
52	48	c	+2	M_15dap__91__c__93__	C5H16N2	1,5-Diaminopentane
53	49	c	-1	M_15m3hpalmACP__91__c__93__	C28H53N2O9PRS	15-methyl-3-hydroxy-hexa-decanoyl-ACP
54	50	c	-1	M_15m3opalmACP__91__c__93__	C28H51N2O9PRS	15-methyl-3-oxo-hexa-decanoyl-ACP
55	51	c	-1	M_15mpalmACP__91__c__93__	C28H53N2O8PRS	15-methyl-hexa-decanoyl-ACP
56	52	c	-1	M_15mtpalm2eACP__91__c__93__	C28H51N2O8PRS	15-methyl-trans-hexa-dec-2-enoyl-ACP
57	53	c	-2	M_1aihpdecg3p__91__c__93__	C20H39O7P	1-anteisoheptadecanoyl-sn-glycerol 3-phosphate (14-methyl-hexadecanoyl, anteiso-C17)
58	54	c	-1	M_1aipdecg3p__91__c__93__	C18H36O7P	1-anteisopentadecanoyl-sn-glycerol 3-phosphate (12-methyl-tetradecanoyl, anteiso-C15)
59	55	c	-2	M_1ddecg3p__91__c__93__	C15H29O7P1	1-acyl-sn-glycerol 3-phosphate(2-)
60	56	c	-2	M_1hdec9eg3p__91__c__93__	C19H35O7P1	1-hexadec-9-enoyl-sn-glycerol 3-phosphate
61	57	c	-2	M_1hdecg3p__91__c__93__	C19H37O7P1	1-hexadecanoyl-sn-glycerol 3-phosphate
62	58	c	-1	M_1ihdecg3p__91__c__93__	C19H38O7P	1-isohexadecanoyl-sn-glycerol 3-phosphate (14-methyl-pentadecanoyl, iso-C16)
63	59	c	-2	M_1ihpdecg3p__91__c__93__	C20H39O7P	1-isoheptadecanoyl-sn-glycerol 3-phosphate (15-methyl-hexadecanoyl, iso-C17)
64	60	c	-1	M_1ipdecg3p__91__c__93__	C18H36O7P	1-isopentadecanoyl-sn-glycerol 3-phosphate (13-methyl-tetradecanoyl, iso-C15)
65	61	c	-1	M_1itdecg3p__91__c__93__	C17H34O7P	1-isotetradecanoyl-sn-glycerol 3-phosphate (12-methyl-tridecanoyl, iso-C14)
66	62	c	-2	M_1odec11eg3p__91__c__93__	C21H39O7P1	1-octadec-11-enoyl-sn-glycerol 3-phosphate
67	63	c	-2	M_1odecg3p__91__c__93__	C21H41O7P1	1-octadecanoyl-sn-glycerol 3-phosphate
68	64	c	-1	M_1p4h2cbxl__91__c__93__	C5H6NO3	1-Pyrroline-4-hydroxy-2-carboxylate
69	65	c	-1	M_1pyr5c__91__c__93__	C5H6NO2	1-Pyrroline-5-carboxylate
70	66	c	-2	M_1tdec7eg3p__91__c__93__	C17H31O7P1	1-tetradec-7-enoyl-sn-glycerol 3-phosphate
71	67	c	-2	M_1tdecg3p__91__c__93__	C17H33O7P1	1-tetradecanoyl-sn-glycerol 3-phosphate
72	68	c	-2	M_23dhdp__91__c__93__	C7H5NO4	2,3-Dihydrodipicolinate
73	69	c	-1	M_23dhmb__91__c__93__	C5H9O4	(R)-2,3-Dihydroxy-3-methylbutanoate
74	70	c	-1	M_23dhmp__91__c__93__	C6H11O4	(R)-2,3-Dihydroxy-3-methylpentanoate
75	71	c	-5	M_23dpg__91__c__93__	C3H3O10P2	2,3-bisphosphonato-D-glycerate(5-)
76	72	c	-4	M_25aics__91__c__93__	C13H15N4O12P	(S)-2-[5-Amino-1-(5-phospho-D-ribosyl)imidazole-4-carboxamido]succinate
77	73	c	-2	M_25dhpp__91__c__93__	C9H14N5O8P	2,5-Diamino-6-hydroxy-4-(5-phosphoribosylamino)-pyrimidine
78	74	c	-1	M_25dop__91__c__93__	C5H5O4	2,5-Dioxopentanoate
79	75	c	-2	M_25drapp__91__c__93__	C9H14N5O8P	2,5-Diamino-6-(ribosylamino)-4-(3H)-pyrimidinone 5-phosphate
80	76	c	+0	M_26dap_LL__91__c__93__	C7H14N2O4	LL-2,6-Diaminoheptanedioate
81	77	c	+0	M_26dap_M__91__c__93__	C7H14N2O4	meso-2,6-Diaminoheptanedioate
82	78	c	-1	M_2ahbut__91__c__93__	C6H9O4	(S)-2-Aceto-2-hydroxybutanoate
83	79	c	-3	M_2ahhmd__91__c__93__	C7H8N5O8P2	2-Amino-4-hydroxy-6-hydroxymethyl-7,8-dihydropteridine diphosphate
84	80	c	+0	M_2ahhmp__91__c__93__	C7H9N5O2	2-Amino-4-hydroxy-6-hydroxymethyl-7,8-dihydropteridine
85	81	c	-3	M_2cpr5p__91__c__93__	C12H13NO9P	1-(2-Carboxyphenylamino)-1-deoxy-D-ribulose 5-phosphate
86	82	c	-3	M_2dda7p__91__c__93__	C7H10O10P	2-Dehydro-3-deoxy-D-arabino-heptonate 7-phosphate
87	83	c	-1	M_2ddpent__91__c__93__	C5H7O5	2-Dehydro-3-deoxy-L-pentonate
88	84	c	-3	M_2dh3dgal6p__91__c__93__	C6H8O9P	2-Dehydro-3-deoxy-D-galactonate 6-phosphate
89	85	c	-1	M_2dhp__91__c__93__	C6H9O4	2-Dehydropantoate
90	86	c	+0	M_2dmmq8__91__c__93__	C50H70O2	2-Demethylmenaquinone 8
91	87	c	+0	M_2dmmql8__91__c__93__	C50H72O2	2-Demethylmenaquinol 8
92	88	c	-2	M_2dr1p__91__c__93__	C5H9O7P	2-Deoxy-D-ribose 1-phosphate
93	89	c	-2	M_2hmc__91__c__93__	C6H4O5	2-Hydroxymuconate
94	90	c	-2	M_2ippm__91__c__93__	C7H8O4	2-Isopropylmaleate
95	91	c	-3	M_2mahmp__91__c__93__	C6H8N3O7P2	2-Methyl-4-amino-5-hydroxymethylpyrimidine diphosphate
96	92	c	-4	M_2mb2coa__91__c__93__	C26H38N7O17P3S	2-methylcrotonoyl-CoA(4-)
97	93	c	-4	M_2mbcoa__91__c__93__	C26H40N7O17P3S	2-methylbutanoyl-CoA(4-)
98	94	c	-1	M_2mbutACP__91__c__93__	C16H29N2O8PRS	2-methylbutanoyl-ACP,2-methylbutyryl-ACP
99	95	c	-2	M_2me4p__91__c__93__	C5H11O7P	2-C-methyl-D-erythritol 4-phosphate
100	96	c	-2	M_2mecdp__91__c__93__	C5H10O9P2	2-C-methyl-D-erythritol 2,4-cyclodiphosphate
101	97	c	-4	M_2mp2coa__91__c__93__	C25H36N7O17P3S	2-Methylprop-2-enoyl-CoA
102	98	c	-1	M_2mpropACP__91__c__93__	C15H27N2O8PRS	2-methylpropionyl-ACP,isobutyryl-ACP
103	99	c	-1	M_2obut__91__c__93__	C4H5O3	2-Oxobutanoate
104	100	c	+0	M_2ohph__91__c__93__	C46H70O2	2-Octaprenyl-6-hydroxyphenol
105	101	c	+0	M_2ombz__91__c__93__	C47H70O3	2-Octaprenyl-6-methoxy-1,4-benzoquinone
106	102	c	+0	M_2ombzl__91__c__93__	C47H72O3	2-Octaprenyl-6-methoxy-1,4-benzoquinol
107	103	c	+0	M_2omhmbl__91__c__93__	C48H74O4	2-Octaprenyl-3-methyl-5-hydroxy-6-methoxy-1,4-benzoquinol
108	104	c	+0	M_2ommb__91__c__93__	C48H72O3	2-Octaprenyl-3-methyl-6-methoxy-1,4-benzoquinone
109	105	c	+0	M_2ommbl__91__c__93__	C48H74O3	2-Octaprenyl-3-methyl-6-methoxy- 1,4-benzoquinol
110	106	c	+0	M_2omph__91__c__93__	C47H72O2	2-Octaprenyl-6-methoxyphenol
111	107	c	+0	M_2oph__91__c__93__	C46H70O	2-Octaprenylphenol
112	108	c	-4	M_2p4c2me__91__c__93__	C14H22N3O17P3	2-phospho-4-(cytidine 5-diphospho)-2-C-methyl-D-erythritol
113	109	c	-3	M_2pg__91__c__93__	C3H4O7P	D-Glycerate 2-phosphate
114	110	c	-3	M_2pglyc__91__c__93__	C2H2O6P	2-phosphonatoglycolate(3-)
115	111	c	-1	M_33hmeoxobut__91__c__93__	C5H7O4	2-Oxo-3-hydroxyisovalerate
116	112	c	-1	M_34hpp__91__c__93__	C9H7O4	3-(4-hydroxyphenyl)pyruvate
117	113	c	-2	M_3c2hmp__91__c__93__	C7H10O5	3-Carboxy-2-hydroxy-4-methylpentanoate
118	114	c	-2	M_3c3hmp__91__c__93__	C7H10O5	3-Carboxy-3-hydroxy-4-methylpentanoate
119	115	c	-2	M_3c4mop__91__c__93__	C7H8O5	3-Carboxy-4-methyl-2-oxopentanoate
120	116	c	-1	M_3dhq__91__c__93__	C7H9O6	3-Dehydroquinate
121	117	c	-1	M_3dhsk__91__c__93__	C7H7O5	3-Dehydroshikimate
122	118	c	-1	M_3h3mop__91__c__93__	C6H9O4	(R)-3-Hydroxy-3-methyl-2-oxopentanoate
123	119	c	-1	M_3haACP__91__c__93__	C15H27N2O9PRS	(3R)-3-Hydroxyacyl-[acyl-carrier protein]
124	120	c	-4	M_3hbcoa__91__c__93__	C25H38N7O18P3S	(S)-3-hydroxybutanoyl-CoA(4-)
125	121	c	-4	M_3hdcoa__91__c__93__	C31H50N7O18P3S	(S)-3-Hydroxydecanoyl-CoA
126	122	c	-4	M_3hddcoa__91__c__93__	C33H54N7O18P3S	(S)-3-Hydroxydodecanoyl-CoA
127	123	c	-1	M_3hddecACP__91__c__93__	C23H43N2O9PRS	(R)-3-Hydroxydodecanoyl-[acyl-carrier protein]
128	124	c	-1	M_3hdecACP__91__c__93__	C21H39N2O9PRS	(R)-3-Hydroxydecanoyl-[acyl-carrier protein]
129	125	c	-4	M_3hhdcoa__91__c__93__	C37H62N7O18P3S	(S)-3-Hydroxyhexadecanoyl-CoA
130	126	c	-1	M_3hhexACP__91__c__93__	C17H31N2O9PRS	(R)-3-Hydroxyhexanoyl-[acyl-carrier protein]
131	127	c	-4	M_3hibutcoa__91__c__93__	C25H38N7O18P3S	(S)-3-Hydroxyisobutyryl-CoA
132	128	c	-4	M_3hmbcoa__91__c__93__	C26H40N7O18P3S	(2S,3S)-3-hydroxy-2-methylbutanoyl-CoA(4-)
133	129	c	-1	M_3hmrsACP__91__c__93__	C25H47N2O9PRS	(R)-3-Hydroxytetradecanoyl-[acyl-carrier protein]
134	130	c	-4	M_3hocoa__91__c__93__	C29H46N7O18P3S	(S)-3-Hydroxyoctanoyl-CoA
135	131	c	-1	M_3hoctACP__91__c__93__	C19H35N2O9PRS	(R)-3-Hydroxyoctanoyl-[acyl-carrier protein]
136	132	c	-1	M_3hoctaACP__91__c__93__	C29H55N2O9PRS	(R)-3-Hydroxyoctadecanoyl-[acyl-carrier protein]
137	133	c	-1	M_3hpalmACP__91__c__93__	C27H51N2O9PRS	R-3-hydroxypalmitoyl-[acyl-carrier protein]
138	134	c	-4	M_3htdcoa__91__c__93__	C35H58N7O18P3S	(S)-3-Hydroxytetradecanoyl-CoA
139	135	c	-2	M_3ig3p__91__c__93__	C11H12NO6P	C-(3-Indolyl)-glycerol 3-phosphate
140	136	c	-1	M_3mbutACP__91__c__93__	C16H29N2O8PRS	3-methylbutanoyl-ACP,isovaleryl-ACP
141	137	c	-1	M_3mob__91__c__93__	C5H7O3	3-methyl-2-oxobutanoate
142	138	c	-1	M_3mop__91__c__93__	C6H9O3	3-methyl-2-oxopentanoate
143	139	c	-1	M_3oddecACP__91__c__93__	C23H41N2O9PRS	3-Oxododecanoyl-[acyl-carrier protein]
144	140	c	-1	M_3odecACP__91__c__93__	C21H37N2O9PRS	3-Oxodecanoyl-[acyl-carrier protein]
145	141	c	-1	M_3ohexACP__91__c__93__	C17H29N2O9PRS	3-Oxohexanoyl-[acyl-carrier protein]
146	142	c	-1	M_3omrsACP__91__c__93__	C25H45N2O9PRS	3-Oxotetradecanoyl-[acyl-carrier protein]
147	143	c	-1	M_3ooctACP__91__c__93__	C19H33N2O9PRS	3-Oxooctanoyl-[acyl-carrier protein]
148	144	c	-1	M_3ooctdACP__91__c__93__	C29H53N2O9PRS	3-Oxooctadecanoyl-[acyl-carrier protein]
149	145	c	-1	M_3opalmACP__91__c__93__	C27H49N2O9PRS	3-Oxohexadecanoyl-[acyl-carrier protein]
150	146	c	-3	M_3pg__91__c__93__	C3H4O7P	3-Phospho-D-glycerate
151	147	c	-3	M_3php__91__c__93__	C3H2O7P	3-phosphonatooxypyruvate(3-)
152	148	c	-4	M_3psme__91__c__93__	C10H9O10P	5-O-(1-Carboxyvinyl)-3-phosphoshikimate
153	149	c	+0	M_4abut__91__c__93__	C4H9NO2	4-Aminobutanoate
154	150	c	+1	M_4abutn__91__c__93__	C4H10NO	4-Aminobutanal
155	151	c	-1	M_4abz__91__c__93__	C7H6NO2	4-Aminobenzoate
156	152	c	-1	M_4adcho__91__c__93__	C10H10NO5	4-amino-4-deoxychorismate
157	153	c	+0	M_4ahmmp__91__c__93__	C6H9N3O	4-Amino-5-hydroxymethyl-2-methylpyrimidine
158	154	c	-2	M_4ampm__91__c__93__	C6H8N3O4P	4-Amino-2-methyl-5-phosphomethylpyrimidine
159	155	c	-2	M_4c2me__91__c__93__	C14H23N3O14P2	4-(cytidine 5-diphospho)-2-C-methyl-D-erythritol
160	156	c	+0	M_4gubut__91__c__93__	C5H11N3O2	4-Guanidinobutanoate
161	157	c	+1	M_4gudbd__91__c__93__	C5H13N4O	4-Guanidinobutanamide
162	158	c	-2	M_4h2oglt__91__c__93__	C5H4O6	4-hydroxy-2-oxoglutarate(2-)
163	159	c	+0	M_4hba__91__c__93__	C7H8O2	4-Hydroxy-benzyl alcohol
164	160	c	-1	M_4hbz__91__c__93__	C7H5O3	4-hydroxybenzoate
165	161	c	+0	M_4hthr__91__c__93__	C4H9NO4	4-Hydroxy-L-threonine
166	162	c	-1	M_4m3hhexACP__91__c__93__	C18H33N2O9PRS	4-methyl-3-hydroxy-hexanoyl-ACP
167	163	c	-1	M_4m3hpentACP__91__c__93__	C17H31N2O9PRS	4-methyl-3-hydroxy-pentanoyl-ACP
168	164	c	-1	M_4m3ohexACP__91__c__93__	C18H31N2O9PRS	4-methyl-3-oxo-hexanoyl-ACP
169	165	c	-1	M_4m3opentACP__91__c__93__	C17H29N2O9PRS	4-methyl-3-oxo-pentanoyl-ACP
170	166	c	-1	M_4mhexACP__91__c__93__	C18H33N2O8PRS	4-methyl-hexanoyl-ACP
171	167	c	-1	M_4mop__91__c__93__	C6H9O3	4-methyl-2-oxopentanoate
172	168	c	-1	M_4mpentACP__91__c__93__	C17H31N2O8PRS	4-methyl-pentanoyl-ACP
173	169	c	-2	M_4mpetz__91__c__93__	C6H8NO4PS	4-Methyl-5-(2-phosphoethyl)-thiazole
174	170	c	-1	M_4mthex2eACP__91__c__93__	C18H31N2O8PRS	4-methyl-trans-hex-2-enoyl-ACP
175	171	c	-1	M_4mtpent2eACP__91__c__93__	C17H29N2O8PRS	4-methyl-trans-pent-2-enoyl-ACP
176	172	c	-2	M_4pasp__91__c__93__	C4H6NO7P	4-Phospho-L-aspartate
177	173	c	-3	M_4per__91__c__93__	C4H6O8P	4-Phospho-D-erythronate
178	174	c	-3	M_4ppan__91__c__93__	C9H15NO8P	D-4-Phosphopantothenate
179	175	c	-3	M_4ppcys__91__c__93__	C12H20N2O9PS	N-((R)-4-Phosphopantothenoyl)-L-cysteine
180	176	c	+0	M_4r5au__91__c__93__	C9H16N4O6	4-(1-D-Ribitylamino)-5-aminouracil
181	177	c	-3	M_5aizc__91__c__93__	C9H11N3O9P	5-amino-1-(5-phospho-D-ribosyl)imidazole-4-carboxylate
182	178	c	+0	M_5aop__91__c__93__	C5H9NO3	5-Amino-4-oxopentanoate
183	179	c	-2	M_5aprbu__91__c__93__	C9H15N4O9P	5-Amino-6-(5-phosphoribitylamino)uracil
184	180	c	-2	M_5apru__91__c__93__	C9H13N4O9P	5-Amino-6-(5-phosphoribosylamino)uracil
185	181	c	-2	M_5dh4dglc__91__c__93__	C6H6O7	5-Dehydro-4-deoxy-D-glucarate
186	182	c	+0	M_5drib__91__c__93__	C5H10O4	5-deoxyribose
187	183	c	-2	M_5forthf__91__c__93__	C20H22N8O6	5-Formiminotetrahydrofolate
188	184	c	-2	M_5fthf__91__c__93__	C20H21N7O7	5-formyltetrahydrofolate(2-)
189	185	c	-1	M_5m3hhexACP__91__c__93__	C18H33N2O9PRS	5-methyl-3-hydroxy-hexanoyl-ACP
190	186	c	-1	M_5m3ohexACP__91__c__93__	C18H31N2O9PRS	5-methyl-3-oxo-hexanoyl-ACP
191	187	c	-1	M_5mhexACP__91__c__93__	C18H33N2O8PRS	5-methyl-hexanoyl-ACP
192	188	c	-1	M_5mthex2eACP__91__c__93__	C18H31N2O8PRS	5-methyl-trans-hex-2-enoyl-ACP
193	189	c	-1	M_5mthf__91__c__93__	C20H24N7O6	5-Methyltetrahydrofolate
194	190	c	-2	M_5prdmbz__91__c__93__	C14H17N2O7P	N1-(5-Phospho-alpha-D-ribosyl)-5,6-dimethylbenzimidazole
195	191	c	-6	M_5thf__91__c__93__	C39H45N11O18	pentaglutamyl folate (THF)
196	192	c	+0	M_6hmhpt__91__c__93__	C7H9N5O2	6-hydroxymethyl dihydropterin
197	193	c	-3	M_6hmhptpp__91__c__93__	C7H8N5O8P2	6-hydroxymethyl-dihydropterin pyrophosphate
198	194	c	-1	M_6m3hheptACP__91__c__93__	C19H35N2O9PRS	6-methyl-3-hydroxy-heptanoyl-ACP
199	195	c	-1	M_6m3hocACP__91__c__93__	C20H37N2O9PRS	6-methyl-3-hydroxy-octanoyl-ACP
200	196	c	-1	M_6m3oheptACP__91__c__93__	C19H33N2O9PRS	6-methyl-3-oxo-heptanoyl-ACP
201	197	c	-1	M_6m3oocACP__91__c__93__	C20H35N2O9PRS	6-methyl-3-oxo-octanoyl-ACP
202	198	c	-1	M_6mheptACP__91__c__93__	C19H35N2O8PRS	6-methyl-heptanoyl-ACP
203	199	c	-1	M_6mocACP__91__c__93__	C20H37N2O8PRS	6-methyl-octanoyl-ACP
204	200	c	-1	M_6mthept2eACP__91__c__93__	C19H33N2O8PRS	6-methyl-trans-hept-2-enoyl-ACP
205	201	c	-1	M_6mtoct2eACP__91__c__93__	C20H35N2O8PRS	6-methyl-trans-oct-2-enoyl-ACP
206	202	c	-1	M_7m3hocACP__91__c__93__	C20H37N2O9PRS	7-methyl-3-hydroxy-octanoyl-ACP
207	203	c	-1	M_7m3oocACP__91__c__93__	C20H35N2O9PRS	7-methyl-3-oxo-octanoyl-ACP
208	204	c	-1	M_7mocACP__91__c__93__	C20H37N2O8PRS	7-methyl-octanoyl-ACP
209	205	c	-1	M_7mtoct2eACP__91__c__93__	C20H35N2O8PRS	7-methyl-trans-oct-2-enoyl-ACP
210	206	c	-1	M_8m3hdcaACP__91__c__93__	C22H41N2O9PRS	8-methyl-3-hydroxy-decanoyl-ACP
211	207	c	-1	M_8m3hnonACP__91__c__93__	C21H39N2O9PRS	8-methyl-3-hydroxy-nonanoyl-ACP
212	208	c	-1	M_8m3odcaACP__91__c__93__	C22H39N2O9PRS	8-methyl-3-oxo-decanoyl-ACP
213	209	c	-1	M_8m3ononACP__91__c__93__	C21H37N2O9PRS	8-methyl-3-oxo-nonanoyl-ACP
214	210	c	-1	M_8mdcaACP__91__c__93__	C22H41N2O8PRS	8-methyl-decanoyl-ACP
215	211	c	-1	M_8mnonACP__91__c__93__	C21H39N2O8PRS	8-methyl-nonanoyl-ACP
216	212	c	-1	M_8mtdec2eACP__91__c__93__	C22H39N2O8PRS	8-methyl-trans-dec-2-enoyl-ACP
217	213	c	-1	M_8mtnon2eACP__91__c__93__	C21H37N2O8PRS	8-methyl-trans-non-2-enoyl-ACP
218	214	c	-1	M_9m3hdcaACP__91__c__93__	C22H41N2O9PRS	9-methyl-3-hydroxy-decanoyl-ACP
219	215	c	-1	M_9m3odcaACP__91__c__93__	C22H39N2O9PRS	9-methyl-3-oxo-decanoyl-ACP
220	216	c	-1	M_9mdcaACP__91__c__93__	C22H41N2O8PRS	9-methyl-decanoyl-ACP
221	217	c	-1	M_9mtdec2eACP__91__c__93__	C22H39N2O8PRS	9-methyl-trans-dec-2-enoyl-ACP
222	218	c	-1	M_ACP__91__c__93__	C11H21N2O7PRS	acyl carrier protein
223	219	c	-2	M_HC01104__91__c__93__	C6H4NO6P	4-nitrophenyl phosphate(2-)
224	220	c	-3	M_HC01434__91__c__93__	C6H3O7	oxalatosuccinate(3-)
225	221	c	-8	M_HC01609__91__c__93__	C40H36N4O16	UroporphyrinogenI
226	222	c	-4	M_HC01651__91__c__93__	C10H14N5O15P3	Formamidopyrimidine nucleoside triphosphate
227	223	c	-4	M_HC01652__91__c__93__	C9H14N5O14P3	2,5-Diaminopyrimidine nucleoside triphosphate
228	224	c	-4	M_HC01710__91__c__93__	C9H14N5O14P3	2,5-Diamino-6-(5-triphosphoryl-3,4-trihydroxy-2-oxopentyl)- amino-4-oxopyrimidine
229	225	c	-1	M_Largn__91__c__93__	C10H12NO5	L-Arogenate
230	226	c	-1	M_Lcyst__91__c__93__	C3H6NO5S	L-cysteate(1-)
231	227	c	+0	M_M00512__91__c__93__	C6H8O4R2	1-Alkenyl-2-acylglycerol
232	228	c	-2	M_Nacasp__91__c__93__	C6H7NO5	N-acetyl-L-aspartate(2-)
233	229	c	+0	M_Naccitr_L__91__c__93__	C8H15N3O4	N-Acetyl-L-citrulline
234	230	c	+0	M_PGP__91__c__93__	C39H64N8O19X	Peptidoglycan polymer (n subunits)
235	231	c	+0	M_PGPm1__91__c__93__	X	Peptidoglycan polymer (n-1 subunits)
236	232	c	+0	M_aa__91__c__93__	C3H5NO	Acrylamide
237	233	c	-4	M_aacoa__91__c__93__	C25H36N7O18P3S	Acetoacetyl-CoA
238	234	c	+0	M_abt__91__c__93__	C5H12O5	L-arabinitol
239	235	c	-1	M_acACP__91__c__93__	C13H23N2O8PRS	Acetyl-ACP
240	236	c	-1	M_ac__91__c__93__	C2H3O2	acetate
241	237	c	-2	M_acaadpdp__91__c__93__	C8H12NO8P	N2-Acetyl-L-aminoadipyl-delta-phosphate
242	238	c	-1	M_acaadpsal__91__c__93__	C8H12NO4	N2-Acetyl-L-aminoadipate semialdehyde
243	239	c	-1	M_acac__91__c__93__	C4H5O3	acetoacetate
244	240	c	+0	M_acald__91__c__93__	C2H4O	acetaldehyde
245	241	c	-4	M_accoa__91__c__93__	C23H34N7O17P3S	Acetyl-CoA
246	242	c	-2	M_acgam1p__91__c__93__	C8H14NO9P	N-Acetyl-D-glucosamine 1-phosphate
247	243	c	+0	M_acgam__91__c__93__	C8H15NO6	N-acetyl-D-glucosamine
248	244	c	+0	M_achms__91__c__93__	C6H11NO4	O-Acetyl-L-homoserine
249	245	c	-3	M_acon_C__91__c__93__	C6H3O6	cis-Aconitate
250	246	c	+0	M_acorn__91__c__93__	C7H14N2O3	N(2)-acetyl-L-ornithine
251	247	c	-1	M_acryl__91__c__93__	C3H3O2	acrylate
252	248	c	+0	M_acser__91__c__93__	C5H9NO4	O-Acetyl-L-serine
253	249	c	-1	M_actACP__91__c__93__	C15H25N2O9PRS	Acetoacetyl-ACP
254	250	c	-2	M_actp__91__c__93__	C2H3O5P	Acetyl phosphate
255	251	c	+0	M_ad__91__c__93__	C2H5NO	Acetamide
256	252	c	+0	M_ade__91__c__93__	C5H5N5	Adenine
257	253	c	+0	M_adn__91__c__93__	C10H13N5O4	Adenosine
258	254	c	+1	M_adocbi__91__c__93__	C58H84CoN16O11	Adenosyl cobinamide
259	255	c	-1	M_adocbip__91__c__93__	C58H83CoN16O14P	Adenosyl cobinamide phosphate
260	256	c	+0	M_adocbl__91__c__93__	C72H100CoN18O17P	Adenosylcobalamin
261	257	c	-3	M_adp__91__c__93__	C10H12N5O10P2	ADP
262	258	c	-2	M_adphep_DD__91__c__93__	C17H25N5O16P2	ADP-D-glycero-D-manno-heptose
263	259	c	-2	M_adphep_LD__91__c__93__	C17H25N5O16P2	ADP-L-glycero-D-manno-heptose
264	260	c	-2	M_adprib__91__c__93__	C15H21N5O14P2	ADPribose
265	261	c	-1	M_agdpcbi__91__c__93__	C68H95CoN21O21P2	Adenosine-GDP-cobinamide
266	262	c	+2	M_agm__91__c__93__	C5H16N4	agmatinium(2+)
267	263	c	+0	M_ahcys__91__c__93__	C14H20N6O5S	S-Adenosyl-L-homocysteine
268	264	c	-4	M_ahdt__91__c__93__	C9H12N5O13P3	7,8-dihydroneopterin 3-triphosphate(4-)
269	265	c	-2	M_aicar__91__c__93__	C9H13N4O8P	5-Amino-1-(5-Phospho-D-ribosyl)imidazole-4-carboxamide
270	266	c	-4	M_aihpdcoa__91__c__93__	C38H64N7O17P3S	fa12coa,Anteiso-C17:0 CoA   Anteisoheptadecanoyl-CoA
271	267	c	-4	M_aipdcoa__91__c__93__	C36H60N7O17P3S	fa4coa,Anteiso-C15:0 CoA   Anteisopentadecanoyl-CoA
272	268	c	-2	M_air__91__c__93__	C8H12N3O7P	5-amino-1-(5-phospho-D-ribosyl)imidazole
273	269	c	-2	M_akg__91__c__93__	C5H4O5	2-Oxoglutarate
274	270	c	+0	M_ala_B__91__c__93__	C3H7NO2	beta-alanine
275	271	c	+0	M_ala_D__91__c__93__	C3H7NO2	D-alanine
276	272	c	+0	M_ala_L__91__c__93__	C3H7NO2	L-alanine
277	273	c	+0	M_alaala__91__c__93__	C6H12N2O3	D-Alanyl-D-alanine
278	274	c	-1	M_alaasp__91__c__93__	C7H11N2O5	L-alanyl-L-aspartate
279	275	c	-1	M_alac_S__91__c__93__	C5H7O4	(S)-2-Acetolactate
280	276	c	+0	M_alagln__91__c__93__	C8H15N3O4	L-alanyl-L-glutamine
281	277	c	-1	M_alaglu__91__c__93__	C8H13N2O5	L-alanyl-L-glutamate
282	278	c	+0	M_alagly__91__c__93__	C5H10N2O3	L-alanylglycine
283	279	c	+0	M_alahis__91__c__93__	C9H14N4O3	L-alanyl-L-histidine
284	280	c	+0	M_alaleu__91__c__93__	C9H18N2O3	L-alanyl-L-leucine
285	281	c	+0	M_alathr__91__c__93__	C7H14N2O4	L-alanyl-L-threonine
286	282	c	+1	M_alpro__91__c__93__	CH6NS2X	S-Aminomethyldihydrolipoylprotein
287	283	c	+1	M_amet__91__c__93__	C15H23N6O5S	S-Adenosyl-L-methionine
288	284	c	-2	M_amp__91__c__93__	C10H12N5O7P	AMP
289	285	c	-1	M_anth__91__c__93__	C7H6NO2	anthranilate
290	286	c	+0	M_apoACP__91__c__93__	RHO	apoprotein [acyl carrier protein]
291	287	c	+0	M_apoC_Lys_btn__91__c__93__	C16H27N4O3SX	Holocarboxylase (biotin covalent bound to Lys residue of apoC)
292	288	c	-2	M_aps__91__c__93__	C10H12N5O10PS	5-adenylyl sulfate(2-)
293	289	c	-2	M_ara5p__91__c__93__	C5H9O8P	D-Arabinose 5-phosphate
294	290	c	+0	M_arab_L__91__c__93__	C5H10O5	L-arabinose
295	291	c	+1	M_arg_L__91__c__93__	C6H15N4O2	L-argininium(1+)
296	292	c	-1	M_argsuc__91__c__93__	C10H17N4O6	N(omega)-(L-Arginino)succinate
297	293	c	+0	M_asn_L__91__c__93__	C4H8N2O3	L-asparagine
298	294	c	-1	M_asp_L__91__c__93__	C4H6NO4	L-aspartate(1-)
299	295	c	+0	M_aspsa__91__c__93__	C4H7NO3	L-Aspartate 4-semialdehyde
300	296	c	-4	M_atp__91__c__93__	C10H12N5O13P3	ATP
301	297	c	-4	M_b2coa__91__c__93__	C25H36N7O17P3S	crotonoyl-CoA(4-)
302	298	c	-3	M_bbtcoa__91__c__93__	C28H46N8O17P3S	gamma-butyrobetainyl-CoA
303	299	c	+0	M_biomass__91__c__93__	X	Produced biomass
304	300	c	+0	M_btal__91__c__93__	C4H8O	Butanal
305	301	c	-1	M_btn__91__c__93__	C10H15N2O3S	Biotin
306	302	c	-1	M_btn_co2__91__c__93__	C17H26N4O5SX	Carboxybiotin-carboxyl-carrier protein
307	303	c	-1	M_btnso__91__c__93__	C10H15N2O4S	d-biotin d-sulfoxide
308	304	c	+0	M_btoh__91__c__93__	C4H10O	butanol
309	305	c	-1	M_but2eACP__91__c__93__	C15H25N2O8PRS	But-2-enoyl-[acyl-carrier protein]
310	306	c	-1	M_butACP__91__c__93__	C15H27N2O8PRS	Butyryl-ACP (n-C4:0ACP)
311	307	c	-1	M_butso3__91__c__93__	C4H9O3S	butanesulfonate
312	308	c	-1	M_bz__91__c__93__	C7H5O2	benzoate
313	309	c	+0	M_bzam__91__c__93__	C7H7NO	Benzamide
314	310	c	+2	M_ca2__91__c__93__	Ca	calcium(2+)
315	311	c	-2	M_cbasp__91__c__93__	C5H6N2O5	N-Carbamoyl-L-aspartate
316	312	c	+0	M_cbi__91__c__93__	C48H72CoN11O8	Cobinamide
317	313	c	-2	M_cbp__91__c__93__	CH2NO5P	Carbamoyl phosphate
318	314	c	+2	M_cd2__91__c__93__	Cd	Cadmium
319	315	c	-1	M_cddec5eACP__91__c__93__	C23H41N2O8PRS	cis-dodec-5-enoyl-[acyl-carrier protein] (n-C12:1)
320	316	c	-3	M_cdp__91__c__93__	C9H12N3O11P2	CDP
321	317	c	-2	M_cdpdaihpdecg__91__c__93__	C46H83N3O15P2	CDP-1,2-dianteisoheptadecanoylglycerol (14-methyl-hexadecanoyl, anteiso-C17)
322	318	c	-2	M_cdpdaipdecg__91__c__93__	C42H75N3O15P2	CDP-1,2-dianteisopentadecanoylglycerol (12-methyl-tetradecanoyl, anteiso-C15)
323	319	c	-2	M_cdpdddecg__91__c__93__	C36H63N3O15P2	CDP-1,2-didodecanoylglycerol
324	320	c	-2	M_cdpdhdec9eg__91__c__93__	C44H75N3O15P2	CDP-1,2-dihexadec-9-enoylglycerol
325	321	c	-2	M_cdpdhdecg__91__c__93__	C44H79N3O15P2	CDP-1,2-dihexadecanoylglycerol
326	322	c	-2	M_cdpdihdecg__91__c__93__	C44H79N3O15P2	CDP-1,2-diisohexadecanoylglycerol (14-methyl-pentadecanoyl, iso-C16)
327	323	c	-2	M_cdpdihpdecg__91__c__93__	C46H83N3O15P2	CDP-1,2-diisoheptadecanoylglycerol (15-methyl-hexadecanoyl, iso-C17)
328	324	c	-2	M_cdpdipdecg__91__c__93__	C42H75N3O15P2	CDP-1,2-diisopentadecanoylglycerol (13-methyl-tetradecanoyl, iso-C15)
329	325	c	-2	M_cdpditdecg__91__c__93__	C40H71N3O15P2	CDP-1,2-diisotetradecanoylglycerol (12-methyl-tridecanoyl, iso-C14)
330	326	c	-2	M_cdpdodec11eg__91__c__93__	C48H83N3O15P2	CDP-1,2-dioctadec-11-enoylglycerol
331	327	c	-2	M_cdpdodecg__91__c__93__	C48H87N3O15P2	CDP-1,2-dioctadecanoylglycerol
332	328	c	-2	M_cdpdtdec7eg__91__c__93__	C40H67N3O15P2	CDP-1,2-ditetradec-7-enoylglycerol
333	329	c	-2	M_cdpdtdecg__91__c__93__	C40H71N3O15P2	CDP-1,2-ditetradecanoylglycerol
334	330	c	-1	M_cdpea__91__c__93__	C11H19N4O11P2	CDP-ethanolamine(1-)
335	331	c	+0	M_cgly__91__c__93__	C5H10N2O3S	L-cysteinylglycine
336	332	c	+1	M_chol__91__c__93__	C5H14NO	Choline
337	333	c	-2	M_chor__91__c__93__	C10H8O6	chorismate
338	334	c	+0	M_chtbs__91__c__93__	C16H28N2O11	N,N-diacetylchitobiose
339	335	c	-3	M_cit__91__c__93__	C6H5O7	Citrate
340	336	c	+0	M_citr_L__91__c__93__	C6H13N3O3	L-citrulline
341	337	c	-2	M_ckdo__91__c__93__	C17H24N3O15P	CMP-3-deoxy-D-manno-octulosonate
342	338	c	-1	M_cl__91__c__93__	Cl	Chloride
343	339	c	-2	M_clpn180__91__c__93__	C81H156O17P2	cardiolipin (tetraoctadecanoyl, n-C18:0)
344	340	c	-2	M_clpnai17__91__c__93__	C77H148O17P2	cardiolipin (14-methyl-hexadecanoyl, anteiso-C17)
345	341	c	-2	M_clpni17__91__c__93__	C77H148O17P2	cardiolipin (15-methyl-hexadecanoyl, iso-C17)
346	342	c	-2	M_cmp__91__c__93__	C9H12N3O8P	CMP
347	343	c	+0	M_co2__91__c__93__	CO2	carbon dioxide
348	344	c	-4	M_coa__91__c__93__	C21H32N7O16P3S	Coenzyme A
349	345	c	+2	M_cobalt2__91__c__93__	Co	Co2+
350	346	c	-6	M_cobya__91__c__93__	C45H52N4O14Co	Cobyrinate
351	347	c	-11	M_colipa__91__c__93__	C176H303N2O100P4	core oligosaccharide lipid A
352	348	c	-6	M_copre8__91__c__93__	C45H52N4O14Co	cobalt-precorrin 8
353	349	c	-4	M_cpppg1__91__c__93__	C36H40N4O8	Coproporphyrinogen I
354	350	c	-4	M_cpppg3__91__c__93__	C36H40N4O8	Coproporphyrinogen III
355	351	c	+0	M_crn__91__c__93__	C7H15NO3	L-Carnitine
356	352	c	-3	M_crncoa__91__c__93__	C28H46N8O18P3S	L-Carnitinyl-CoA
357	353	c	+0	M_csn__91__c__93__	C4H5N3O	cytosine
358	354	c	+0	M_ctbt__91__c__93__	C7H13NO2	crotonobetaine
359	355	c	-3	M_ctbtcoa__91__c__93__	C28H44N8O17P3S	crotonobetainyl-CoA
360	356	c	-4	M_ctp__91__c__93__	C9H12N3O14P3	CTP
361	357	c	+2	M_cu2__91__c__93__	Cu	Cu2+
362	358	c	+0	M_cyan__91__c__93__	CHN	hydrogen cyanide
363	359	c	+0	M_cys_L__91__c__93__	C3H7NO2S	L-cysteine
364	360	c	+0	M_cytd__91__c__93__	C9H13N3O5	Cytidine
365	361	c	+0	M_dad_2__91__c__93__	C10H13N5O3	2-deoxyadenosine
366	362	c	+0	M_dad_5__91__c__93__	C10H13N5O3	5-Deoxyadenosine
367	363	c	-3	M_dadp__91__c__93__	C10H12N5O9P2	dADP
368	364	c	-2	M_damp__91__c__93__	C10H12N5O6P	dAMP(2-)
369	365	c	-4	M_datp__91__c__93__	C10H12N5O12P3	dATP
370	366	c	-2	M_db4p__91__c__93__	C4H7O6P	3,4-dihydroxy-2-butanone 4-phosphate
371	367	c	-4	M_dc2coa__91__c__93__	C31H48N7O17P3S	trans-Dec-2-enoyl-CoA
372	368	c	-1	M_dcaACP__91__c__93__	C21H39N2O8PRS	Decanoyl-ACP (n-C10:0ACP)
373	369	c	-4	M_dcamp__91__c__93__	C14H14N5O11P	N6-(1,2-Dicarboxyethyl)-AMP
374	370	c	-3	M_dcdp__91__c__93__	C9H12N3O10P2	dCDP
375	371	c	-2	M_dcmp__91__c__93__	C9H12N3O7P	dCMP
376	372	c	-4	M_dctp__91__c__93__	C9H12N3O13P3	dCTP
377	373	c	+0	M_dcyt__91__c__93__	C9H13N3O4	Deoxycytidine
378	374	c	-4	M_dd2coa__91__c__93__	C33H52N7O17P3S	trans-Dodec-2-enoyl-CoA
379	375	c	-1	M_ddcaACP__91__c__93__	C23H43N2O8PRS	Dodecanoyl-ACP (n-C12:0ACP)
380	376	c	-1	M_ddca__91__c__93__	C12H23O2	laurate
381	377	c	-3	M_dgdp__91__c__93__	C10H12N5O10P2	dGDP
382	378	c	-2	M_dgmp__91__c__93__	C10H12N5O7P	dGMP
383	379	c	+0	M_dgsn__91__c__93__	C10H13N5O4	Deoxyguanosine
384	380	c	-4	M_dgtp__91__c__93__	C10H12N5O13P3	dGTP
385	381	c	-1	M_dh6na__91__c__93__	C11H7O4	1,4-dihydroxy-6-naphthoate
386	382	c	+0	M_dha__91__c__93__	C3H6O3	glycerone
387	383	c	-2	M_dhap__91__c__93__	C3H5O6P	Dihydroxyacetone phosphate
388	384	c	+0	M_dhbpt__91__c__93__	C9H13N5O3	6,7-dihydrobiopterin
389	385	c	-2	M_dhf__91__c__93__	C19H19N7O6	7,8-Dihydrofolate
390	386	c	+0	M_dhlpro__91__c__93__	H2S2X	Dihydrolipolprotein
391	387	c	-1	M_dhna__91__c__93__	C11H7O4	1,4-Dihydroxy-2-naphthoate
392	388	c	+0	M_dhnpt__91__c__93__	C9H13N5O4	Dihydroneopterin
393	389	c	-1	M_dhor_S__91__c__93__	C5H5N2O4	(S)-dihydroorotate
394	390	c	-1	M_dhpt__91__c__93__	C14H13N6O3	Dihydropteroate
395	391	c	+0	M_dhptd__91__c__93__	C5H8O4	4,5-dihydroxy-2,3-pentanedione
396	392	c	+0	M_din__91__c__93__	C10H12N4O4	Deoxyinosine
397	393	c	+0	M_dmbzid__91__c__93__	C9H10N2	5,6-Dimethylbenzimidazole
398	394	c	+0	M_dmlz__91__c__93__	C13H18N4O6	6,7-Dimethyl-8-(1-D-ribityl)lumazine
399	395	c	+0	M_dmphqno__91__c__93__	C30H44O2	Demethylphylloquinone
400	396	c	-3	M_dmpp__91__c__93__	C5H9O7P2	Dimethylallyl diphosphate
401	397	c	+0	M_dms__91__c__93__	C2H6S	Dimethyl sulfide
402	398	c	+0	M_dmso__91__c__93__	C2H6OS	Dimethyl sulfoxide
403	399	c	-2	M_dnad__91__c__93__	C21H24N6O15P2	Deamino-NAD+
404	400	c	+0	M_dnarep__91__c__93__	X	DNA replication
405	401	c	-2	M_dpcoa__91__c__93__	C21H33N7O13P2S	Dephospho-CoA
406	402	c	-1	M_dtbt__91__c__93__	C10H17N2O3	Dethiobiotin
407	403	c	-2	M_dtdp4d6dg__91__c__93__	C16H22N2O15P2	dTDP-4-dehydro-6-deoxy-alpha-D-glucose(2-)
408	404	c	-2	M_dtdp4d6dm__91__c__93__	C16H22N2O15P2	dTDP-4-dehydro-6-deoxy-L-mannose(2-)
409	405	c	-3	M_dtdp__91__c__93__	C10H13N2O11P2	dTDP
410	406	c	-2	M_dtdpglu__91__c__93__	C16H24N2O16P2	dTDP-glucose(2-)
411	407	c	-2	M_dtdprmn__91__c__93__	C16H24N2O15P2	dTDP-L-rhamnose
412	408	c	-2	M_dtmp__91__c__93__	C10H13N2O8P	dTMP
413	409	c	-4	M_dttp__91__c__93__	C10H13N2O14P3	dTTP
414	410	c	-3	M_dudp__91__c__93__	C9H11N2O11P2	dUDP
415	411	c	-2	M_dump__91__c__93__	C9H11N2O8P	dUMP
416	412	c	+0	M_duri__91__c__93__	C9H12N2O5	Deoxyuridine
417	413	c	-4	M_dutp__91__c__93__	C9H11N2O14P3	dUTP
418	414	c	-2	M_dxyl5p__91__c__93__	C5H9O7P	1-deoxy-D-xylulose 5-phosphate
419	415	c	-1	M_e4hglu__91__c__93__	C5H8NO5	erythro-4-hydroxy-L-glutamate(1-)
420	416	c	-2	M_e4p__91__c__93__	C4H7O7P	D-Erythrose 4-phosphate
421	417	c	-2	M_eig3p__91__c__93__	C6H9N2O6P	D-erythro-1-(Imidazol-4-yl)glycerol 3-phosphate
422	418	c	+1	M_etha__91__c__93__	C2H8NO	etha[c]
423	419	c	-1	M_ethamp__91__c__93__	C2H7NO4P	O-phosphonatoethanaminium(1-)
424	420	c	-1	M_ethso3__91__c__93__	C2H5O3S	ethanesulfonate
425	421	c	-2	M_f1p__91__c__93__	C6H11O9P	D-Fructose 1-phosphate
426	422	c	-2	M_f6p__91__c__93__	C6H11O9P	D-Fructose 6-phosphate
427	423	c	-1	M_fa11__91__c__93__	C17H33O2	Fatty acid (Iso-C17:0)
428	424	c	-1	M_fa12__91__c__93__	C17H33O2	Fatty acid (Anteiso-C17:0)
429	425	c	-1	M_fa1__91__c__93__	C14H27O2	Fatty acid (Iso-C14:0)
430	426	c	-1	M_fa3__91__c__93__	C15H29O2	Fatty acid (Iso-C15:0)
431	427	c	-1	M_fa4__91__c__93__	C15H29O2	Fatty acid (Anteiso-C15:0)
432	428	c	-1	M_fa6__91__c__93__	C16H31O2	Fatty acid (iso-C16:0)
433	429	c	-2	M_fad__91__c__93__	C27H31N9O15P2	Flavin adenine dinucleotide oxidized
434	430	c	-2	M_fadh2__91__c__93__	C27H33N9O15P2	Flavin adenine dinucleotide reduced
435	431	c	+0	M_fald__91__c__93__	CH2O	formaldehyde
436	432	c	-4	M_fdp__91__c__93__	C6H10O12P2	D-Fructose 1,6-bisphosphate
437	433	c	+0	M_fdxox__91__c__93__	X	Oxidized ferredoxin
438	434	c	+0	M_fdxrd__91__c__93__	XH2	Reduced ferredoxin
439	435	c	+2	M_fe2__91__c__93__	Fe	Fe2+
440	436	c	+3	M_fe3__91__c__93__	Fe	Fe3+
441	437	c	-2	M_fgam__91__c__93__	C8H13N2O9P	N2-Formyl-N1-(5-phospho-D-ribosyl)glycinamide
442	438	c	+3	M_ficytC__91__c__93__	C42H54FeN8O6S2	Ferricytochrome c
443	439	c	-2	M_fmn__91__c__93__	C17H19N4O9P	FMN
444	440	c	+2	M_focytC__91__c__93__	C42H54FeN8O6S2	Ferrocytochrome C
445	441	c	-1	M_fol__91__c__93__	C19H18N7O6	Folate
446	442	c	-1	M_for__91__c__93__	CH1O2	Formate
447	443	c	-2	M_forglu__91__c__93__	C6H8N2O4	N-Formimidoyl-L-glutamate
448	444	c	-1	M_fpram__91__c__93__	C8H15N3O8P	2-(Formamido)-N1-(5-phospho-D-ribosyl)acetamidine
449	445	c	-2	M_fprica__91__c__93__	C10H13N4O9P	5-Formamido-1-(5-phospho-D-ribosyl)imidazole-4-carboxamide
450	446	c	-3	M_frdp__91__c__93__	C15H25O7P2	Farnesyl diphosphate
451	447	c	+0	M_frmd__91__c__93__	CH3NO	Formamide
452	448	c	+0	M_fru__91__c__93__	C6H12O6	D-Fructose
453	449	c	-2	M_fum__91__c__93__	C4H2O4	Fumarate
454	450	c	-2	M_g1p__91__c__93__	C6H11O9P	D-Glucose 1-phosphate
455	451	c	-2	M_g3p__91__c__93__	C3H5O6P	Glyceraldehyde 3-phosphate
456	453	c	-2	M_g6p_B__91__c__93__	C6H11O9P	beta-D-glucose 6-phosphate
457	452	c	-2	M_g6p__91__c__93__	C6H11O9P	D-Glucose 6-phosphate
458	454	c	-11	M_gagicolipa__91__c__93__	C157H271N2O84P4	galactosyl-glucosyl-inner core oligosaccharide lipid A
459	455	c	-2	M_galct_D__91__c__93__	C6H8O8	D-Galactarate
460	456	c	-1	M_gam1p__91__c__93__	C6H13NO8P	D-Glucosamine 1-phosphate
461	457	c	-1	M_gam6p__91__c__93__	C6H13NO8P	D-Glucosamine 6-phosphate
462	458	c	-1	M_gar__91__c__93__	C7H14N2O8P	N1-(5-Phospho-D-ribosyl)glycinamide
463	459	c	+0	M_gbbtn__91__c__93__	C7H15NO2	gamma-butyrobetaine
464	460	c	+0	M_gcald__91__c__93__	C2H4O2	glycolaldehyde
465	461	c	-3	M_gdp__91__c__93__	C10H12N5O11P2	GDP
466	462	c	-2	M_gdpddman__91__c__93__	C16H21N5O15P2	GDP-4-dehydro-6-deoxy-alpha-D-mannose(2-)
467	463	c	-2	M_gdpmann__91__c__93__	C16H23N5O16P2	GDP-alpha-D-mannose(2-)
468	464	c	-7	M_gdptp__91__c__93__	C10H11N5O20P5	Guanosine 3-diphosphate 5-triphosphate
469	465	c	-1	M_gg4abut__91__c__93__	C9H15O5N2	gamma-glutamyl-gamma aminobutyric acid
470	466	c	-11	M_ggagicolipa__91__c__93__	C163H281N2O89P4	glucosyl-galactosyl-glucosyl-inner core oligosaccharide lipid A
471	467	c	+0	M_ggbutal__91__c__93__	C9H16O4N2	gamma-glutamyl-gamma-butyraldehyde
472	468	c	-3	M_ggdp__91__c__93__	C20H33O7P2	2-trans,6-trans,10-trans-geranylgeranyl diphosphate(3-)
473	469	c	-11	M_gggagicolipa__91__c__93__	C169H291N2O94P4	glucosyl-glucosyl-galactosyl-glucosyl-inner core oligosaccharide lipid A
474	470	c	-11	M_gicolipa__91__c__93__	C151H261N2O79P4	glucosyl-inner core oligosaccharide lipid A
475	471	c	+0	M_glc_D__91__c__93__	C6H12O6	D-glucose
476	472	c	+0	M_gln_L__91__c__93__	C5H10N2O3	L-glutamine
477	473	c	+0	M_glu1sa__91__c__93__	C5H9NO3	L-Glutamate 1-semialdehyde
478	474	c	-2	M_glu5p__91__c__93__	C5H8NO7P	L-Glutamate 5-phosphate
479	475	c	+0	M_glu5sa__91__c__93__	C5H9NO3	L-Glutamate 5-semialdehyde
480	476	c	-1	M_glu_D__91__c__93__	C5H8NO4	D-Glutamate
481	477	c	-1	M_glu_L__91__c__93__	C5H8NO4	L-glutamate(1-)
482	478	c	+0	M_glutrna__91__c__93__	C5H7NO3R	L-Glutamyl-tRNA(Glu)
483	479	c	-1	M_glx__91__c__93__	C2H1O3	glyoxylate
484	480	c	+0	M_gly__91__c__93__	C2H5NO2	Glycine
485	481	c	+0	M_glyald__91__c__93__	C3H6O3	D-Glyceraldehyde
486	482	c	+0	M_glyasn__91__c__93__	C6H11N3O4	Glycyl-L-asparagine
487	483	c	-1	M_glyasp__91__c__93__	C6H9N2O5	Glycyl-L-aspartate
488	484	c	-2	M_glyc3p__91__c__93__	C3H7O6P	Glycerol 3-phosphate
489	486	c	-1	M_glyc_R__91__c__93__	C3H5O4	D-glycerate
490	485	c	+0	M_glyc__91__c__93__	C3H8O3	Glycerol
491	487	c	-1	M_glyclt__91__c__93__	C2H3O3	glycolate
492	488	c	+0	M_glycys__91__c__93__	C5H10N2O3S	Gly-Cys
493	489	c	+0	M_glygln__91__c__93__	C7H13N3O4	Glycyl-L-glutamine
494	490	c	-1	M_glyglu__91__c__93__	C7H11N2O5	Glycyl-L-glutamate
495	491	c	+0	M_glyleu__91__c__93__	C8H16N2O3	Glycylleucine
496	492	c	+0	M_glymet__91__c__93__	C7H14N2O3S	Glycyl-L-methionine
497	493	c	+0	M_glyphe__91__c__93__	C11H14N2O3	Glycylphenylalanine
498	494	c	+0	M_glypro__91__c__93__	C7H12N2O3	Glycylproline
499	495	c	+0	M_glytyr__91__c__93__	C11H14N2O4	Glycyl-L-tyrosine
500	496	c	-4	M_gmhep17bp__91__c__93__	C7H12O13P2	D-Glycero-D-manno-heptose 1,7-bisphosphate
501	497	c	-2	M_gmhep1p__91__c__93__	C7H13O10P	D-Glycero-D-manno-heptose 1-phosphate
502	498	c	-2	M_gmhep7p__91__c__93__	C7H13O10P	D-Glycero-D-manno-heptose 7-phosphate
503	499	c	-2	M_gmp__91__c__93__	C10H12N5O8P	GMP
504	500	c	-3	M_grdp__91__c__93__	C10H17O7P2	Geranyl diphosphate
505	501	c	+0	M_gsn__91__c__93__	C10H13N5O5	Guanosine
506	502	c	-2	M_gthox__91__c__93__	C20H30N6O12S2	Oxidized glutathione
507	503	c	-1	M_gthrd__91__c__93__	C10H16N3O6S	Reduced glutathione
508	504	c	-4	M_gtp__91__c__93__	C10H12N5O14P3	GTP
509	505	c	+0	M_gua__91__c__93__	C5H5N5O	Guanine
510	506	c	+0	M_h2__91__c__93__	H2	Hydrogen
511	507	c	-3	M_h2mb4p__91__c__93__	C5H9O8P2	1-hydroxy-2-methyl-2-(E)-butenyl 4-diphosphate
512	508	c	+0	M_h2o2__91__c__93__	H2O2	Hydrogen peroxide
513	509	c	+0	M_h2s__91__c__93__	H2S	Hydrogen sulfide
514	510	c	+1	M_h__91__c__93__	H	proton
515	511	c	-1	M_hco3__91__c__93__	CHO3	Bicarbonate
516	512	c	+0	M_hcys_L__91__c__93__	C4H9NO2S	L-homocysteine
517	513	c	-1	M_hdca__91__c__93__	C16H31O2	Hexadecanoate (n-C16:0)
518	514	c	-1	M_hdcea__91__c__93__	C16H29O2	Hexadecenoate (n-C16:1)
519	515	c	-4	M_hdcoa__91__c__93__	C37H60N7O17P3S	Hexadecenoyl-CoA (n-C16:1CoA)
520	516	c	-4	M_hdd2coa__91__c__93__	C37H60N7O17P3S	trans-Hexadec-2-enoyl-CoA
521	517	c	-1	M_hdeACP__91__c__93__	C27H49N2O8PRS	cis-hexadec-9-enoyl-[acyl-carrier protein] (n-C16:1)
522	518	c	-3	M_hepdp__91__c__93__	C35H57O7P2	all-trans-Heptaprenyl diphosphate
523	519	c	-2	M_hethmpp__91__c__93__	C14H20N4O8P2S	Hydroxy ethyl Thiamin diphosphate
524	520	c	-1	M_hexACP__91__c__93__	C17H31N2O8PRS	Hexanoyl-ACP (n-C6:0ACP)
525	521	c	-3	M_hexdp__91__c__93__	C30H49O7P2	all-trans-Hexaprenyl diphosphate
526	522	c	-1	M_hexs__91__c__93__	C6H13O3S	hexanesulfonate
527	523	c	+2	M_hg2__91__c__93__	Hg	Hg2+
528	524	c	-6	M_hgbyr__91__c__93__	C45H54N4O14	Hydrogenobyrinate
529	525	c	-6	M_hhlipa__91__c__93__	C124H220N2O51P2	heptosyl-heptosyl-kdo2-lipidA
530	526	c	+0	M_his_L__91__c__93__	C6H9N3O2	L-histidine
531	527	c	-1	M_hisp__91__c__93__	C6H11N3O4P	L-Histidinol phosphate
532	528	c	+1	M_histd__91__c__93__	C6H12N3O	L-Histidinol
533	529	c	+1	M_histl_L__91__c__93__	C6H10N3O	L-Histidinal
534	530	c	-6	M_hlipa__91__c__93__	C117H208N2O45P2	heptosyl-kdo2-lipidA
535	531	c	-8	M_hmbil__91__c__93__	C40H38N4O17	Hydroxymethylbilane
536	532	c	+0	M_hom_L__91__c__93__	C4H9NO3	L-homoserine
537	533	c	-8	M_hphhlipa__91__c__93__	C131H231N2O60P3	heptosyl-phospho-heptosyl-heptosyl-kdo2-lipidA
538	534	c	+0	M_hxan__91__c__93__	C5H4N4O	Hypoxanthine
539	535	c	-4	M_ibcoa__91__c__93__	C25H38N7O17P3S	isobutyryl-CoA(4-)
540	536	c	-3	M_icit__91__c__93__	C6H5O7	Isocitrate
541	537	c	-11	M_icolipa__91__c__93__	C145H251N2O74P4	inner core oligosaccharide lipid A (E coli)
542	538	c	-3	M_idp__91__c__93__	C10H11N4O11P2	IDP(3-)
543	539	c	-4	M_ihdcoa__91__c__93__	C37H62N7O17P3S	fa6coa,Iso-C16:0 CoA   Isohexadecanoyl-CoA
544	540	c	-4	M_ihpdcoa__91__c__93__	C38H64N7O17P3S	fa11coa, Iso-C17:0 CoA   Isoheptadecanoyl-CoA
545	541	c	+0	M_ile_L__91__c__93__	C6H13NO2	L-isoleucine
546	542	c	-2	M_imacp__91__c__93__	C6H7N2O5P	3-(Imidazol-4-yl)-2-oxopropyl phosphate
547	543	c	-2	M_imp__91__c__93__	C10H11N4O8P	IMP
548	544	c	-1	M_ind3ac__91__c__93__	C10H8NO2	indole-3-acetate
549	545	c	+0	M_ind3acam__91__c__93__	C10H10N2O	Indole-3-acetamide
550	546	c	+0	M_indole__91__c__93__	C8H7N	Indole
551	547	c	-1	M_indpyr__91__c__93__	C11H8NO3	Indolepyruvate
552	548	c	+0	M_ins__91__c__93__	C10H12N4O5	Inosine
553	549	c	-4	M_ipdcoa__91__c__93__	C36H60N7O17P3S	fa3coa,Iso-C15:0 CoA   Isopentadecanoyl-CoA
554	550	c	-3	M_ipdp__91__c__93__	C5H9O7P2	Isopentenyl diphosphate
555	551	c	-1	M_isetac__91__c__93__	C2H5O4S	Isethionic acid
556	552	c	-4	M_itdcoa__91__c__93__	C35H58N7O17P3S	fa1coa,Iso-C14:0 CoA   Isotetradecanoyl-CoA
557	553	c	-4	M_itp__91__c__93__	C10H11N4O14P3	ITP(3-)
558	554	c	-4	M_ivcoa__91__c__93__	C26H40N7O17P3S	Isovaleryl-CoA
559	555	c	+1	M_k__91__c__93__	K	potassium
560	556	c	-6	M_kdo2lipid4L__91__c__93__	C96H170N2O38P2	KDO(2)-lipid IV(A) with laurate
561	557	c	-6	M_kdo2lipid4__91__c__93__	C84H148N2O37P2	KDO(2)-lipid IV(A)
562	558	c	-3	M_kdo8p__91__c__93__	C8H12O11P	3-Deoxy-D-manno-octulosonate 8-phosphate
563	559	c	-1	M_kdo__91__c__93__	C8H13O8	3-Deoxy-D-manno-2-octulosonate
564	560	c	-5	M_kdolipid4__91__c__93__	C76H137N2O30P2	KDO-lipid IV(A)
565	561	c	-11	M_kphphhlipa__91__c__93__	C139H241N2O70P4	kdo-phospho-heptosyl-phospho-heptosyl-heptosyl-kdo2-lipidA
566	562	c	-1	M_l2a6o__91__c__93__	C7H10NO5	L-2-Amino-6-oxopimelate
567	563	c	-1	M_lac_D__91__c__93__	C3H5O3	(R)-lactate
568	564	c	-1	M_lac_L__91__c__93__	C3H5O3	(S)-lactate
569	565	c	+0	M_lald_L__91__c__93__	C3H6O2	(S)-lactaldehyde
570	566	c	+0	M_leu_L__91__c__93__	C6H13NO2	L-leucine
571	567	c	-1	M_lgt_S__91__c__93__	C13H20N3O8S	(R)-S-lactoylglutathionate(1-)
572	568	c	-6	M_lipa__91__c__93__	C110H196N2O39P2	KDO(2)-lipid (A)
573	569	c	-4	M_lipidA__91__c__93__	C68H126N2O23P2	2,3,23-Tetrakis(beta-hydroxymyristoyl)-D-glucosaminyl-1,6-beta-D-glucosamine 1,4-bisphosphate
574	570	c	-2	M_lipidAds__91__c__93__	C68H127N2O20P	Lipid A Disaccharide
575	571	c	-2	M_lipidX__91__c__93__	C34H64NO12P	2,3-Bis(3-hydroxytetradecanoyl)-beta-D-glucosaminyl 1-phosphate
576	572	c	+1	M_lys_L__91__c__93__	C6H15N2O2	L-lysinium(1+)
577	573	c	-2	M_malACP__91__c__93__	C14H22N2O10PRS	Malonyl-[acyl-carrier protein]
578	574	c	-2	M_mal_L__91__c__93__	C4H4O5	(S)-malate(2-)
579	575	c	-5	M_malcoa__91__c__93__	C24H33N7O19P3S	Malonyl-CoA
580	576	c	-2	M_man1p__91__c__93__	C6H11O9P	D-Mannose 1-phosphate
581	577	c	-2	M_man6p__91__c__93__	C6H11O9P	D-Mannose 6-phosphate
582	578	c	-1	M_mercppyr__91__c__93__	C3H3O3S	3-mercaptopyruvate
583	579	c	+0	M_met_D__91__c__93__	C5H10NO2S	D-Methionine
584	580	c	+0	M_met_L__91__c__93__	C5H11NO2S	L-methionine
585	581	c	+0	M_metala__91__c__93__	C8H16N2O3S	L-methionyl-L-alanine
586	582	c	-1	M_methf__91__c__93__	C20H20N7O6	5,10-Methenyltetrahydrofolate
587	583	c	+0	M_metsox_R_L__91__c__93__	C5H11NO3S	L-methionine-R-sulfoxide
588	584	c	+0	M_metsox_S_L__91__c__93__	C5H11NO3S	L-Methionine Sulfoxide
589	585	c	+2	M_mg2__91__c__93__	Mg	magnesium
590	586	c	-2	M_mlthf__91__c__93__	C20H21N7O6	5,10-Methylenetetrahydrofolate
591	587	c	-5	M_mmcoa_S__91__c__93__	C25H35N7O19P3S	(S)-methylmalonyl-CoA(5-)
592	588	c	+2	M_mn2__91__c__93__	Mn	Mn2+
593	589	c	-1	M_mops__91__c__93__	C7H14NO4S	3-(n-Morpholino)Propanesulfonic Acid
594	590	c	+0	M_mql8__91__c__93__	C51H74O2	Menaquinol 8
595	591	c	+0	M_mqn8__91__c__93__	C51H72O2	Menaquinone 8
596	592	c	-1	M_msa__91__c__93__	C3H3O3	3-oxopropanoate
597	593	c	-1	M_mso3__91__c__93__	CH3O3S	methanesulfonate
598	594	c	-1	M_myrsACP__91__c__93__	C25H47N2O8PRS	Myristoyl-ACP (n-C14:0ACP)
599	595	c	+0	M_n2__91__c__93__	N2	Nitrogen
600	596	c	+0	M_n2o__91__c__93__	N2O	Nitrous oxide
601	597	c	+1	M_na1__91__c__93__	Na	Sodium
602	598	c	-1	M_nac__91__c__93__	C6H4NO2	Nicotinate
603	599	c	-1	M_nad__91__c__93__	C21H26N7O14P2	Nicotinamide adenine dinucleotide
604	600	c	-2	M_nadh__91__c__93__	C21H27N7O14P2	Nicotinamide adenine dinucleotide - reduced
605	601	c	-3	M_nadp__91__c__93__	C21H25N7O17P3	Nicotinamide adenine dinucleotide phosphate
606	602	c	-4	M_nadph__91__c__93__	C21H26N7O17P3	Nicotinamide adenine dinucleotide phosphate - reduced
607	603	c	+0	M_ncam__91__c__93__	C6H6N2O	Nicotinamide
608	604	c	+1	M_ncptrc__91__c__93__	C5H14N3O	N-Carbamoylputrescine
609	605	c	+1	M_nh4__91__c__93__	H4N	Ammonium
610	606	c	+0	M_nicrns__91__c__93__	C11H13NO6	Nicotinate D-ribonucleoside
611	607	c	-2	M_nicrnt__91__c__93__	C11H12NO9P	Nicotinate D-ribonucleotide
612	608	c	-1	M_nmn__91__c__93__	C11H14N2O8P	NMN
613	609	c	-1	M_no2__91__c__93__	NO2	Nitrite
614	610	c	-1	M_no3__91__c__93__	NO3	Nitrate
615	611	c	+0	M_o2__91__c__93__	O2	O2
616	612	c	-1	M_o2s__91__c__93__	O2	superoxide
617	613	c	-2	M_oaa__91__c__93__	C4H2O5	Oxaloacetate
618	614	c	-4	M_oc2coa__91__c__93__	C29H44N7O17P3S	trans-Oct-2-enoyl-CoA
619	615	c	-1	M_ocACP__91__c__93__	C19H35N2O8PRS	Octanoyl-ACP (n-C8:0ACP)
620	616	c	-1	M_ocdcaACP__91__c__93__	C29H55N2O8PRS	Octadecanoyl-ACP (n-C18:0ACP)
621	617	c	-1	M_ocdca__91__c__93__	C18H35O2	octadecanoate (n-C18:0)
622	618	c	-1	M_ocdcea__91__c__93__	C18H33O2	octadecenoate (n-C18:1)
623	619	c	-3	M_octdp__91__c__93__	C40H65O7P2	all-trans-Octaprenyl diphosphate
624	620	c	-1	M_octeACP__91__c__93__	C29H53N2O8PRS	cis-octadec-11-enoyl-[acyl-carrier protein] (n-C18:1)
625	621	c	-4	M_odecoa__91__c__93__	C39H64N7O17P3S	Octadecenoyl-CoA (n-C18:1CoA)
626	622	c	-3	M_ohpb__91__c__93__	C4H4O8P	2-Oxo-3-hydroxy-4-phosphobutanoate
627	623	c	+1	M_orn__91__c__93__	C5H13N2O2	Ornithine
628	624	c	-3	M_orot5p__91__c__93__	C10H10N2O11P	Orotidine 5-phosphate
629	625	c	-1	M_orot__91__c__93__	C5H3N2O4	Orotate
630	626	c	-2	M_oxalc__91__c__93__	C6H4O5	4-Oxalocrotonate
631	627	c	-2	M_pa120__91__c__93__	C27H51O8P1	1,2-didodecanoyl-sn-glycerol 3-phosphate
632	628	c	-2	M_pa140__91__c__93__	C31H59O8P1	1,2-ditetradecanoyl-sn-glycerol 3-phosphate
633	629	c	-2	M_pa141__91__c__93__	C31H55O8P1	1,2-ditetradec-7-enoyl-sn-glycerol 3-phosphate
634	630	c	-2	M_pa160__91__c__93__	C35H67O8P1	1,2-dihexadecanoyl-sn-glycerol 3-phosphate
635	631	c	-2	M_pa161__91__c__93__	C35H63O8P1	1,2-dihexadec-9-enoyl-sn-glycerol 3-phosphate
636	632	c	-2	M_pa180__91__c__93__	C39H75O8P1	1,2-dioctadecanoyl-sn-glycerol 3-phosphate
637	633	c	-2	M_pa181__91__c__93__	C39H71O8P1	1,2-dioctadec-11-enoyl-sn-glycerol 3-phosphate
638	634	c	-2	M_paai15__91__c__93__	C33H63O8P	1,2-dianteisopentadecanoyl-sn-glycerol 3-phosphate (12-methyl-tetradecanoyl, anteiso-C15)
639	635	c	-2	M_paai17__91__c__93__	C37H71O8P	1,2-dianteisoheptadecanoyl-sn-glycerol 3-phosphate (14-methyl-hexadecanoyl, anteiso-C17)
640	636	c	-1	M_pac__91__c__93__	C8H7O2	phenylacetate
641	637	c	+0	M_pad__91__c__93__	C8H9NO	2-Phenylacetamide
642	638	c	-2	M_pai14__91__c__93__	C31H59O8P	1,2-diisotetradecanoyl-sn-glycerol 3-phosphate (12-methyl-tridecanoyl, iso-C14)
643	639	c	-2	M_pai15__91__c__93__	C33H63O8P	1,2-diisopentadecanoyl-sn-glycerol 3-phosphate (13-methyl-tetradecanoyl, iso-C15)
644	640	c	-2	M_pai16__91__c__93__	C35H67O8P	1,2-diisohexadecanoyl-sn-glycerol 3-phosphate (14-methyl-pentadecanoyl, iso-C16)
645	641	c	-2	M_pai17__91__c__93__	C37H71O8P	1,2-diisoheptadecanoyl-sn-glycerol 3-phosphate (15-methyl-hexadecanoyl, iso-C17)
646	642	c	-1	M_palmACP__91__c__93__	C27H51N2O8PRS	Palmitoyl-ACP (n-C16:0ACP)
647	643	c	-2	M_pan4p__91__c__93__	C11H21N2O7PS	Pantetheine 4-phosphate
648	644	c	-1	M_pant_R__91__c__93__	C6H11O4	(R)-Pantoate
649	645	c	-4	M_pap__91__c__93__	C10H11N5O10P2	adenosine 3,5-bismonophosphate(4-)
650	646	c	+2	M_pb__91__c__93__	Pb	Lead
651	647	c	-2	M_pdx5p__91__c__93__	C8H10NO6P	Pyridoxine 5-phosphate
652	648	c	+0	M_pe120__91__c__93__	C29H58N1O8P1	phosphatidylethanolamine (didodecanoyl, n-C12:0)
653	649	c	+0	M_pe140__91__c__93__	C33H66N1O8P1	phosphatidylethanolamine (ditetradecanoyl, n-C14:0)
654	650	c	+0	M_pe141__91__c__93__	C33H62N1O8P1	phosphatidylethanolamine (ditetradec-7-enoyl, n-C14:1)
655	651	c	+0	M_pe160__91__c__93__	C37H74N1O8P1	phosphatidylethanolamine (dihexadecanoyl, n-C16:0)
656	652	c	+0	M_pe161__91__c__93__	C37H70N1O8P1	phosphatidylethanolamine (dihexadec-9enoyl, n-C16:1)
657	653	c	+0	M_pe180__91__c__93__	C41H82N1O8P1	phosphatidylethanolamine (dioctadecanoyl, n-C18:0)
658	654	c	+0	M_pe181__91__c__93__	C41H78N1O8P1	phosphatidylethanolamine (dioctadec-11-enoyl, n-C18:1)
659	655	c	+0	M_peai15__91__c__93__	C35H70NO8P	Phosphatidylethanolamine (12-methyl-tetradecanoyl, anteiso-C15)
660	656	c	+0	M_peai17__91__c__93__	C39H78NO8P	Phosphatidylethanolamine (14-methyl-hexadecanoyl, anteiso-C17)
661	657	c	+0	M_pei14__91__c__93__	C33H66NO8P	Phosphatidylethanolamine (12-methyl-tridecanoyl, iso-C14)
662	658	c	+0	M_pei15__91__c__93__	C35H70NO8P	Phosphatidylethanolamine (13-methyl-tetradecanoyl, iso-C15)
663	659	c	+0	M_pei16__91__c__93__	C37H74NO8P	Phosphatidylethanolamine (14-methyl-pentadecanoyl, iso-C16)
664	660	c	+0	M_pei17__91__c__93__	C39H78NO8P	Phosphatidylethanolamine (15-methyl-hexadecanoyl, iso-C17)
665	661	c	-3	M_pendp__91__c__93__	C25H41O7P2	all-trans-Pentaprenyl diphosphate
666	662	c	-3	M_pep__91__c__93__	C3H2O6P	Phosphoenolpyruvate
667	663	c	+0	M_peptmet_L__91__c__93__	XC3H7S	Peptide-L-methionine
668	664	c	+0	M_peptmetox_L__91__c__93__	XC3H7OS	Peptide-L-methionine (R)-S-oxide
669	665	c	-1	M_pg120__91__c__93__	C30H58O10P1	Phosphatidylglycerol (didodecanoyl, n-C12:0)
670	666	c	-1	M_pg140__91__c__93__	C34H66O10P1	Phosphatidylglycerol (ditetradecanoyl, n-C14:0)
671	667	c	-1	M_pg141__91__c__93__	C34H62O10P1	Phosphatidylglycerol (ditetradec-7-enoyl, n-C14:1)
672	668	c	-1	M_pg160__91__c__93__	C38H74O10P1	Phosphatidylglycerol (dihexadecanoyl, n-C16:0)
673	669	c	-1	M_pg161__91__c__93__	C38H70O10P1	Phosphatidylglycerol (dihexadec-9-enoyl, n-C16:1)
674	670	c	-1	M_pg180__91__c__93__	C42H82O10P1	Phosphatidylglycerol (dioctadecanoyl, n-C18:0)
675	671	c	-1	M_pg181__91__c__93__	C42H78O10P1	Phosphatidylglycerol (dioctadec-11-enoyl, n-C18:1)
676	672	c	-1	M_pgai15__91__c__93__	C36H70O10P	Phosphatidylglycerol (12-methyl-tetradecanoyl, anteiso-C15)
677	673	c	-1	M_pgai17__91__c__93__	C40H78O10P	Phosphatidylglycerol (14-methyl-hexadecanoyl, anteiso-C17)
678	674	c	-1	M_pgi14__91__c__93__	C34H66O10P	Phosphatidylglycerol (12-methyltridecanoyl, iso-C14)
679	675	c	-1	M_pgi15__91__c__93__	C36H70O10P	Phosphatidylglycerol (13-methyltetradecanoyl, iso-C15)
680	676	c	-1	M_pgi16__91__c__93__	C38H74O10P	Phosphatidylglycerol (14-methylpentadecanoyl, iso-C16)
681	677	c	-1	M_pgi17__91__c__93__	C40H78O10P	Phosphatidylglycerol (15-methyl-hexadecanoyl, iso-C17)
682	678	c	-3	M_pgp120__91__c__93__	C30H57O13P2	Phosphatidylglycerophosphate (didodecanoyl, n-C12:0)
683	679	c	-3	M_pgp140__91__c__93__	C34H65O13P2	Phosphatidylglycerophosphate (ditetradecanoyl, n-C14:0)
684	680	c	-3	M_pgp141__91__c__93__	C34H61O13P2	Phosphatidylglycerophosphate (ditetradec-7-enoyl, n-C14:1)
685	681	c	-3	M_pgp160__91__c__93__	C38H73O13P2	Phosphatidylglycerophosphate (dihexadecanoyl, n-C16:0)
686	682	c	-3	M_pgp161__91__c__93__	C38H69O13P2	Phosphatidylglycerophosphate (dihexadec-9-enoyl, n-C16:1)
687	683	c	-3	M_pgp180__91__c__93__	C42H81O13P2	Phosphatidylglycerophosphate (dioctadecanoyl, n-C18:0)
688	684	c	-3	M_pgp181__91__c__93__	C42H77O13P2	Phosphatidylglycerophosphate (dioctadec-11-enoyl, n-C18:1)
689	685	c	-3	M_pgpai15__91__c__93__	C36H69O13P2	Phosphatidylglycerophosphate (12-methyl-tetradecanoyl, anteiso-C15)
690	686	c	-3	M_pgpai17__91__c__93__	C40H77O13P2	Phosphatidylglycerophosphate (14-methyl-hexadecanoyl, anteiso-C17)
691	687	c	-3	M_pgpi14__91__c__93__	C34H65O13P2	Phosphatidylglycerophosphate (12-methyltridecanoyl, iso-C14)
692	688	c	-3	M_pgpi15__91__c__93__	C36H69O13P2	Phosphatidylglycerophosphate (13-methyltetradecanoyl, iso-C15)
693	689	c	-3	M_pgpi16__91__c__93__	C38H73O13P2	Phosphatidylglycerophosphate (14-methylpentadecanoyl, iso-C16)
694	690	c	-3	M_pgpi17__91__c__93__	C40H77O13P2	Phosphatidylglycerophosphate (15-methyl-hexadecanoyl, iso-C17)
695	691	c	+0	M_phe_L__91__c__93__	C9H11NO2	L-phenylalanine
696	692	c	-2	M_pheme__91__c__93__	C34H30FeN4O4	Protoheme
697	693	c	+0	M_phenol__91__c__93__	C6H6O	Phenol
698	694	c	-8	M_phhlipa__91__c__93__	C124H219N2O54P3	phospho-heptosyl-heptosyl-kdo2-lipidA
699	695	c	-2	M_phom__91__c__93__	C4H8NO6P	O-phosphonato-L-homoserine(2-)
700	696	c	-10	M_phphhlipa__91__c__93__	C131H230N2O63P4	phospho-heptosyl-phospho-heptosyl-heptosyl-kdo2-lipidA
701	697	c	-1	M_phpyr__91__c__93__	C9H7O3	keto-phenylpyruvate
702	698	c	-2	M_phthr__91__c__93__	C4H8NO7P	O-Phospho-4-hydroxy-L-threonine
703	699	c	+0	M_phyQ__91__c__93__	C31H46O2	phylloquinone
704	700	c	-2	M_pi__91__c__93__	HO4P	hydrogenphosphate
705	701	c	-1	M_plasmetha__91__c__93__	C8H13NO7PR2	Plasmenylethanolamine
706	702	c	-4	M_pmtcoa__91__c__93__	C37H62N7O17P3S	Palmitoyl-CoA (n-C16:0CoA)
707	703	c	-1	M_pnp__91__c__93__	C6H4NO3	4-Hydroxynitrobenzene, p-Nitrophenol
708	704	c	-1	M_pnto_R__91__c__93__	C9H16NO5	(R)-Pantothenate
709	705	c	-1	M_ppa__91__c__93__	C3H5O2	propionate
710	706	c	-2	M_ppap__91__c__93__	C3H5O5P	Propanoyl phosphate
711	707	c	-1	M_ppbng__91__c__93__	C10H13N2O4	Porphobilinogen
712	708	c	-4	M_ppcoa__91__c__93__	C24H36N7O17P3S	Propanoyl-CoA
713	709	c	-6	M_ppgpp__91__c__93__	C10H11N5O17P4	Guanosine 3,5-bis(diphosphate)
714	710	c	-2	M_pphn__91__c__93__	C10H8O6	Prephenate
715	711	c	-3	M_ppi__91__c__93__	HO7P2	Diphosphate
716	712	c	-2	M_ppp9__91__c__93__	C34H32N4O4	Protoporphyrin
717	713	c	-2	M_pppg9__91__c__93__	C34H38N4O4	Protoporphyrinogen IX
718	714	c	-4	M_pppi__91__c__93__	HO10P3	triphosphate(5-)
719	715	c	-1	M_pram__91__c__93__	C5H11NO7P	5-Phospho-beta-D-ribosylamine
720	716	c	-3	M_pran__91__c__93__	C12H13NO9P	N-(5-Phospho-D-ribosyl)anthranilate
721	717	c	-4	M_prbamp__91__c__93__	C15H19N5O14P2	1-(5-Phosphoribosyl)-AMP
722	718	c	-6	M_prbatp__91__c__93__	C15H19N5O20P4	1-(5-Phosphoribosyl)-ATP
723	719	c	-7	M_pre8__91__c__93__	C45H53N4O14	Precorrin 8
724	720	c	-4	M_prfp__91__c__93__	C15H21N5O15P2	1-(5-Phosphoribosyl)-5-[(5-phosphoribosylamino)methylideneamino]imidazole-4-carboxamide
725	721	c	-4	M_prlp__91__c__93__	C15H21N5O15P2	5-[(5-phospho-1-deoxyribulos-1-ylamino)methylideneamino]-1-(5-phosphoribosyl)imidazole-4-carboxamide
726	722	c	+0	M_pro_L__91__c__93__	C5H9NO2	L-proline
727	723	c	+0	M_prodslfd__91__c__93__	XS2	Protein disulfide
728	724	c	+0	M_prodthl__91__c__93__	XS2H2	Protein dithiol
729	725	c	+0	M_proteinsynth__91__c__93__	X	Protein biosynthesis
730	726	c	-5	M_prpp__91__c__93__	C5H8O14P3	5-Phospho-alpha-D-ribose 1-diphosphate
731	727	c	-1	M_ps120__91__c__93__	C30H57N1O10P1	phosphatidylserine (didodecanoyl, n-C12:0)
732	728	c	-1	M_ps140__91__c__93__	C34H65N1O10P1	phosphatidylserine (ditetradecanoyl, n-C14:0)
733	729	c	-1	M_ps141__91__c__93__	C34H61N1O10P1	phosphatidylserine (ditetradec-7-enoyl, n-C14:1)
734	730	c	-1	M_ps160__91__c__93__	C38H73N1O10P1	phosphatidylserine (dihexadecanoyl, n-C16:0)
735	731	c	-1	M_ps161__91__c__93__	C38H69N1O10P1	phosphatidylserine (dihexadec-9-enoyl, n-C16:1)
736	732	c	-1	M_ps180__91__c__93__	C42H81N1O10P1	phosphatidylserine (dioctadecanoyl, n-C18:0)
737	733	c	-1	M_ps181__91__c__93__	C42H77N1O10P1	phosphatidylserine (dioctadec-11-enoyl, n-C18:1)
738	734	c	-1	M_psai15__91__c__93__	C36H69NO10P	Phosphatidylserine (12-methyl-tetradecanoyl, anteiso-C15)
739	735	c	-1	M_psai17__91__c__93__	C40H77NO10P	Phosphatidylserine (14-methyl-hexadecanoyl, anteiso-C17)
740	736	c	-2	M_psd5p__91__c__93__	C9H11N2O9P	Pseudouridine 5-phosphate
741	737	c	-2	M_pser_L__91__c__93__	C3H6NO6P	O-Phospho-L-serine
742	738	c	-1	M_psi14__91__c__93__	C34H65NO10P	Phosphatidylserine (12-methyl-tridecanoyl, iso-C14)
743	739	c	-1	M_psi15__91__c__93__	C36H69NO10P	Phosphatidylserine (13-methyl-tetradecanoyl, iso-C15)
744	740	c	-1	M_psi16__91__c__93__	C38H73NO10P	Phosphatidylserine (14-methyl-pentadecanoyl, iso-C16)
745	741	c	-1	M_psi17__91__c__93__	C40H77NO10P	Phosphatidylserine (15-methyl-hexadecanoyl, iso-C17)
746	742	c	+2	M_ptrc__91__c__93__	C4H14N2	Putrescine
747	743	c	-1	M_pyam5p__91__c__93__	C8H12N2O5P	Pyridoxamine 5-phosphate
748	744	c	+1	M_pydam__91__c__93__	C8H13N2O2	Pyridoxamine
749	745	c	-2	M_pydx5p__91__c__93__	C8H8NO6P	Pyridoxal 5-phosphate
750	746	c	+0	M_pydx__91__c__93__	C8H9NO3	Pyridoxal
751	747	c	+0	M_pydxn__91__c__93__	C8H11NO3	Pyridoxine
752	748	c	-1	M_pyr__91__c__93__	C3H3O3	pyruvate
753	749	c	+0	M_q8__91__c__93__	C49H74O4	Ubiquinone-8
754	750	c	+0	M_q8h2__91__c__93__	C49H76O4	Ubiquinol-8
755	751	c	-2	M_quln__91__c__93__	C7H3NO4	quinolinate(2-)
756	752	c	-2	M_r1p__91__c__93__	C5H9O8P	alpha-D-Ribose 1-phosphate
757	753	c	-2	M_r5p__91__c__93__	C5H9O8P	alpha-D-Ribose 5-phosphate
758	754	c	+0	M_rbflvrd__91__c__93__	C17H22N4O6	Reduced riboflavin
759	755	c	+0	M_rbl_D__91__c__93__	C5H10O5	D-ribulose
760	756	c	+0	M_rdmbzi__91__c__93__	C14H18N2O4	N1-(alpha-D-ribosyl)-5,6-dimethylbenzimidazole
761	757	c	+0	M_rhcys__91__c__93__	C9H17NO6S	S-Ribosyl-L-homocysteine
762	758	c	+0	M_rib_D__91__c__93__	C5H10O5	D-ribose
763	759	c	+0	M_ribflv__91__c__93__	C17H20N4O6	Riboflavin
764	760	c	+1	M_rnam__91__c__93__	C11H15N2O5	N-Ribosylnicotinamide
765	761	c	+0	M_rnatrans__91__c__93__	X	RNA transcription
766	762	c	-2	M_ru5p_D__91__c__93__	C5H9O8P	D-ribulose 5-phosphate(2-)
767	763	c	-2	M_ru5p_L__91__c__93__	C5H9O8P	L-Ribulose 5-phosphate
768	764	c	-4	M_s17bp__91__c__93__	C7H12O13P2	Sedoheptulose 1,7-bisphosphate
769	765	c	-2	M_s7p__91__c__93__	C7H13O10P	Sedoheptulose 7-phosphate
770	766	c	+0	M_s__91__c__93__	S	Sulfur
771	767	c	-1	M_seln__91__c__93__	HSe	Selenide
772	768	c	-1	M_selnp__91__c__93__	H2O3PSe	Selenophosphate
773	769	c	+0	M_ser_L__91__c__93__	C3H7NO3	L-serine
774	770	c	-8	M_sheme__91__c__93__	C42H36FeN4O16	Siroheme
775	771	c	-3	M_skm5p__91__c__93__	C7H8O8P	Shikimate 5-phosphate
776	772	c	-1	M_skm__91__c__93__	C7H9O5	Shikimate
777	773	c	-2	M_so3__91__c__93__	O3S	Sulfite
778	774	c	-2	M_so4__91__c__93__	O4S	sulfate
779	775	c	+3	M_spmd__91__c__93__	C7H22N3	Spermidine
780	776	c	-4	M_stcoa__91__c__93__	C39H66N7O17P3S	Stearoyl-CoA (n-C18:0CoA)
781	777	c	-2	M_succ__91__c__93__	C4H4O4	Succinate
782	778	c	-1	M_succitr_L__91__c__93__	C10H16N3O6	N-succinyl-L-citrulline 
783	779	c	-5	M_succoa__91__c__93__	C25H35N7O19P3S	Succinyl-CoA
784	780	c	-1	M_suchms__91__c__93__	C8H12NO6	O-Succinyl-L-homoserine
785	781	c	-1	M_sucorn__91__c__93__	C9H15N2O5	N2-Succinyl-L-ornithine
786	782	c	-2	M_sulfac__91__c__93__	C2H2O5S	sulfoacetate
787	783	c	-1	M_t3c11vaceACP__91__c__93__	C29H51N2O8PRS	trans-3-cis-11-vacceoyl-[acyl-carrier protein]
788	784	c	-1	M_t3c5ddeceACP__91__c__93__	C23H39N2O8PRS	trans-3-cis-5-dodecenoyl-[acyl-carrier protein]
789	785	c	-1	M_t3c7mrseACP__91__c__93__	C25H43N2O8PRS	trans-3-cis-7-myristoleoyl-[acyl-carrier protein]
790	786	c	-1	M_t3c9palmeACP__91__c__93__	C27H47N2O8PRS	trans-3-cis-9-palmitoleoyl-[acyl-carrier protein]
791	787	c	-2	M_tartr_L__91__c__93__	C4H4O6	L-tartrate
792	788	c	+0	M_taur__91__c__93__	C2H7NO3S	Taurine
793	789	c	-1	M_tcynt__91__c__93__	CNS	thiocyanate
794	790	c	-4	M_td2coa__91__c__93__	C35H56N7O17P3S	trans-Tetradec-2-enoyl-CoA
795	791	c	-4	M_tdcoa__91__c__93__	C35H58N7O17P3S	Tetradecanoyl-CoA (n-C14:0CoA)
796	792	c	-1	M_tddec2eACP__91__c__93__	C23H41N2O8PRS	trans-Dodec-2-enoyl-[acyl-carrier protein]
797	793	c	-1	M_tdeACP__91__c__93__	C25H45N2O8PRS	cis-tetradec-7-enoyl-[acyl-carrier protein] (n-C14:1)
798	794	c	-1	M_tdec2eACP__91__c__93__	C21H37N2O8PRS	trans-Dec-2-enoyl-[acyl-carrier protein]
799	795	c	+0	M_thbpt__91__c__93__	C9H15N5O3	5,6,7,8-tetrahydrobiopterin
800	796	c	-2	M_thdp__91__c__93__	C7H7NO4	2,3,4,5-Tetrahydrodipicolinate
801	797	c	-1	M_thex2eACP__91__c__93__	C17H29N2O8PRS	trans-Hex-2-enoyl-[acyl-carrier protein]
802	798	c	-2	M_thf__91__c__93__	C19H21N7O6	5,6,7,8-Tetrahydrofolate
803	799	c	-3	M_thfglu__91__c__93__	C24H27N8O9	Tetrahydrofolyl-[Glu](2)
804	800	c	+1	M_thm__91__c__93__	C12H17N4OS	Thiamin
805	801	c	-1	M_thmmp__91__c__93__	C12H16N4O4PS	Thiamin monophosphate
806	802	c	-2	M_thmpp__91__c__93__	C12H16N4O7P2S	Thiamine diphosphate
807	803	c	+0	M_thr_L__91__c__93__	C4H9NO3	L-threonine
808	804	c	+0	M_thymd__91__c__93__	C10H14N2O5	Thymidine
809	805	c	+1	M_tma__91__c__93__	C3H10N	trimethylamine
810	806	c	+0	M_tmao__91__c__93__	C3H9NO	Trimethylamine N-oxide
811	807	c	-1	M_tmrs2eACP__91__c__93__	C25H45N2O8PRS	trans-Tetradec-2-enoyl-[acyl-carrier protein]
812	808	c	-1	M_toct2eACP__91__c__93__	C19H33N2O8PRS	trans-Oct-2-enoyl-[acyl-carrier protein]
813	809	c	-1	M_toctd2eACP__91__c__93__	C29H53N2O8PRS	trans-octadec-2-enoyl-[acyl-carrier protein]
814	810	c	-1	M_tpalm2eACP__91__c__93__	C27H49N2O8PRS	trans-Hexadec-2-enoyl-[acyl-carrier protein]
815	811	c	+0	M_trdox__91__c__93__	X	Oxidized thioredoxin
816	812	c	+0	M_trdrd__91__c__93__	XH2	Reduced thioredoxin
817	813	c	+0	M_trnaglu__91__c__93__	R	tRNA (Glu)
818	814	c	+0	M_trp_L__91__c__93__	C11H12N2O2	L-tryptophan
819	815	c	-2	M_tsul__91__c__93__	O3S2	thiosulfate(2-)
820	816	c	-3	M_ttc_ggdp__91__c__93__	C20H33O7P2	trans,trans,cis-Geranylgeranyl diphosphate
821	817	c	-1	M_ttdca__91__c__93__	C14H27O2	tetradecanoate (n-C14:0)
822	818	c	+0	M_tyr_L__91__c__93__	C9H11NO3	L-tyrosine
823	819	c	-2	M_u23ga__91__c__93__	C43H75N3O20P2	UDP-2,3-bis(3-hydroxytetradecanoyl)glucosamine
824	820	c	-2	M_u3aga__91__c__93__	C31H51N3O19P2	UDP-3-O-(3-hydroxytetradecanoyl)-N-acetylglucosamine
825	821	c	-1	M_u3hga__91__c__93__	C29H50N3O18P2	UDP-3-O-(3-hydroxytetradecanoyl)-D-glucosamine
826	822	c	-3	M_uGgla__91__c__93__	C40H62N9O26P2	UDP-N-acetylmuramoyl-L-alanyl-gamma-D-glutamyl-L-lysyl-D-alanyl-D-alanine
827	823	c	-3	M_uaGgla__91__c__93__	C86H140N7O21P2	Undecaprenyl-diphospho-N-acetylmuramoyl-L-alanyl-gamma-D-glutamyl-L-lysyl-D-alanyl-D-alanine
828	824	c	-3	M_uaaAgla__91__c__93__	C94H153N8O26P2	Undecaprenyl-diphospho-N-acetylmuramoyl-(N-acetylglucosamine)-L-alanyl-D-glutamyl-L-lysyl-D-alanyl-D-alanine
829	825	c	-2	M_uaaAgtla__91__c__93__	C94H155N9O25P2	Undecaprenyl-diphospho-N-acetylmuramoyl-(N-acetylglucosamine)-L-alanyl-D-glutaminyl-L-lysyl-D-alanyl-D-alanine
830	826	c	-3	M_uaaGgla__91__c__93__	C94H153N8O26P2	Undecaprenyl-diphospho-N-acetylmuramoyl-(N-acetylglucosamine)-L-alanyl-gamma-D-glutamyl-L-lysyl-D-alanyl-D-alanine
831	827	c	-2	M_uaaGgtla__91__c__93__	C94H155N9O25P2	Undecaprenyl-diphospho-N-acetylmuramoyl-(N-acetylglucosamine)-L-alanyl-D-isoglutaminyl-L-lysyl-D-alanyl-D-alanine
832	828	c	-4	M_uaagmda__91__c__93__	C95H152N8O28P2	Undecaprenyl-diphospho-N-acetylmuramoyl-(N-acetylglucosamine)-L-ala-D-glu-meso-2,6-diaminopimeloyl-D-ala-D-ala
833	829	c	-3	M_uaagtmda__91__c__93__	C95H154N9O27P2	Undecaprenyl-diphospho-N-acetylmuramoyl-(N-acetylglucosamine)-L-alanyl-D-glutaminyl-meso-2,6-diaminopimeloyl-D-alanyl-D-alanine
834	830	c	-3	M_uaccg__91__c__93__	C20H26N3O19P2	UDP-N-acetyl-3-O-(1-carboxyvinyl)-D-glucosamine
835	831	c	-2	M_uacgam__91__c__93__	C17H25N3O17P2	UDP-N-acetyl-alpha-D-glucosamine(2-)
836	832	c	-4	M_uagmda__91__c__93__	C87H139N7O23P2	Undecaprenyl-diphospho-N-acetylmuramoyl-L-alanyl-D-glutamyl-meso-2,6-diaminopimeloyl-D-alanyl-D-alanine
837	833	c	-3	M_uama__91__c__93__	C23H33N4O20P2	UDP-N-acetylmuramoyl-L-alanine
838	834	c	-4	M_uamag__91__c__93__	C28H39N5O23P2	UDP-N-acetylmuramoyl-L-alanyl-D-glutamate
839	835	c	-3	M_uamr__91__c__93__	C20H28N3O19P2	UDP-N-acetylmuramate
840	836	c	-3	M_udcpdp__91__c__93__	C55H89O7P2	Undecaprenyl diphosphate
841	837	c	-2	M_udcpp__91__c__93__	C55H89O4P	Undecaprenyl phosphate
842	838	c	-3	M_udp__91__c__93__	C9H11N2O12P2	UDP
843	839	c	-2	M_udpacgal__91__c__93__	C17H25N3O17P2	UDP-N-acetyl-D-galactosamine(2-)
844	840	c	-2	M_udpg__91__c__93__	C15H22N2O17P2	UDPglucose
845	841	c	-2	M_udpgal__91__c__93__	C15H22N2O17P2	UDP-D-galactose(2-)
846	842	c	-3	M_udpglcur__91__c__93__	C15H19N2O18P2	UDP-D-glucuronate
847	843	c	-4	M_ugmd__91__c__93__	C35H51N7O26P2	UDP-N-acetylmuramoyl-L-alanyl-D-gamma-glutamyl-meso-2,6-diaminopimelate
848	844	c	-4	M_ugmda__91__c__93__	C41H61N9O28P2	UDP-N-acetylmuramoyl-L-alanyl-D-glutamyl-meso-2,6-diaminopimeloyl-D-alanyl-D-alanine
849	845	c	-2	M_ump__91__c__93__	C9H11N2O9P	UMP
850	846	c	-8	M_uppg3__91__c__93__	C40H36N4O16	Uroporphyrinogen III
851	847	c	+0	M_ura__91__c__93__	C4H4N2O2	uracil
852	848	c	-1	M_urcan__91__c__93__	C6H5N2O2	Urocanate
853	849	c	+0	M_urdgly__91__c__93__	C3H7N3O3	Ureidoglycine
854	850	c	-1	M_urdglyc__91__c__93__	C3H5N2O4	(-)-Ureidoglycolate
855	851	c	+0	M_urea__91__c__93__	CH4N2O	Urea
856	852	c	+0	M_uri__91__c__93__	C9H12N2O6	Uridine
857	853	c	-4	M_utp__91__c__93__	C9H11N2O15P3	UTP
858	854	c	+0	M_val_L__91__c__93__	C5H11NO2	L-valine
859	855	c	+0	M_xan__91__c__93__	C5H4N4O2	Xanthine
860	856	c	-2	M_xmp__91__c__93__	C10H11N4O9P	Xanthosine 5-phosphate
861	857	c	+0	M_xtsn__91__c__93__	C10H12N4O6	xanthosine
862	858	c	-2	M_xu5p_D__91__c__93__	C5H9O8P	D-xylulose 5-phosphate(2-)
863	859	c	-2	M_xu5p_L__91__c__93__	C5H9O8P	L-Xylulose 5-phosphate
864	860	c	+0	M_xyl_D__91__c__93__	C5H10O5	aldehydo-D-xylose
865	861	c	+0	M_xylu_D__91__c__93__	C5H10O5	D-xylulose
866	862	c	+2	M_zn2__91__c__93__	Zn	Zinc
