CNC	distance
0.159347	0.0113862
0.160209	0.0116194
0.161076	0.0116831
0.161948	0.0120542
0.162824	0.0122593
0.163705	0.0129414
0.164591	0.0129312
0.165482	0.0134052
0.166377	0.0135662
0.167277	0.0140804
0.169093	0.0149663
0.170928	0.0152553
0.172783	0.0160298
0.174658	0.0169784
0.176553	0.0177599
0.180406	0.0190372
0.184342	0.0209592
0.188365	0.0220602
0.192475	0.0236637
0.196675	0.0255662
0.205353	0.0287977
0.214412	0.0325458
0.233749	0.0395165
0.244062	0.0430271
0.266073	0.0503041
0.290068	0.0575112
0.316228	0.0645141
0.344747	0.0724304
0.375837	0.0792989
0.446684	0.0939781
0.530884	0.107978
0.630957	0.122058
0.749894	0.135178
inf	0.839317
inf	0.839317
inf	0.839317
inf	0.839327
inf	0.839317
inf	0.839317
inf	0.839317
inf	0.839318
inf	0.839317
inf	0.83933
inf	0.839317
inf	0.839317
inf	0.839317
inf	0.839317
inf	0.839317
inf	0.839317
inf	0.839317
inf	0.839317
inf	0.839317
inf	0.839317
inf	0.839347
inf	0.839317
inf	0.839347
inf	0.839347
inf	0.839347
inf	0.839317
inf	0.839317
inf	0.839317
inf	0.839317
inf	0.839317
inf	0.839317
inf	0.839317
inf	0.839317
inf	0.839317
inf	0.839317
inf	0.839317
inf	0.839317
inf	0.839317
inf	0.839317
inf	0.839317
0.01	0.131309
0.0141254	0.122833
0.0199526	0.112482
0.0281838	0.0997309
0.0398107	0.0843684
0.0562341	0.0661842
0.0794328	0.0448685
0.112202	0.0210053
0.158489	0.0108454
0.223872	0.0359096
