	metabolite_index	reaction_index	stoichiometry	metabolite_id	reaction_id
1	1	7	-1	M_2dmmq8__91__e__93__	R_1P4H2CBXLAH
2	2	14	-1	M_2obut__91__e__93__	R_26DAPLLAT
3	2	15	+1	M_2obut__91__e__93__	R_2DHPL
4	4	116	-1	M_acald__91__e__93__	R_2DMMQ8abc
5	4	117	+1	M_acald__91__e__93__	R_2HBO
6	3	141	-1	M_ac__91__e__93__	R_2HMCOXT
7	3	142	+1	M_ac__91__e__93__	R_2MBCOATA
8	5	150	-1	M_ade__91__e__93__	R_2OBUTt2r
9	5	151	+1	M_ade__91__e__93__	R_3HAD10M12
10	6	175	-1	M_adocbl__91__e__93__	R_3HAD11M12
11	8	204	-1	M_alaasp__91__e__93__	R_3HAD12M14
12	9	207	-1	M_alagln__91__e__93__	R_3HAD13M14
13	10	210	-1	M_alaglu__91__e__93__	R_3HAD14M16
14	11	213	-1	M_alagly__91__e__93__	R_3HAD15M16
15	12	216	-1	M_alahis__91__e__93__	R_3HAD4M6
16	13	219	-1	M_alaleu__91__e__93__	R_3HAD5M6
17	14	224	-1	M_alathr__91__e__93__	R_3HAD6M8
18	7	225	-1	M_ala_L__91__e__93__	R_3HAD7M8
19	74	225	-1	M_na1__91__e__93__	R_3HAD7M8
20	7	226	+1	M_ala_L__91__e__93__	R_3HAD8M10
21	74	226	+1	M_na1__91__e__93__	R_3HAD8M10
22	15	236	-1	M_amp__91__e__93__	R_3HAD9M10
23	16	248	-1	M_asn_L__91__e__93__	R_3OAR100
24	16	249	+1	M_asn_L__91__e__93__	R_3OAR10M11
25	17	255	-1	M_asp_L__91__e__93__	R_3OAR10M12
26	17	256	+1	M_asp_L__91__e__93__	R_3OAR11M12
27	18	260	-1	M_btn__91__e__93__	R_3OAR120
28	19	263	-1	M_ca2__91__e__93__	R_3OAR12M13
29	20	266	-1	M_cbl1__91__e__93__	R_3OAR12M14
30	21	267	-1	M_cbl2__91__e__93__	R_3OAR13M14
31	22	269	+1	M_cd2__91__e__93__	R_3OAR140
32	23	275	-1	M_cgly__91__e__93__	R_3OAR14M15
33	26	284	-1	M_co2__91__e__93__	R_3OAR14M16
34	26	285	+1	M_co2__91__e__93__	R_3OAR15M16
35	28	295	+1	M_cro4__91__e__93__	R_3OAR160
36	28	296	-1	M_cro4__91__e__93__	R_3OAR180
37	29	297	-1	M_csn__91__e__93__	R_3OAR40
38	31	307	-1	M_cys_L__91__e__93__	R_3OAR4M5
39	31	308	+1	M_cys_L__91__e__93__	R_3OAR4M6
40	32	316	-1	M_cytd__91__e__93__	R_3OAR5M6
41	32	317	+1	M_cytd__91__e__93__	R_3OAR60
42	27	322	-1	M_cobalt2__91__e__93__	R_3OAR6M7
43	30	323	-1	M_cu2__91__e__93__	R_3OAR6M8
44	30	324	+1	M_cu2__91__e__93__	R_3OAR7M8
45	33	325	-1	M_dad_2__91__e__93__	R_3OAR80
46	33	326	+1	M_dad_2__91__e__93__	R_3OAR8M10
47	0	332	-1	M_26dap_M__91__e__93__	R_3OAR8M9
48	34	352	-1	M_dcyt__91__e__93__	R_3OAR9M10
49	34	353	+1	M_dcyt__91__e__93__	R_3OAS100
50	35	358	-1	M_dgsn__91__e__93__	R_3OAS10M11
51	35	359	+1	M_dgsn__91__e__93__	R_3OAS10M12
52	36	479	-1	M_fe2__91__e__93__	R_3OAS11M12
53	37	480	-1	M_fe3__91__e__93__	R_3OAS120
54	24	481	-2	M_cit__91__e__93__	R_3OAS12M13
55	37	481	-1	M_fe3__91__e__93__	R_3OAS12M13
56	38	487	-1	M_fol__91__e__93__	R_3OAS12M14
57	38	488	+1	M_fol__91__e__93__	R_3OAS13M14
58	39	493	-1	M_for__91__e__93__	R_3OAS140
59	39	494	+1	M_for__91__e__93__	R_3OAS160
60	40	563	-1	M_gln_L__91__e__93__	R_3OAS180
61	40	564	-1	M_gln_L__91__e__93__	R_3OAS2M3
62	40	565	+1	M_gln_L__91__e__93__	R_3OAS3M4
63	41	578	-1	M_glu_L__91__e__93__	R_3OAS4M3O6
64	41	579	+1	M_glu_L__91__e__93__	R_3OAS4M5
65	43	582	-1	M_glyasn__91__e__93__	R_3OAS4M6
66	44	585	-1	M_glyasp__91__e__93__	R_3OAS5M6
67	45	587	-1	M_glycys__91__e__93__	R_3OAS60
68	46	590	-1	M_glygln__91__e__93__	R_3OAS6M7
69	47	593	-1	M_glyglu__91__e__93__	R_3OAS6M8
70	48	596	-1	M_glyleu__91__e__93__	R_3OAS7M8
71	49	599	-1	M_glymet__91__e__93__	R_3OAS80
72	50	602	-1	M_glyphe__91__e__93__	R_3OAS8M10
73	51	605	-1	M_glypro__91__e__93__	R_3OAS8M9
74	52	608	-1	M_glytyr__91__e__93__	R_3OAS9M10
75	42	609	-1	M_gly__91__e__93__	R_4HBZCL
76	42	610	+1	M_gly__91__e__93__	R_4HTHRS
77	53	623	-1	M_gua__91__e__93__	R_A5PISO
78	53	624	+1	M_gua__91__e__93__	R_AACOAT
79	53	625	-1	M_gua__91__e__93__	R_AACPS6
80	54	628	+1	M_h2__91__e__93__	R_AACPS7
81	54	629	-1	M_h2__91__e__93__	R_ABTOXy
82	82	632	-1	M_pheme__91__e__93__	R_ABUTD
83	55	641	+1	M_hg2__91__e__93__	R_ACALDt
84	56	642	-1	M_his_L__91__e__93__	R_ACBIPGT
85	56	643	+1	M_his_L__91__e__93__	R_ACCOACL
86	57	656	-1	M_hxan__91__e__93__	R_ACCOALYS2
87	58	663	-1	M_ile_L__91__e__93__	R_ACGAMT
88	58	664	-1	M_ile_L__91__e__93__	R_ACKr
89	58	665	+1	M_ile_L__91__e__93__	R_ACOAAGPAT140
90	59	669	-1	M_ind3ac__91__e__93__	R_ACOAAGPAT160
91	59	670	+1	M_ind3ac__91__e__93__	R_ACOAAGPAT180
92	60	672	-1	M_ins__91__e__93__	R_ACOAAGPATAI15
93	60	673	+1	M_ins__91__e__93__	R_ACOAAGPATAI17
94	61	688	+1	M_k__91__e__93__	R_ACOAAGPATI14
95	61	689	-1	M_k__91__e__93__	R_ACOAAGPATI15
96	63	697	-1	M_leu_L__91__e__93__	R_ACOAAGPATI16
97	63	698	-1	M_leu_L__91__e__93__	R_ACOAAGPATI17
98	63	699	+1	M_leu_L__91__e__93__	R_ACOAD1
99	64	704	-1	M_lys_L__91__e__93__	R_ACOAD20
100	64	705	+1	M_lys_L__91__e__93__	R_ACOADH2
101	62	712	-1	M_lac_L__91__e__93__	R_ACOATA
102	62	713	+1	M_lac_L__91__e__93__	R_ACPS1
103	67	728	-1	M_metala__91__e__93__	R_ACS
104	65	730	-1	M_met_D__91__e__93__	R_ACt2r
105	69	733	-1	M_metsox_S_L__91__e__93__	R_ADAD
106	68	734	-1	M_metsox_R_L__91__e__93__	R_ADCL
107	66	737	-1	M_met_L__91__e__93__	R_ADCPS1
108	66	738	-1	M_met_L__91__e__93__	R_ADCPS2
109	66	739	+1	M_met_L__91__e__93__	R_ADCS
110	70	740	-1	M_mg2__91__e__93__	R_ADCYRS
111	72	741	+1	M_mqn8__91__e__93__	R_ADEt2r
112	72	742	-1	M_mqn8__91__e__93__	R_ADK1
113	71	750	-1	M_mn2__91__e__93__	R_ADK10
114	73	765	-1	M_n2__91__e__93__	R_ADK11
115	73	766	+1	M_n2__91__e__93__	R_ADK2
116	75	768	+1	M_nac__91__e__93__	R_ADK3
117	75	769	-1	M_nac__91__e__93__	R_ADK5
118	74	776	+1	M_na1__91__e__93__	R_ADK7
119	74	777	-1	M_na1__91__e__93__	R_ADK8
120	76	796	-1	M_nh4__91__e__93__	R_ADK9
121	76	797	+1	M_nh4__91__e__93__	R_ADNK1
122	77	819	-1	M_o2__91__e__93__	R_ADNUC
123	77	820	+1	M_o2__91__e__93__	R_ADOCBIK
124	78	825	-1	M_ocdca__91__e__93__	R_ADOCBIK2
125	80	847	+1	M_pb__91__e__93__	R_ADOCBLS
126	81	880	-1	M_phe_L__91__e__93__	R_ADOCBLabc
127	81	881	+1	M_phe_L__91__e__93__	R_ADPRDP
128	84	882	-1	M_pime__91__e__93__	R_ADPT
129	84	883	+1	M_pime__91__e__93__	R_ADSL1r
130	83	884	-1	M_pi__91__e__93__	R_ADSL2r
131	83	885	-1	M_pi__91__e__93__	R_ADSS
132	83	886	+1	M_pi__91__e__93__	R_AGMHE
133	85	893	-1	M_pnto_R__91__e__93__	R_AGPAT120
134	86	899	+1	M_ppa__91__e__93__	R_AGPAT140
135	86	900	-1	M_ppa__91__e__93__	R_AGPAT141
136	87	903	+1	M_ppi__91__e__93__	R_AGPAT160
137	74	915	-1	M_na1__91__e__93__	R_AGPAT161
138	88	915	-1	M_pro_L__91__e__93__	R_AGPAT161
139	74	916	+1	M_na1__91__e__93__	R_AGPAT180
140	88	916	+1	M_pro_L__91__e__93__	R_AGPAT180
141	89	951	-1	M_ptrc__91__e__93__	R_AGPAT181
142	79	951	+1	M_orn__91__e__93__	R_AGPAT181
143	89	952	+1	M_ptrc__91__e__93__	R_AHC
144	79	952	-1	M_orn__91__e__93__	R_AHC
145	89	953	-1	M_ptrc__91__e__93__	R_AHCYSNS
146	90	955	-1	M_pydam__91__e__93__	R_AICART
147	92	958	-1	M_pydxn__91__e__93__	R_AIHPDCOATA
148	91	959	-1	M_pydx__91__e__93__	R_AIPDCOATA
149	91	960	+1	M_pydx__91__e__93__	R_AIRC4
150	93	966	-1	M_q8__91__e__93__	R_ALAALA
151	94	978	-1	M_ribflv__91__e__93__	R_ALAASP1c
152	94	979	+1	M_ribflv__91__e__93__	R_ALAASPabc
153	95	995	-1	M_ser_L__91__e__93__	R_ALAGLN1c
154	95	996	+1	M_ser_L__91__e__93__	R_ALAGLNabc
155	96	1001	-1	M_sheme__91__e__93__	R_ALAGLU1c
156	97	1003	-1	M_so4__91__e__93__	R_ALAGLUabc
157	97	1004	+1	M_so4__91__e__93__	R_ALAGLY1c
158	98	1005	-1	M_spmd__91__e__93__	R_ALAGLYabc
159	99	1009	-1	M_succ__91__e__93__	R_ALAHIS1c
160	99	1010	+1	M_succ__91__e__93__	R_ALAHISabc
161	102	1049	-1	M_thymd__91__e__93__	R_ALALEU1c
162	102	1050	+1	M_thymd__91__e__93__	R_ALALEUabc
163	100	1051	-1	M_thm__91__e__93__	R_ALAR
164	101	1054	-1	M_thr_L__91__e__93__	R_ALATHR1c
165	101	1055	+1	M_thr_L__91__e__93__	R_ALATHRabc
166	103	1075	-1	M_trp_L__91__e__93__	R_ALAt4r
167	103	1076	+1	M_trp_L__91__e__93__	R_AMAOTr
168	104	1077	-1	M_ttdca__91__e__93__	R_AMID
169	105	1078	-1	M_tym__91__e__93__	R_AMID2
170	105	1079	+1	M_tym__91__e__93__	R_AMID4
171	106	1082	-1	M_tyr_L__91__e__93__	R_AMID5
172	106	1083	+1	M_tyr_L__91__e__93__	R_AMPMS2
173	107	1117	-1	M_ura__91__e__93__	R_AMPTASECG
174	108	1124	-1	M_uri__91__e__93__	R_AMPTASEGC
175	108	1125	+1	M_uri__91__e__93__	R_AMPt2
176	109	1129	-1	M_val_L__91__e__93__	R_AOXSr
177	109	1130	-1	M_val_L__91__e__93__	R_AOXSr2
178	109	1131	+1	M_val_L__91__e__93__	R_APRAUR
179	110	1132	-1	M_xan__91__e__93__	R_ARGSL
180	111	1140	-1	M_zn2__91__e__93__	R_ARGSSr
181	41	1153	-1	M_glu_L__91__e__93__	R_ASAD
182	74	1153	-1	M_na1__91__e__93__	R_ASAD
183	25	1154	-1	M_cl__91__e__93__	R_ASNt2r
184	25	1155	+1	M_cl__91__e__93__	R_ASPCT
