CNC	distance
0.011885	0.15024
0.0121444	5.38319e+303
0.0124094	5.38319e+303
0.0126802	5.38319e+303
0.0129569	5.38319e+303
0.0132396	5.38319e+303
0.0135285	5.38319e+303
0.0138237	0.148775
0.0138985	5.38319e+303
0.0139737	5.38319e+303
0.0140494	0.148768
0.0142018	5.38319e+303
0.0142787	5.38319e+303
0.0143559	5.38319e+303
0.0144336	5.38319e+303
0.0145117	0.286656
0.0145902	5.38319e+303
0.0147486	0.286667
0.0147486	5.38319e+303
0.0149086	5.38319e+303
0.0150704	5.38319e+303
0.0152339	5.38319e+303
0.0153993	5.38319e+303
0.0160787	5.38319e+303
0.016788	5.38319e+303
0.0175287	5.38319e+303
0.0183021	5.38319e+303
0.021752	5.38319e+303
0.0237137	5.38319e+303
0.0258523	5.38319e+303
0.0334965	0.285773
0.0473151	5.38319e+303
inf	0.839317
inf	0.839317
inf	0.839317
inf	0.839317
inf	0.839317
inf	0.839317
inf	0.839317
inf	0.839317
inf	0.839317
inf	0.839317
inf	0.839317
inf	0.839317
inf	0.839317
inf	0.839317
inf	0.839317
inf	0.839317
inf	0.839317
inf	0.839317
inf	0.839317
inf	0.839317
inf	0.839317
inf	0.839317
inf	0.839317
inf	0.839317
inf	0.839317
inf	0.839317
inf	0.839317
inf	0.839317
inf	0.839317
inf	0.839317
inf	0.839317
inf	0.839317
inf	0.839317
inf	0.839317
inf	0.839317
inf	0.839317
inf	0.839317
inf	0.839317
inf	0.839317
inf	0.839317
0.01	0.151575
0.0141254	5.38319e+303
0.0199526	5.38319e+303
0.0281838	5.38319e+303
0.0398107	0.285407
0.0562341	5.38319e+303
0.0794328	0.283167
0.112202	5.38319e+303
0.158489	5.20307e+180
0.223872	0.274486
