

###############################################################################
Peregrine Cluster
Job 18177344 for user 's4278836'
Finished at: Thu Feb 25 00:34:21 CET 2021

Job details:
============

Job ID              : 18177344
Name                : Communism
User                : s4278836
Partition           : regular
Nodes               : pg-node102
Number of Nodes     : 1
Cores               : 2
State               : COMPLETED
Submit              : 2021-02-24T22:48:43
Start               : 2021-02-24T23:46:13
End                 : 2021-02-25T00:34:21
Reserved walltime   : 1-00:00:00
Used walltime       :   00:48:08
Used CPU time       :   01:01:20 (efficiency: 63.71%)
% User (Computation): 88.46%
% System (I/O)      : 11.56%
Mem reserved        : 16G/node
Max Mem used        : 7.40G (pg-node102)
Max Disk Write      : 0.00  (pg-node102)
Max Disk Read       : 61.44K (pg-node102)
Hints and tips      :
 1) The program efficiency is low. Your program is not using the assigned cores
    effectively. Please check if you are using all the cores you requested.
    You may also need to check the file in- and output pattern of your program.
 2) You requested much more memory than your program used.
    Please reduce the requested amount of memory.
 *) For more information on these issues see:
    https://wiki.hpc.rug.nl/peregrine/additional_information/job_hints


Acknowledgements:
=================

Please see this page for information about acknowledging Peregrine in your publications:

https://wiki.hpc.rug.nl/peregrine/introduction/scientific_output

################################################################################
