	metabolite_index	reaction_index	stoichiometry	metabolite_id	reaction_id
1	0	1	-1	M_12dgr180__91__e__93__	R_12DGR180ti
2	2	16	-1	M_2dmmq8__91__e__93__	R_1P4H2CBXLAH
3	4	120	-1	M_4hpro_LT__91__e__93__	R_23DHMPO
4	4	121	+1	M_4hpro_LT__91__e__93__	R_23PDE2
5	7	134	-1	M_acald__91__e__93__	R_23PDE4
6	7	135	+1	M_acald__91__e__93__	R_23PDE7
7	6	170	-1	M_ac__91__e__93__	R_23PDE9
8	6	171	+1	M_ac__91__e__93__	R_26DAPLLAT
9	8	178	-1	M_ade__91__e__93__	R_2AHBUTI
10	8	179	+1	M_ade__91__e__93__	R_2DHPL
11	9	198	-1	M_adn__91__e__93__	R_2DMMQ8abc
12	9	199	+1	M_adn__91__e__93__	R_2MBCOATA
13	10	204	-1	M_adocbl__91__e__93__	R_34DHOXPEGOX
14	12	252	-1	M_ala_L__91__e__93__	R_36DAHXI
15	12	253	+1	M_ala_L__91__e__93__	R_3HACPR1
16	13	272	-1	M_amp__91__e__93__	R_3HACPR2
17	14	288	-1	M_arg_L__91__e__93__	R_3HAD10M12
18	15	293	-1	M_asn_L__91__e__93__	R_3HAD11M12
19	15	294	+1	M_asn_L__91__e__93__	R_3HAD12M14
20	16	305	-1	M_asp_L__91__e__93__	R_3HAD13M14
21	16	306	+1	M_asp_L__91__e__93__	R_3HAD14M16
22	17	320	-1	M_ca2__91__e__93__	R_3HAD15M16
23	18	323	-1	M_cbl1__91__e__93__	R_3HAD4M6
24	19	324	-1	M_cbl2__91__e__93__	R_3HAD5M6
25	20	327	+1	M_cd2__91__e__93__	R_3HAD6M8
26	55	328	-1	M_k__91__e__93__	R_3HAD7M8
27	20	328	+1	M_cd2__91__e__93__	R_3HAD7M8
28	55	329	+1	M_k__91__e__93__	R_3HAD8M10
29	20	329	-1	M_cd2__91__e__93__	R_3HAD8M10
30	21	336	-1	M_cgly__91__e__93__	R_3HAD9M10
31	23	341	-1	M_chor__91__e__93__	R_3MOBS
32	23	342	+1	M_chor__91__e__93__	R_3OAACPR1
33	25	366	-1	M_co2__91__e__93__	R_3OAACPR2
34	25	367	+1	M_co2__91__e__93__	R_3OAR100
35	26	368	+1	M_cobalt2__91__e__93__	R_3OAR10M11
36	26	369	-1	M_cobalt2__91__e__93__	R_3OAR10M12
37	27	381	+1	M_cro4__91__e__93__	R_3OAR11M12
38	27	382	-1	M_cro4__91__e__93__	R_3OAR120
39	29	400	-1	M_cytd__91__e__93__	R_3OAR12M13
40	29	401	+1	M_cytd__91__e__93__	R_3OAR12M14
41	26	406	-1	M_cobalt2__91__e__93__	R_3OAR13M14
42	28	407	-1	M_cu2__91__e__93__	R_3OAR140
43	28	408	+1	M_cu2__91__e__93__	R_3OAR14M15
44	30	409	-1	M_dad_2__91__e__93__	R_3OAR14M16
45	30	410	+1	M_dad_2__91__e__93__	R_3OAR15M16
46	11	411	-1	M_ala_D__91__e__93__	R_3OAR160
47	11	412	+1	M_ala_D__91__e__93__	R_3OAR180
48	1	418	-1	M_26dap_M__91__e__93__	R_3OAR40
49	31	438	-1	M_dcyt__91__e__93__	R_3OAR4M5
50	31	439	+1	M_dcyt__91__e__93__	R_3OAR4M6
51	33	449	-1	M_dgsn__91__e__93__	R_3OAR5M6
52	34	474	-1	M_din__91__e__93__	R_3OAR60
53	35	496	-1	M_duri__91__e__93__	R_3OAR6M7
54	56	502	-1	M_lac_D__91__e__93__	R_3OAR6M8
55	56	503	+1	M_lac_D__91__e__93__	R_3OAR7M8
56	36	578	-1	M_fe2__91__e__93__	R_3OAR80
57	37	579	-1	M_fe3__91__e__93__	R_3OAR8M10
58	38	585	-1	M_fol__91__e__93__	R_3OAR8M9
59	38	586	+1	M_fol__91__e__93__	R_3OAR9M10
60	39	589	-1	M_for__91__e__93__	R_3OAS100
61	39	590	+1	M_for__91__e__93__	R_3OAS10M11
62	40	604	-1	M_fum__91__e__93__	R_3OAS10M12
63	40	605	+1	M_fum__91__e__93__	R_3OAS11M12
64	41	646	-1	M_gcald__91__e__93__	R_3OAS120
65	41	647	+1	M_gcald__91__e__93__	R_3OAS12M13
66	43	673	-1	M_gln_L__91__e__93__	R_3OAS12M14
67	43	674	+1	M_gln_L__91__e__93__	R_3OAS13M14
68	44	675	-1	M_glu_L__91__e__93__	R_3OAS140
69	3	675	+1	M_4abut__91__e__93__	R_3OAS140
70	44	676	+1	M_glu_L__91__e__93__	R_3OAS160
71	3	676	-1	M_4abut__91__e__93__	R_3OAS160
72	44	690	-1	M_glu_L__91__e__93__	R_3OAS180
73	44	691	+1	M_glu_L__91__e__93__	R_3OAS2M3
74	46	701	+1	M_glyc__91__e__93__	R_3OAS3M4
75	46	702	-1	M_glyc__91__e__93__	R_3OAS4M3O6
76	47	728	-1	M_gthrd__91__e__93__	R_3OAS4M5
77	48	735	-1	M_gua__91__e__93__	R_3OAS4M6
78	48	736	+1	M_gua__91__e__93__	R_3OAS5M6
79	48	737	-1	M_gua__91__e__93__	R_3OAS60
80	49	761	-1	M_hdca__91__e__93__	R_3OAS6M7
81	73	762	-1	M_pheme__91__e__93__	R_3OAS6M8
82	50	774	+1	M_hg2__91__e__93__	R_3OAS7M8
83	55	782	-1	M_k__91__e__93__	R_3OAS80
84	51	809	-1	M_indole__91__e__93__	R_3OAS8M10
85	51	810	+1	M_indole__91__e__93__	R_3OAS8M9
86	52	812	-1	M_ins__91__e__93__	R_3OAS9M10
87	52	813	+1	M_ins__91__e__93__	R_4HBZCL
88	53	826	-1	M_isocapr__91__e__93__	R_4HPRO_LTt
89	53	827	+1	M_isocapr__91__e__93__	R_4HTHRS
90	54	829	-1	M_isoval__91__e__93__	R_4NTPPH2
91	54	830	+1	M_isoval__91__e__93__	R_5AIZCDC
92	55	848	-1	M_k__91__e__93__	R_A5PISO
93	55	849	+1	M_k__91__e__93__	R_AACGLYDH
94	55	850	+1	M_k__91__e__93__	R_AACOAT
95	57	862	-1	M_leu_L__91__e__93__	R_AACPS6
96	57	863	+1	M_leu_L__91__e__93__	R_ABUTD
97	58	868	-1	M_lys_L__91__e__93__	R_ABUTR
98	58	869	+1	M_lys_L__91__e__93__	R_ACALDt
99	59	908	-1	M_met_L__91__e__93__	R_ACBIPGT
100	59	909	+1	M_met_L__91__e__93__	R_ACCOAC
101	60	911	-1	M_mg2__91__e__93__	R_ACCOACL
102	60	913	+1	M_mg2__91__e__93__	R_ACCOALYS2
103	60	914	-1	M_mg2__91__e__93__	R_ACGAM2E
104	62	918	+1	M_mqn8__91__e__93__	R_ACGAMH
105	62	919	-1	M_mqn8__91__e__93__	R_ACGAMT
106	61	935	-1	M_mn2__91__e__93__	R_ACGK
107	64	949	+1	M_nac__91__e__93__	R_ACGS
108	64	950	-1	M_nac__91__e__93__	R_ACHBPL
109	63	961	+1	M_na1__91__e__93__	R_ACKr
110	63	962	-1	M_na1__91__e__93__	R_ACLS_a
111	65	963	+1	M_ncam__91__e__93__	R_ACLS_b
112	65	964	-1	M_ncam__91__e__93__	R_ACNAMS
113	66	984	-1	M_nh4__91__e__93__	R_ACNML
114	66	985	+1	M_nh4__91__e__93__	R_ACOAAGPATAI17
115	67	1010	-1	M_o2__91__e__93__	R_ACOAAGPATI17
116	67	1011	+1	M_o2__91__e__93__	R_ACOAD1
117	68	1019	-1	M_ocdca__91__e__93__	R_ACOAD20
118	69	1020	-1	M_ocdcea__91__e__93__	R_ACOADH2
119	69	1021	+1	M_ocdcea__91__e__93__	R_ACOATA
120	71	1052	+1	M_pb__91__e__93__	R_ACOCT
121	72	1093	-1	M_phe_L__91__e__93__	R_ACODAr
122	72	1094	+1	M_phe_L__91__e__93__	R_ACOTA
123	74	1100	-1	M_pi__91__e__93__	R_ACPS1
124	63	1101	-3	M_na1__91__e__93__	R_ACS
125	74	1101	-1	M_pi__91__e__93__	R_ACS
126	75	1120	+1	M_ppa__91__e__93__	R_ACt2r
127	76	1150	-1	M_pro_L__91__e__93__	R_ADAD
128	76	1151	+1	M_pro_L__91__e__93__	R_ADCPS1
129	77	1204	-1	M_pydam__91__e__93__	R_ADCPS2
130	79	1207	-1	M_pydxn__91__e__93__	R_ADCYRS
131	78	1208	-1	M_pydx__91__e__93__	R_ADD
132	80	1212	-1	M_q8__91__e__93__	R_ADEt2r
133	81	1243	-1	M_ser_L__91__e__93__	R_ADK1
134	81	1244	+1	M_ser_L__91__e__93__	R_ADK10
135	82	1247	-1	M_sheme__91__e__93__	R_ADK11
136	83	1251	-1	M_so4__91__e__93__	R_ADK2
137	83	1252	+1	M_so4__91__e__93__	R_ADK3
138	84	1253	-1	M_spmd__91__e__93__	R_ADK5
139	85	1261	-1	M_succ__91__e__93__	R_ADK7
140	85	1262	+1	M_succ__91__e__93__	R_ADK8
141	83	1271	-1	M_so4__91__e__93__	R_ADK9
142	91	1300	-1	M_thymd__91__e__93__	R_ADNCNT3tc
143	91	1301	+1	M_thymd__91__e__93__	R_ADNK1
144	89	1302	-1	M_thm__91__e__93__	R_ADOCBIK
145	89	1303	+1	M_thm__91__e__93__	R_ADOCBIK2
146	90	1309	-1	M_thr_L__91__e__93__	R_ADOCBLS
147	90	1310	+1	M_thr_L__91__e__93__	R_ADOCBLabc
148	92	1336	-1	M_trp_L__91__e__93__	R_ADPRDP
149	92	1337	+1	M_trp_L__91__e__93__	R_ADSELK
150	93	1338	-1	M_ttdca__91__e__93__	R_ADSK
151	94	1371	-1	M_ura__91__e__93__	R_ADSL1r
152	95	1374	-1	M_urea__91__e__93__	R_ADSL2r
153	95	1375	+1	M_urea__91__e__93__	R_ADSS
154	96	1393	-1	M_uri__91__e__93__	R_AGMHE
155	96	1394	+1	M_uri__91__e__93__	R_AGMT
156	97	1400	-1	M_val_L__91__e__93__	R_AGPAT180
157	97	1401	+1	M_val_L__91__e__93__	R_AGPR
158	98	1402	-1	M_xan__91__e__93__	R_AHCYSNS_r
159	55	1410	-1	M_k__91__e__93__	R_AHEXASE3
160	99	1410	+1	M_zn2__91__e__93__	R_AHEXASE3
161	55	1411	+1	M_k__91__e__93__	R_AHMMPS
162	99	1411	-1	M_zn2__91__e__93__	R_AHMMPS
163	99	1412	-1	M_zn2__91__e__93__	R_AICART
164	44	1435	-1	M_glu_L__91__e__93__	R_AIHPDCOATA
165	63	1435	-1	M_na1__91__e__93__	R_AIHPDCOATA
166	14	1438	-1	M_arg_L__91__e__93__	R_AIPDCOATA
167	70	1438	+1	M_orn__91__e__93__	R_AIPDCOATA
168	14	1439	+1	M_arg_L__91__e__93__	R_AIRC4
169	70	1439	-1	M_orn__91__e__93__	R_AIRC4
170	24	1440	-1	M_cl__91__e__93__	R_AKP1
171	24	1441	+1	M_cl__91__e__93__	R_ALAALA
