CNC	distance
0.266073	0.0773446
0.316228	0.0677853
0.375837	0.0574255
0.446684	0.0463275
0.530884	0.0344798
0.630957	0.0221681
0.749894	0.0141733
0.891251	0.0122453
0.900923	0.0127621
0.910699	0.0123833
0.920582	0.0121352
0.925564	0.012182
0.930572	0.0123339
0.935608	0.0125979
0.94067	0.0127982
0.945761	0.0133128
0.950878	0.0124855
0.956024	0.0120636
0.961197	0.0123358
0.966399	0.0138458
0.971628	0.0128319
0.982172	0.012871
0.99283	0.0125289
1.0145	0.0140161
1.03663	0.0136625
1.05925	0.0123509
1.08237	0.01241
1.10599	0.0129475
1.15478	0.0131686
1.20573	0.0159478
1.25893	0.0189348
1.31447	0.0220763
1.37246	0.0253353
1.49624	0.0321127
1.63117	0.0391329
1.77828	0.0463158
1.93865	0.0536082
inf	0.839318
inf	0.839318
inf	0.839317
inf	0.839318
inf	0.839318
inf	0.839318
inf	0.839317
inf	0.839318
inf	0.839317
inf	0.839318
inf	0.839317
inf	0.839317
inf	0.839317
inf	0.839317
inf	0.839317
inf	0.839317
inf	0.839317
inf	0.839317
inf	0.839317
inf	0.839317
inf	0.839318
inf	0.839318
inf	0.839347
inf	0.839347
inf	0.839317
inf	0.839317
inf	0.839317
inf	0.839317
inf	0.839318
inf	0.839317
inf	0.839317
inf	0.839317
inf	0.839317
inf	0.839317
inf	0.839317
inf	0.839317
inf	0.839317
inf	0.839317
inf	0.839317
inf	0.839317
0.01	0.153592
0.0141254	0.151271
0.0199526	0.148254
0.0281838	0.144327
0.0398107	0.139272
0.0562341	0.13281
0.0794328	0.124573
0.112202	0.114297
0.158489	0.101607
0.223872	0.086168
