CNC	distance
0.122321	0.119929
0.127717	0.179689
0.133352	0.17913
0.139236	0.116193
0.145378	0.178622
0.151792	0.113705
0.165482	0.111873
0.172783	0.178879
0.180406	0.108165
0.184342	0.106537
0.188365	0.178493
0.188365	0.179249
0.192475	0.180037
0.196675	0.177495
0.200967	0.212953
0.205353	0.179297
0.205353	0.100866
0.209834	0.100152
0.214412	0.0950104
0.215573	0.178913
0.216739	0.179403
0.217912	0.0984178
0.219091	0.177192
0.220277	0.116734
0.221469	0.0988391
0.222667	0.0974058
0.223872	0.177264
0.225084	0.17748
0.226302	0.180805
0.228757	0.180313
0.23124	0.17785
0.233749	0.0950765
0.236286	0.0955426
0.244062	0.177153
0.266073	0.176484
0.316228	0.177749
0.375837	0.17401
0.446684	0.169907
0.530884	0.164873
inf	0.839317
inf	0.839317
inf	0.839317
inf	0.839317
inf	0.839317
inf	0.839317
inf	0.839317
inf	0.839317
inf	0.839317
inf	0.839317
inf	0.839317
inf	0.839317
inf	0.839317
inf	0.839317
inf	0.839317
inf	0.839317
inf	0.839317
inf	0.839317
inf	0.839317
inf	0.839317
inf	0.839317
inf	0.839317
inf	0.839317
inf	0.839317
inf	0.839317
inf	0.839317
inf	0.839317
inf	0.839317
inf	0.839317
inf	0.839317
inf	0.839317
inf	0.839317
inf	0.839317
inf	0.839317
inf	0.839317
inf	0.839317
inf	0.839317
inf	0.839317
inf	0.839317
inf	0.839317
0.01	0.15452
0.0141254	0.152672
0.0199526	0.150072
0.0281838	0.147188
0.0398107	0.142779
0.0562341	0.220518
0.0794328	0.13176
0.112202	0.123936
0.158489	5.38319e+303
0.223872	0.18088
