	metabolite_index	reaction_index	stoichiometry	metabolite_id	reaction_id
1	0	123	-1	M_4abz__91__e__93__	R_23DHMPO
2	3	154	-1	M_acald__91__e__93__	R_26DAPLLAT
3	3	155	+1	M_acald__91__e__93__	R_2AHBUTI
4	2	183	-1	M_ac__91__e__93__	R_2HYDOGCOAD
5	2	184	+1	M_ac__91__e__93__	R_2HYDOGCOAT
6	4	205	-1	M_adocbl__91__e__93__	R_2HYDOGDH
7	6	232	-1	M_alaasp__91__e__93__	R_2MBCOATA
8	7	243	-1	M_alahis__91__e__93__	R_3BTCOAI
9	5	252	-1	M_ala_L__91__e__93__	R_3HAD100
10	5	253	+1	M_ala_L__91__e__93__	R_3HAD10M11
11	8	284	-1	M_arbt__91__e__93__	R_3HAD10M12
12	9	290	-1	M_arg_L__91__e__93__	R_3HAD11M12
13	10	291	-1	M_arsenb__91__e__93__	R_3HAD120
14	10	292	-1	M_arsenb__91__e__93__	R_3HAD12M13
15	10	293	+1	M_arsenb__91__e__93__	R_3HAD12M14
16	11	297	-1	M_asn_L__91__e__93__	R_3HAD13M14
17	11	298	+1	M_asn_L__91__e__93__	R_3HAD140
18	12	305	-1	M_asp_L__91__e__93__	R_3HAD14M15
19	12	306	+1	M_asp_L__91__e__93__	R_3HAD14M16
20	13	313	-1	M_btn__91__e__93__	R_3HAD15M16
21	15	318	-1	M_butso3__91__e__93__	R_3HAD160
22	14	319	-1	M_but__91__e__93__	R_3HAD180
23	14	320	+1	M_but__91__e__93__	R_3HAD40
24	16	321	-1	M_ca2__91__e__93__	R_3HAD4M5
25	17	322	-1	M_cbl1__91__e__93__	R_3HAD4M6
26	18	323	-1	M_cbl2__91__e__93__	R_3HAD5M6
27	19	327	+1	M_cd2__91__e__93__	R_3HAD60
28	20	329	-1	M_cgly__91__e__93__	R_3HAD6M7
29	23	334	-1	M_co2__91__e__93__	R_3HAD6M8
30	23	335	+1	M_co2__91__e__93__	R_3HAD7M8
31	25	337	+1	M_cro4__91__e__93__	R_3HAD80
32	25	338	-1	M_cro4__91__e__93__	R_3HAD8M10
33	26	339	-1	M_ctbt__91__e__93__	R_3HAD8M9
34	28	343	-1	M_cys_L__91__e__93__	R_3HAD9M10
35	28	344	+1	M_cys_L__91__e__93__	R_3HBCD
36	24	354	-1	M_cobalt2__91__e__93__	R_3MOBS
37	27	355	-1	M_cu2__91__e__93__	R_3OAR100
38	27	356	+1	M_cu2__91__e__93__	R_3OAR10M11
39	29	410	-1	M_dpcoa__91__e__93__	R_3OAR10M12
40	30	414	-1	M_dtmp__91__e__93__	R_3OAR11M12
41	30	415	+1	M_dtmp__91__e__93__	R_3OAR120
42	53	421	-1	M_lac_D__91__e__93__	R_3OAR12M13
43	53	422	+1	M_lac_D__91__e__93__	R_3OAR12M14
44	31	431	-1	M_ethso3__91__e__93__	R_3OAR13M14
45	32	432	-1	M_etoh__91__e__93__	R_3OAR140
46	32	433	+1	M_etoh__91__e__93__	R_3OAR14M15
47	33	465	-1	M_fe2__91__e__93__	R_3OAR14M16
48	34	466	-1	M_fe3__91__e__93__	R_3OAR15M16
49	35	471	-1	M_for__91__e__93__	R_3OAR160
50	35	472	+1	M_for__91__e__93__	R_3OAR180
51	36	476	-1	M_fru__91__e__93__	R_3OAR40
52	37	481	-1	M_fum__91__e__93__	R_3OAR4M5
53	37	482	+1	M_fum__91__e__93__	R_3OAR4M6
54	38	516	-1	M_gbbtn__91__e__93__	R_3OAR5M6
55	39	528	-1	M_gln_L__91__e__93__	R_3OAR60
56	64	542	+1	M_na1__91__e__93__	R_3OAR6M7
57	41	545	-1	M_glutar__91__e__93__	R_3OAR6M8
58	41	546	+1	M_glutar__91__e__93__	R_3OAR7M8
59	40	549	-1	M_glu_L__91__e__93__	R_3OAR80
60	40	550	+1	M_glu_L__91__e__93__	R_3OAR8M10
61	43	556	-1	M_glyb__91__e__93__	R_3OAR8M9
62	43	557	-1	M_glyb__91__e__93__	R_3OAR9M10
63	43	558	+1	M_glyb__91__e__93__	R_3OAS100
64	42	578	-1	M_gly__91__e__93__	R_3OAS10M11
65	64	578	-1	M_na1__91__e__93__	R_3OAS10M11
66	42	579	+1	M_gly__91__e__93__	R_3OAS10M12
67	64	579	+1	M_na1__91__e__93__	R_3OAS10M12
68	45	589	-1	M_h2s__91__e__93__	R_3OAS11M12
69	45	590	+1	M_h2s__91__e__93__	R_3OAS120
70	44	591	+1	M_h2__91__e__93__	R_3OAS12M13
71	44	592	-1	M_h2__91__e__93__	R_3OAS12M14
72	46	599	-1	M_hexs__91__e__93__	R_3OAS13M14
73	47	600	+1	M_hg2__91__e__93__	R_3OAS140
74	48	607	-1	M_his_L__91__e__93__	R_3OAS160
75	48	608	+1	M_his_L__91__e__93__	R_3OAS180
76	49	623	-1	M_hxan__91__e__93__	R_3OAS2M3
77	49	624	+1	M_hxan__91__e__93__	R_3OAS3M4
78	50	637	-1	M_ile_L__91__e__93__	R_3OAS4M3O6
79	50	638	-1	M_ile_L__91__e__93__	R_3OAS4M5
80	50	639	+1	M_ile_L__91__e__93__	R_3OAS4M6
81	51	654	-1	M_isetac__91__e__93__	R_3OAS5M6
82	52	672	-1	M_k__91__e__93__	R_3OAS60
83	52	673	+1	M_k__91__e__93__	R_3OAS6M7
84	52	674	+1	M_k__91__e__93__	R_3OAS6M8
85	1	679	-1	M_Lcyst__91__e__93__	R_3OAS7M8
86	54	687	-1	M_leu_L__91__e__93__	R_3OAS80
87	54	688	-1	M_leu_L__91__e__93__	R_3OAS8M10
88	54	689	+1	M_leu_L__91__e__93__	R_3OAS8M9
89	55	694	+1	M_lys_L__91__e__93__	R_3OAS9M10
90	55	695	-1	M_lys_L__91__e__93__	R_4ABZt2
91	56	714	-1	M_met_D__91__e__93__	R_4HTHRS
92	59	718	-1	M_metsox_S_L__91__e__93__	R_4NTPPH2
93	58	719	-1	M_metsox_R_L__91__e__93__	R_5AIZCDC
94	57	720	-1	M_met_L__91__e__93__	R_5GLUP5T1
95	60	721	-1	M_mg2__91__e__93__	R_5GLUP5T2
96	60	722	+1	M_mg2__91__e__93__	R_A5PISO
97	60	723	-1	M_mg2__91__e__93__	R_AACGLYDH
98	61	724	-1	M_mn2__91__e__93__	R_AADSACYCL
99	62	725	-1	M_mops__91__e__93__	R_ABUTD
100	63	726	-1	M_mso3__91__e__93__	R_ABUTR
101	65	733	+1	M_nac__91__e__93__	R_ACACT1r
102	65	734	-1	M_nac__91__e__93__	R_ACACT2r
103	64	740	+1	M_na1__91__e__93__	R_ACACT3r
104	64	741	-1	M_na1__91__e__93__	R_ACACT4r
105	66	760	-1	M_nh4__91__e__93__	R_ACACT5r
106	66	761	+1	M_nh4__91__e__93__	R_ACACT6r
107	67	762	-1	M_nmn__91__e__93__	R_ACACT7r
108	68	765	-1	M_o2__91__e__93__	R_ACALD
109	68	766	+1	M_o2__91__e__93__	R_ACALDt
110	70	786	+1	M_pb__91__e__93__	R_ACCOAC
111	71	812	-1	M_pi__91__e__93__	R_ACCOACL
112	64	813	-3	M_na1__91__e__93__	R_ACGAMT
113	71	813	-1	M_pi__91__e__93__	R_ACGAMT
114	72	821	-1	M_pnto_R__91__e__93__	R_ACGK
115	64	846	-1	M_na1__91__e__93__	R_ACHBPL
116	73	846	-1	M_pro_L__91__e__93__	R_ACHBPL
117	64	847	+1	M_na1__91__e__93__	R_ACKr
118	73	847	+1	M_pro_L__91__e__93__	R_ACKr
119	74	871	-1	M_ptrc__91__e__93__	R_ACLS_a
120	75	875	-1	M_pydx__91__e__93__	R_ACLS_b
121	75	876	+1	M_pydx__91__e__93__	R_ACOAD1
122	76	890	-1	M_ribflv__91__e__93__	R_ACOAD20
123	76	891	+1	M_ribflv__91__e__93__	R_ACOADH2
124	77	907	-1	M_salcn__91__e__93__	R_ACOATA
125	78	908	-1	M_ser_L__91__e__93__	R_ACOCT
126	78	909	+1	M_ser_L__91__e__93__	R_ACONT
127	79	919	-1	M_so4__91__e__93__	R_ACONTa
128	79	920	+1	M_so4__91__e__93__	R_ACONTb
129	80	921	-1	M_spmd__91__e__93__	R_ACOTA
130	81	924	-1	M_succ__91__e__93__	R_ACPS1
131	81	925	+1	M_succ__91__e__93__	R_ACt2r
132	82	930	-1	M_sulfac__91__e__93__	R_ADCS
133	83	938	-1	M_taur__91__e__93__	R_ADK1
134	84	966	-1	M_thymd__91__e__93__	R_ADK10
135	84	967	+1	M_thymd__91__e__93__	R_ADK11
136	85	988	-1	M_trp_L__91__e__93__	R_ADK2
137	85	989	+1	M_trp_L__91__e__93__	R_ADK3
138	86	1028	-1	M_ura__91__e__93__	R_ADK5
139	87	1030	-1	M_urea__91__e__93__	R_ADK7
140	87	1031	+1	M_urea__91__e__93__	R_ADK8
141	88	1042	-1	M_val_L__91__e__93__	R_ADK9
142	88	1043	-1	M_val_L__91__e__93__	R_ADNCYC
143	88	1044	+1	M_val_L__91__e__93__	R_ADOCBLabc
144	89	1045	-1	M_xan__91__e__93__	R_ADPRDP
145	89	1046	+1	M_xan__91__e__93__	R_ADPT
146	90	1050	-1	M_zn2__91__e__93__	R_ADSL1r
147	21	1072	-1	M_cit__91__e__93__	R_ADSL2r
148	21	1073	+1	M_cit__91__e__93__	R_ADSS
149	40	1074	-1	M_glu_L__91__e__93__	R_AGDC
150	64	1074	-1	M_na1__91__e__93__	R_AGDC
151	9	1075	-1	M_arg_L__91__e__93__	R_AGMHE
152	69	1075	+1	M_orn__91__e__93__	R_AGMHE
153	9	1076	+1	M_arg_L__91__e__93__	R_AGPR
154	69	1076	-1	M_orn__91__e__93__	R_AGPR
155	22	1077	-1	M_cl__91__e__93__	R_AHMMPS
156	22	1078	+1	M_cl__91__e__93__	R_AHSERL2
