CNC	distance
0.0415671	0.179894
0.043401	0.129943
0.0453158	0.116915
0.0455611	0.117277
0.0458076	0.159624
0.0460555	0.131628
0.0463047	0.193543
0.0465553	0.190279
0.0468072	0.264463
0.0470605	0.116161
0.0473151	0.159293
0.0475712	0.129698
0.0478286	0.159266
0.0483476	0.159196
0.0488723	0.129148
0.0494026	0.158621
0.0499387	0.130816
0.0504807	0.158945
0.0515822	0.178385
0.0527078	0.173032
0.053858	0.184245
0.0550332	0.17777
0.0587151	0.128595
0.0613056	0.156859
0.0668344	0.131336
0.0728618	0.177644
0.0865964	0.153698
0.0944061	0.167027
0.133352	0.169303
0.188365	0.149722
inf	0.839317
inf	0.839317
inf	0.839317
inf	0.839317
inf	0.839317
inf	0.839317
inf	0.839317
inf	0.839317
inf	0.839317
inf	0.839317
inf	0.839317
inf	0.839318
inf	0.839318
inf	0.839318
inf	0.839317
inf	0.839317
inf	0.839317
inf	0.839317
inf	0.839317
inf	0.839317
inf	0.839317
inf	0.839317
inf	0.839317
inf	0.839317
inf	0.839317
inf	0.839318
inf	0.839317
inf	0.839317
inf	0.839317
inf	0.839317
inf	0.839317
inf	0.839317
inf	0.839317
inf	0.839317
inf	0.839317
inf	0.839317
inf	0.839317
inf	0.839317
inf	0.839317
inf	0.839317
0.01	0.147053
0.0141254	0.200555
0.0199526	0.136756
0.0281838	0.130091
0.0398107	0.126642
0.0562341	0.128724
0.0794328	0.170997
0.112202	0.183293
0.158489	0.177224
0.223872	0.16121
