CNC	distance
0.266073	0.139976
0.316228	0.13681
0.375837	0.133324
0.446684	0.129777
0.530884	0.125934
0.630957	0.121947
0.749894	0.116684
0.891251	0.110782
1.05925	0.103977
1.15478	0.100831
1.25893	0.0971188
1.37246	0.0930755
1.49624	0.090639
1.63117	0.0865403
1.77828	0.0821307
1.93865	0.0778371
2.11349	0.0752174
2.30409	0.0680713
2.40575	0.0677327
2.51189	0.0680544
2.62271	0.0656245
2.73842	0.0630928
2.85924	0.0601582
2.98538	0.0586221
3.11709	0.0547848
3.25462	0.0519234
3.39821	0.0490708
3.47236	0.0477522
3.54813	0.0455867
3.62556	0.0447499
3.70467	0.0442264
3.78552	0.0417919
3.86812	0.0405376
3.95253	0.0391671
4.03878	0.0380831
4.12691	0.0355908
4.17169	0.03628
4.21697	0.0345854
4.26273	0.033354
4.30899	0.031957
4.35575	0.0330577
4.40301	0.0298938
4.45079	0.0287405
4.49909	0.0290827
4.54792	0.0279862
4.57253	0.0272579
4.59727	0.0279646
4.62215	0.0279916
4.64716	0.0259401
4.67231	0.0272843
4.69759	0.0255826
4.72301	0.0255403
4.74857	0.0244705
4.77426	0.0245188
inf	0.839317
inf	0.839317
inf	0.839317
inf	0.839317
inf	0.839317
inf	0.839317
inf	0.839317
inf	0.839317
inf	0.839317
inf	0.839317
inf	0.839317
inf	0.839317
inf	0.839317
inf	0.839317
inf	0.839317
inf	0.839317
inf	0.839317
inf	0.839317
inf	0.839317
inf	0.839317
inf	0.839317
inf	0.839317
inf	0.839317
inf	0.839317
inf	0.839317
inf	0.839317
inf	0.839317
inf	0.839317
inf	0.839317
inf	0.839317
inf	0.839317
inf	0.839317
inf	0.839317
inf	0.839317
inf	0.839317
inf	0.839317
inf	0.839317
inf	0.839317
inf	0.839317
inf	0.839317
0.01	0.159225
0.0141254	0.158723
0.0199526	0.158043
0.0281838	0.157146
0.0398107	4.98073e+238
0.0562341	0.154511
0.0794328	0.152494
0.112202	3.42826e+238
0.158489	0.146702
0.223872	0.142165
