	metabolite_index	reaction_index	stoichiometry	metabolite_id	reaction_id
1	0	1	-1	M_12ppd_S__91__e__93__	R_12PPDt
2	0	2	+1	M_12ppd_S__91__e__93__	R_15DAPt
3	1	3	+1	M_15dap__91__e__93__	R_23DHMPO
4	5	136	-1	M_4hbz__91__e__93__	R_23PDE2
5	5	137	+1	M_4hbz__91__e__93__	R_23PDE4
6	6	138	-1	M_4hoxpacd__91__e__93__	R_23PDE7
7	6	139	+1	M_4hoxpacd__91__e__93__	R_23PDE9
8	46	155	-1	M_cholate__91__e__93__	R_2AHBUTI
9	8	155	+1	M_7ocholate__91__e__93__	R_2AHBUTI
10	46	156	+1	M_cholate__91__e__93__	R_2DH3DGLCA
11	8	156	-1	M_7ocholate__91__e__93__	R_2DH3DGLCA
12	4	167	-1	M_4abut__91__e__93__	R_2MBCOATA
13	12	184	-1	M_acac__91__e__93__	R_2OMMBOX
14	12	185	+1	M_acac__91__e__93__	R_2OMPHH
15	13	188	-1	M_acald__91__e__93__	R_3CARLPDH
16	13	189	+1	M_acald__91__e__93__	R_3DGUR
17	14	195	-1	M_acgal__91__e__93__	R_3HACPR1
18	14	196	+1	M_acgal__91__e__93__	R_3HACPR2
19	15	198	-1	M_acgam__91__e__93__	R_3HAD100
20	16	208	-1	M_acnam__91__e__93__	R_3HAD10M11
21	11	249	-1	M_ac__91__e__93__	R_3HAD10M12
22	11	250	+1	M_ac__91__e__93__	R_3HAD11M12
23	17	275	-1	M_adn__91__e__93__	R_3HAD120
24	17	276	+1	M_adn__91__e__93__	R_3HAD12M13
25	18	282	-1	M_adocbl__91__e__93__	R_3HAD12M14
26	19	316	-1	M_akg__91__e__93__	R_3HAD13M14
27	19	317	+1	M_akg__91__e__93__	R_3HAD140
28	22	322	-1	M_alaasp__91__e__93__	R_3HAD14M15
29	23	327	-1	M_alagln__91__e__93__	R_3HAD14M16
30	24	330	-1	M_alaglu__91__e__93__	R_3HAD15M16
31	25	333	-1	M_alagly__91__e__93__	R_3HAD160
32	26	336	-1	M_alahis__91__e__93__	R_3HAD180
33	27	339	-1	M_alaleu__91__e__93__	R_3HAD40
34	28	346	-1	M_alathr__91__e__93__	R_3HAD4M5
35	21	347	-1	M_ala_L__91__e__93__	R_3HAD4M6
36	21	348	+1	M_ala_L__91__e__93__	R_3HAD5M6
37	29	361	-1	M_alltn__91__e__93__	R_3HAD60
38	29	362	+1	M_alltn__91__e__93__	R_3HAD6M7
39	31	398	-1	M_arbt__91__e__93__	R_3HAD6M8
40	30	399	-1	M_arab_L__91__e__93__	R_3HAD7M8
41	30	400	-1	M_arab_L__91__e__93__	R_3HAD80
42	30	401	+1	M_arab_L__91__e__93__	R_3HAD8M10
43	32	407	-1	M_arg_L__91__e__93__	R_3HAD8M9
44	32	408	-1	M_arg_L__91__e__93__	R_3HAD9M10
45	33	414	-1	M_asn_L__91__e__93__	R_3HBCOAE
46	33	415	+1	M_asn_L__91__e__93__	R_3HCINNMH
47	34	416	-1	M_aso3__91__e__93__	R_3HPPPNH
48	34	417	+1	M_aso3__91__e__93__	R_3MOBS
49	35	418	-1	M_aso4__91__e__93__	R_3OAACPR1
50	35	419	+1	M_aso4__91__e__93__	R_3OAACPR2
51	36	430	-1	M_asp_L__91__e__93__	R_3OAR100
52	36	431	-1	M_asp_L__91__e__93__	R_3OAR10M11
53	36	432	-1	M_asp_L__91__e__93__	R_3OAR10M12
54	46	446	-1	M_cholate__91__e__93__	R_3OAR11M12
55	46	447	+1	M_cholate__91__e__93__	R_3OAR120
56	8	448	-1	M_7ocholate__91__e__93__	R_3OAR12M13
57	8	449	+1	M_7ocholate__91__e__93__	R_3OAR12M14
58	37	454	-1	M_btn__91__e__93__	R_3OAR13M14
59	39	457	-1	M_butso3__91__e__93__	R_3OAR140
60	38	458	-1	M_but__91__e__93__	R_3OAR14M15
61	128	459	-1	M_lys_L__91__e__93__	R_3OAR14M16
62	1	459	+1	M_15dap__91__e__93__	R_3OAR14M16
63	128	460	+1	M_lys_L__91__e__93__	R_3OAR15M16
64	1	460	-1	M_15dap__91__e__93__	R_3OAR15M16
65	40	461	-1	M_ca2__91__e__93__	R_3OAR160
66	41	464	-1	M_cbl1__91__e__93__	R_3OAR180
67	42	465	-1	M_cbl2__91__e__93__	R_3OAR40
68	43	474	+1	M_cd2__91__e__93__	R_3OAR4M5
69	9	482	-1	M_C02528__91__e__93__	R_3OAR4M6
70	7	482	+1	M_7dhcdchol__91__e__93__	R_3OAR4M6
71	9	483	+1	M_C02528__91__e__93__	R_3OAR5M6
72	7	483	-1	M_7dhcdchol__91__e__93__	R_3OAR5M6
73	44	487	-1	M_cgly__91__e__93__	R_3OAR60
74	45	488	-1	M_chol__91__e__93__	R_3OAR6M7
75	45	489	+1	M_chol__91__e__93__	R_3OAR6M8
76	47	496	-1	M_cinnm__91__e__93__	R_3OAR7M8
77	47	497	+1	M_cinnm__91__e__93__	R_3OAR80
78	48	499	-1	M_cit__91__e__93__	R_3OAR8M10
79	179	499	+1	M_succ__91__e__93__	R_3OAR8M10
80	48	500	+1	M_cit__91__e__93__	R_3OAR8M9
81	179	500	-1	M_succ__91__e__93__	R_3OAR8M9
82	50	519	-1	M_co2__91__e__93__	R_3OAR9M10
83	50	520	+1	M_co2__91__e__93__	R_3OAS100
84	51	521	+1	M_cobalt2__91__e__93__	R_3OAS10M11
85	51	522	-1	M_cobalt2__91__e__93__	R_3OAS10M12
86	52	531	-1	M_crn__91__e__93__	R_3OAS11M12
87	52	532	-1	M_crn__91__e__93__	R_3OAS120
88	87	532	+1	M_gbbtn__91__e__93__	R_3OAS120
89	52	533	+1	M_crn__91__e__93__	R_3OAS12M13
90	87	533	-1	M_gbbtn__91__e__93__	R_3OAS12M13
91	53	535	-1	M_csn__91__e__93__	R_3OAS12M14
92	54	536	+1	M_ctbt__91__e__93__	R_3OAS13M14
93	56	539	-1	M_cynt__91__e__93__	R_3OAS140
94	57	547	-1	M_cys_L__91__e__93__	R_3OAS160
95	57	548	+1	M_cys_L__91__e__93__	R_3OAS180
96	58	556	-1	M_cytd__91__e__93__	R_3OAS2M3
97	58	557	-1	M_cytd__91__e__93__	R_3OAS3M4
98	147	557	-1	M_na1__91__e__93__	R_3OAS3M4
99	55	562	-1	M_cu2__91__e__93__	R_3OAS4M3O6
100	55	563	+1	M_cu2__91__e__93__	R_3OAS4M5
101	59	566	-1	M_dad_2__91__e__93__	R_3OAS4M6
102	59	567	+1	M_dad_2__91__e__93__	R_3OAS5M6
103	20	575	-1	M_ala_D__91__e__93__	R_3OAS60
104	20	576	+1	M_ala_D__91__e__93__	R_3OAS6M7
105	60	599	-1	M_dcyt__91__e__93__	R_3OAS6M8
106	60	600	+1	M_dcyt__91__e__93__	R_3OAS7M8
107	61	601	-1	M_ddca__91__e__93__	R_3OAS80
108	61	602	+1	M_ddca__91__e__93__	R_3OAS8M10
109	2	604	-1	M_2ddglcn__91__e__93__	R_3OAS8M9
110	2	605	+1	M_2ddglcn__91__e__93__	R_3OAS9M10
111	62	614	-1	M_dgsn__91__e__93__	R_3OXCOAT
112	63	622	-1	M_dhcinnm__91__e__93__	R_4HBZt2
113	63	623	+1	M_dhcinnm__91__e__93__	R_4HOXPACDt2r
114	64	644	-1	M_dhpppn__91__e__93__	R_4HTHRS
115	64	645	+1	M_dhpppn__91__e__93__	R_4NTPPH2
116	65	651	-1	M_din__91__e__93__	R_5AIZCDC
117	67	659	-1	M_dmso__91__e__93__	R_5DGLCNR
118	66	659	+1	M_dms__91__e__93__	R_5DGLCNR
119	67	660	-1	M_dmso__91__e__93__	R_5DOAN
120	66	660	+1	M_dms__91__e__93__	R_5DOAN
121	68	681	-1	M_drib__91__e__93__	R_5GLUP5T1
122	175	684	-1	M_ser_D__91__e__93__	R_5GLUP5T2
123	175	685	+1	M_ser_D__91__e__93__	R_5MTHCYST
124	69	694	-1	M_duri__91__e__93__	R_6PHBG
125	124	700	-1	M_lac_D__91__e__93__	R_6PHBG2
126	124	701	+1	M_lac_D__91__e__93__	R_7AHSDH
127	70	757	-1	M_etha__91__e__93__	R_7AHSDHe
128	71	758	-1	M_ethso3__91__e__93__	R_A5PISO
129	72	759	-1	M_etoh__91__e__93__	R_AACPS7
130	72	760	+1	M_etoh__91__e__93__	R_AACTOOR
131	78	763	-1	M_fuc1p_L__91__e__93__	R_AADSACYCL
132	159	763	+2	M_pi__91__e__93__	R_AADSACYCL
133	78	764	+1	M_fuc1p_L__91__e__93__	R_AB6PGH
134	159	764	-2	M_pi__91__e__93__	R_AB6PGH
135	73	808	-1	M_fe2__91__e__93__	R_AB6PGH2
136	74	809	-1	M_fe3__91__e__93__	R_ABTAr
137	74	810	-1	M_fe3__91__e__93__	R_ABUTD
138	75	811	-1	M_fecrm__91__e__93__	R_ABUTt2
139	48	812	-2	M_cit__91__e__93__	R_ACACCTr
140	74	812	-1	M_fe3__91__e__93__	R_ACACCTr
141	76	819	-1	M_for__91__e__93__	R_ACACT1r
142	76	820	+1	M_for__91__e__93__	R_ACACT2r
143	77	830	-1	M_fru__91__e__93__	R_ACACT3r
144	79	833	-2	M_fuc_L__91__e__93__	R_ACACT4r
145	79	834	+2	M_fuc_L__91__e__93__	R_ACACT5r
146	80	837	-1	M_fum__91__e__93__	R_ACACT6r
147	80	838	+1	M_fum__91__e__93__	R_ACACT7r
148	81	879	-1	M_g6p__91__e__93__	R_ACACt2
149	159	879	+2	M_pi__91__e__93__	R_ACACt2
150	81	880	+1	M_g6p__91__e__93__	R_ACALD
151	159	880	-2	M_pi__91__e__93__	R_ACALD
152	83	882	-1	M_galct_D__91__e__93__	R_ACALDt
153	83	883	+1	M_galct_D__91__e__93__	R_ACBIPGT
154	84	887	-1	M_galctn_D__91__e__93__	R_ACCOAC
155	84	888	+1	M_galctn_D__91__e__93__	R_ACCOACL
156	85	896	-1	M_galt__91__e__93__	R_ACCOAL
157	86	899	+1	M_galur__91__e__93__	R_ACGALK3
158	86	900	-1	M_galur__91__e__93__	R_ACGALt2r
159	82	901	-1	M_gal__91__e__93__	R_ACGAMT
160	82	902	-1	M_gal__91__e__93__	R_ACGApts
161	82	903	+1	M_gal__91__e__93__	R_ACGK
162	87	908	+1	M_gbbtn__91__e__93__	R_ACGS
163	88	911	-1	M_gcald__91__e__93__	R_ACHBPL
164	88	912	+1	M_gcald__91__e__93__	R_ACKr
165	89	930	-1	M_glc_D__91__e__93__	R_ACLS_a
166	90	930	+1	M_glcn__91__e__93__	R_ACLS_a
167	90	933	-1	M_glcn__91__e__93__	R_ACLS_b
168	90	934	+1	M_glcn__91__e__93__	R_ACNAMabc
169	91	941	-1	M_glcr__91__e__93__	R_ACNML
170	91	942	+1	M_glcr__91__e__93__	R_ACOAAGPAT140
171	92	947	-1	M_glcur__91__e__93__	R_ACOAAGPAT160
172	92	948	+1	M_glcur__91__e__93__	R_ACOAAGPAT180
173	89	949	-1	M_glc_D__91__e__93__	R_ACOAAGPATAI15
174	89	950	-1	M_glc_D__91__e__93__	R_ACOAAGPATAI17
175	93	956	-1	M_gln_L__91__e__93__	R_ACOAAGPATI14
176	94	960	-1	M_glu_L__91__e__93__	R_ACOAAGPATI15
177	4	960	+1	M_4abut__91__e__93__	R_ACOAAGPATI15
178	94	961	+1	M_glu_L__91__e__93__	R_ACOAAGPATI16
179	4	961	-1	M_4abut__91__e__93__	R_ACOAAGPATI16
180	94	976	-1	M_glu_L__91__e__93__	R_ACOAAGPATI17
181	94	977	-1	M_glu_L__91__e__93__	R_ACOAD1
182	94	978	+1	M_glu_L__91__e__93__	R_ACOAD1fi
183	96	984	-1	M_glyasn__91__e__93__	R_ACOAD2
184	97	987	-1	M_glyasp__91__e__93__	R_ACOAD20
185	98	990	-1	M_glyb__91__e__93__	R_ACOAD3rev
186	98	991	-1	M_glyb__91__e__93__	R_ACOAD4rev
187	98	992	+1	M_glyb__91__e__93__	R_ACOAD5rev
188	99	993	-1	M_glyc3p__91__e__93__	R_ACOAD6rev
189	99	994	-1	M_glyc3p__91__e__93__	R_ACOAD7i
190	99	995	+1	M_glyc3p__91__e__93__	R_ACOATA
191	101	997	-1	M_glyclt__91__e__93__	R_ACOCT
192	101	998	+1	M_glyclt__91__e__93__	R_ACODAr
193	102	1003	-1	M_glycys__91__e__93__	R_ACONMT
194	100	1004	+1	M_glyc__91__e__93__	R_ACONT
195	100	1005	-1	M_glyc__91__e__93__	R_ACONTa
196	103	1008	-1	M_glygln__91__e__93__	R_ACONTb
197	104	1011	-1	M_glyglu__91__e__93__	R_ACOTA
198	105	1015	-1	M_glyleu__91__e__93__	R_ACPS1
199	106	1018	-1	M_glymet__91__e__93__	R_ACPpds
200	107	1022	-1	M_glyphe__91__e__93__	R_ACS
201	108	1025	-1	M_glypro__91__e__93__	R_ACYP
202	109	1028	-1	M_glytyr__91__e__93__	R_ACYP_2
203	95	1029	-1	M_gly__91__e__93__	R_ACt2r
204	95	1030	+1	M_gly__91__e__93__	R_ADA
205	110	1049	-1	M_gsn__91__e__93__	R_ADCL
206	110	1050	+1	M_gsn__91__e__93__	R_ADCS
207	112	1069	-1	M_h2s__91__e__93__	R_ADD
208	112	1070	+1	M_h2s__91__e__93__	R_ADK1
209	111	1071	+1	M_h2__91__e__93__	R_ADK10
210	111	1072	-1	M_h2__91__e__93__	R_ADK11
211	113	1093	-1	M_hdca__91__e__93__	R_ADK2
212	113	1094	-1	M_hdca__91__e__93__	R_ADK3
213	113	1095	+1	M_hdca__91__e__93__	R_ADK5
214	114	1110	-1	M_hexs__91__e__93__	R_ADK7
215	115	1113	+1	M_hg2__91__e__93__	R_ADK8
216	116	1120	-1	M_his_L__91__e__93__	R_ADK9
217	123	1123	-1	M_k__91__e__93__	R_ADMDCr
218	3	1129	-1	M_3hpppn__91__e__93__	R_ADNCNT3tc
219	3	1130	+1	M_3hpppn__91__e__93__	R_ADNCYC
220	117	1146	-1	M_hxan__91__e__93__	R_ADNUC
221	118	1159	-1	M_idon_L__91__e__93__	R_ADOCBIK
222	118	1160	+1	M_idon_L__91__e__93__	R_ADOCBIK2
223	119	1172	-1	M_ile_L__91__e__93__	R_ADOCBLS
224	119	1173	-1	M_ile_L__91__e__93__	R_ADOCBLabc
225	119	1174	+1	M_ile_L__91__e__93__	R_ADPRDP
226	120	1178	-1	M_indole__91__e__93__	R_ADPT
227	120	1179	+1	M_indole__91__e__93__	R_ADSELK
228	121	1182	-1	M_ins__91__e__93__	R_ADSK
229	121	1183	+1	M_ins__91__e__93__	R_ADSL1r
230	122	1197	-1	M_isetac__91__e__93__	R_ADSL2r
231	123	1217	-1	M_k__91__e__93__	R_ADSS
232	123	1218	+1	M_k__91__e__93__	R_AGDC
233	123	1219	+1	M_k__91__e__93__	R_AGDC2
234	126	1227	-1	M_lcts__91__e__93__	R_AGMHE
235	126	1228	-1	M_lcts__91__e__93__	R_AGMT
236	126	1229	+1	M_lcts__91__e__93__	R_AGPAT120
237	10	1230	-1	M_Lcyst__91__e__93__	R_AGPAT140
238	127	1238	-1	M_leu_L__91__e__93__	R_AGPAT141
239	127	1239	-1	M_leu_L__91__e__93__	R_AGPAT160
240	127	1240	+1	M_leu_L__91__e__93__	R_AGPAT161
241	128	1287	-1	M_lys_L__91__e__93__	R_AGPAT180
242	128	1288	-1	M_lys_L__91__e__93__	R_AGPAT181
243	128	1289	+1	M_lys_L__91__e__93__	R_AGPR
244	128	1290	+1	M_lys_L__91__e__93__	R_AHCYSNS_r
245	125	1296	-1	M_lac_L__91__e__93__	R_AHMMPS
246	125	1297	+1	M_lac_L__91__e__93__	R_AICART
247	129	1305	-1	M_mal_L__91__e__93__	R_AIHPDCOATA
248	147	1305	-1	M_na1__91__e__93__	R_AIHPDCOATA
249	129	1306	+1	M_mal_L__91__e__93__	R_AIPDCOATA
250	147	1306	+1	M_na1__91__e__93__	R_AIPDCOATA
251	131	1311	-1	M_malthx__91__e__93__	R_AIRC4
252	132	1312	-1	M_malttr__91__e__93__	R_AKGS
253	130	1313	-1	M_malt__91__e__93__	R_AKGt2r
254	130	1314	-1	M_malt__91__e__93__	R_AKP1
255	129	1315	-1	M_mal_L__91__e__93__	R_ALAALA
256	133	1319	-1	M_man6p__91__e__93__	R_ALAASP1c
257	159	1319	+2	M_pi__91__e__93__	R_ALAASP1c
258	135	1324	-1	M_mantr__91__e__93__	R_ALAASPabc
259	134	1325	-1	M_man__91__e__93__	R_ALACI
260	134	1326	-1	M_man__91__e__93__	R_ALAGLN1c
261	136	1342	-1	M_melib__91__e__93__	R_ALAGLNabc
262	136	1343	-1	M_melib__91__e__93__	R_ALAGLU1c
263	136	1344	+1	M_melib__91__e__93__	R_ALAGLUabc
264	139	1349	-1	M_metala__91__e__93__	R_ALAGLY1c
265	137	1352	-1	M_met_D__91__e__93__	R_ALAGLYabc
266	141	1356	-1	M_metsox_S_L__91__e__93__	R_ALAHIS1c
267	140	1357	-1	M_metsox_R_L__91__e__93__	R_ALAHISabc
268	138	1360	-1	M_met_L__91__e__93__	R_ALALEU1c
269	142	1361	-1	M_mg2__91__e__93__	R_ALALEUabc
270	142	1363	+1	M_mg2__91__e__93__	R_ALAR
271	142	1364	-1	M_mg2__91__e__93__	R_ALATA_L
272	144	1380	-1	M_mnl__91__e__93__	R_ALATHR1c
273	143	1382	-1	M_mn2__91__e__93__	R_ALATHRabc
274	145	1386	-1	M_mops__91__e__93__	R_ALAt2r
275	146	1387	-1	M_mso3__91__e__93__	R_ALCD1
276	148	1394	+1	M_nac__91__e__93__	R_ALCD19
277	148	1395	-1	M_nac__91__e__93__	R_ALCD2x
278	147	1405	+1	M_na1__91__e__93__	R_ALDD1
279	149	1424	-1	M_nh4__91__e__93__	R_ALKP
280	149	1425	+1	M_nh4__91__e__93__	R_ALLTAMH2
281	150	1427	-1	M_nmn__91__e__93__	R_ALLTN
282	151	1433	-1	M_no2__91__e__93__	R_ALLTNRS
283	149	1433	+1	M_nh4__91__e__93__	R_ALLTNRS
284	151	1434	-1	M_no2__91__e__93__	R_ALLTNS
285	149	1434	+1	M_nh4__91__e__93__	R_ALLTNS
286	151	1435	-1	M_no2__91__e__93__	R_ALLTNt2r
287	152	1438	-1	M_no3__91__e__93__	R_ALPHNH
288	151	1438	+1	M_no2__91__e__93__	R_ALPHNH
289	152	1439	-1	M_no3__91__e__93__	R_ALTRH
290	151	1439	+1	M_no2__91__e__93__	R_ALTRH
291	152	1440	-1	M_no3__91__e__93__	R_AMALT1
292	152	1441	-1	M_no3__91__e__93__	R_AMALT2
293	151	1441	+1	M_no2__91__e__93__	R_AMALT2
294	153	1465	-1	M_o2__91__e__93__	R_AMALT3
295	153	1466	+1	M_o2__91__e__93__	R_AMALT4
296	154	1472	-1	M_ocdca__91__e__93__	R_AMANAPEr
297	154	1473	-1	M_ocdca__91__e__93__	R_AMANK
298	154	1474	+1	M_ocdca__91__e__93__	R_AMAOTr
299	155	1484	-1	M_orn__91__e__93__	R_AMMQT8r
300	156	1493	-1	M_pac__91__e__93__	R_AMOPBHL
301	156	1494	+1	M_pac__91__e__93__	R_AMPMS2
302	157	1498	+1	M_pb__91__e__93__	R_AMPN
303	158	1559	-1	M_phe_L__91__e__93__	R_AMPTASECG
304	158	1560	+1	M_phe_L__91__e__93__	R_AMPTASEGC
305	159	1565	-1	M_pi__91__e__93__	R_ANPRT
306	159	1566	-1	M_pi__91__e__93__	R_ANS
307	159	1567	+1	M_pi__91__e__93__	R_ANS2
308	147	1568	-3	M_na1__91__e__93__	R_AOBUTDs
309	159	1568	-1	M_pi__91__e__93__	R_AOBUTDs
310	147	1621	-1	M_na1__91__e__93__	R_AOXHEXCYCL
311	160	1621	-1	M_pnto_R__91__e__93__	R_AOXHEXCYCL
312	161	1628	+1	M_ppa__91__e__93__	R_AOXSr
313	161	1629	-1	M_ppa__91__e__93__	R_AOXSr2
314	161	1630	+1	M_ppa__91__e__93__	R_AP4AH
315	161	1631	-1	M_ppa__91__e__93__	R_APRAUR
316	162	1638	+1	M_ppi__91__e__93__	R_APSRmq
317	163	1647	-1	M_pppn__91__e__93__	R_APTNAT
318	163	1648	+1	M_pppn__91__e__93__	R_ARAI
319	164	1668	-1	M_pro_L__91__e__93__	R_ARBTpts
320	164	1669	-1	M_pro_L__91__e__93__	R_ARBabc
321	164	1670	+1	M_pro_L__91__e__93__	R_ARBt2r
322	147	1671	-1	M_na1__91__e__93__	R_ARGDC
323	164	1671	-1	M_pro_L__91__e__93__	R_ARGDC
324	164	1672	+1	M_pro_L__91__e__93__	R_ARGSL
325	165	1709	-1	M_ptrc__91__e__93__	R_ARGSSr
326	155	1709	+1	M_orn__91__e__93__	R_ARGSSr
327	165	1710	+1	M_ptrc__91__e__93__	R_ARGabc
328	155	1710	-1	M_orn__91__e__93__	R_ARGabc
329	165	1712	-1	M_ptrc__91__e__93__	R_ARGt2
330	165	1713	-1	M_ptrc__91__e__93__	R_ASAD
331	165	1714	+1	M_ptrc__91__e__93__	R_ASCBPL
332	166	1732	-1	M_pydam__91__e__93__	R_ASNS1
333	166	1733	+1	M_pydam__91__e__93__	R_ASNS2
334	168	1736	-1	M_pydxn__91__e__93__	R_ASNt2r
335	168	1737	+1	M_pydxn__91__e__93__	R_ASO3t
336	167	1738	-1	M_pydx__91__e__93__	R_ASO4t
337	167	1739	+1	M_pydx__91__e__93__	R_ASP1DC
338	169	1763	+1	M_rib_D__91__e__93__	R_ASPCT
339	169	1764	-1	M_rib_D__91__e__93__	R_ASPKi
340	170	1770	-1	M_rmn__91__e__93__	R_ASPO1
341	170	1771	+1	M_rmn__91__e__93__	R_ASPO5
342	171	1792	-1	M_salcn__91__e__93__	R_ASPO6
343	172	1796	-1	M_sbt_D__91__e__93__	R_ASPO7
344	173	1801	-1	M_sel__91__e__93__	R_ASPT
345	174	1801	+1	M_selni__91__e__93__	R_ASPT
346	173	1802	-1	M_sel__91__e__93__	R_ASPTA
347	174	1802	+1	M_selni__91__e__93__	R_ASPTA
348	176	1806	-1	M_ser_L__91__e__93__	R_ASPabc
349	176	1807	+1	M_ser_L__91__e__93__	R_ASPt2
350	177	1823	-1	M_so4__91__e__93__	R_ASPt2_3
351	177	1824	+1	M_so4__91__e__93__	R_AST
352	178	1828	-1	M_spmd__91__e__93__	R_ATPPRT
353	179	1841	-1	M_succ__91__e__93__	R_ATPS4
354	179	1842	-1	M_succ__91__e__93__	R_BACCLi
355	179	1843	+1	M_succ__91__e__93__	R_BBTCOAOX
356	180	1852	-1	M_sucr__91__e__93__	R_BDH
357	181	1853	-1	M_sulfac__91__e__93__	R_BETALDHx
358	182	1867	-1	M_taur__91__e__93__	R_BETALDHy
359	185	1905	-1	M_thymd__91__e__93__	R_BGLA1
360	185	1906	+1	M_thymd__91__e__93__	R_BGLAr
361	147	1907	-1	M_na1__91__e__93__	R_BIACt1
362	185	1907	-1	M_thymd__91__e__93__	R_BIACt1
363	183	1908	-1	M_thm__91__e__93__	R_BIACt4
364	184	1913	-1	M_thr_L__91__e__93__	R_BPNT
365	184	1914	+1	M_thr_L__91__e__93__	R_BSORx
366	187	1923	-1	M_tmao__91__e__93__	R_BSORy
367	186	1923	+1	M_tma__91__e__93__	R_BSORy
368	187	1924	+1	M_tmao__91__e__93__	R_BTNCLi
369	186	1924	-1	M_tma__91__e__93__	R_BTNCLi
370	187	1926	-1	M_tmao__91__e__93__	R_BTNabc
371	186	1926	+1	M_tma__91__e__93__	R_BTNabc
372	187	1927	+1	M_tmao__91__e__93__	R_BTS4
373	186	1927	-1	M_tma__91__e__93__	R_BTS4
374	188	1947	-1	M_tre__91__e__93__	R_BUTCT
375	189	1954	-1	M_trp_L__91__e__93__	R_BUTSO3abc
376	189	1955	+1	M_trp_L__91__e__93__	R_BUTt2
377	190	1959	-1	M_tsul__91__e__93__	R_CADVt
378	191	1960	-1	M_ttdca__91__e__93__	R_CAt4i
379	191	1961	-1	M_ttdca__91__e__93__	R_CBIAT
380	191	1962	+1	M_ttdca__91__e__93__	R_CBL1abc
381	192	1963	-1	M_tym__91__e__93__	R_CBL2abc
382	192	1964	+1	M_tym__91__e__93__	R_CBLAT
383	193	1968	-1	M_tyr_L__91__e__93__	R_CBMK
384	193	1969	+1	M_tyr_L__91__e__93__	R_CBMTHL
385	194	2009	-1	M_ura__91__e__93__	R_CBMTHL2
386	195	2015	-1	M_urea__91__e__93__	R_CBPS
387	195	2016	+1	M_urea__91__e__93__	R_CCOuq
388	196	2034	-1	M_uri__91__e__93__	R_CD2abc1
389	147	2035	-1	M_na1__91__e__93__	R_CDAPPA120
390	196	2035	-1	M_uri__91__e__93__	R_CDAPPA120
391	197	2041	-1	M_val_L__91__e__93__	R_CDAPPA140
392	197	2042	-1	M_val_L__91__e__93__	R_CDAPPA141
393	197	2043	+1	M_val_L__91__e__93__	R_CDAPPA160
394	198	2046	-1	M_xan__91__e__93__	R_CDAPPA161
395	199	2049	-1	M_xtsn__91__e__93__	R_CDAPPA180
396	199	2050	+1	M_xtsn__91__e__93__	R_CDAPPA181
397	200	2056	-1	M_xyl_D__91__e__93__	R_CDCA7aHSDHe
398	200	2057	-1	M_xyl_D__91__e__93__	R_CDOSKT
399	200	2058	+1	M_xyl_D__91__e__93__	R_CDPMEK
400	201	2061	-1	M_zn2__91__e__93__	R_CGLYabc
401	94	2090	-1	M_glu_L__91__e__93__	R_CHLt2r
402	147	2090	-1	M_na1__91__e__93__	R_CHLt2r
403	177	2091	+1	M_so4__91__e__93__	R_CHOLD
404	32	2092	-1	M_arg_L__91__e__93__	R_CHOLSH
405	155	2092	+1	M_orn__91__e__93__	R_CHOLSH
406	32	2093	+1	M_arg_L__91__e__93__	R_CHORM
407	155	2093	-1	M_orn__91__e__93__	R_CHORM
408	49	2094	-1	M_cl__91__e__93__	R_CHORS
409	49	2095	+1	M_cl__91__e__93__	R_CHRPL
